#label	id
"""1-3,1-4 beta Glucan"""	https://glytoucan.org/Structures/Glycans/G46558JB
1-6 beta Galactan	https://glytoucan.org/Structures/Glycans/G69386QK
2-3 Sialyl-Lacto-N-Tetraose	https://glytoucan.org/Structures/Glycans/G21066IE
2-3 Sialylparagloboside	https://glytoucan.org/Structures/Glycans/G01767JJ
"""2,6-Branched O-mannose"""	https://glytoucan.org/Structures/Glycans/G06953DR
2-6 Sialyl i-Lewis x	https://glytoucan.org/Structures/Glycans/G93855LZ
2-6 Sialyl-LacNAc-Gal	https://glytoucan.org/Structures/Glycans/G03509EL
2-6 Sialyl Lewis x	https://glytoucan.org/Structures/Glycans/G93855LZ
2-6 Sialylparagloboside	https://glytoucan.org/Structures/Glycans/G83513YI
"""2,6-sialyl-Sulfo-LN (6-sialyl-6-sulfo LN)"""	https://glytoucan.org/Structures/Glycans/G43191LZ
"""2,6-sialyl-Sulfo-LN (6-sialyl-6-sulfo LN)"""	https://glytoucan.org/Structures/Glycans/G92341SR
"""2,6-sialyl-Sulfo-LN"""	https://glytoucan.org/Structures/Glycans/G41145LF
"""2,6-sialyl-Sulfo-LN"""	https://glytoucan.org/Structures/Glycans/G43191LZ
"""2-9, 2-6 Disialyllactosylceramide"""	https://glytoucan.org/Structures/Glycans/G30187JM
"""2-9,2-6 Disialyllactosylceramide"""	https://glytoucan.org/Structures/Glycans/G30187JM
2'-fluorine-3'-sialyl-N-acetyllactosamine	https://glytoucan.org/Structures/Glycans/G47812NS
2'-fluorine-3'-sialyl-N-acetyllactosamine	https://glytoucan.org/Structures/Glycans/G62593IS
2-Fucosyl-GD1b	https://glytoucan.org/Structures/Glycans/G67383AR
2-Fucosyl-GD1b	https://glytoucan.org/Structures/Glycans/G93694YU
2-Fucosyl-GM1	https://glytoucan.org/Structures/Glycans/G56526JU
2-Fucosyl-GM1	https://glytoucan.org/Structures/Glycans/G91532KA
30-Sulfo-Lewis a (30-Sulfo Lea)	https://glytoucan.org/Structures/Glycans/G14395NH
30-Sulfo-Lewis x (30-sulfo Lex))	https://glytoucan.org/Structures/Glycans/G51907PX
3-Sialyl-LN	https://glytoucan.org/Structures/Glycans/G10203DW
3-Sialyl-LN (type 2)	https://glytoucan.org/Structures/Glycans/G10203DW
3'-sialyl-N-acetyllactosamine(1-3)	https://glytoucan.org/Structures/Glycans/G59168YE
3'-sialyl-N-acetyllactosamine	https://glytoucan.org/Structures/Glycans/G00065MO
3'-sialyl-N-acetyllactosamine	https://glytoucan.org/Structures/Glycans/G10203DW
3'-Sulfo Lea	https://glytoucan.org/Structures/Glycans/G78706CK
3-Sulfo-Lewis a (30-Sulfo Lewis a)	https://glytoucan.org/Structures/Glycans/G78706CK
3'-Sulfo-Lewis a	https://glytoucan.org/Structures/Glycans/G36845IZ
3'-Sulfo Lewis a	https://glytoucan.org/Structures/Glycans/G78706CK
3-Sulfo-Lewis x (3-sulfo LewisX)	https://glytoucan.org/Structures/Glycans/G12295TB
3'-Sulfo Lewis x	https://glytoucan.org/Structures/Glycans/G12295TB
3'-Sulfo-Lewis x	https://glytoucan.org/Structures/Glycans/G26555CS
3'-sulfo Lex	https://glytoucan.org/Structures/Glycans/G12295TB
40-sulfated LDN	https://glytoucan.org/Structures/Glycans/G31301MT
4-sulfated LDN	https://glytoucan.org/Structures/Glycans/G18464VS
4'-sulfated LDN	https://glytoucan.org/Structures/Glycans/G18464VS
60-Sulfo-sialyl Lewis x (60-sulfo SLex)	https://glytoucan.org/Structures/Glycans/G06378CG
"""6,60-bisSulfo-Lewis x (6,60-bissulfo Lex))"""	https://glytoucan.org/Structures/Glycans/G23094GH
"""6,60-bissulfo Lewis x"""	https://glytoucan.org/Structures/Glycans/G00659GQ
"""6,6,6'-Sulfo LacNAc"""	https://glytoucan.org/Structures/Glycans/G41392LY
"""6,6-bisSulfo-Lewis x"""	https://glytoucan.org/Structures/Glycans/G00659GQ
"""6,6'-bisSulfo-Lewis x"""	https://glytoucan.org/Structures/Glycans/G00659GQ
"""6,6'-bisSulfo-Lewis x"""	https://glytoucan.org/Structures/Glycans/G46799JK
"""6,6'-bissulfo Lex"""	https://glytoucan.org/Structures/Glycans/G00659GQ
"""6,6'- Disulfo Sialyl Lewis x"""	https://glytoucan.org/Structures/Glycans/G00659GQ
"""6,6'-Disulfo Sialyl Lewis x"""	https://glytoucan.org/Structures/Glycans/G00659GQ
"""6,6'-DiSulfo Sialyl Lewis x"""	https://glytoucan.org/Structures/Glycans/G00659GQ
"""6, 6'-Sulfo LacNAc"""	https://glytoucan.org/Structures/Glycans/G24270KX
"""6,6'-Sulfo LacNAc"""	https://glytoucan.org/Structures/Glycans/G24270KX
6-sialyl-6-sulfo LN	https://glytoucan.org/Structures/Glycans/G43191LZ
6-Sialyl-GalNAc	https://glytoucan.org/Structures/Glycans/G73708UL
6-Sialyl-GalNAc or 6-Sialyl LN	https://glytoucan.org/Structures/Glycans/G08371CD
6-Sialyl-GalNAc or 6-Sialyl LN (type 1 or 2)	https://glytoucan.org/Structures/Glycans/G73708UL
6-Sialyl LN (type 1)	https://glytoucan.org/Structures/Glycans/G73708UL
6-Sialyl LN (type 2)	https://glytoucan.org/Structures/Glycans/G73708UL
6'-sialyl-N-acetyllactosamine	https://glytoucan.org/Structures/Glycans/G09376MR
6-Sulfo LacNAc	https://glytoucan.org/Structures/Glycans/G13157WZ
6-Sulfo Lewis x	https://glytoucan.org/Structures/Glycans/G89307GT
6-sulfo sialyl Lewis c	https://glytoucan.org/Structures/Glycans/G93779QZ
6-Sulfo-sialyl Lewis x (6-sulfo SLewis x)	https://glytoucan.org/Structures/Glycans/G00672PE
6-Sulfo-sialyl Lewis x (6-sulfo SLex)	https://glytoucan.org/Structures/Glycans/G53231FE
6-Sulfo-sialyl Lewis x (6-sulfo SLex)	https://glytoucan.org/Structures/Glycans/G80722US
6'-Sulfo Sialyl Lewis x	https://glytoucan.org/Structures/Glycans/G00672PE
6-Sulfo-sialyl Lewis x	https://glytoucan.org/Structures/Glycans/G23322RK
6'-Sulfo-sialyl Lewis x	https://glytoucan.org/Structures/Glycans/G77659VW
6-sulfo sialyl Lewis X	https://glytoucan.org/Structures/Glycans/G80722US
6-Sulfo Sialyl Lewis x	https://glytoucan.org/Structures/Glycans/G80722US
6'-sulfo SLex	https://glytoucan.org/Structures/Glycans/G00672PE
6-sulfo SLex	https://glytoucan.org/Structures/Glycans/G80722US
9-O-Acetyl GD3	https://glytoucan.org/Structures/Glycans/G74121RX
9-O-Acetyl GD3	https://glytoucan.org/Structures/Glycans/G81928IQ
9-O-Acetyl GD3	https://glytoucan.org/Structures/Glycans/G98544DH
9-O-Acetyl Sialic Acid	https://glytoucan.org/Structures/Glycans/G47325QT
A antigen	https://glytoucan.org/Structures/Glycans/G71832QJ
A antigen (type 3)	https://glytoucan.org/Structures/Glycans/G99315PE
Acharan Sulfate	https://glytoucan.org/Structures/Glycans/G25575JK
A-galactosylparagloboside	https://glytoucan.org/Structures/Glycans/G60645OK
a-Gal antigen	https://glytoucan.org/Structures/Glycans/G00046MO
a-Gal antigen	https://glytoucan.org/Structures/Glycans/G24432YB
A-Leb	https://glytoucan.org/Structures/Glycans/G97501MA
A Lewis b	https://glytoucan.org/Structures/Glycans/G48600JD
A-Ley	https://glytoucan.org/Structures/Glycans/G54826OZ
Alpha-Galactosyl Epitope	https://glytoucan.org/Structures/Glycans/G27798EJ
alpha-Gal antigen	https://glytoucan.org/Structures/Glycans/G24432YB
alpha-oligomannoside	https://glytoucan.org/Structures/Glycans/G07490EK
alpha-oligomannoside	https://glytoucan.org/Structures/Glycans/G29313LW
alpha-oligomannoside	https://glytoucan.org/Structures/Glycans/G51379UR
Antigen A	https://glytoucan.org/Structures/Glycans/G58507AZ
Antigen H	https://glytoucan.org/Structures/Glycans/G88393MK
Arabinan	https://glytoucan.org/Structures/Glycans/G22535ZZ
Arabinogalactan Type I	https://glytoucan.org/Structures/Glycans/G98272RS
Arabinogalactan Type ll	https://glytoucan.org/Structures/Glycans/G12828SG
Asialo-GM1	https://glytoucan.org/Structures/Glycans/G00407UJ
Asialo GM1	https://glytoucan.org/Structures/Glycans/G21856LC
Asialo-GM1	https://glytoucan.org/Structures/Glycans/G21856LC
A type 1 A Lewis b	https://glytoucan.org/Structures/Glycans/G12068BR
Bata Galactose	https://glytoucan.org/Structures/Glycans/G65889KE
beta 1-4 Galactan	https://glytoucan.org/Structures/Glycans/G77076MY
Beta Galoctose	https://glytoucan.org/Structures/Glycans/G65889KE
Beta-glucan	https://glytoucan.org/Structures/Glycans/G00024MO
B-GD1b	https://glytoucan.org/Structures/Glycans/G29966WK
B-GD1b	https://glytoucan.org/Structures/Glycans/G72557NR
B-GM1	https://glytoucan.org/Structures/Glycans/G11485ID
B-GM1	https://glytoucan.org/Structures/Glycans/G46884IT
B Lewis b	https://glytoucan.org/Structures/Glycans/G60395SO
B-Ley	https://glytoucan.org/Structures/Glycans/G89208KM
Blood group A1	https://glytoucan.org/Structures/Glycans/G03986GH
Blood Group A1	https://glytoucan.org/Structures/Glycans/G44060QH
Blood group A1 (type 3)	https://glytoucan.org/Structures/Glycans/G44060QH
Blood group A2 (A-associated H type 3)	https://glytoucan.org/Structures/Glycans/G62735WZ
Blood group A2	https://glytoucan.org/Structures/Glycans/G19804SF
Blood Group A2	https://glytoucan.org/Structures/Glycans/G62735WZ
Blood group A	https://glytoucan.org/Structures/Glycans/G17108EX
Blood group A	https://glytoucan.org/Structures/Glycans/G58507AZ
Blood Group A Like	https://glytoucan.org/Structures/Glycans/G10902TC
Blood group A (type 1) (A-Leb)	https://glytoucan.org/Structures/Glycans/G97501MA
Blood group A (type 1)  (A-Lewis b)	https://glytoucan.org/Structures/Glycans/G97501MA
Blood Group A Type 1 (difucosyl)	https://glytoucan.org/Structures/Glycans/G97501MA
Blood group A (type 1)	https://glytoucan.org/Structures/Glycans/G66163TI
Blood Group A Type 1	https://glytoucan.org/Structures/Glycans/G66163TI
Blood group A (type 1)	https://glytoucan.org/Structures/Glycans/G97501MA
Blood group A (type 2)  (A-Lewis Y)	https://glytoucan.org/Structures/Glycans/G54826OZ
Blood group A (type 2) (A-Ley)	https://glytoucan.org/Structures/Glycans/G54826OZ
Blood Group A Type 2 (difucosyl)	https://glytoucan.org/Structures/Glycans/G54826OZ
Blood group A (type 2)	https://glytoucan.org/Structures/Glycans/G54826OZ
Blood group A (type 2)	https://glytoucan.org/Structures/Glycans/G74353FF
Blood Group A Type 2	https://glytoucan.org/Structures/Glycans/G74353FF
Blood Group A Type 3	https://glytoucan.org/Structures/Glycans/G99315PE
Blood Group A Type 4	https://glytoucan.org/Structures/Glycans/G17480GI
Blood group A (type 4)	https://glytoucan.org/Structures/Glycans/G37830TX
Blood group B	https://glytoucan.org/Structures/Glycans/G00067MO
Blood Group B	https://glytoucan.org/Structures/Glycans/G00067MO
Blood group B	https://glytoucan.org/Structures/Glycans/G26934CO
Blood group B	https://glytoucan.org/Structures/Glycans/G41865GQ
Blood group B	https://glytoucan.org/Structures/Glycans/G60395SO
Blood group B	https://glytoucan.org/Structures/Glycans/G65112QB
Blood group B (type 1)  (B-Lewis Y)	https://glytoucan.org/Structures/Glycans/G89208KM
Blood group B (type 1) (B-Ley)	https://glytoucan.org/Structures/Glycans/G89208KM
Blood group B (type 1)	https://glytoucan.org/Structures/Glycans/G31734OS
Blood Group B Type 1	https://glytoucan.org/Structures/Glycans/G31734OS
Blood group B (type 1)	https://glytoucan.org/Structures/Glycans/G89208KM
Blood group B (type 2)	https://glytoucan.org/Structures/Glycans/G34881WK
Blood Group B Type 2	https://glytoucan.org/Structures/Glycans/G94956AW
Blood group B (type 4)	https://glytoucan.org/Structures/Glycans/G25216QA
Blood Group H Disaccharide	https://glytoucan.org/Structures/Glycans/G00068MO
Blood group H	https://glytoucan.org/Structures/Glycans/G00068MO
Blood Group H	https://glytoucan.org/Structures/Glycans/G00068MO
Blood group H	https://glytoucan.org/Structures/Glycans/G43391VM
Blood group H	https://glytoucan.org/Structures/Glycans/G50899UD
Blood Group H Like	https://glytoucan.org/Structures/Glycans/G82749ZI
Blood group H (type 1)	https://glytoucan.org/Structures/Glycans/G00294TN
Blood Group H Type 1	https://glytoucan.org/Structures/Glycans/G40696TO
Blood group H (type 2)	https://glytoucan.org/Structures/Glycans/G00052MO
Blood Group H Type 2	https://glytoucan.org/Structures/Glycans/G61459JW
Blood group H (type 2)	https://glytoucan.org/Structures/Glycans/G70519XK
Blood group H (type 2)  (Lewis Y)	https://glytoucan.org/Structures/Glycans/G00052MO
Blood group H (type 2) (Ley)	https://glytoucan.org/Structures/Glycans/G00052MO
Blood Group H Type 3	https://glytoucan.org/Structures/Glycans/G94435QH
Blood Group H Type 4	https://glytoucan.org/Structures/Glycans/G35778AN
Blood group H (type 4)	https://glytoucan.org/Structures/Glycans/G98465JN
B type 1 B Lewis b	https://glytoucan.org/Structures/Glycans/G94938PL
CA19-9 antigen	https://glytoucan.org/Structures/Glycans/G00053MO
CAD	https://glytoucan.org/Structures/Glycans/G00063MO
Cellulose like Glc(1-4)n	https://glytoucan.org/Structures/Glycans/G00025MO
Ceramide dihexosyl sulfate	https://glytoucan.org/Structures/Glycans/G04416BG
Ceramide dihexosyl sulfate	https://glytoucan.org/Structures/Glycans/G50926NK
Ceramide dihexosyl sulfate	https://glytoucan.org/Structures/Glycans/G98482BC
Chindroitin Sulfate D Unit	https://glytoucan.org/Structures/Glycans/G46732TY
Chitobios	https://glytoucan.org/Structures/Glycans/G07982RO
Chodroitin Sulfate D Unit	https://glytoucan.org/Structures/Glycans/G46732TY
Chondroitin 4S	https://glytoucan.org/Structures/Glycans/G00018MO
Chondroitin-4-Sulfate	https://glytoucan.org/Structures/Glycans/G19059PI
Chondroitin-6-Sulfate	https://glytoucan.org/Structures/Glycans/G34992DF
Chondroitin	https://glytoucan.org/Structures/Glycans/G43702JT
cisGM1 (GM1b)	https://glytoucan.org/Structures/Glycans/G03277YI
cisGM1	https://glytoucan.org/Structures/Glycans/G03277YI
cisGM1	https://glytoucan.org/Structures/Glycans/G14633CL
Core 1	https://glytoucan.org/Structures/Glycans/G00031MO
Core 1 / T antigen	https://glytoucan.org/Structures/Glycans/G58645HA
C-Series Gangliosides / Gangliotetraosyl Core	https://glytoucan.org/Structures/Glycans/G78818SP
C-Series Gangliosides / Hemato- or Ganglio-Type	https://glytoucan.org/Structures/Glycans/G45770AV
C-Series Gangliosides Oligosaccharide / Gangliotetraosyl Core Structure	https://glytoucan.org/Structures/Glycans/G78818SP
C-Series Gangliosides  Oligosaccharide / Hemato- or Ganglio-Type	https://glytoucan.org/Structures/Glycans/G45770AV
Cyclic Sialyl 6-Sulfo Lewis x	https://glytoucan.org/Structures/Glycans/G11148DZ
Cyclic sialyl 6-sulfo Lewis x	https://glytoucan.org/Structures/Glycans/G23322RK
Cyclic Sialyl 6-Sulfo Lewis x	https://glytoucan.org/Structures/Glycans/G23322RK
Cyclic sialyl 6-sulfo Lewis x	https://glytoucan.org/Structures/Glycans/G53231FE
Cyclic sialyl 6-sulfo Lewis x	https://glytoucan.org/Structures/Glycans/G80722US
Cytolipin R	https://glytoucan.org/Structures/Glycans/G19926LY
Cytolipin R	https://glytoucan.org/Structures/Glycans/G57710SU
Delta-Heparan Sulfate	https://glytoucan.org/Structures/Glycans/G17927IW
Dermatansulfate	https://glytoucan.org/Structures/Glycans/G00019MO
Dimeric Lea	https://glytoucan.org/Structures/Glycans/G06148DR
Dimeric Lewis a	https://glytoucan.org/Structures/Glycans/G21808VY
Dimeric Lewis a	https://glytoucan.org/Structures/Glycans/G82106UN
Dimeric Lewis x	https://glytoucan.org/Structures/Glycans/G79535HZ
Disialogangliotetraosylceramide	https://glytoucan.org/Structures/Glycans/G37184KW
Disialogangliotetraosylceramide	https://glytoucan.org/Structures/Glycans/G46677TE
Disialosyl galactosyl globoside	https://glytoucan.org/Structures/Glycans/G97932OH
Disialosyl globopentaosylceramide	https://glytoucan.org/Structures/Glycans/G75814EP
Disialosyl globopentaosylceramide	https://glytoucan.org/Structures/Glycans/G97932OH
Disialylactose	https://glytoucan.org/Structures/Glycans/G97569KL
Disialyl-branched Type 2	https://glytoucan.org/Structures/Glycans/G54937EM
Disialyl Gb5	https://glytoucan.org/Structures/Glycans/G97932OH
Disialyl I	https://glytoucan.org/Structures/Glycans/G54937EM
Disialyl Lewis a	https://glytoucan.org/Structures/Glycans/G93400AK
Disialyl Lewis c	https://glytoucan.org/Structures/Glycans/G14000ZZ
Di-sialyl T antigen	https://glytoucan.org/Structures/Glycans/G01614ZM
Disialyl T Antigen	https://glytoucan.org/Structures/Glycans/G01614ZM
Di-sialyl T antigen	https://glytoucan.org/Structures/Glycans/G65191ST
Disialyl T Antigen	https://glytoucan.org/Structures/Glycans/G84906ML
Extended tetrafucosyl-Leb338	https://glytoucan.org/Structures/Glycans/G75811PV
Extended tetrafucosyl-Le	https://glytoucan.org/Structures/Glycans/G57142PA
F1 Alpha	https://glytoucan.org/Structures/Glycans/G21312EA
F1 Alpha	https://glytoucan.org/Structures/Glycans/G61730RY
Forssman Antigen	https://glytoucan.org/Structures/Glycans/G80062GG
Forssman glycolipid	https://glytoucan.org/Structures/Glycans/G00064MO
Forssman glycolipid	https://glytoucan.org/Structures/Glycans/G80062GG
Forssmann	https://glytoucan.org/Structures/Glycans/G00064MO
Fuc(a1-3)GalNac(b1)	https://glytoucan.org/Structures/Glycans/G57709BH
Fuc(a1-3)GalNAc(b1)	https://glytoucan.org/Structures/Glycans/G57709BH
Fuc-gangliotetraosylceramide	https://glytoucan.org/Structures/Glycans/G57920AK
Fucose	https://glytoucan.org/Structures/Glycans/G82576YO
Fucosyl Asialo-GM1	https://glytoucan.org/Structures/Glycans/G57920AK
Fucosylated LDN	https://glytoucan.org/Structures/Glycans/G02240AO
Fucosylated LDN (LDNF)	https://glytoucan.org/Structures/Glycans/G02240AO
Fucosyl GM1	https://glytoucan.org/Structures/Glycans/G91532KA
Galabiose	https://glytoucan.org/Structures/Glycans/G62763GO
Galabiosylceramide	https://glytoucan.org/Structures/Glycans/G67988RO
Galactomannan	https://glytoucan.org/Structures/Glycans/G93424OB
Galactose 3-O-Sulfate	https://glytoucan.org/Structures/Glycans/G40843KY
Galactose beta1	https://glytoucan.org/Structures/Glycans/G68158BT
Galactose	https://glytoucan.org/Structures/Glycans/G65889KE
Galactose	https://glytoucan.org/Structures/Glycans/G68158BT
Galactosylceramide	https://glytoucan.org/Structures/Glycans/G65889KE
Galactosylgloboside	https://glytoucan.org/Structures/Glycans/G99053DY
Galalpha1-3Gal epitope	https://glytoucan.org/Structures/Glycans/G00046MO
Gal(b1-3)GalNAc	https://glytoucan.org/Structures/Glycans/G58645HA
Gal(b1-3)GalNAc	https://glytoucan.org/Structures/Glycans/G78436BB
Gal(b1-3) globoside	https://glytoucan.org/Structures/Glycans/G99053DY
Gal(b1-4)[Fuc(a1-3)]Glc(b1)	https://glytoucan.org/Structures/Glycans/G41323BT
Gal(b1-4)[Fuc(a1-3)]Glc(b1)	https://glytoucan.org/Structures/Glycans/G57548NB
Gal-CTH	https://glytoucan.org/Structures/Glycans/G91649BT
GalNAc(b1-3)Gal(b1-4)GlcNAc	https://glytoucan.org/Structures/Glycans/G61149BD
GalNAc(b1-4)Gal	https://glytoucan.org/Structures/Glycans/G60859DF
GalNAc(b1-4)[Neu5Ac(a2-3)]Gal(b1)	https://glytoucan.org/Structures/Glycans/G45058HZ
GalNAc(b1-4)[Neu5Gc(a2-3)]Gal(b1)	https://glytoucan.org/Structures/Glycans/G23581GL
GalNAc(b1-4)[Neu5Gc(a2-3)]Gal(b1)	https://glytoucan.org/Structures/Glycans/G29406SZ
GalNAc Disialyl Lc4 (Hexasaccharide)	https://glytoucan.org/Structures/Glycans/G33532XU
GalNAc Disialyl Lc4	https://glytoucan.org/Structures/Glycans/G33532XU
GalNAc-GD1a	https://glytoucan.org/Structures/Glycans/G92175CL
Gangliotetraosylceramide	https://glytoucan.org/Structures/Glycans/G05357CB
Gangliotetraosylceramide	https://glytoucan.org/Structures/Glycans/G21856LC
Gangliotriaosylceramide	https://glytoucan.org/Structures/Glycans/G90562PB
Gb3	https://glytoucan.org/Structures/Glycans/G00059MO
Gb4	https://glytoucan.org/Structures/Glycans/G00061MO
Gb5	https://glytoucan.org/Structures/Glycans/G19298OA
Gb5	https://glytoucan.org/Structures/Glycans/G99053DY
GD1a	https://glytoucan.org/Structures/Glycans/G46677TE
GD1a	https://glytoucan.org/Structures/Glycans/G69277LC
GD1 alpha (pentasaccharide)	https://glytoucan.org/Structures/Glycans/G07394RV
GD1 alpha(Pentasaccharide)	https://glytoucan.org/Structures/Glycans/G07394RV
GD1b	https://glytoucan.org/Structures/Glycans/G37184KW
GD1b	https://glytoucan.org/Structures/Glycans/G97612UN
GD1c	https://glytoucan.org/Structures/Glycans/G81983KG
GD1 (GD1c)	https://glytoucan.org/Structures/Glycans/G81983KG
GD1	https://glytoucan.org/Structures/Glycans/G24638PB
GD1	https://glytoucan.org/Structures/Glycans/G81983KG
GD2	https://glytoucan.org/Structures/Glycans/G02657AK
GD2	https://glytoucan.org/Structures/Glycans/G41759HA
GD3	https://glytoucan.org/Structures/Glycans/G81928IQ
GD3	https://glytoucan.org/Structures/Glycans/G98544DH
Gg4Cer II3-sulfate	https://glytoucan.org/Structures/Glycans/G59508TM
GH1ca	https://glytoucan.org/Structures/Glycans/G14091MR
GH1ca	https://glytoucan.org/Structures/Glycans/G86139YL
GH1cav	https://glytoucan.org/Structures/Glycans/G14091MR
GL-6 fucosylated (globoH)	https://glytoucan.org/Structures/Glycans/G98465JN
GL-6 fucosylated	https://glytoucan.org/Structures/Glycans/G83120FP
GL-6 fucosylated	https://glytoucan.org/Structures/Glycans/G98465JN
GL-7 globoseries ganglioside	https://glytoucan.org/Structures/Glycans/G32254QI
GL-7 globoseries ganglioside	https://glytoucan.org/Structures/Glycans/G42784QY
GL-7 globoseries ganglioside (SSEA-4)	https://glytoucan.org/Structures/Glycans/G32254QI
GlcNAc(b1-3)Gal(b1-4)GlcNAc	https://glytoucan.org/Structures/Glycans/G48117BL
GlcNAc(b1-3)Gal	https://glytoucan.org/Structures/Glycans/G02880JU
globoH	https://glytoucan.org/Structures/Glycans/G98465JN
Globoside	https://glytoucan.org/Structures/Glycans/G00061MO
Globoside (P antigen) (Gb4)	https://glytoucan.org/Structures/Glycans/G00061MO
Globoside(P antigen)  (Gb4)	https://glytoucan.org/Structures/Glycans/G00061MO
Globotetraosylceramide	https://glytoucan.org/Structures/Glycans/G00061MO
Globotetraosylceramide	https://glytoucan.org/Structures/Glycans/G04616ST
globotriaosylceramide	https://glytoucan.org/Structures/Glycans/G00059MO
Globotriaosylceramide	https://glytoucan.org/Structures/Glycans/G00059MO
Glucomannan	https://glytoucan.org/Structures/Glycans/G88924MD
Glucose	https://glytoucan.org/Structures/Glycans/G15021LG
Glucosylceramide	https://glytoucan.org/Structures/Glycans/G71142DF
Glucronoarabinoxylan	https://glytoucan.org/Structures/Glycans/G54315VV
Glucronoxylan	https://glytoucan.org/Structures/Glycans/G94091AV
Glycosphingolipid Arthro series	https://glytoucan.org/Structures/Glycans/G00014MO
Glycosphingolipid Gala series	https://glytoucan.org/Structures/Glycans/G00016MO
Glycosphingolipid Ganglio series	https://glytoucan.org/Structures/Glycans/G00071MO
Glycosphingolipid Globo series	https://glytoucan.org/Structures/Glycans/G00072MO
Glycosphingolipid Isoglobo series	https://glytoucan.org/Structures/Glycans/G00012MO
Glycosphingolipid Lacto series	https://glytoucan.org/Structures/Glycans/G00069MO
Glycosphingolipid Mollu series	https://glytoucan.org/Structures/Glycans/G00015MO
Glycosphingolipid Muco series	https://glytoucan.org/Structures/Glycans/G00013MO
Glycosphingolipid Neo-lacto series	https://glytoucan.org/Structures/Glycans/G00070MO
GM1b	https://glytoucan.org/Structures/Glycans/G03277YI
GM1	https://glytoucan.org/Structures/Glycans/G46613JI
GM1	https://glytoucan.org/Structures/Glycans/G48558GR
GM2	https://glytoucan.org/Structures/Glycans/G61168WC
GM2	https://glytoucan.org/Structures/Glycans/G79389NT
GM3	https://glytoucan.org/Structures/Glycans/G56516VH
GM3	https://glytoucan.org/Structures/Glycans/G91237TK
GM4	https://glytoucan.org/Structures/Glycans/G30207PZ
GM4	https://glytoucan.org/Structures/Glycans/G77824XV
GP1ca	https://glytoucan.org/Structures/Glycans/G00552RX
GP1ca	https://glytoucan.org/Structures/Glycans/G16999RL
GP1c	https://glytoucan.org/Structures/Glycans/G04433GV
GP1c	https://glytoucan.org/Structures/Glycans/G26203DP
GP1c	https://glytoucan.org/Structures/Glycans/G77608BK
GP1c	https://glytoucan.org/Structures/Glycans/G93805MV
GPI anchor core	https://glytoucan.org/Structures/Glycans/G00045MO
GQ1aa	https://glytoucan.org/Structures/Glycans/G26199BG
GQ1aa	https://glytoucan.org/Structures/Glycans/G90598GO
GQ1ba	https://glytoucan.org/Structures/Glycans/G49791FJ
GQ1ba	https://glytoucan.org/Structures/Glycans/G54733XO
GQ1b alpha	https://glytoucan.org/Structures/Glycans/G54733XO
GQ1b	https://glytoucan.org/Structures/Glycans/G17077FL
GQ1b	https://glytoucan.org/Structures/Glycans/G18625KA
GQ1c	https://glytoucan.org/Structures/Glycans/G54442GQ
GQ1c	https://glytoucan.org/Structures/Glycans/G99524KA
GT1aa	https://glytoucan.org/Structures/Glycans/G02149VR
GT1aa	https://glytoucan.org/Structures/Glycans/G17486WU
GT1a alpha	https://glytoucan.org/Structures/Glycans/G02149VR
GT1a	https://glytoucan.org/Structures/Glycans/G68110IF
GT1a	https://glytoucan.org/Structures/Glycans/G93468NI
GT1b	https://glytoucan.org/Structures/Glycans/G05952XV
GT1b	https://glytoucan.org/Structures/Glycans/G40183QN
GT1c	https://glytoucan.org/Structures/Glycans/G50762GU
GT1c	https://glytoucan.org/Structures/Glycans/G78818SP
GT2	https://glytoucan.org/Structures/Glycans/G35228ZS
GT2	https://glytoucan.org/Structures/Glycans/G36476BA
GT3	https://glytoucan.org/Structures/Glycans/G33570YF
GT3	https://glytoucan.org/Structures/Glycans/G93899SO
H antigen	https://glytoucan.org/Structures/Glycans/G46868TY
H antigen (type 3)	https://glytoucan.org/Structures/Glycans/G94435QH
Heparin	https://glytoucan.org/Structures/Glycans/G00021MO
Heparin	https://glytoucan.org/Structures/Glycans/G54161DR
HNK-1 antigen	https://glytoucan.org/Structures/Glycans/G53277CD
HNK-1 antigen	https://glytoucan.org/Structures/Glycans/G54406UD
HNK-1 antigen	https://glytoucan.org/Structures/Glycans/G89591DK
HNK-1	https://glytoucan.org/Structures/Glycans/G54406UD
HNK-1 on O-mannose	https://glytoucan.org/Structures/Glycans/G06898ZN
HNK-1 on O-mannose	https://glytoucan.org/Structures/Glycans/G60606QD
HNK-1 on O-mannose	https://glytoucan.org/Structures/Glycans/G82061CN
HNK-expressing SGLPG	https://glytoucan.org/Structures/Glycans/G10503MP
HNK-expressing SGLPG	https://glytoucan.org/Structures/Glycans/G43040ZY
Homogalacturonan	https://glytoucan.org/Structures/Glycans/G25318VQ
H type 1 Lewis b	https://glytoucan.org/Structures/Glycans/G14300ZJ
Hyaluronan	https://glytoucan.org/Structures/Glycans/G00017MO
I-active ganglioside	https://glytoucan.org/Structures/Glycans/G03067VG
I-Active ganglioside	https://glytoucan.org/Structures/Glycans/G28566CQ
i antigen	https://glytoucan.org/Structures/Glycans/G00058MO
i Antigen	https://glytoucan.org/Structures/Glycans/G00058MO
I' antigen	https://glytoucan.org/Structures/Glycans/G00058MO
I antigen	https://glytoucan.org/Structures/Glycans/G26929DQ
''I'' antigen	https://glytoucan.org/Structures/Glycans/G46055MA
I' antigen'	https://glytoucan.org/Structures/Glycans/G46055MA
I' antigen	https://glytoucan.org/Structures/Glycans/G46055MA
''I'' antigen	https://glytoucan.org/Structures/Glycans/G56045WU
I' antigen'	https://glytoucan.org/Structures/Glycans/G56045WU
I' antigen	https://glytoucan.org/Structures/Glycans/G56045WU
I Antigen	https://glytoucan.org/Structures/Glycans/G56045WU
I Antigen Like	https://glytoucan.org/Structures/Glycans/G96238FJ
"""II3Neu5GcGg4Cer, GM1(Gc)"""	https://glytoucan.org/Structures/Glycans/G24034CH
Internal Blood Group H	https://glytoucan.org/Structures/Glycans/G82749ZI
Internal Lewis x	https://glytoucan.org/Structures/Glycans/G64227KZ
Isoglobotetraosylceramide	https://glytoucan.org/Structures/Glycans/G19926LY
Isoglobotetraosylceramide	https://glytoucan.org/Structures/Glycans/G32862WC
Isoglobotetraosylceramide	https://glytoucan.org/Structures/Glycans/G57710SU
Isoglobotriaosylceramide	https://glytoucan.org/Structures/Glycans/G78074HX
KDN-Gal	https://glytoucan.org/Structures/Glycans/G82612XX
KDN-Gal	https://glytoucan.org/Structures/Glycans/G82625KX
Keratansulfate	https://glytoucan.org/Structures/Glycans/G00020MO
Keratan Sulfate	https://glytoucan.org/Structures/Glycans/G82109MW
LacdiNAc	https://glytoucan.org/Structures/Glycans/G00057MO
LacDiNAc	https://glytoucan.org/Structures/Glycans/G00057MO
LacdiNAc	https://glytoucan.org/Structures/Glycans/G31736BK
LacdiNAc (LDN)	https://glytoucan.org/Structures/Glycans/G31736BK
LacNAc-Gal	https://glytoucan.org/Structures/Glycans/G06580KR
Lactogangliotetraosylceramide	https://glytoucan.org/Structures/Glycans/G62554JH
Lactogangliotetraosylceramide	https://glytoucan.org/Structures/Glycans/G85237WB
Lacto-N-Neotetraose	https://glytoucan.org/Structures/Glycans/G45827GY
Lacto-N-Neotetraose	https://glytoucan.org/Structures/Glycans/G48059CD
Lacto-N-Tetraose	https://glytoucan.org/Structures/Glycans/G45827GY
Lacto-N-Tetraose	https://glytoucan.org/Structures/Glycans/G48059CD
Lactosamine Like Structure	https://glytoucan.org/Structures/Glycans/G47428UI
Lactosamine motif	https://glytoucan.org/Structures/Glycans/G00055MO
Lactosamine Type 1	https://glytoucan.org/Structures/Glycans/G00056MO
Lactosamine Type 2	https://glytoucan.org/Structures/Glycans/G00055MO
Lactosylceramide	https://glytoucan.org/Structures/Glycans/G20420WT
Lactosylceramide	https://glytoucan.org/Structures/Glycans/G74621DY
Lactosylceramide	https://glytoucan.org/Structures/Glycans/G84224TW
Lactotetraose	https://glytoucan.org/Structures/Glycans/G45827GY
Lactotetraosylceramide	https://glytoucan.org/Structures/Glycans/G00049MO
Lactotriaosylceramide	https://glytoucan.org/Structures/Glycans/G06239NA
Lactotriaosylceramide	https://glytoucan.org/Structures/Glycans/G87727XV
Lactotriaosylceramide (Lc3)	https://glytoucan.org/Structures/Glycans/G06239NA
Lactotriaosylceramide (LC3)	https://glytoucan.org/Structures/Glycans/G06239NA
Lc3	https://glytoucan.org/Structures/Glycans/G06239NA
LcGg4	https://glytoucan.org/Structures/Glycans/G62554JH
LcGg4	https://glytoucan.org/Structures/Glycans/G85237WB
LDN-F	https://glytoucan.org/Structures/Glycans/G02240AO
LDNF	https://glytoucan.org/Structures/Glycans/G02240AO
LDN	https://glytoucan.org/Structures/Glycans/G00057MO
LDN	https://glytoucan.org/Structures/Glycans/G31736BK
Lea	https://glytoucan.org/Structures/Glycans/G00047MO
Leb	https://glytoucan.org/Structures/Glycans/G39211DH
Leukocyte common antigen	https://glytoucan.org/Structures/Glycans/G50850NI
Leukocyte common antigen	https://glytoucan.org/Structures/Glycans/G78436BB
Leukosialin	https://glytoucan.org/Structures/Glycans/G50850NI
Leukosialin	https://glytoucan.org/Structures/Glycans/G78436BB
Lewis a (b1-3)Gal	https://glytoucan.org/Structures/Glycans/G28420BK
Lewis a	https://glytoucan.org/Structures/Glycans/G00047MO
Lewis A	https://glytoucan.org/Structures/Glycans/G00047MO
Lewis a	https://glytoucan.org/Structures/Glycans/G39023AU
Lewis a (Lea)	https://glytoucan.org/Structures/Glycans/G00047MO
Lewis a- Lewis x Hybrid Antigen	https://glytoucan.org/Structures/Glycans/G07357YR
Lewis a-Lewis x hybrid	https://glytoucan.org/Structures/Glycans/G07357YR
Lewis a/x Like structure	https://glytoucan.org/Structures/Glycans/G24566OP
Lewis b	https://glytoucan.org/Structures/Glycans/G00048MO
Lewis B	https://glytoucan.org/Structures/Glycans/G00048MO
Lewis b	https://glytoucan.org/Structures/Glycans/G39211DH
Lewis b (Leb)	https://glytoucan.org/Structures/Glycans/G00048MO
Lewis b (Leb)	https://glytoucan.org/Structures/Glycans/G39211DH
Lewis b (Lewis b)	https://glytoucan.org/Structures/Glycans/G00048MO
Lewis b/y Like	https://glytoucan.org/Structures/Glycans/G20009SF
Lewis C	https://glytoucan.org/Structures/Glycans/G00049MO
Lewis D	https://glytoucan.org/Structures/Glycans/G00050MO
Lewis x	https://glytoucan.org/Structures/Glycans/G00051MO
Lewis X	https://glytoucan.org/Structures/Glycans/G00051MO
Lewis x	https://glytoucan.org/Structures/Glycans/G01187XC
Lewis X_Lewis X	https://glytoucan.org/Structures/Glycans/G79535HZ
Lewis x (Lex) (SSEA-1)	https://glytoucan.org/Structures/Glycans/G01187XC
Lewis x   (SSEA-1)	https://glytoucan.org/Structures/Glycans/G01187XC
Lewis y (extended) / Hexasaccharide	https://glytoucan.org/Structures/Glycans/G69030AU
Lewis y (extended)	https://glytoucan.org/Structures/Glycans/G69030AU
Lewis y	https://glytoucan.org/Structures/Glycans/G00052MO
Lewis Y	https://glytoucan.org/Structures/Glycans/G00052MO
Lewis Y	https://glytoucan.org/Structures/Glycans/G89659QV
Lex	https://glytoucan.org/Structures/Glycans/G01187XC
Lex_Lex	https://glytoucan.org/Structures/Glycans/G45673KX
Lex_Lex	https://glytoucan.org/Structures/Glycans/G79535HZ
Lex-Lex	https://glytoucan.org/Structures/Glycans/G79535HZ
Ley	https://glytoucan.org/Structures/Glycans/G00052MO
LN2	https://glytoucan.org/Structures/Glycans/G11259JT
"""LN2, I antigen"""	https://glytoucan.org/Structures/Glycans/G45207BM
LN3	https://glytoucan.org/Structures/Glycans/G85779MY
LN	https://glytoucan.org/Structures/Glycans/G04616ST
"""LN, N-acetyllactosamine"""	https://glytoucan.org/Structures/Glycans/G00055MO
LPS core	https://glytoucan.org/Structures/Glycans/G00022MO
M3FX	https://glytoucan.org/Structures/Glycans/G26295XE
M3FX	https://glytoucan.org/Structures/Glycans/G47379VH
Mannose	https://glytoucan.org/Structures/Glycans/G70323CJ
MECA-79	https://glytoucan.org/Structures/Glycans/G22976NF
Mono-fucosyl LN3	https://glytoucan.org/Structures/Glycans/G65223RT
Mono-fucosyl LN3	https://glytoucan.org/Structures/Glycans/G80291PD
Mono-fucosyl LN5	https://glytoucan.org/Structures/Glycans/G64227KZ
Mono-fucosyl LN5	https://glytoucan.org/Structures/Glycans/G93536PN
Mono-fucosyl LN	https://glytoucan.org/Structures/Glycans/G64227KZ
Mono-fucosyl LN	https://glytoucan.org/Structures/Glycans/G65223RT
Monosialodihexosylganglioside	https://glytoucan.org/Structures/Glycans/G91237TK
Monosialogangliotetraosylceramide	https://glytoucan.org/Structures/Glycans/G48558GR
Monosialylganglioside LSTb	https://glytoucan.org/Structures/Glycans/G72506RN
Monosialylganglioside LSTb	https://glytoucan.org/Structures/Glycans/G83513YI
Monosialyl Gb5	https://glytoucan.org/Structures/Glycans/G32254QI
Monosulfated gangliotetraosylceramide	https://glytoucan.org/Structures/Glycans/G57796RK
Monosulfated gangliotetraosylceramide	https://glytoucan.org/Structures/Glycans/G59736KH
Monosulfated gangliotetraosylceramide	https://glytoucan.org/Structures/Glycans/G96596OC
Mono-sulfated globopentaosylceramide	https://glytoucan.org/Structures/Glycans/G30925QW
Mono-sulfated globopentaosylceramide	https://glytoucan.org/Structures/Glycans/G57710SU
Mono-sulfated globotetraosylceramide	https://glytoucan.org/Structures/Glycans/G05297EK
Mono-sulfated globotetraosylceramide	https://glytoucan.org/Structures/Glycans/G44854SQ
Mono-sulfated globotetraosylceramide	https://glytoucan.org/Structures/Glycans/G50866KI
Mono-sulfated globotetraosylceramide	https://glytoucan.org/Structures/Glycans/G87212TR
N-acetyl-D-galactosamine	https://glytoucan.org/Structures/Glycans/G61418DU
N-acetylgalactosamine	https://glytoucan.org/Structures/Glycans/G27025MB
N-Acetyl GD3	https://glytoucan.org/Structures/Glycans/G98544DH
N-acetylglucosamine	https://glytoucan.org/Structures/Glycans/G64581RP
N-Acetyl GM2	https://glytoucan.org/Structures/Glycans/G79389NT
N-Acetyl GM3	https://glytoucan.org/Structures/Glycans/G91237TK
N-acetyllactosamine	https://glytoucan.org/Structures/Glycans/G00055MO
N-acetylneuraminic acid	https://glytoucan.org/Structures/Glycans/G50850NI
N-acetylneuraminic acid	https://glytoucan.org/Structures/Glycans/G81533KY
Neolactohexosylceramide	https://glytoucan.org/Structures/Glycans/G84034JH
Neo Lactosamine	https://glytoucan.org/Structures/Glycans/G00056MO
Neolactotetraosylceramide	https://glytoucan.org/Structures/Glycans/G58896AZ
Neolactotetrose	https://glytoucan.org/Structures/Glycans/G48059CD
Neu5Ac(a2-3)Gal(b1-3)GalNAc	https://glytoucan.org/Structures/Glycans/G56299XO
Neu5Ac(a2-3)Gal(b1-4)Glc	https://glytoucan.org/Structures/Glycans/G56516VH
Neu5Ac(a2-3)Gal(b1-4)GlcNAc	https://glytoucan.org/Structures/Glycans/G10203DW
Neu5Ac(a2-3)Gal(b1)	https://glytoucan.org/Structures/Glycans/G30207PZ
Neu5Ac(a2-3)Gal / Monosialoganglioside	https://glytoucan.org/Structures/Glycans/G30207PZ
Neu5Ac(a2-3)Gal / Monosialoganglioside	https://glytoucan.org/Structures/Glycans/G77824XV
Neu5Ac(a2-6)Gal	https://glytoucan.org/Structures/Glycans/G44345UH
Neu5Ac)a2-6)Gal	https://glytoucan.org/Structures/Glycans/G44345UH
Neu5Ac)a2-6)Gal	https://glytoucan.org/Structures/Glycans/G63069TR
Neu5Ac(a2-6)GalNAc	https://glytoucan.org/Structures/Glycans/G08371CD
Neu5Ac(a2-8)Neu5Ac(a2-3)Gal(b1-3)GalNAc	https://glytoucan.org/Structures/Glycans/G93910CU
Neu5Ac(a2-8)Neu5Ac(a2-3)Gal(b1-4)Glc	https://glytoucan.org/Structures/Glycans/G81928IQ
Neu5Ac(a2-8)Neu5Ac(a2-3)Gal	https://glytoucan.org/Structures/Glycans/G43195TR
Neu5Ac(a2-8)Neu5Ac(a2-3)Gal	https://glytoucan.org/Structures/Glycans/G82775QT
Neu5Ac(a2-8)Neu5Gc(a2-3)Gal(b1-4)Glc	https://glytoucan.org/Structures/Glycans/G95233MF
Neu5Ac(a2-8)Neu5Gc(a2-3)Gal	https://glytoucan.org/Structures/Glycans/G82974JM
Neu5Ac	https://glytoucan.org/Structures/Glycans/G81533KY
Neu5Gc(a2-3)Gal(b1-4)Glc	https://glytoucan.org/Structures/Glycans/G32969VW
Neu5Gc(a2-3)Gal(b1-4)GlcNAc	https://glytoucan.org/Structures/Glycans/G48236KP
Neu5Gc(a2-3)Gal	https://glytoucan.org/Structures/Glycans/G53517XC
Neu5Gc(a2-3)Gal / Monosialoganglioside	https://glytoucan.org/Structures/Glycans/G53517XC
Neu5Gc(a2-8)Neu5Ac(a2-3)Gal	https://glytoucan.org/Structures/Glycans/G55286YY
Neu5Gc(a2-8)Neu5Ac(a2-3)Gal	https://glytoucan.org/Structures/Glycans/G61424BA
Neu5Gc(a2-8)Neu5Gc(a2-3)Gal	https://glytoucan.org/Structures/Glycans/G16142UJ
Neu5Gc(a2-8)Neu5Gc(a2-3)Gal	https://glytoucan.org/Structures/Glycans/G16775IT
N-Glycan complex	https://glytoucan.org/Structures/Glycans/G00030MO
N-Glycan core basic	https://glytoucan.org/Structures/Glycans/G00026MO
N-Glycan high mannose	https://glytoucan.org/Structures/Glycans/G00028MO
N-Glycan hybrid	https://glytoucan.org/Structures/Glycans/G00029MO
N-Glycan truncated motif. First GlcpNAC cut off	https://glytoucan.org/Structures/Glycans/G00027MO
N-Glycolyl GD3	https://glytoucan.org/Structures/Glycans/G84891DZ
N-Glycolyl-GM2	https://glytoucan.org/Structures/Glycans/G18221CF
N-Glycolyl GM2	https://glytoucan.org/Structures/Glycans/G56478LD
N-Glycolyl-GM2	https://glytoucan.org/Structures/Glycans/G56478LD
N-Glycolyl GM3	https://glytoucan.org/Structures/Glycans/G75789AR
O-Fucose / EGF repeat	https://glytoucan.org/Structures/Glycans/G17931GP
O-Fucose Glycan /EGF Repeat	https://glytoucan.org/Structures/Glycans/G39294YF
O-Fucose Glycan /Thrombospondin Type 1 Repeat	https://glytoucan.org/Structures/Glycans/G36855WW
O-Fucose	https://glytoucan.org/Structures/Glycans/G82576YO
O-Fucose / Thrombospondin Type 1 Repeat	https://glytoucan.org/Structures/Glycans/G36855WW
O-GlcNAc	https://glytoucan.org/Structures/Glycans/G49108TO
O-GlcNAc	https://glytoucan.org/Structures/Glycans/G89565QL
O-Glycan core 1 fuzzy	https://glytoucan.org/Structures/Glycans/G00032MO
O-Glycan core 1	https://glytoucan.org/Structures/Glycans/G00031MO
O-Glycan core 2 fuzzy	https://glytoucan.org/Structures/Glycans/G00034MO
O-Glycan core 2	https://glytoucan.org/Structures/Glycans/G00033MO
O-Glycan core 3 fuzzy	https://glytoucan.org/Structures/Glycans/G00036MO
O-Glycan core 3	https://glytoucan.org/Structures/Glycans/G00035MO
O-Glycan core 4 fuzzy	https://glytoucan.org/Structures/Glycans/G00038MO
O-Glycan core 4	https://glytoucan.org/Structures/Glycans/G00037MO
O-Glycan core 5 fuzzy	https://glytoucan.org/Structures/Glycans/G00040MO
O-Glycan core 5	https://glytoucan.org/Structures/Glycans/G00039MO
O-Glycan core 6 Fuzzy	https://glytoucan.org/Structures/Glycans/G00042MO
O-Glycan core 6	https://glytoucan.org/Structures/Glycans/G00041MO
O-Glycan core 7 fuzzy	https://glytoucan.org/Structures/Glycans/G00044MO
O-Glycan core 7	https://glytoucan.org/Structures/Glycans/G00043MO
O-Linked mannose	https://glytoucan.org/Structures/Glycans/G59126YU
O-Mannose	https://glytoucan.org/Structures/Glycans/G70323CJ
O-Mannose Lex	https://glytoucan.org/Structures/Glycans/G72060BE
O-Mannose Lex	https://glytoucan.org/Structures/Glycans/G81516LH
O-Mannosyl Glycan-Mammalian	https://glytoucan.org/Structures/Glycans/G41959YC
O-Mannosyl Glycan / Mammalian	https://glytoucan.org/Structures/Glycans/G59126YU
O-Mannosyl Glycan-Mammalian	https://glytoucan.org/Structures/Glycans/G59126YU
O-Mannosyl Glycan / Yeast	https://glytoucan.org/Structures/Glycans/G25559RS
O-Mannosyl Glycan-Yeast	https://glytoucan.org/Structures/Glycans/G25559RS
O-Mannosyl Glycan-Yeast	https://glytoucan.org/Structures/Glycans/G63072CF
P1 antigen	https://glytoucan.org/Structures/Glycans/G00060MO
P1-Antigen	https://glytoucan.org/Structures/Glycans/G00060MO
P1 Antigen	https://glytoucan.org/Structures/Glycans/G00076PK
P1 antigen	https://glytoucan.org/Structures/Glycans/G12460DL
P1 Antigen	https://glytoucan.org/Structures/Glycans/G55205ZV
P antigen	https://glytoucan.org/Structures/Glycans/G00061MO
P-Antigen	https://glytoucan.org/Structures/Glycans/G00061MO
para-Forssman glycolipid	https://glytoucan.org/Structures/Glycans/G51699SI
para-Forssman glycolipid	https://glytoucan.org/Structures/Glycans/G98848EU
Paragloboside	https://glytoucan.org/Structures/Glycans/G40585SO
Paragloboside	https://glytoucan.org/Structures/Glycans/G48059CD
Paragloboside	https://glytoucan.org/Structures/Glycans/G58896AZ
Pentasaccharide N-linked glycan core	https://glytoucan.org/Structures/Glycans/G20624LQ
Peptidoglycan	https://glytoucan.org/Structures/Glycans/G00023MO
"""Pk antigen (Gb3, globotriaosylceramide)"""	https://glytoucan.org/Structures/Glycans/G00059MO
Pk antigen	https://glytoucan.org/Structures/Glycans/G00059MO
Pk Antigen	https://glytoucan.org/Structures/Glycans/G00059MO
Pk-Antigen	https://glytoucan.org/Structures/Glycans/G00059MO
Pk Antigen	https://glytoucan.org/Structures/Glycans/G06000DZ
Poly-KDN	https://glytoucan.org/Structures/Glycans/G42911NE
Polylactosamine	https://glytoucan.org/Structures/Glycans/G00058MO
Poly-N-Acetylneuraminic Acid	https://glytoucan.org/Structures/Glycans/G80631ZD
Poly-N-Glycolylneuraminic Acid	https://glytoucan.org/Structures/Glycans/G95717TY
Polysialic acid	https://glytoucan.org/Structures/Glycans/G00065MO
Precusor Lewis a	https://glytoucan.org/Structures/Glycans/G23041XK
SD1a	https://glytoucan.org/Structures/Glycans/G63813EJ
Sda/CT antigen	https://glytoucan.org/Structures/Glycans/G00062MO
Sda/CT antigen	https://glytoucan.org/Structures/Glycans/G41052GC
SDA	https://glytoucan.org/Structures/Glycans/G00062MO
SDLex	https://glytoucan.org/Structures/Glycans/G19619KS
SDLex	https://glytoucan.org/Structures/Glycans/G69360KJ
Seminolipid	https://glytoucan.org/Structures/Glycans/G72548RZ
Seminolipid	https://glytoucan.org/Structures/Glycans/G95090DW
Sia(a2-8)Sia(a2-3)Gal	https://glytoucan.org/Structures/Glycans/G82775QT
Sialic Acid	https://glytoucan.org/Structures/Glycans/G81533KY
Sialopentaosylceramide	https://glytoucan.org/Structures/Glycans/G13224CR
Sialopentaosylceramide	https://glytoucan.org/Structures/Glycans/G96400MT
Sialosyl galactosyl globoside	https://glytoucan.org/Structures/Glycans/G32254QI
Sialosyl paragloboside	https://glytoucan.org/Structures/Glycans/G00065MO
Sialosylparagloboside	https://glytoucan.org/Structures/Glycans/G01767JJ
Sialosyl paragloboside	https://glytoucan.org/Structures/Glycans/G50123ZO
Sialosyl paragloboside	https://glytoucan.org/Structures/Glycans/G98750DB
Sialyl-3-lactose	https://glytoucan.org/Structures/Glycans/G56516VH
Sialyl-3-lactose	https://glytoucan.org/Structures/Glycans/G91237TK
Sialyl 6-Sulfo LacNAc	https://glytoucan.org/Structures/Glycans/G99745QX
Sialyl 6-Sulfo Lewis x	https://glytoucan.org/Structures/Glycans/G80722US
Sialylated LDN	https://glytoucan.org/Structures/Glycans/G55583HW
Sialyllacto-N-tetraose b	https://glytoucan.org/Structures/Glycans/G32417JV
Sialyl Lea glycolipid	https://glytoucan.org/Structures/Glycans/G91326YS
Sialyl Lewis a glycolipid	https://glytoucan.org/Structures/Glycans/G50321QR
Sialyl Lewis a	https://glytoucan.org/Structures/Glycans/G00053MO
Sialyl Lewis A	https://glytoucan.org/Structures/Glycans/G00053MO
Sialyl Lewis a	https://glytoucan.org/Structures/Glycans/G81971FM
Sialyl Lewis a (SLea)  (CA19-9 antigen)	https://glytoucan.org/Structures/Glycans/G00053MO
Sialyl Lewis a (SLea)(CA19-9 antigen)	https://glytoucan.org/Structures/Glycans/G00053MO
Sialyl Lewis a/x Like	https://glytoucan.org/Structures/Glycans/G25705KO
Sialyl Lewis c	https://glytoucan.org/Structures/Glycans/G46776WR
Sialyl-Lewis c	https://glytoucan.org/Structures/Glycans/G46776WR
Sialyl Lewis x	https://glytoucan.org/Structures/Glycans/G00054MO
Sialyl Lewis X	https://glytoucan.org/Structures/Glycans/G00054MO
Sialyl-Lewis X	https://glytoucan.org/Structures/Glycans/G00054MO
Sialyl Lewis x-i	https://glytoucan.org/Structures/Glycans/G06597DS
Sialyl Lewis x (SLex)	https://glytoucan.org/Structures/Glycans/G00054MO
Sialylparagloboside	https://glytoucan.org/Structures/Glycans/G83513YI
Sialyl T antigen	https://glytoucan.org/Structures/Glycans/G56299XO
Sialyl T antigen	https://glytoucan.org/Structures/Glycans/G65562ZE
Sialyl Tn antigen	https://glytoucan.org/Structures/Glycans/G08371CD
Sialyl Tn antigen	https://glytoucan.org/Structures/Glycans/G36123IU
Sialyl Tn Antigen	https://glytoucan.org/Structures/Glycans/G36123IU
Sialyl Tn Antigen	https://glytoucan.org/Structures/Glycans/G38301SX
Slea	https://glytoucan.org/Structures/Glycans/G00053MO
SLex Core 2 O-glycan glycan	https://glytoucan.org/Structures/Glycans/G71121NN
SLex Core 2 O-glycan glycan	https://glytoucan.org/Structures/Glycans/G97345NY
SLex Core 2 O-glycan	https://glytoucan.org/Structures/Glycans/G97345NY
Slex	https://glytoucan.org/Structures/Glycans/G00054MO
SM3	https://glytoucan.org/Structures/Glycans/G20044TD
SM4s	https://glytoucan.org/Structures/Glycans/G72548RZ
SSEA-1	https://glytoucan.org/Structures/Glycans/G01187XC
SSEA-1	https://glytoucan.org/Structures/Glycans/G85497PI
SSEA-3	https://glytoucan.org/Structures/Glycans/G19298OA
SSEA-3	https://glytoucan.org/Structures/Glycans/G25129BT
SSEA-3	https://glytoucan.org/Structures/Glycans/G99053DY
SSEA-4	https://glytoucan.org/Structures/Glycans/G32254QI
SSEA-4	https://glytoucan.org/Structures/Glycans/G84263XI
SSEA	https://glytoucan.org/Structures/Glycans/G85497PI
SSEA	https://glytoucan.org/Structures/Glycans/G99053DY
Sulfated sialyl-3-N-acetyllactosamine	https://glytoucan.org/Structures/Glycans/G99745QX
Sulfatide	https://glytoucan.org/Structures/Glycans/G40843KY
Sulfatide	https://glytoucan.org/Structures/Glycans/G72548RZ
Sulfatide	https://glytoucan.org/Structures/Glycans/G95090DW
Sulfo-isogloboside	https://glytoucan.org/Structures/Glycans/G10057XH
Sulfo-isogloboside	https://glytoucan.org/Structures/Glycans/G30925QW
Sulfo-isogloboside	https://glytoucan.org/Structures/Glycans/G56133NW
Sulfo-isogloboside	https://glytoucan.org/Structures/Glycans/G57036MA
T (also TF)  antigen	https://glytoucan.org/Structures/Glycans/G00031MO
T (also TF) antigen	https://glytoucan.org/Structures/Glycans/G00031MO
T antigen	https://glytoucan.org/Structures/Glycans/G00031MO
T Antigen	https://glytoucan.org/Structures/Glycans/G00031MO
TF antigen	https://glytoucan.org/Structures/Glycans/G00031MO
Tn antigen	https://glytoucan.org/Structures/Glycans/G57321FI
Tn Antigen	https://glytoucan.org/Structures/Glycans/G57321FI
Tn Antigen	https://glytoucan.org/Structures/Glycans/G61406KC
T or TF antigen	https://glytoucan.org/Structures/Glycans/G78436BB
Trifucosyl-Lewis b antigen	https://glytoucan.org/Structures/Glycans/G74578MX
Trifucosyl-Lewis b Antigen	https://glytoucan.org/Structures/Glycans/G74578MX
Trifucosyl-Lewis y antigen	https://glytoucan.org/Structures/Glycans/G74917JX
Trifucosyl-Lewis y Antigen	https://glytoucan.org/Structures/Glycans/G74917JX
Trisialogangliotetraosylceramide	https://glytoucan.org/Structures/Glycans/G40183QN
Type 1 LN2	https://glytoucan.org/Structures/Glycans/G43784HS
Type 1 LN3	https://glytoucan.org/Structures/Glycans/G17961XM
Type 1 LN	https://glytoucan.org/Structures/Glycans/G00056MO
Type 1 LN	https://glytoucan.org/Structures/Glycans/G43784HS
Type 2 LN2	https://glytoucan.org/Structures/Glycans/G00058MO
Type 2 LN2 (''I'' antigen)	https://glytoucan.org/Structures/Glycans/G00058MO
Type 2 LN2 (I' antigen)'	https://glytoucan.org/Structures/Glycans/G00058MO
Type 2 LN	https://glytoucan.org/Structures/Glycans/G00055MO
Type 2 LN (N-acetyllactosamine)	https://glytoucan.org/Structures/Glycans/G00055MO
VIM-2	https://glytoucan.org/Structures/Glycans/G00065MO
VIM-2	https://glytoucan.org/Structures/Glycans/G22418PV
VIM	https://glytoucan.org/Structures/Glycans/G00065MO
Xylogalacturonan	https://glytoucan.org/Structures/Glycans/G00367NK
Xyloglucan	https://glytoucan.org/Structures/Glycans/G25326UC
