#label	id
2'F-A type 2	https://identifiers.org/glyconavi/GN_CAN86
2'F-B type 2	https://identifiers.org/glyconavi/GN_CAN68
2'FL	https://identifiers.org/glyconavi/GN_CAN33
3'-KDNLec	https://identifiers.org/glyconavi/GN_CAN46
3'GN type1	https://identifiers.org/glyconavi/GN_CAN43
3'GN-Di-LN	https://identifiers.org/glyconavi/GN_CAN90
3'KDNLN	https://identifiers.org/glyconavi/GN_CAN47
3'S-Di-LN	https://identifiers.org/glyconavi/GN_CAN99
3'S-Di-LeA	https://identifiers.org/glyconavi/GN_CAN91
3'S-Di-Lec	https://identifiers.org/glyconavi/GN_CAN94
3'S-Di-Lex	https://identifiers.org/glyconavi/GN_CAN98
3'SLDN	https://identifiers.org/glyconavi/GN_CAN52
3'SLN	https://identifiers.org/glyconavi/GN_CAN51
3'SLN-Lec	https://identifiers.org/glyconavi/GN_CAN101
3'SLeA-LeX	https://identifiers.org/glyconavi/GN_CAN92
3'SLec	https://identifiers.org/glyconavi/GN_CAN48
3'SLecLN	https://identifiers.org/glyconavi/GN_CAN95
3'SLex	https://identifiers.org/glyconavi/GN_CAN97
3'STri-LN	https://identifiers.org/glyconavi/GN_CAN100
6'S-Di-LN	https://identifiers.org/glyconavi/GN_CAN105
6'SL	https://identifiers.org/glyconavi/GN_CAN53
6'SLDN	https://identifiers.org/glyconavi/GN_CAN55
6'SLN	https://identifiers.org/glyconavi/GN_CAN54
6SLN-Lec	https://identifiers.org/glyconavi/GN_CAN106
A tetra L	https://identifiers.org/glyconavi/GN_CAN87
A tetra type 1	https://identifiers.org/glyconavi/GN_CAN85
A tetra type 2	https://identifiers.org/glyconavi/GN_CAN88
B tetra L	https://identifiers.org/glyconavi/GN_CAN69
B tetra type 1	https://identifiers.org/glyconavi/GN_CAN67
B tetra type 2	https://identifiers.org/glyconavi/GN_CAN70
B2-tri	https://identifiers.org/glyconavi/GN_CAN37
CT/Sda	https://identifiers.org/glyconavi/GN_CAN103
Ceramide trihexosides(CTH)	https://identifiers.org/glyconavi/GN_CAN3
Di-LN	https://identifiers.org/glyconavi/GN_CAN82
Di-LeA	https://identifiers.org/glyconavi/GN_CAN74
Di-Lec	https://identifiers.org/glyconavi/GN_CAN78
Di-Lex	https://identifiers.org/glyconavi/GN_CAN79
Fucosyl GM1	https://identifiers.org/glyconavi/GN_CAN4
GD1a	https://identifiers.org/glyconavi/GN_CAN104
GD1a	https://identifiers.org/glyconavi/GN_CAN8
GD1b	https://identifiers.org/glyconavi/GN_CAN9
GD2	https://identifiers.org/glyconavi/GN_CAN107
GD3	https://identifiers.org/glyconavi/GN_CAN10
GD3	https://identifiers.org/glyconavi/GN_CAN108
GM1	https://identifiers.org/glyconavi/GN_CAN13
GM1	https://identifiers.org/glyconavi/GN_CAN96
GM2	https://identifiers.org/glyconavi/GN_CAN102
GM2	https://identifiers.org/glyconavi/GN_CAN14
GM3	https://identifiers.org/glyconavi/GN_CAN15
GM3	https://identifiers.org/glyconavi/GN_CAN50
GM3 (no spacer)	https://identifiers.org/glyconavi/GN_CAN49
GNLN	https://identifiers.org/glyconavi/GN_CAN44
GQ1b	https://identifiers.org/glyconavi/GN_CAN17
GQ2	https://identifiers.org/glyconavi/GN_CAN111
GT1b	https://identifiers.org/glyconavi/GN_CAN18
GT2	https://identifiers.org/glyconavi/GN_CAN110
GT3	https://identifiers.org/glyconavi/GN_CAN109
Gala3-type1	https://identifiers.org/glyconavi/GN_CAN35
Gala3Lex	https://identifiers.org/glyconavi/GN_CAN71
Galabiose	https://identifiers.org/glyconavi/GN_CAN234
Galili-tri	https://identifiers.org/glyconavi/GN_CAN36
Gangliotetraose	https://identifiers.org/glyconavi/GN_CAN237
Gangliotriose	https://identifiers.org/glyconavi/GN_CAN236
Gb4	https://identifiers.org/glyconavi/GN_CAN7
Globotetraose	https://identifiers.org/glyconavi/GN_CAN241
Globotriose	https://identifiers.org/glyconavi/GN_CAN240
H-type1	https://identifiers.org/glyconavi/GN_CAN32
H-type2	https://identifiers.org/glyconavi/GN_CAN34
H2	https://identifiers.org/glyconavi/GN_CAN62
H3	https://identifiers.org/glyconavi/GN_CAN66
Isoglobotriose	https://identifiers.org/glyconavi/GN_CAN242
LDN	https://identifiers.org/glyconavi/GN_CAN28
LN	https://identifiers.org/glyconavi/GN_CAN31
LNT	https://identifiers.org/glyconavi/GN_CAN77
LNT-2	https://identifiers.org/glyconavi/GN_CAN45
LNnT	https://identifiers.org/glyconavi/GN_CAN84
Lac	https://identifiers.org/glyconavi/GN_CAN26
LacNAc	https://identifiers.org/glyconavi/GN_CAN27
Lactose	https://identifiers.org/glyconavi/GN_CAN235
Lactosylceramides	https://identifiers.org/glyconavi/GN_CAN19
Lactotetraose	https://identifiers.org/glyconavi/GN_CAN238
LeA	https://identifiers.org/glyconavi/GN_CAN40
LeALex	https://identifiers.org/glyconavi/GN_CAN73
Lec	https://identifiers.org/glyconavi/GN_CAN25
Lec-LeX	https://identifiers.org/glyconavi/GN_CAN75
Lex	https://identifiers.org/glyconavi/GN_CAN42
Lex-LeA	https://identifiers.org/glyconavi/GN_CAN81
Ley	https://identifiers.org/glyconavi/GN_CAN63
Ley -Lex	https://identifiers.org/glyconavi/GN_CAN64
Ley-Di-Lex	https://identifiers.org/glyconavi/GN_CAN65
Neolactotetraose	https://identifiers.org/glyconavi/GN_CAN239
P1 penta	https://identifiers.org/glyconavi/GN_CAN72
P1 penta	https://identifiers.org/glyconavi/GN_CAN76
P1 tetra	https://identifiers.org/glyconavi/GN_CAN89
P1 tri	https://identifiers.org/glyconavi/GN_CAN39
Pk	https://identifiers.org/glyconavi/GN_CAN38
SSEA-4	https://identifiers.org/glyconavi/GN_CAN93
Tri-LN	https://identifiers.org/glyconavi/GN_CAN83
Tri-Lex	https://identifiers.org/glyconavi/GN_CAN80
asialoGM1	https://identifiers.org/glyconavi/GN_CAN1
asialoGM2	https://identifiers.org/glyconavi/GN_CAN2
sialyl lactotetraosylceramide	https://identifiers.org/glyconavi/GN_CAN20
alpha(2-6)sialyl lactotetraosylceramide	https://identifiers.org/glyconavi/GN_CAN21
