#label	id
α(2-6)sialyl  lactotetraosylceramide	https://identifiers.org/glyconavi/GN_CAN21
3'SLDN	https://identifiers.org/glyconavi/GN_CAN52
3'SLN	https://identifiers.org/glyconavi/GN_CAN51
3'SLN (Gc)	https://identifiers.org/glyconavi/GN_CAN60
3'SLN-Lec	https://identifiers.org/glyconavi/GN_CAN101
3'SLeA-LeX	https://identifiers.org/glyconavi/GN_CAN92
3'SLec	https://identifiers.org/glyconavi/GN_CAN48
3'SLec (Gc)	https://identifiers.org/glyconavi/GN_CAN58
3'SLecLN	https://identifiers.org/glyconavi/GN_CAN95
3'SLex	https://identifiers.org/glyconavi/GN_CAN97
3'STri-LN	https://identifiers.org/glyconavi/GN_CAN100
6'S-Di-LN	https://identifiers.org/glyconavi/GN_CAN105
6'SL	https://identifiers.org/glyconavi/GN_CAN53
6'SLDN	https://identifiers.org/glyconavi/GN_CAN55
6'SLN	https://identifiers.org/glyconavi/GN_CAN54
6'SLN (Gc)	https://identifiers.org/glyconavi/GN_CAN61
6'STF	https://identifiers.org/glyconavi/GN_CAN41
6SLN-Lec	https://identifiers.org/glyconavi/GN_CAN106
9OAc3'SLN	https://identifiers.org/glyconavi/GN_CAN57
9OAc3'Slec	https://identifiers.org/glyconavi/GN_CAN56
A tetra L	https://identifiers.org/glyconavi/GN_CAN87
A tetra type 1	https://identifiers.org/glyconavi/GN_CAN85
A tetra type 2	https://identifiers.org/glyconavi/GN_CAN88
Abequose	https://identifiers.org/glyconavi/GN_CAN126
Acosamine	https://identifiers.org/glyconavi/GN_CAN112
Allose	https://identifiers.org/glyconavi/GN_CAN195
Altrose	https://identifiers.org/glyconavi/GN_CAN196
Amicetose	https://identifiers.org/glyconavi/GN_CAN127
Amylose	https://identifiers.org/glyconavi/GN_CAN128
Apiose	https://identifiers.org/glyconavi/GN_CAN129
Arabinose	https://identifiers.org/glyconavi/GN_CAN197
Arcanose	https://identifiers.org/glyconavi/GN_CAN130
Ascarylose	https://identifiers.org/glyconavi/GN_CAN131
Ascorbic acid	https://identifiers.org/glyconavi/GN_CAN132
B tetra L	https://identifiers.org/glyconavi/GN_CAN69
B tetra type 1	https://identifiers.org/glyconavi/GN_CAN67
B tetra type 2	https://identifiers.org/glyconavi/GN_CAN70
B2-tri	https://identifiers.org/glyconavi/GN_CAN37
Bacillosamine	https://identifiers.org/glyconavi/GN_CAN113
Boivinose	https://identifiers.org/glyconavi/GN_CAN133
CT/Sda	https://identifiers.org/glyconavi/GN_CAN103
Cellobiose	https://identifiers.org/glyconavi/GN_CAN134
Cellotriose	https://identifiers.org/glyconavi/GN_CAN135
Ceramide trihexosides(CTH)	https://identifiers.org/glyconavi/GN_CAN3
Chacotriose	https://identifiers.org/glyconavi/GN_CAN136
Chalcose	https://identifiers.org/glyconavi/GN_CAN137
Cladinose	https://identifiers.org/glyconavi/GN_CAN138
Colitose	https://identifiers.org/glyconavi/GN_CAN139
Cymarose	https://identifiers.org/glyconavi/GN_CAN140
D-Fucitol	https://identifiers.org/glyconavi/GN_CAN201
D-Galactosaminitol	https://identifiers.org/glyconavi/GN_CAN206
Daunosamine	https://identifiers.org/glyconavi/GN_CAN114
Desosamine	https://identifiers.org/glyconavi/GN_CAN115
Di-LN	https://identifiers.org/glyconavi/GN_CAN82
Di-LeA	https://identifiers.org/glyconavi/GN_CAN74
Di-Lec	https://identifiers.org/glyconavi/GN_CAN78
Di-Lex	https://identifiers.org/glyconavi/GN_CAN79
Diginose	https://identifiers.org/glyconavi/GN_CAN143
Digitalose	https://identifiers.org/glyconavi/GN_CAN144
Digitoxose	https://identifiers.org/glyconavi/GN_CAN145
Erythrose	https://identifiers.org/glyconavi/GN_CAN198
Erythrulose	https://identifiers.org/glyconavi/GN_CAN199
Evalose	https://identifiers.org/glyconavi/GN_CAN146
Evernitrose	https://identifiers.org/glyconavi/GN_CAN147
Forosamine	https://identifiers.org/glyconavi/GN_CAN116
Fructose	https://identifiers.org/glyconavi/GN_CAN200
Fucosamine	https://identifiers.org/glyconavi/GN_CAN203
Fucose	https://identifiers.org/glyconavi/GN_CAN204
Fucosyl GM1	https://identifiers.org/glyconavi/GN_CAN4
GD1a	https://identifiers.org/glyconavi/GN_CAN104
GD1a	https://identifiers.org/glyconavi/GN_CAN8
GD1b	https://identifiers.org/glyconavi/GN_CAN9
GD2	https://identifiers.org/glyconavi/GN_CAN107
GD3	https://identifiers.org/glyconavi/GN_CAN10
GD3	https://identifiers.org/glyconavi/GN_CAN108
GM1	https://identifiers.org/glyconavi/GN_CAN13
GM1	https://identifiers.org/glyconavi/GN_CAN96
GM2	https://identifiers.org/glyconavi/GN_CAN102
GM2	https://identifiers.org/glyconavi/GN_CAN14
GM3	https://identifiers.org/glyconavi/GN_CAN15
GM3	https://identifiers.org/glyconavi/GN_CAN50
GM3 (no spacer)	https://identifiers.org/glyconavi/GN_CAN49
GM3(NeuGc)	https://identifiers.org/glyconavi/GN_CAN16
GN	https://identifiers.org/glyconavi/GN_CAN23
GNLN	https://identifiers.org/glyconavi/GN_CAN44
GQ1b	https://identifiers.org/glyconavi/GN_CAN17
GQ2	https://identifiers.org/glyconavi/GN_CAN111
GT1b	https://identifiers.org/glyconavi/GN_CAN18
GT2	https://identifiers.org/glyconavi/GN_CAN110
GT3	https://identifiers.org/glyconavi/GN_CAN109
Gala3-type1	https://identifiers.org/glyconavi/GN_CAN35
Gala3Lex	https://identifiers.org/glyconavi/GN_CAN71
Galabiose	https://identifiers.org/glyconavi/GN_CAN234
Galactocerebroside (2-hydoxy fatty acid)	https://identifiers.org/glyconavi/GN_CAN6
Galactocerebroside (non-hydroxy fatty acid)	https://identifiers.org/glyconavi/GN_CAN5
Galactosamine	https://identifiers.org/glyconavi/GN_CAN205
Galactose	https://identifiers.org/glyconavi/GN_CAN207
Galili-tri	https://identifiers.org/glyconavi/GN_CAN36
Gangliotetraose	https://identifiers.org/glyconavi/GN_CAN237
Gangliotriose	https://identifiers.org/glyconavi/GN_CAN236
Garosamine	https://identifiers.org/glyconavi/GN_CAN117
Gb4	https://identifiers.org/glyconavi/GN_CAN7
Gentianose	https://identifiers.org/glyconavi/GN_CAN148
Gentiobiose	https://identifiers.org/glyconavi/GN_CAN149
Globotetraose	https://identifiers.org/glyconavi/GN_CAN241
Globotriose	https://identifiers.org/glyconavi/GN_CAN240
Glucocerebrosides	https://identifiers.org/glyconavi/GN_CAN11
Glucopsychosine	https://identifiers.org/glyconavi/GN_CAN12
Glucosamine	https://identifiers.org/glyconavi/GN_CAN208
Glucosaminitol	https://identifiers.org/glyconavi/GN_CAN209
Glucose	https://identifiers.org/glyconavi/GN_CAN210
Glyceraldehyde	https://identifiers.org/glyconavi/GN_CAN211
Glycerol	https://identifiers.org/glyconavi/GN_CAN212
Glycerone	https://identifiers.org/glyconavi/GN_CAN213
Gulose	https://identifiers.org/glyconavi/GN_CAN214
H-type1	https://identifiers.org/glyconavi/GN_CAN32
H-type2	https://identifiers.org/glyconavi/GN_CAN34
H2	https://identifiers.org/glyconavi/GN_CAN62
H3	https://identifiers.org/glyconavi/GN_CAN66
Hamamelose	https://identifiers.org/glyconavi/GN_CAN150
Idose	https://identifiers.org/glyconavi/GN_CAN215
Inulin	https://identifiers.org/glyconavi/GN_CAN151
Isoglobotriose	https://identifiers.org/glyconavi/GN_CAN242
Isolevoglucosenone	https://identifiers.org/glyconavi/GN_CAN152
Isomaltose	https://identifiers.org/glyconavi/GN_CAN153
Isomaltotriose	https://identifiers.org/glyconavi/GN_CAN154
Isopanose	https://identifiers.org/glyconavi/GN_CAN155
Kanosamine	https://identifiers.org/glyconavi/GN_CAN118
Kansosamine	https://identifiers.org/glyconavi/GN_CAN119
Kojibiose	https://identifiers.org/glyconavi/GN_CAN156
L-Fucitol	https://identifiers.org/glyconavi/GN_CAN202
LDN	https://identifiers.org/glyconavi/GN_CAN28
LN	https://identifiers.org/glyconavi/GN_CAN31
LNT	https://identifiers.org/glyconavi/GN_CAN77
LNT-2	https://identifiers.org/glyconavi/GN_CAN45
LNnT	https://identifiers.org/glyconavi/GN_CAN84
Lac	https://identifiers.org/glyconavi/GN_CAN26
LacNAc	https://identifiers.org/glyconavi/GN_CAN27
Lactosamine	https://identifiers.org/glyconavi/GN_CAN158
Lactose	https://identifiers.org/glyconavi/GN_CAN157
Lactose	https://identifiers.org/glyconavi/GN_CAN235
Lactosediamine	https://identifiers.org/glyconavi/GN_CAN159
Lactosylceramides	https://identifiers.org/glyconavi/GN_CAN19
Lactotetraose	https://identifiers.org/glyconavi/GN_CAN238
Laminarabiose	https://identifiers.org/glyconavi/GN_CAN160
LeA	https://identifiers.org/glyconavi/GN_CAN40
LeALex	https://identifiers.org/glyconavi/GN_CAN73
Lec	https://identifiers.org/glyconavi/GN_CAN25
Lec-LeX	https://identifiers.org/glyconavi/GN_CAN75
Levoglucosan	https://identifiers.org/glyconavi/GN_CAN161
Levoglucosenone	https://identifiers.org/glyconavi/GN_CAN162
Lex	https://identifiers.org/glyconavi/GN_CAN42
Lex-LeA	https://identifiers.org/glyconavi/GN_CAN81
Ley	https://identifiers.org/glyconavi/GN_CAN63
Ley -Lex	https://identifiers.org/glyconavi/GN_CAN64
Ley-Di-Lex	https://identifiers.org/glyconavi/GN_CAN65
Lyxose	https://identifiers.org/glyconavi/GN_CAN216
Maltose	https://identifiers.org/glyconavi/GN_CAN163
Manninotriose	https://identifiers.org/glyconavi/GN_CAN164
Mannosamine	https://identifiers.org/glyconavi/GN_CAN217
Mannose	https://identifiers.org/glyconavi/GN_CAN218
Melezitose	https://identifiers.org/glyconavi/GN_CAN165
Melibiose	https://identifiers.org/glyconavi/GN_CAN166
Muramic acid	https://identifiers.org/glyconavi/GN_CAN167
Mycaminose	https://identifiers.org/glyconavi/GN_CAN120
Mycarose	https://identifiers.org/glyconavi/GN_CAN168
Mycinose	https://identifiers.org/glyconavi/GN_CAN169
Mycosamine	https://identifiers.org/glyconavi/GN_CAN121
Neolactotetraose	https://identifiers.org/glyconavi/GN_CAN239
Neuraminic acid	https://identifiers.org/glyconavi/GN_CAN170
Nigerose	https://identifiers.org/glyconavi/GN_CAN171
Nojirimycin	https://identifiers.org/glyconavi/GN_CAN172
Noviose	https://identifiers.org/glyconavi/GN_CAN173
Oleandrose	https://identifiers.org/glyconavi/GN_CAN174
P1 penta	https://identifiers.org/glyconavi/GN_CAN72
P1 penta	https://identifiers.org/glyconavi/GN_CAN76
P1 tetra	https://identifiers.org/glyconavi/GN_CAN89
P1 tri	https://identifiers.org/glyconavi/GN_CAN39
Panose	https://identifiers.org/glyconavi/GN_CAN175
Paratose	https://identifiers.org/glyconavi/GN_CAN176
Perosamine	https://identifiers.org/glyconavi/GN_CAN122
Pk	https://identifiers.org/glyconavi/GN_CAN38
Planteose	https://identifiers.org/glyconavi/GN_CAN177
Pneumosamine	https://identifiers.org/glyconavi/GN_CAN123
Primeverose	https://identifiers.org/glyconavi/GN_CAN178
Psicose	https://identifiers.org/glyconavi/GN_CAN219
Purpurosamine C	https://identifiers.org/glyconavi/GN_CAN124
Quinovosamine	https://identifiers.org/glyconavi/GN_CAN221
Quinovose	https://identifiers.org/glyconavi/GN_CAN220
Raffinose	https://identifiers.org/glyconavi/GN_CAN179
Rhamnitol	https://identifiers.org/glyconavi/GN_CAN222
Rhamnosamine	https://identifiers.org/glyconavi/GN_CAN223
Rhamnose	https://identifiers.org/glyconavi/GN_CAN224
Rhodinose	https://identifiers.org/glyconavi/GN_CAN180
Rhodosamine	https://identifiers.org/glyconavi/GN_CAN125
Ribose	https://identifiers.org/glyconavi/GN_CAN225
Ribulose	https://identifiers.org/glyconavi/GN_CAN226
Rutinose	https://identifiers.org/glyconavi/GN_CAN181
SSEA-4	https://identifiers.org/glyconavi/GN_CAN93
STn	https://identifiers.org/glyconavi/GN_CAN29
Sarmentose	https://identifiers.org/glyconavi/GN_CAN182
Sedoheptulosan	https://identifiers.org/glyconavi/GN_CAN184
Sedoheptulose	https://identifiers.org/glyconavi/GN_CAN183
Solatriose	https://identifiers.org/glyconavi/GN_CAN185
Sophorose	https://identifiers.org/glyconavi/GN_CAN186
Sorbose	https://identifiers.org/glyconavi/GN_CAN227
Stachyose	https://identifiers.org/glyconavi/GN_CAN187
Streptose	https://identifiers.org/glyconavi/GN_CAN188
Sucrose	https://identifiers.org/glyconavi/GN_CAN189
Sulfatide	https://identifiers.org/glyconavi/GN_CAN22
TF	https://identifiers.org/glyconavi/GN_CAN24
Tagatose	https://identifiers.org/glyconavi/GN_CAN228
Talose	https://identifiers.org/glyconavi/GN_CAN229
Tartaric acid	https://identifiers.org/glyconavi/GN_CAN230
Threose	https://identifiers.org/glyconavi/GN_CAN231
Trehalosamine	https://identifiers.org/glyconavi/GN_CAN191
Tri-LN	https://identifiers.org/glyconavi/GN_CAN83
Tri-Lex	https://identifiers.org/glyconavi/GN_CAN80
Turanose	https://identifiers.org/glyconavi/GN_CAN192
Tyvelose	https://identifiers.org/glyconavi/GN_CAN193
Umbelliferose	https://identifiers.org/glyconavi/GN_CAN194
Xylose	https://identifiers.org/glyconavi/GN_CAN232
Xylulose	https://identifiers.org/glyconavi/GN_CAN233
asialoGM1	https://identifiers.org/glyconavi/GN_CAN1
asialoGM2	https://identifiers.org/glyconavi/GN_CAN2
sialyl lactotetraosylceramide	https://identifiers.org/glyconavi/GN_CAN20
