M2M:CSDB yamada$ grep '\*' 2023-06-16_15-47-17_pcsdb_GlycoCT2WURCS_error_r3_gfc291.tsv
63621**.txt	63621**	
63558**.txt	63558**	
61886**.txt	61886**	
61320**.txt	61320**	
63563**.txt	63563**	
63627**.txt	63627**	
63625**.txt	63625**	
63561**.txt	63561**	
63618**.txt	63618**	
61887**.txt	61887**	
63622**.txt	63622**	
63559**.txt	63559**	
63620**.txt	63620**	
63619**.txt	63619**	
63624**.txt	63624**	
63560**.txt	63560**	
63562**.txt	63562**	
63626**.txt	63626**	
61295**.txt	61295**	
63553**.txt	63553**	
61271**.txt	61271**	
61896**.txt	61896**	
63628**.txt	63628**	
61894**.txt	61894**	
61297**.txt	61297**	
61293**.txt	61293**	
61889**.txt	61889**	
61890**.txt	61890**	
63555**.txt	63555**	
63557**.txt	63557**	
61892**.txt	61892**	
61956**.txt	61956**	
61291**.txt	61291**	
61895**.txt	61895**	
63629**.txt	63629**	
61272**.txt	61272**	
63630**.txt	63630**	
61296**.txt	61296**	
61294**.txt	61294**	
61270**.txt	61270**	
61893**.txt	61893**	
63556**.txt	63556**	
61290**.txt	61290**	
61324**merged.txt	61324**merged	
61888**.txt	61888**	
61292**.txt	61292**	
63554**.txt	63554**	
61891**.txt	61891**	
M2M:CSDB yamada$ 
M2M:CSDB yamada$ 
M2M:CSDB yamada$ 
M2M:CSDB yamada$ grep '\*' 2023-06-16_15-47-17_pcsdb_GlycoCT2WURCS_error_r3_gfc291.tsv | wc -l
      48
M2M:CSDB yamada$ 
