RES
1b:b-dara-HEX-2:5|1:aldi|2:keto
2b:a-dglc-HEX-1:5
3b:b-dara-HEX-2:5|1:aldi|2:keto
4b:b-dara-HEX-2:5|1:aldi|2:keto
5b:b-dara-HEX-2:5|1:aldi|2:keto
LIN
1:1o(2+1)2d
2:2o(6+2)3d
3:3o(1+2)4d
4:4o(1+2)5d