RES
1r:r1
REP
REP1:8o(5+1)2d=-1--1
RES
2b:a-lara-PEN-1:4
3b:a-lara-PEN-1:4
4b:a-lara-PEN-1:4
5b:a-lara-PEN-1:4
6b:a-lara-PEN-1:4
7b:a-lara-PEN-1:4
8b:a-lara-PEN-1:4
9b:a-lara-PEN-1:4
10b:a-lara-PEN-1:4
LIN
1:2o(5+1)3d
2:3o(3+1)4d
3:3o(5+1)5d
4:5o(3+1)6d
5:5o(5+1)7d
6:7o(5+1)8d
7:8o(2+1)9d
8:8o(3+1)10d