RES
1r:r1
REP
REP1:7o(4+1)2d=-1--1
RES
2b:b-dglc-HEX-1:5|6:a
3b:a-dman-HEX-1:5
4b:b-dglc-HEX-1:5|6:a
5a:a1
6b:a-dman-HEX-1:5
7b:b-dglc-HEX-1:5|6:a
8b:a-dgal-HEX-1:5
LIN
1:2o(4+1)3d
2:3o(2+1)4d
3:4o(3+1)5n
4:4o(4+1)6d
5:6o(2+1)7d
6:6o(3+1)8d
ALT
ALT1
ALTSUBGRAPH1
LEAD-IN RES:9
RES
9b:a-dxyl-PEN-1:5
ALTSUBGRAPH2
LEAD-IN RES:10
RES
10b:x-lara-PEN-1:4