RES
1b:x-dglc-HEX-x:x
2b:b-dglc-HEX-1:5
3b:a-dxyl-PEN-1:5
4b:b-dglc-HEX-1:5
5b:b-dglc-HEX-1:5
6b:b-dgal-HEX-1:5
7b:a-dxyl-PEN-1:5
8b:a-dxyl-PEN-1:5
9b:a-lgal-HEX-1:5|6:d
10b:b-dgal-HEX-1:5
LIN
1:1o(4+1)2d
2:2o(6+1)3d
3:2o(4+1)4d
4:4o(4+1)5d
5:3o(2+1)6d
6:4o(6+1)7d
7:5o(6+1)8d
8:6o(2+1)9d
9:7o(2+1)10d