RES
1b:o-dglc-HEX-0:0|1:aldi
2b:b-dglc-HEX-1:5
3b:a-dxyl-PEN-1:5
4b:b-dglc-HEX-1:5
5b:a-dxyl-PEN-1:5
6b:b-dglc-HEX-1:5
7b:a-dxyl-PEN-1:5
8b:b-dglc-HEX-1:5
9b:b-dglc-HEX-1:5
10b:a-dxyl-PEN-1:5
11b:b-dglc-HEX-1:5
12b:a-dxyl-PEN-1:5
13b:b-dglc-HEX-1:5
14b:b-dgal-HEX-1:5
15b:a-lgal-HEX-1:5|6:d
16b:a-dxyl-PEN-1:5
17b:b-dgal-HEX-1:5
18b:a-lgal-HEX-1:5|6:d
LIN
1:1o(4+1)2d
2:2o(6+1)3d
3:2o(4+1)4d
4:4o(6+1)5d
5:4o(4+1)6d
6:6o(6+1)7d
7:6o(4+1)8d
8:8o(4+1)9d
9:9o(6+1)10d
10:9o(4+1)11d
11:11o(6+1)12d
12:11o(4+1)13d
13:10o(2+1)14d
14:14o(2+1)15d
15:13o(6+1)16d
16:12o(2+1)17d
17:17o(2+1)18d