RES
1b:x-dxyl-PEN-x:x
2b:b-dxyl-PEN-1:5
3b:b-dxyl-PEN-1:5
4b:a-lara-PEN-1:4
5b:a-lara-PEN-1:4
6b:b-dxyl-PEN-1:5
7b:a-lara-PEN-1:4
8b:b-dxyl-PEN-1:5
LIN
1:1o(4+1)2d
2:2o(4+1)3d
3:3o(3+1)4d
4:3o(2+1)5d
5:3o(4+1)6d
6:6o(3+1)7d
7:6o(4+1)8d