RES
1b:a-dgal-HEX-1:5|6:a
2b:a-dgal-HEX-1:5|6:a
3b:a-dgal-HEX-1:5|6:a
4b:a-dgal-HEX-1:5|6:a
5b:a-dgal-HEX-1:5|6:a
6b:a-dgal-HEX-1:5|6:a
7b:a-dgal-HEX-1:5|6:a
LIN
1:1o(4+1)2d
2:2o(4+1)3d
3:3o(4+1)4d
4:4o(4+1)5d
5:5o(4+1)6d
6:6o(4+1)7d