RES
1r:r1
REP
REP1:5o(4+1)2d=-1--1
RES
2b:b-dxyl-PEN-1:5
3b:b-dxyl-PEN-1:5
4b:b-dxyl-PEN-1:5
5b:b-dxyl-PEN-1:5
6b:a-dglc-HEX-1:5|6:a
7s:methyl
LIN
1:2o(4+1)3d
2:3o(4+1)4d
3:4o(4+1)5d
4:4o(2+1)6d
5:6o(4+1)7n