RES
1b:o-dglc-HEX-0:0|1:aldi
2b:b-dglc-HEX-1:5
3b:a-dxyl-PEN-1:5
4b:b-dglc-HEX-1:5
5b:a-dxyl-PEN-1:5
6b:b-dgal-HEX-1:5
7b:b-dglc-HEX-1:5
8b:a-dxyl-PEN-1:5
9b:a-lgal-HEX-1:5|6:d
10b:b-dxyl-PEN-1:5
11b:b-dglc-HEX-1:5
12b:a-lara-PEN-1:4
13b:b-dglc-HEX-1:5
14b:a-dxyl-PEN-1:5
15b:b-dglc-HEX-1:5
16b:a-dxyl-PEN-1:5
17b:b-dglc-HEX-1:5
18b:b-dgal-HEX-1:5
19b:a-dxyl-PEN-1:5
20b:a-lgal-HEX-1:5|6:d
LIN
1:1o(4+1)2d
2:2o(6+1)3d
3:2o(4+1)4d
4:4o(6+1)5d
5:3o(2+1)6d
6:4o(4+1)7d
7:7o(6+1)8d
8:6o(2+1)9d
9:7o(2+1)10d
10:7o(4+1)11d
11:10o(3+1)12d
12:11o(4+1)13d
13:13o(6+1)14d
14:13o(4+1)15d
15:15o(6+1)16d
16:15o(4+1)17d
17:14o(2+1)18d
18:17o(6+1)19d
19:18o(2+1)20d