RES
1n:n1
2s:acetyl
3b:b-dglc-HEX-1:5
4b:a-lara-PEN-1:5
5b:b-dglc-HEX-1:5
6b:a-lman-HEX-1:5|6:d
7b:b-dglc-HEX-1:5
LIN
1:1n(22+1)2n
2:1n(3+1)3d
3:3o(6+1)4d
4:4o(2+1)5d
5:5o(2+1)6d
6:5o(3+1)7d
NON
NON1
SmallMolecule:SMILES C[C@]1({28}CO){3}[C@@H](O)CC[C@]2(C)C3=C([C@@]4(CC[C@]([C@]4(CC3)C)(O5)[C@H](C){22}[C@H](O)[C@H]5C(CC)=O)C)CC[C@@]12[H]
Description:4β,23S-17,23-epoxy-3β,22β,28-trihydroxy-27-norlanost-8-en-24-one