RES
1b:b-dglc-HEX-1:5
2n:n1
3b:a-lara-PEN-1:5
4b:b-dglc-HEX-1:5
5b:a-lman-HEX-1:5|6:d
6b:b-dglc-HEX-1:5
LIN
1:1o(1+3)2n
2:1o(6+1)3d
3:3o(2+1)4d
4:4o(2+1)5d
5:4o(3+1)6d
NON
NON1
Parent:1
Linkage:o(1+3)n
SmallMolecule:SMILES C[C@]1({28}CO){3}[C@@H](O)CC[C@]2(C)C3=C([C@@]4(CC[C@]([C@]4(CC3)C)(O5)[C@H](C)C=C5C(CC)=O)C)CC[C@@]12[H]
Description:4β-17,23-epoxy-3β,28-dihydroxy-27-norlanost-8,22-dien-24-one