RES
1n:n1
2b:b-dglc-HEX-1:5
3s:methyl
4b:b-dgal-HEX-1:5
5b:b-dglc-HEX-1:5
6b:b-dxyl-PEN-1:5
7b:b-dglc-HEX-1:5
8b:b-dglc-HEX-1:5
LIN
1:1n(26+1)2d
2:1n(22+1)3n
3:1n(3+1)4d
4:4o(4+1)5d
5:5o(3+1)6d
6:5o(2+1)7d
7:7o(3+1)8d
NON
NON1
SmallMolecule:SMILES C[C@H]1[C@H]2[C@@H](O{22}C1(O)CC[C@H]({26}[CH2]O)C)C[C@@H]3[C@]2(C)CC[C@H]4[C@H]3CC[C@@H]5[C@]4(C)CC{3}[C@H](O)C5
Description:25R-5α-furostan-3β,22,26-triol