RES
1b:b-dara-HEX-2:5|1:aldi|2:keto
2n:n1
3b:a-dglc-HEX-1:5
4s:acetyl
5s:acetyl
6s:acetyl
7s:acetyl
LIN
1:1o(3+9)2n
2:1o(2+1)3d
3:3o(2+1)4n
4:3o(3+1)5n
5:3o(6+1)6n
6:3o(4+1)7n
NON
NON1
Parent:1
Linkage:o(3+9)n
SmallMolecule:SMILES [6CH]1=[5CH][4C](O)=[3CH][2CH]=[1C]1/[7CH]=[8CH]/[9C](=O)O
Description:p-coumaric acid