RES
1n:n1
2b:a-lara-PEN-1:5
3b:b-dglc-HEX-1:5
4b:a-lman-HEX-1:5|6:d
5b:b-dglc-HEX-1:5
6s:acetyl
7b:a-lman-HEX-1:5|6:d
8s:acetyl
LIN
1:1n(3+1)2d
2:1n(28+1)3d
3:2o(2+1)4d
4:3o(6+1)5d
5:5o(6+1)6n
6:5o(4+1)7d
7:7o(3+1)8n
NON
NON1
SmallMolecule:SMILES CC1(C)CC[C@]2([28C](O)=O)CC[C@@]3(C)[C@]4(C)CC[C@@]5([H])[C@](C)([23CH2]O)[3C@@H](O)CC[C@]5(C)[C@@]4([H])CC=C3[C@]2([H])C1
Description:hederagenin