RES
1b:x-dglc-HEX-1:5
2s:amino
3s:n-acetyl
4n:n1
5b:b-dglc-HEX-1:5
6s:n-acetyl
7b:b-dman-HEX-1:5
8b:a-dman-HEX-1:5
9b:b-dxyl-PEN-1:5
10b:a-dman-HEX-1:5
11b:b-dglc-HEX-1:5
12s:n-acetyl
LIN
1:1d(1+1)2n
2:1d(2+1)3n
3:1o(1+2)4n
4:1o(4+1)5d
5:5d(2+1)6n
6:5o(4+1)7d
7:7o(6+1)8d
8:7o(2+1)9d
9:7o(3+1)10d
10:10o(2+1)11d
11:11d(2+1)12n
NON
NON1
Parent:1
Linkage:o(1+2)n
SmallMolecule:SMILES N{2}c1ccccn1
Description:2-aminopyridine