RES
1b:x-dglc-HEX-x:x
2b:a-lgal-HEX-1:5|6:d
3s:n-acetyl
4b:b-dglc-HEX-1:5
5s:n-acetyl
6b:b-dman-HEX-1:5
7b:a-dman-HEX-1:5
8b:b-dxyl-PEN-1:5
9b:a-dman-HEX-1:5
10b:b-dglc-HEX-1:5
11b:b-dgal-HEX-1:5
12s:n-acetyl
LIN
1:1o(3+1)2d
2:1d(2+1)3n
3:1o(4+1)4d
4:4d(2+1)5n
5:4o(4+1)6d
6:6o(6+1)7d
7:6o(2+1)8d
8:6o(3+1)9d
9:9o(2+1)10d
10:10o(3+1)11d
11:10d(2+1)12n