RES
1b:x-dglc-HEX-x:x
2s:n-acetyl
3b:b-dglc-HEX-x:x
4s:n-acetyl
5b:b-dman-HEX-1:5
6b:b-dxyl-PEN-1:5
7b:a-dman-HEX-1:5
8b:a-dman-HEX-1:5
9b:a-dman-HEX-1:5
10b:b-dglc-HEX-x:x
11s:n-acetyl
LIN
1:1d(2+1)2n
2:1o(4+1)3d
3:3d(2+1)4n
4:3o(4+1)5d
5:5o(2+1)6d
6:5o(6+1)7d
7:5o(3+1)8d
8:7o(3+1)9d
9:8o(2+1)10d
10:10d(2+1)11n