RES
1b:x-dglc-HEX-x:x
2b:a-lgal-HEX-1:5|6:d
3s:n-acetyl
4b:b-dglc-HEX-1:5
5s:n-acetyl
6b:b-dman-HEX-1:5
7b:b-dxyl-PEN-1:5
8b:a-dman-HEX-1:5
9b:a-dman-HEX-1:5
LIN
1:1o(3+1)2d
2:1d(2+1)3n
3:1o(4+1)4d
4:4d(2+1)5n
5:4o(4+1)6d
6:6o(2+1)7d
7:6o(6+1)8d
8:8o(6+1)9d