RES
1b:b-dglc-HEX-1:5
2s:n-acetyl
3s:amino
4n:n1
5b:b-dglc-HEX-1:5
6s:n-acetyl
7b:b-dman-HEX-1:5
8b:b-dxyl-PEN-1:5
9b:a-dman-HEX-1:5
10b:a-dman-HEX-1:5
LIN
1:1d(2+1)2n
2:1d(1+1)3n
3:1o(1+4)4n
4:1o(4+1)5d
5:5d(2+1)6n
6:5o(4+1)7d
7:7o(2+1)8d
8:7o(6+1)9d
9:7o(3+1)10d
NON
NON1
Parent:1
Linkage:o(1+4)n
SmallMolecule:SMILES [4C](=O)(N)[3CH2][2CH](N)[1C](=O)O
Description:asparagine