RES
1b:a-lara-PEN-1:5
2b:a-lman-HEX-1:5|6:d
3n:n1
4b:b-dglc-HEX-1:5
5b:b-dxyl-PEN-1:5
6b:b-dglc-HEX-1:5
LIN
1:1o(2+1)2d
2:1o(1+3)3n
3:1o(3+1)4d
4:4o(2+1)5d
5:4o(6+1)6d
NON
NON1
Parent:1
Linkage:o(1+3)n
SmallMolecule:SMILES C/C(C)=C/[C@H]1C[C@](C)(O)[C@@H]2[C@H]3CC[C@@H]4[C@@]5(C)CC{3}[C@H](O)C(C)(C)[C@@H]5CC[C@@]4(C)[C@]36C[C@]2(OC6)O1
Description:jujubogenin