RES
1b:b-drib-HEX-1:5|2:d|6:d
2n:n1
3b:b-drib-HEX-1:5|2:d|6:d
4b:b-drib-HEX-1:5|2:d|6:d
5b:b-dglc-HEX-1:5
6s:acetyl
LIN
1:1o(1+3)2n
2:1o(4+1)3d
3:3o(4+1)4d
4:4o(4+1)5d
5:4o(3+1)6n
NON
NON1
Parent:1
Linkage:o(1+3)n
SmallMolecule:SMILES O=C1OCC([C@H]2CC{14}[C@]3(O)[C@]4([H])CC[C@]5([H])C{3}[C@@H](O)CC[C@]5(C)[C@@]4([H])C{12}[C@@H](O)[C@]23C)=C1
Description:digoxigenin