RES
1n:n1
2b:b-dglc-HEX-1:5
3b:b-dglc-HEX-1:5|6:d
4b:a-lman-HEX-1:5|6:d
5b:b-dglc-HEX-1:5
6b:a-lman-HEX-1:5|6:d
7b:b-dxyl-PEN-1:5
8b:b-dgro-TET-1:4
9b:b-dxyl-PEN-1:5
10s:hydroxymethyl
11b:a-lman-HEX-1:5|6:d
12b:b-dgal-HEX-1:5
LIN
1:1n(3+1)2d
2:1n(28+1)3d
3:3o(3+1)4d
4:2o(3+1)5d
5:3o(2+1)6d
6:6o(3+1)7d
7:5o(3+1)8d
8:6o(4+1)9d
9:8h(3+1)10n
10:9o(3+1)11d
11:11o(2+1)12d
NON
NON1
SmallMolecule:SMILES O{2}[C@@H]1{3}[C@H](O)[C@@](C)({23}CO)[C@@](CC[C@]2(C)[C@]3([H])CC=C4[C@@]2(C)CC[C@]5({28}C(O)=O)[C@@]4([H])CC(C)(C)CC5)([H])[C@]3(C)C1
Description:bayogenin