RES
1b:b-xrib-HEX-1:5|2:d|6:d
2s:methyl
3n:n1
4b:b-xrib-HEX-1:5|2:d|6:d
5s:methyl
6b:b-xara-HEX-1:5|2:d|6:d
7s:methyl
8b:a-xrib-HEX-1:5|2:d|6:d
9s:methyl
LIN
1:1o(3+1)2n
2:1o(1+3)3n
3:1o(4+1)4d
4:4o(3+1)5n
5:4o(4+1)6d
6:6o(3+1)7n
7:6o(4+1)8d
8:8o(3+1)9n
NON
NON1
Parent:1
Linkage:o(1+3)n
SmallMolecule:SMILES C{20}[C@H](O){17}[C@]1(O)CC{14}[C@@]2(O)[C@]1(C){12}[C@H](O)C[C@H]3{8}[C@@]2(O)CC=C4[C@]3(C)CC{3}[C@H](O)C4
Description:sarcostin