RES
1r:r1
REP
REP1:8o(2+1)2d=-1--1
RES
2b:x-dgal-HEX-1:5|6:a
3b:x-lman-HEX-1:5|6:d
4n:n1
5b:x-dgal-HEX-1:5|6:a
6b:x-dgal-HEX-1:5|6:a
7b:x-dgal-HEX-1:5|6:a
8b:x-lman-HEX-1:5|6:d
LIN
1:2o(4+1)3d
2:3o(4+1)4n
3:3o(2+1)5d
4:5o(4+1)6d
5:6o(4+1)7d
6:7o(4+1)8d
NON
NON1
Parent:3
Linkage:o(4+1)n
HistoricalEntity:superclass: any monosaccharide