RES
1b:a-lman-HEX-1:5|6:d
2n:n1
3b:a-lman-HEX-1:5|6:d
4s:acetyl
5b:a-lman-HEX-1:5|6:d
6s:acetyl
7s:acetyl
8b:a-lman-HEX-1:5|6:d
9s:acetyl
LIN
1:1o(1+1)2n
2:1o(4+1)3d
3:3o(4+1)4n
4:3o(3+1)5d
5:5o(4+1)6n
6:5o(2+1)7n
7:5o(3+1)8d
8:8o(4+1)9n
NON
NON1
Parent:1
Linkage:o(1+1)n
SmallMolecule:SMILES [12CH3][11CH2][10CH2][9CH2][8CH2][7CH2][6CH2][5CH2][4CH2][3CH2][2CH2][1CH2]O
Description:dodecanol