RES
1b:o-xgro-TRI-x:x|1:aldi
2n:n1
3n:n2
4b:x-dgal-HEX-1:5
5b:x-dgal-HEX-1:5
LIN
1:1o(1+1)2n
2:1o(2+1)3n
3:1o(3+1)4d
4:4o(-1+1)5d
NON
NON1
Parent:1
Linkage:o(1+1)n
HistoricalEntity:superclass: lipid residue
NON2
Parent:1
Linkage:o(2+1)n
HistoricalEntity:superclass: lipid residue