RES
1b:b-dglc-HEX-1:5
2b:b-dglc-HEX-1:5
3b:a-dxyl-PEN-1:5
4b:b-dglc-HEX-1:5
5b:a-dxyl-PEN-1:5
6b:b-dglc-HEX-1:5
7b:a-dxyl-PEN-1:5
8b:b-dglc-HEX-1:5
9b:b-dglc-HEX-1:5
10b:a-dxyl-PEN-1:5
11b:b-dglc-HEX-1:5
12b:a-dxyl-PEN-1:5
13b:b-dglc-HEX-1:5
14b:a-dxyl-PEN-1:5
LIN
1:1o(4+1)2d
2:2o(6+1)3d
3:2o(4+1)4d
4:4o(6+1)5d
5:4o(4+1)6d
6:6o(6+1)7d
7:6o(4+1)8d
8:8o(4+1)9d
9:9o(6+1)10d
10:9o(4+1)11d
11:11o(6+1)12d
12:11o(4+1)13d
13:13o(6+1)14d