RES
1r:r1
REP
REP1:23o(4+1)2d=-1--1
RES
2b:x-xman-HEX-1:5|6:d
3b:x-xxyl-PEN-1:5
4b:a-xgal-HEX-1:5|6:a
5s:methyl
6b:a-xgal-HEX-1:5|6:a
7b:x-xxyl-PEN-1:5
8b:x-xxyl-PEN-1:5
9b:a-xgal-HEX-1:5|6:a
10b:x-xman-HEX-1:5|6:d
11b:x-xgal-HEX-1:5
12b:a-xgal-HEX-1:5|6:a
13b:a-xgal-HEX-1:5|6:a
14b:x-xgal-HEX-1:5
15b:x-xara-PEN-1:4
16b:a-xgal-HEX-1:5|6:a
17b:x-xman-HEX-1:5|6:d
18b:x-xara-PEN-1:4
19b:a-xgal-HEX-1:5|6:a
20b:x-xara-PEN-1:4
21s:methyl
22b:a-xgal-HEX-1:5|6:a
23b:a-xgal-HEX-1:5|6:a
24s:methyl
LIN
1:2o(4+1)3d
2:2o(2+1)4d
3:4o(6+1)5n
4:4o(4+1)6d
5:3o(4+1)7d
6:7o(4+1)8d
7:6o(4+1)9d
8:9o(4+1)10d
9:10o(4+1)11d
10:10o(2+1)12d
11:12o(4+1)13d
12:11o(4+1)14d
13:14o(4+1)15d
14:13o(4+1)16d
15:16o(4+1)17d
16:17o(4+1)18d
17:17o(2+1)19d
18:18o(3+1)20d
19:19o(6+1)21n
20:19o(4+1)22d
21:22o(4+1)23d
22:22o(6+1)24n