RES
1n:n1
2s:methyl
3s:methyl
4b:b-dgal-HEX-1:5|6:d
5b:b-dglc-HEX-1:5
6s:methyl
7s:methyl
8s:methyl
9s:methyl
10s:methyl
11s:methyl
12b:a-lman-HEX-1:5|6:d
13s:methyl
14s:methyl
15b:b-dxyl-PEN-1:5
16s:methyl
17s:methyl
18b:b-dgal-HEX-1:5
19s:methyl
20s:methyl
21s:methyl
22s:methyl
LIN
1:1n(27+1)2n
2:1n(23+1)3n
3:1n(28+1)4d
4:1n(3+1)5d
5:5o(4+1)6n
6:5o(2+1)7n
7:5o(6+1)8n
8:5o(3+1)9n
9:4o(4+1)10n
10:4o(3+1)11n
11:4o(2+1)12d
12:12o(2+1)13n
13:12o(3+1)14n
14:12o(4+1)15d
15:15o(2+1)16n
16:15o(3+1)17n
17:15o(4+1)18d
18:18o(2+1)19n
19:18o(3+1)20n
20:18o(4+1)21n
21:18o(6+1)22n
NON
NON1
SmallMolecule:SMILES C[C@@]12CC[C@@H]3[C@@](C{2}[C@H](O){3}[C@H](O)[C@]3({23}C(O)=O)C)(C)[C@H]1CC=C4[C@@]2({27}CO)CC[C@]5({28}C(O)=O)[C@H]4CC(C)(C)CC5
Description:presenegenin