RES
1n:n1
2s:methyl
3s:methyl
4b:a-lara-PEN-1:5
5n:n2
6s:methyl
7s:methyl
8s:methyl
9s:methyl
10b:b-dglc-HEX-1:5
11b:b-dgal-HEX-1:5
12s:methyl
13s:methyl
14s:methyl
15s:methyl
16s:methyl
17s:methyl
18s:methyl
19b:b-dglc-HEX-1:5
20s:methyl
21s:methyl
22s:methyl
23s:methyl
LIN
1:1n(21+1)2n
2:1n(24+1)3n
3:1n(22+1)4d
4:1n(3+1)5n
5:5n(3+1)6n
6:5n(4+1)7n
7:4o(2+1)8n
8:4o(4+1)9n
9:4o(3+1)10d
10:5n(2+1)11d
11:11o(4+1)12n
12:11o(3+1)13n
13:11o(6+1)14n
14:10o(6+1)15n
15:10o(4+1)16n
16:10o(3+1)17n
17:10o(2+1)18n
18:11o(2+1)19d
19:19o(2+1)20n
20:19o(3+1)21n
21:19o(4+1)22n
22:19o(6+1)23n
NON
NON1
SmallMolecule:SMILES C[C@]12CC[3C@@H]([C@]([C@@H]1CC[C@@]3([C@@H]2CC=C4[C@]3(CC[C@@]5([C@H]4CC([21C@H]([22C@H]5O)O)(C)C)C)C)C)(C)[24CH2]O)O
Description:soyasapogenol A
NON2
Parent:1
Linkage:n(3+1)n
HistoricalEntity:5-epimeric mixture of decarboxylated 5-acetoxy-bDGlcpA