RES
1b:o-dglc-HEX-0:0|1:aldi
2s:methyl
3s:methyl
4s:methyl
5b:b-dglc-HEX-1:5
6s:methyl
7s:methyl
8s:methyl
9b:a-lman-HEX-1:5|6:d
10s:methyl
11s:methyl
12s:methyl
LIN
1:1o(2+1)2n
2:1o(3+1)3n
3:1o(4+1)4n
4:1o(6+1)5d
5:5o(2+1)6n
6:5o(6+1)7n
7:5o(3+1)8n
8:5o(4+1)9d
9:9o(2+1)10n
10:9o(4+1)11n
11:9o(3+1)12n