RES
1b:b-dglc-HEX-1:5|6:a
2s:methyl
3n:n1
4b:b-dglc-HEX-1:5|6:a
5b:a-lman-HEX-1:5|6:d
6s:methyl
LIN
1:1o(6+1)2n
2:1o(1+3)3n
3:1o(2+1)4d
4:4o(2+1)5d
5:4o(6+1)6n
NON
NON1
Parent:1
Linkage:o(1+3)n
SmallMolecule:SMILES C[C@]12CC{3}[C@H](O)C(C)(C)[C@@H]1CC[C@]3(C)[C@@H]2CC=C4[C@@]3(C)CC[C@]5(C)[C@H]4C[C@]6(C)C[C@H]5OC6=O
Description:11-deoxoglabrolide