RES
1b:o-dglc-HEX-0:0|1:aldi
2s:methyl
3s:methyl
4b:a-lman-HEX-1:5|6:d
5b:a-lman-HEX-1:5|6:d
6s:methyl
7s:methyl
8s:methyl
9s:methyl
10s:methyl
11s:methyl
LIN
1:1o(4+1)2n
2:1o(3+1)3n
3:1o(2+1)4d
4:1o(6+1)5d
5:4o(3+1)6n
6:4o(2+1)7n
7:4o(4+1)8n
8:5o(4+1)9n
9:5o(3+1)10n
10:5o(2+1)11n