RES
1n:n1
2s:methyl
3s:methyl
4s:methyl
5s:methyl
6b:b-dglc-HEX-1:5
7s:methyl
8s:methyl
9b:a-lara-PEN-1:5
10b:a-lara-PEN-1:4
11s:methyl
12s:methyl
13s:methyl
14s:methyl
15s:methyl
16s:methyl
LIN
1:1n(16+1)2n
2:1n(15+1)3n
3:1n(28+1)4n
4:1n(22+1)5n
5:1n(3+1)6d
6:6o(6+1)7n
7:6o(2+1)8n
8:6o(3+1)9d
9:6o(4+1)10d
10:9o(3+1)11n
11:9o(2+1)12n
12:9o(4+1)13n
13:10o(2+1)14n
14:10o(3+1)15n
15:10o(5+1)16n
NON
NON1
SmallMolecule:SMILES CC1(C{22}[C@@H]([C@@]2({16}[C@@H]({15}[C@@H]([C@@]3(C([C@H]2C1)=CC[C@@H]4[C@]5(CC{3}[C@@H](C(C)([C@]5([H])CC[C@@]34C)C)O)C)C)O)O){28}CO)O)C
Description:proschiwalligenin PA3