RES
1n:n1
2b:b-drib-HEX-1:5|2:d|6:d
3b:b-dgal-HEX-1:5|6:d
4s:methyl
5s:methyl
6b:b-dgal-HEX-1:5|6:d
7b:b-dglc-HEX-1:5
8b:b-dglc-HEX-1:5
9s:methyl
LIN
1:1n(3+1)2d
2:1n(21+1)3d
3:2o(3+1)4n
4:3o(3+1)5n
5:2o(4+1)6d
6:3o(2+1)7d
7:7o(6+1)8d
8:6o(3+1)9n
NON
NON1
SmallMolecule:SMILES C{20}[C@H](O)[C@H]1CC[C@@]2([H])[C@]3([H])CC=C4C{3}[C@@H](O)CC[C@]4(C)[C@@]3([H])CC[C@]12C
Description:pregn-5-en-3β,20α-diol