RES
1b:b-dglc-HEX-1:5
2b:b-dglc-HEX-1:5
3b:a-dxyl-PEN-1:5
4b:b-dglc-HEX-1:5
5b:b-dgal-HEX-1:5
6b:a-dxyl-PEN-1:5
7b:b-dglc-HEX-1:5
8b:a-dxyl-PEN-1:5
9b:b-dglc-HEX-1:5
10b:b-dglc-HEX-1:5
11b:a-dxyl-PEN-1:5
12b:b-dglc-HEX-1:5
13b:a-dxyl-PEN-1:5
14b:b-dglc-HEX-1:5
15b:a-dxyl-PEN-1:5
LIN
1:1o(4+1)2d
2:2o(6+1)3d
3:2o(4+1)4d
4:3o(2+1)5d
5:4o(6+1)6d
6:4o(4+1)7d
7:7o(6+1)8d
8:7o(4+1)9d
9:9o(4+1)10d
10:10o(6+1)11d
11:10o(4+1)12d
12:12o(6+1)13d
13:12o(4+1)14d
14:14o(6+1)15d