RES
1b:b-xglc-HEX-1:5
2b:a-xgal-HEX-1:5|6:d
3s:n-acetyl
4b:b-xglc-HEX-1:5
5s:n-acetyl
6b:b-xman-HEX-1:5
7b:b-xxyl-PEN-1:5
8b:a-xman-HEX-1:5
9b:a-xman-HEX-1:5
10b:b-xglc-HEX-1:5
11b:b-xglc-HEX-1:5
12b:a-xgal-HEX-1:5|6:d
13b:b-xgal-HEX-1:5
14b:b-xgal-HEX-1:5
15s:n-acetyl
16s:n-acetyl
LIN
1:1o(3+1)2d
2:1d(2+1)3n
3:1o(4+1)4d
4:4d(2+1)5n
5:4o(4+1)6d
6:6o(2+1)7d
7:6o(3+1)8d
8:6o(6+1)9d
9:9o(2+1)10d
10:8o(2+1)11d
11:11o(4+1)12d
12:10o(3+1)13d
13:11o(3+1)14d
14:10d(2+1)15n
15:11d(2+1)16n