RES
1b:b-dman-HEX-1:5
2b:a-dgal-HEX-1:5
3b:b-dglc-HEX-1:5
4b:b-dman-HEX-1:5
5b:b-dglc-HEX-1:5
6b:a-dgal-HEX-1:5
7b:b-dgal-HEX-1:5
LIN
1:1o(6+1)2d
2:1o(4+1)3d
3:3o(4+1)4d
4:4o(4+1)5d
5:4o(6+1)6d
6:6o(2+1)7d