RES
1r:r1
REP
REP1:37o(4+1)2d=-1--1
RES
2b:b-dglc-HEX-1:5
3b:b-dglc-HEX-1:5
4b:a-dxyl-PEN-1:5
5b:b-dglc-HEX-1:5
6b:a-dxyl-PEN-1:5
7b:b-dgal-HEX-1:5
8b:b-dglc-HEX-1:5
9b:a-dxyl-PEN-1:5
10b:a-lgal-HEX-1:5
11b:b-dglc-HEX-1:5
12b:b-dglc-HEX-1:5
13b:a-dxyl-PEN-1:5
14b:b-dglc-HEX-1:5
15b:a-dxyl-PEN-1:5
16b:b-dglc-HEX-1:5
17b:a-dxyl-PEN-1:5
18b:b-dglc-HEX-1:5
19b:b-dglc-HEX-1:5
20b:a-dxyl-PEN-1:5
21b:b-dglc-HEX-1:5
22b:a-dxyl-PEN-1:5
23b:b-dglc-HEX-1:5
24b:a-dxyl-PEN-1:5
25b:b-dgal-HEX-1:5
26b:b-dglc-HEX-1:5
27b:b-dglc-HEX-1:5
28b:a-dxyl-PEN-1:5
29b:b-dglc-HEX-1:5
30b:a-dxyl-PEN-1:5
31b:b-dglc-HEX-1:5
32b:a-dxyl-PEN-1:5
33b:b-dglc-HEX-1:5
34b:b-dglc-HEX-1:5
35b:a-dxyl-PEN-1:5
36b:b-dglc-HEX-1:5
37b:b-dglc-HEX-1:5
38b:a-dxyl-PEN-1:5
39b:b-dgal-HEX-1:5
40b:a-lgal-HEX-1:5
41b:a-dxyl-PEN-1:5
42b:b-dgal-HEX-1:5
43b:a-lgal-HEX-1:5
LIN
1:2o(4+1)3d
2:3o(6+1)4d
3:3o(4+1)5d
4:5o(6+1)6d
5:4o(2+1)7d
6:5o(4+1)8d
7:8o(6+1)9d
8:7o(2+1)10d
9:8o(4+1)11d
10:11o(4+1)12d
11:12o(6+1)13d
12:12o(4+1)14d
13:14o(6+1)15d
14:14o(4+1)16d
15:16o(6+1)17d
16:16o(4+1)18d
17:18o(4+1)19d
18:19o(6+1)20d
19:19o(4+1)21d
20:21o(6+1)22d
21:21o(4+1)23d
22:23o(6+1)24d
23:22o(2+1)25d
24:23o(4+1)26d
25:26o(4+1)27d
26:27o(6+1)28d
27:27o(4+1)29d
28:29o(6+1)30d
29:29o(4+1)31d
30:31o(6+1)32d
31:31o(4+1)33d
32:33o(4+1)34d
33:34o(6+1)35d
34:34o(4+1)36d
35:36o(4+1)37d
36:36o(6+1)38d
37:35o(2+1)39d
38:39o(2+1)40d
39:37o(6+1)41d
40:38o(2+1)42d
41:42o(2+1)43d