RES
1b:b-drib-HEX-1:5|2:d|6:d
2s:methyl
3n:n1
4b:b-drib-HEX-1:5|2:d|6:d
5s:methyl
6b:b-dara-HEX-1:5|2:d|6:d
7s:methyl
8b:a-lrib-HEX-1:5|2:d|6:d
9b:b-dglc-HEX-1:5
10s:methyl
LIN
1:1o(3+1)2n
2:1o(1+3)3n
3:1o(4+1)4d
4:4o(3+1)5n
5:4o(4+1)6d
6:6o(3+1)7n
7:6o(4+1)8d
8:8o(4+1)9d
9:8o(3+1)10n
NON
NON1
Parent:1
Linkage:o(1+3)n
SmallMolecule:SMILES CC(/C(C)=C/C(O[C@@H]1C[C@]2(C)[C@@]3(C)CC{3}[C@H](O)CC3=CC{8}[C@@]2(O){14}[C@]4(O)[C@@]1(C){17}[C@@](C(C)=O)(O)CC4)=O)C
Description:caudatin