RES
1b:b-dglc-HEX-1:5
2s:n-acetyl
3b:b-dglc-HEX-1:5
4s:n-acetyl
5b:b-dman-HEX-1:5
6b:b-xxyl-PEN-1:5
7b:a-dman-HEX-1:5
8b:a-dman-HEX-1:5
9b:b-dglc-HEX-1:5
10b:b-dglc-HEX-1:5
11s:n-acetyl
12s:n-acetyl
LIN
1:1d(2+1)2n
2:1o(4+1)3d
3:3d(2+1)4n
4:3o(4+1)5d
5:5o(2+1)6d
6:5o(6+1)7d
7:5o(3+1)8d
8:8o(2+1)9d
9:7o(2+1)10d
10:9d(2+1)11n
11:10d(2+1)12n