RES
1r:r1
REP
REP1:5o(4+1)2d=-1--1
RES
2b:a-xman-HEX-1:5|6:d
3r:r2
4r:r3
5b:a-dgal-HEX-1:5|6:a
LIN
1:2o(2+1)3n
2:3n(2+1)4n
3:4n(4+1)5d
REP2:6o(2+1)6d=0-1
RES
6b:a-xman-HEX-1:5|6:d
REP3:7o(2+1)7d=-1--1
RES
7b:a-dgal-HEX-1:5|6:a