RES
1n:n1
2b:b-dglc-HEX-1:5
3b:b-dglc-HEX-1:5
4n:n2
5b:b-dxyl-PEN-1:5
6n:n3
7b:b-dglc-HEX-1:5
8n:n4
LIN
1:1n(5+1)2d
2:1n(3+1)3d
3:2o(6+1)4n
4:3o(2+1)5d
5:3o(6+9)6n
6:6n(4+1)7d
7:5o(2+9)8n
NON
NON1
SmallMolecule:SMILES O[3C]1=C(C2=CC=[54C](O)[53C](O)=C2)[O+]=C3[8CH]=[7C](O)[6CH]=[5C](O)C3=C1
Description:3,3',4',5,7-pentahydroxyflavylium
NON2
Parent:2
Linkage:o(6+1)n
SmallMolecule:SMILES [3C](=O)(O)[2CH2][1C](=O)(O)
Description:malonic acid
NON3
Parent:3
Linkage:o(6+9)n
SmallMolecule:SMILES [6CH]1=[5CH][4C](O)=[3CH][2CH]=[1C]1/[7CH]=[8CH]/[9C](=O)O
Description:p-coumaric acid
NON4
Parent:5
Linkage:o(2+9)n
SmallMolecule:SMILES [6CH]1=[5C](O[11CH3])[4C](O)=[3C](O[10CH3])[2CH]=[1C]1/[7CH]=[8CH]/[9C](=O)O
Description:sinapic/sinapinic acid