RES
1b:b-dglc-HEX-1:5
2b:a-xgal-HEX-x:x|6:d
3s:amino
4s:n-acetyl
5n:n1
6b:b-dglc-HEX-1:5
7s:n-acetyl
8b:b-xman-HEX-1:5
9b:b-xxyl-PEN-1:5
10b:a-xman-HEX-1:5
11b:a-xman-HEX-1:5
12b:b-dglc-HEX-1:5
13b:b-dglc-HEX-1:5
14s:n-acetyl
15s:n-acetyl
LIN
1:1o(3+1)2d
2:1d(1+1)3n
3:1d(2+1)4n
4:1o(1+4)5n
5:1o(4+1)6d
6:6d(2+1)7n
7:6o(4+1)8d
8:8o(2+1)9d
9:8o(6+1)10d
10:8o(3+1)11d
11:11o(2+1)12d
12:10o(2+1)13d
13:12d(2+1)14n
14:13d(2+1)15n
NON
NON1
Parent:1
Linkage:o(1+4)n
SmallMolecule:SMILES [4C](=O)(N)[3CH2][2CH](N)[1C](=O)O
Description:asparagine