RES
1n:n1
2s:acetyl
3b:b-xrib-HEX-1:5|2:d|6:d
4s:methyl
5b:b-xrib-HEX-1:5|2:d|6:d
6s:methyl
7b:a-xrib-HEX-1:5|2:d|6:d
8s:methyl
9b:b-xrib-HEX-1:5|2:d|6:d
10s:methyl
11b:a-xrib-HEX-1:5|2:d|6:d
12s:methyl
LIN
1:1n(12+1)2n
2:1n(3+1)3d
3:3o(3+1)4n
4:3o(4+1)5d
5:5o(3+1)6n
6:5o(4+1)7d
7:7o(3+1)8n
8:7o(4+1)9d
9:9o(3+1)10n
10:9o(4+1)11d
11:11o(3+1)12n
NON
NON1
SmallMolecule:SMILES O=C(C){17}[C@]3(O)CC{14}[C@]4(O)C2C/C=C\1C{3}[C@@H](O)CC[C@]1(C)C2C{12}[C@@H](O)[C@]34C
Description:pergularin