RES
1b:b-dglc-HEX-1:5|6:a
2b:b-dxyl-PEN-1:5
3b:b-dgal-HEX-1:5
4n:n1
LIN
1:1o(3+1)2d
2:1o(2+1)3d
3:1o(1+3)4n
NON
NON1
Parent:1
Linkage:o(1+3)n
SmallMolecule:SMILES C[C@@]1(C=O){3}[C@@H](O)CC[C@]2(C)[C@@]3([H])CC=C4[C@@]5([H])CC(C)(C)CC[C@@]({28}C(O)=O)5{16}[C@H](O)C[C@](C)4[C@@](C)3CCC12
Description:quillaic acid