RES
1b:b-dara-HEX-2:5|1:aldi|2:keto
2b:a-dglc-HEX-1:5
3n:n1
4s:methyl
5n:n2
6s:methyl
LIN
1:1o(2+1)2d
2:1o(3+9)3n
3:3n(4+1)4n
4:2o(6+9)5n
5:5n(4+1)6n
NON
NON1
Parent:1
Linkage:o(3+9)n
SmallMolecule:SMILES [6CH]1=[5C](O[11CH3])[4C](O)=[3C](O[10CH3])[2CH]=[1C]1/[7CH]=[8CH]/[9C](=O)O
Description:sinapic/sinapinic acid
NON2
Parent:2
Linkage:o(6+9)n
SmallMolecule:SMILES [6CH]1=[5C](O[11CH3])[4C](O)=[3C](O[10CH3])[2CH]=[1C]1/[7CH]=[8CH]/[9C](=O)O
Description:sinapic/sinapinic acid