RES
1n:n1
2s:methyl
3s:methyl
4b:b-dglc-HEX-1:5
5b:a-lman-HEX-1:5|6:d
LIN
1:1n(3+1)2n
2:1n(53+1)3n
3:1n(7+1)4d
4:4o(6+1)5d
NON
NON1
SmallMolecule:SMILES O[3C]1=C(C2=C[53C](O)=[54C](O)C=C2)OC3=C([5C](O)=[6CH][7C](O)=[8CH]3)C1=O
Description:3,5,7,3',4'-pentahydroxyflavone