RES
1n:n1
2s:acetyl
3b:b-dglc-HEX-1:5
4s:acetyl
5s:acetyl
6s:acetyl
7s:acetyl
LIN
1:1n(53+1)2n
2:1n(5+1)3d
3:3o(2+1)4n
4:3o(3+1)5n
5:3o(6+1)6n
6:3o(4+1)7n
NON
NON1
SmallMolecule:SMILES C/C1=C(CC{53}C(C)O)/C(C)(C)C{5}C(O)C1
Description:5-hydroxy-2-(3-hydroxybutyl)-1,3,3-trimethylcyclohexene