RES
1n:n1
2s:acetyl
3s:acetyl
4b:b-dglc-HEX-1:5
5s:acetyl
6s:acetyl
7n:n2
8b:a-lman-HEX-1:5|6:d
9s:acetyl
10s:acetyl
11s:acetyl
12s:acetyl
13b:b-dglc-HEX-1:5
14s:acetyl
15s:acetyl
16s:acetyl
17s:acetyl
LIN
1:1n(3+1)2n
2:1n(4+1)3n
3:1n(8+1)4d
4:4o(4+1)5n
5:4o(2+1)6n
6:4o(6+9)7n
7:4o(3+1)8d
8:8o(3+1)9n
9:8o(4+1)10n
10:7n(4+1)11n
11:7n(3+1)12n
12:8o(2+1)13d
13:13o(2+1)14n
14:13o(3+1)15n
15:13o(6+1)16n
16:13o(4+1)17n
NON
NON1
SmallMolecule:SMILES [6CH]1=[5CH][4C](O)=[3C](O)[2CH]=[1C]1[7CH2][8CH2]O
Description:3,4,8-trihydroxy-ethylbenzene
NON2
Parent:4
Linkage:o(6+9)n
SmallMolecule:SMILES [6CH]1=[5CH][4C](O)=[3C](O)[2CH]=[1C]1/[7CH]=[8CH]/[9C](=O)O
Description:caffeic acid