RES
1b:b-dglc-HEX-1:5
2b:a-lman-HEX-1:5|6:d
3n:n1
LIN
1:1o(2+1)2d
2:1o(1+7)3n
NON
NON1
Parent:1
Linkage:o(1+7)n
SmallMolecule:SMILES O=C(C1=[5C](O)[6CH]=[7C](O)[8CH]=C1O2)[3CH]=C2C3=C[53C](O)=[54C](O)C=C3
Description:5,7,3',4'-tetrahydroxyflavone