RES
1b:b-dglc-HEX-1:5
2b:a-lman-HEX-1:5|6:d
3b:a-lman-HEX-1:5|6:d
4n:n1
5n:n2
LIN
1:1o(3+1)2d
2:1o(6+1)3d
3:1o(1+8)4n
4:1o(4+9)5n
NON
NON1
Parent:1
Linkage:o(1+8)n
SmallMolecule:SMILES [6CH]1=[5CH][4C](O)=[3C](O)[2CH]=[1C]1[7CH2][8CH2]O
Description:3,4,8-trihydroxy-ethylbenzene
NON2
Parent:1
Linkage:o(4+9)n
SmallMolecule:SMILES [6CH]1=[5CH][4C](O)=[3C](O)[2CH]=[1C]1/[7CH]=[8CH]/[9C](=O)O
Description:caffeic acid