RES
1b:b-dglc-HEX-1:5
2s:acetyl
3s:acetyl
4s:acetyl
5n:n1
6b:a-lara-PEN-1:4
7s:acetyl
8s:acetyl
9s:acetyl
LIN
1:1o(3+1)2n
2:1o(2+1)3n
3:1o(4+1)4n
4:1o(1+6)5n
5:1o(6+1)6d
6:6o(2+1)7n
7:6o(3+1)8n
8:6o(5+1)9n
NON
NON1
Parent:1
Linkage:o(1+6)n
SmallMolecule:SMILES C/C(C)=C\CC{6}[C@@](C)(O)C=C
Description:6R-linalool