RES
1n:n1
2s:methyl
3s:methyl
4s:methyl
5s:methyl
6b:b-dglc-HEX-1:5
7b:b-dxyl-PEN-1:5
LIN
1:1n(7+1)2n
2:1n(53+1)3n
3:1n(54+1)4n
4:1n(55+1)5n
5:1n(5+1)6d
6:6o(6+1)7d
NON
NON1
SmallMolecule:SMILES O=c1cc(-c2c{53}c(O){54}c(O){55}c(O)c2)oc2c{7}c(O)c{5}c(O)c12
Description:tricetin