RES
1b:b-dglc-HEX-1:5
2b:b-dxyl-PEN-1:5
3n:n1
4n:n2
5b:a-lman-HEX-1:5|6:d
6b:b-dxyl-PEN-1:5
LIN
1:1o(6+1)2d
2:1o(1+8)3n
3:1o(4+9)4n
4:1o(3+1)5d
5:5o(4+1)6d
NON
NON1
Parent:1
Linkage:o(1+8)n
SmallMolecule:SMILES [6CH]1=[5CH][4C](O)=[3C](O)[2CH]=[1C]1[7CH2][8CH2]O
Description:3,4,8-trihydroxy-ethylbenzene
NON2
Parent:1
Linkage:o(4+9)n
SmallMolecule:SMILES [6CH]1=[5CH][4C](O)=[3C](O)[2CH]=[1C]1/[7CH]=[8CH]/[9C](=O)O
Description:caffeic acid