RES
1b:b-dara-HEX-1:5|2:d|6:d
2s:methyl
3n:n1
4b:b-drib-HEX-1:5|2:d|6:d
5b:b-dara-HEX-1:5|2:d|6:d
6s:methyl
7b:b-dara-HEX-1:5|2:d|6:d
8b:b-dglc-HEX-1:5
9s:methyl
LIN
1:1o(3+1)2n
2:1o(1+3)3n
3:1o(4+1)4d
4:4o(4+1)5d
5:5o(3+1)6n
6:5o(4+1)7d
7:7o(4+1)8d
8:7o(3+1)9n
NON
NON1
Parent:1
Linkage:o(1+3)n
SmallMolecule:SMILES CC(=O)[C@H]3{16}[C@H](O){15}[C@@H](O){14}[C@]4(O)C2CCC1C{3}[C@@H](O)CC[C@]1(C)C2CC[C@]34C
Description:pregnan-3β,14β,15β,16α-tetrol-4-one