RES
1n:n1
2s:methyl
3s:acetyl
4b:b-dglc-HEX-1:5
5s:acetyl
6s:acetyl
7s:acetyl
8s:acetyl
LIN
1:1n(3+1)2n
2:1n(54+1)3n
3:1n(9+1)4d
4:4o(2+1)5n
5:4o(3+1)6n
6:4o(4+1)7n
7:4o(6+1)8n
NON
NON1
SmallMolecule:SMILES COc3cc([C@H]2c1c{3}c(O)c(OC)cc1C[C@@H](C)[C@@H]2{9}CO)cc{54}c3O
Description:(+)-10'-deoxyisolariciresinol