RES
1b:b-dglc-HEX-1:5
2b:a-lman-HEX-1:5|6:d
3n:n1
4n:n2
LIN
1:1o(3+1)2d
2:1o(1+1)3n
3:1o(4+9)4n
NON
NON1
Parent:1
Linkage:o(1+1)n
SmallMolecule:SMILES C/C(C)=C\CC/C(C)=C/{1}CO
Description:geraniol
NON2
Parent:1
Linkage:o(4+9)n
SmallMolecule:SMILES [6CH]1=[5CH][4C](O)=[3C](O)[2CH]=[1C]1/[7CH]=[8CH]/[9C](=O)O
Description:caffeic acid