RES
1n:n1
2s:acetyl
3s:acetyl
4s:acetyl
5b:b-dxyl-PEN-1:5
6s:acetyl
7s:acetyl
8s:acetyl
LIN
1:1n(11+1)2n
2:1n(3+1)3n
3:1n(54+1)4n
4:1n(9+1)5d
5:5o(2+1)6n
6:5o(4+1)7n
7:5o(3+1)8n
NON
NON1
SmallMolecule:SMILES COc3cc([C@H]2c1c{3}c(O)c(OC)cc1C[C@@H]({10}CO)[C@H]2{9}CO)cc{54}c3O
Description:(+)-isolariciresinol