RES
1n:n1
2s:acetyl
3s:acetyl
4b:b-dglc-HEX-1:5
5s:acetyl
6s:acetyl
7s:acetyl
8s:acetyl
LIN
1:1n(2+1)2n
2:1n(3+1)3n
3:1n(4+1)4d
4:4o(2+1)5n
5:4o(3+1)6n
6:4o(4+1)7n
7:4o(6+1)8n
NON
NON1
SmallMolecule:SMILES O=C1N[C@@H]2C(=C{2}[C@H](O){3}[C@@H](O){4}[C@H]2O)c2cc3c({7}c(O)c21)OCO3
Description:narciclasine