RES
1b:b-dglc-HEX-1:5
2s:acetyl
3s:acetyl
4s:acetyl
5n:n1
6b:b-dgro-TET-1:4
7s:acetyl
8s:hydroxymethyl
9s:acetyl
10b:b-dglc-HEX-1:5
11s:acetyl
12s:acetyl
13s:acetyl
14s:acetyl
LIN
1:1o(2+1)2n
2:1o(3+1)3n
3:1o(4+1)4n
4:1o(1+1)5n
5:1o(6+1)6d
6:6o(3+1)7n
7:6h(3+1)8n
8:6o(5+1)9n
9:6o(2+1)10d
10:10o(2+1)11n
11:10o(3+1)12n
12:10o(6+1)13n
13:10o(4+1)14n
NON
NON1
Parent:1
Linkage:o(1+1)n
SmallMolecule:SMILES O{1}CCC1=CC=CC=C1
Description:phenylethanol