RES
1b:b-dglc-HEX-1:5
2b:a-lman-HEX-1:5|6:d
3b:a-lman-HEX-1:5|6:d
4n:n1
LIN
1:1o(4+1)2d
2:1o(2+1)3d
3:1o(1+3)4n
NON
NON1
Parent:1
Linkage:o(1+3)n
SmallMolecule:SMILES C[C@@H]1C(=O)O[C@H]2C[C@H]3[C@@H]4CC=C5C{3}[C@@H](O)CC[C@]5(C)[C@H]4CC[C@]3(C)C21
Description:16β,20S-3β-hydroxy-20-methyl-16,21-epoxypregn-5-en-21-one