RES
1r:r1
REP
REP1:7o(4+1)2d=-1--1
RES
2b:b-dgal-HEX-1:5
3b:a-dman-HEX-1:5
4b:a-dman-HEX-1:5
5b:a-dglc-HEX-1:5
6s:acetyl
7b:b-dman-HEX-1:5|6:d
8b:a-dara-HEX-1:5|3:d|6:d
LIN
1:2o(3+1)3d
2:3o(2+1)4d
3:3o(3+1)5d
4:5o(2+1)6n
5:4o(2+1)7d
6:7o(3+1)8d