RES
1b:x-dman-OCT-x:x|1:a|2:keto|3:d
2b:a-lgro-dman-HEP-1:5
3b:a-dglc-HEX-1:5
4b:a-lgro-dman-HEP-1:5
5b:b-dglc-HEX-1:5
6b:a-lgro-dman-HEP-1:5
7b:a-lgro-dman-HEP-1:5
8b:b-dgal-HEX-1:5
9b:b-dgal-HEX-1:5
10s:phospho-ethanolamine
11s:phospho-ethanolamine
12s:phosphate
13s:phosphate
14n:n1
15n:n2
LIN
1:1o(5+1)2d
2:2o(6+1)3d
3:2o(3+1)4d
4:2o(4+1)5d
5:4o(2+1)6d
6:5o(6+1)7d
7:7o(4+1)8d
8:7o(6+1)9d
9:9o(6+1)10n
10:8o(6+1)11n
11:9o(3+1)12n
12:8o(3+1)13n
13:13n(1+1)14n
14:12n(1+1)15n
NON
NON1
Parent:13
Linkage:n(1+1)n
SmallMolecule:SMILES C[N+](C)(C)[2CH2][1CH2]O
Description:choline
NON2
Parent:12
Linkage:n(1+1)n
SmallMolecule:SMILES C[N+](C)(C)[2CH2][1CH2]O
Description:choline