RES
1b:a-dman-OCT-2:6|1:a|2:keto|3:d
2b:a-dman-OCT-2:6|1:a|2:keto|3:d
3b:a-lgro-dman-HEP-1:5
4b:b-dglc-HEX-1:5
5b:a-lgro-dman-HEP-1:5
6b:a-lgro-dman-HEP-1:5
7b:b-dgal-HEX-1:5|6:a
8b:a-dgal-HEX-1:5|6:a
9b:a-dglc-HEX-1:5
10b:a-dman-OCT-2:6|1:a|2:keto|3:d
11s:amino
LIN
1:1o(4+2)2d
2:1o(5+1)3d
3:3o(4+1)4d
4:3o(3+1)5d
5:5o(7+1)6d
6:4o(6+1)7d
7:5o(3+1)8d
8:8o(4+1)9d
9:9o(6+2)10d
10:9d(2+1)11n