RES
1b:a-dman-OCT-2:6|1:a|2:keto|3:d
2b:a-lgro-dman-HEP-1:5
3b:a-dman-OCT-2:6|1:a|2:keto|3:d
4b:a-lman-HEX-1:5|6:d
5b:a-dman-OCT-2:6|1:a|2:keto|3:d
6s:phospho-ethanolamine
7s:phosphate
8b:a-lgro-dman-HEP-1:5
9b:a-lgro-dman-HEP-1:5
10s:phosphate
11b:a-dglc-HEX-1:5
12b:a-dgal-HEX-1:5
13b:a-dglc-HEX-1:5
14b:a-dglc-HEX-1:5
15b:a-lgro-dman-HEP-1:5
LIN
1:1o(5+1)2d
2:1o(4+2)3d
3:3o(5+1)4d
4:3o(4+2)5d
5:3o(7+1)6n
6:2o(4+1)7n
7:2o(3+1)8d
8:8o(7+1)9d
9:8o(4+1)10n
10:8o(3+1)11d
11:11o(6+1)12d
12:11o(3+1)13d
13:13o(2+1)14d
14:14o(4+1)15d