RES
1r:r1
REP
REP1:7o(6+1)2d=-1--1
RES
2b:a-dgal-HEX-1:5
3b:b-dgal-HEX-1:5
4s:n-acetyl
5s:phosphate
6b:b-dgal-HEX-1:5
7b:b-dgal-HEX-1:5
8b:a-dglc-HEX-1:5
9b:o-dgro-TRI-0:0|1:aldi
10s:n-acetyl
LIN
1:2o(3+1)3d
2:3d(2+1)4n
3:3o(3+1)5n
4:3o(4+1)6d
5:6o(3+1)7d
6:6o(6+1)8d
7:5n(1+1)9o
8:6d(2+1)10n