RES
1r:r1
REP
REP1:10o(6+1)2d=-1--1
RES
2b:b-dgal-HEX-1:5
3s:n-acetyl
4b:a-dgal-HEX-1:5
5b:b-dgal-HEX-1:5
6s:n-acetyl
7b:b-dglc-HEX-1:5|6:a
8b:a-dglc-HEX-1:5
9b:a-dglc-HEX-1:5
10b:a-dglc-HEX-1:5
11b:a-dglc-HEX-1:5
LIN
1:2d(2+1)3n
2:2o(3+1)4d
3:4o(3+1)5d
4:5d(2+1)6n
5:5o(4+1)7d
6:5o(6+1)8d
7:8o(2+1)9d
8:7o(4+1)10d
9:10o(4+1)11d