RES
1r:r1
REP
REP1:4o(4+1)2d=-1--1
RES
2b:x-dgal-HEX-1:5
3b:x-dman-HEX-1:5
4b:x-dglc-HEX-1:5
5b:x-dgal-HEX-1:5
6b:x-dgal-HEX-1:5
7b:x-dgal-HEX-1:5
LIN
1:2o(3+1)3d
2:3o(3+1)4d
3:4o(2+1)5d
4:4o(6+1)6d
5:6o(4+1)7d