RES
1r:r1
REP
REP1:6o(3+1)2d=-1--1
RES
2b:b-dglc-HEX-1:5
3b:a-lman-HEX-1:5|6:d
4b:a-lman-HEX-1:5|6:d
5b:a-dman-HEX-1:5
6b:a-lman-HEX-1:5|6:d
7b:b-dglc-HEX-1:5|6:a
8b:a-lman-HEX-1:5|6:d
LIN
1:2o(3+1)3d
2:3o(3+1)4d
3:4o(3+1)5d
4:5o(3+1)6d
5:5o(2+1)7d
6:7o(4+1)8d