RES
1b:a-dglc-HEX-1:5
2s:phosphate
3s:amino
4b:b-dglc-HEX-1:5
5s:amino
6s:phosphate
7s:amino
8b:a-dman-OCT-2:6|1:a|2:keto|3:d
9b:a-dman-HEX-1:5
10s:phosphate
11b:a-dgal-HEX-1:5|6:a
12b:a-dman-HEX-1:5
13b:a-dman-HEX-1:5|6:d
LIN
1:1o(1+1)2n
2:1d(2+1)3n
3:1o(6+1)4d
4:4d(3+1)5n
5:4o(4+1)6n
6:4d(2+1)7n
7:4o(6+2)8d
8:8o(5+1)9d
9:8o(4+1)10n
10:10n(1+1)11o
11:9o(6+1)12d
12:12o(6+1)13d