RES
1r:r1
REP
REP1:6o(2+1)2d=-1--1
RES
2b:b-dgal-HEX-1:5
3s:n-acetyl
4b:b-dglc-HEX-1:5|6:a
5b:b-dglc-HEX-1:5
6b:a-lxyl-HEX-1:5|3:d|6:d
7s:n-acetyl
8b:b-dgal-HEX-1:5
9b:a-lxyl-HEX-1:5|3:d|6:d
LIN
1:2d(2+1)3n
2:2o(3+1)4d
3:4o(4+1)5d
4:5o(4+1)6d
5:5d(2+1)7n
6:5o(3+1)8d
7:8o(2+1)9d