RES
1s:phosphate
2n:n1
3b:x-dglc-HEX-1:5
4s:amino
5b:a-dman-HEX-1:5
6b:a-dman-HEX-1:5
7b:b-dgal-HEX-1:4
8b:a-dgal-HEX-1:5
9b:a-dgal-HEX-1:5
LIN
1:1n(1+-1)2n
2:2n(6+1)3d
3:3d(2+1)4n
4:3o(4+1)5d
5:5o(3+1)6d
6:6o(3+1)7d
7:7o(3+1)8d
8:8o(6+1)9d
NON
NON1
Parent:1
Linkage:n(1+-1)n
HistoricalEntity:superclass: any inositol