RES
1r:r1
REP
REP1:10o(6+1)2n=-1--1
RES
2s:phosphate
3b:a-dgal-HEX-1:5
4b:b-dgal-HEX-1:5
5s:n-acetyl
6b:b-dgal-HEX-1:4
7b:b-dglc-HEX-1:5
8b:b-lman-HEX-1:5|6:d
9b:a-lman-HEX-1:5|6:d
10b:a-dgal-HEX-1:5
11s:n-acetyl
LIN
1:2n(1+1)3o
2:3o(3+1)4d
3:4d(2+1)5n
4:4o(6+1)6d
5:6o(6+1)7d
6:7o(4+1)8d
7:8o(2+1)9d
8:8o(3+1)10d
9:10d(2+1)11n