RES
1b:b-dglc-HEX-1:5
2s:n-acetyl
3b:a-lman-HEX-1:5|6:d
4b:a-lman-HEX-1:5|6:d
5b:a-lman-HEX-1:5|6:d
6b:a-lman-HEX-1:5|6:d
7b:a-lman-HEX-1:5|6:d
8b:b-dglc-HEX-1:5
9s:n-acetyl
10b:a-dgal-HEX-1:5
11b:a-lman-HEX-1:5|6:d
LIN
1:1d(2+1)2n
2:1o(4+1)3d
3:3o(3+1)4d
4:4o(3+1)5d
5:5o(3+1)6d
6:6o(3+1)7d
7:7o(3+1)8d
8:8d(2+1)9n
9:8o(3+1)10d
10:10o(3+1)11d