RES
1b:a-dman-OCT-x:x|1:a|2:keto|3:d
2s:diphospho-ethanolamine
3b:a-lgro-dman-HEP-1:5
4b:a-lgro-dman-HEP-1:5
5b:b-dglc-HEX-1:5
6b:a-lgro-dman-HEP-1:5
7b:a-dgro-dman-HEP-1:5
8b:b-dgal-HEX-1:5
9b:b-dglc-HEX-1:5
10s:n-acetyl
11b:b-dgal-HEX-1:5
12b:a-dgro-dgal-NON-2:6|1:a|2:keto|3:d
13s:n-acetyl
LIN
1:1o(4+1)2n
2:1o(5+1)3d
3:3o(3+1)4d
4:3o(4+1)5d
5:4o(2+1)6d
6:5o(6+1)7d
7:7o(4+1)8d
8:8o(3+1)9d
9:9d(2+1)10n
10:9o(4+1)11d
11:11o(3+2)12d
12:12d(5+1)13n