RES
1r:r1
REP
REP1:5o(3+1)2d=-1--1
RES
2b:a-lglc-HEX-1:5|6:d
3s:n-acetyl
4b:a-dgal-HEX-1:5
5b:b-dglc-HEX-1:5|6:d
6b:b-dglc-HEX-1:5
7s:n-acetyl
8s:n-acetyl
9s:phospho-ethanolamine
10b:b-dgal-HEX-1:5|6:a
11b:a-lgal-HEX-1:5|6:d
LIN
1:2d(2+1)3n
2:2o(4+1)4d
3:4o(4+1)5d
4:4o(3+1)6d
5:5d(2+1)7n
6:6d(2+1)8n
7:6o(4+1)9n
8:6o(3+1)10d
9:10o(2+1)11d