RES
1b:b-dglc-HEX-1:5|6:d
2s:n-acetyl
3s:n-acetyl
4s:amino
5n:n1
6b:a-dgal-HEX-1:5
7s:n-acetyl
8b:a-dgal-HEX-1:5
9s:n-acetyl
10b:a-dgal-HEX-1:5
11b:b-dglc-HEX-1:5
12s:n-acetyl
13b:a-dgal-HEX-1:5
14s:n-acetyl
15b:a-dgal-HEX-1:5
16s:n-acetyl
LIN
1:1d(2+1)2n
2:1d(4+1)3n
3:1d(1+1)4n
4:1o(1+4)5n
5:1o(3+1)6d
6:6d(2+1)7n
7:6o(4+1)8d
8:8d(2+1)9n
9:8o(4+1)10d
10:10o(3+1)11d
11:10d(2+1)12n
12:10o(4+1)13d
13:13d(2+1)14n
14:13o(4+1)15d
15:15d(2+1)16n
NON
NON1
Parent:1
Linkage:o(1+4)n
SmallMolecule:SMILES [4C](=O)(N)[3CH2][2CH](N)[1C](=O)O
Description:asparagine