RES
1b:b-dglc-HEX-1:5
2b:a-lgal-HEX-x:x|6:d
3s:n-acetyl
4b:b-dgal-HEX-1:5
5r:r1
6b:b-dglc-HEX-1:5
7b:a-lgal-HEX-x:x|6:d
8s:n-acetyl
9b:b-dgal-HEX-1:5
10b:a-lgal-HEX-x:x|6:d
LIN
1:1o(3+1)2d
2:1d(2+1)3n
3:1o(4+1)4d
4:4o(3+1)5n
5:5n(3+1)6d
6:6o(3+1)7d
7:6d(2+1)8n
8:6o(4+1)9d
9:9o(2+1)10d
REP
REP1:12o(3+1)11d=12-12
RES
11b:b-dglc-HEX-1:5
12b:b-dgal-HEX-1:5
13b:a-lgal-HEX-1:5|6:d
14a:a1
15s:n-acetyl
LIN
1:11o(4+1)12d
2:11o(3+1)13d
3:11o(6+1)14n
4:11d(2+1)15n
ALT
ALT1
ALTSUBGRAPH1
LEAD-IN RES:16
RES
16b:a-dgal-HEX-1:5
ALTSUBGRAPH2
LEAD-IN RES:17
RES
17b:a-dglc-HEX-1:5