RES
1b:x-dman-OCT-x:x|1:a|2:keto|3:d
2b:a-lgro-dman-HEP-1:5
3s:phospho-ethanolamine
4b:a-lgro-dman-HEP-1:5
5b:a-dgro-dman-HEP-1:5
6n:n1
7b:b-dgal-HEX-1:5
8b:a-dglc-HEX-1:5
LIN
1:1o(5+1)2d
2:2o(7+1)3n
3:2o(3+1)4d
4:4o(2+1)5d
5:5o(2+1)6n
6:5o(7+1)7d
7:7o(4+1)8d
NON
NON1
Parent:5
Linkage:o(2+1)n
HistoricalEntity:O-polysaccharide (ID 10792)