RES
1b:a-dglc-HEX-1:5
2n:n1
3n:n2
4n:n3
5n:n4
6b:a-dglc-HEX-1:5
7s:methyl
8b:a-lman-HEX-1:5|6:d
9b:b-dglc-HEX-1:5
10b:b-dglc-HEX-1:5
11b:a-lman-HEX-1:5|6:d
12b:a-dara-PEN-1:4
13b:a-lman-HEX-1:5|6:d
14s:methyl
15b:a-lman-HEX-1:5|6:d
16s:methyl
LIN
1:1o(2+1)2n
2:1o(3+1)3n
3:1o(4+1)4n
4:1o(6+1)5n
5:1o(1+1)6d
6:6o(6+1)7n
7:6o(3+1)8d
8:8o(3+1)9d
9:9o(3+1)10d
10:10o(3+1)11d
11:11o(2+1)12d
12:11o(3+1)13d
13:13o(3+1)14n
14:13o(2+1)15d
15:15o(4+1)16n
NON
NON1
Parent:1
Linkage:o(2+1)n
HistoricalEntity:superclass: lipid residue
NON2
Parent:1
Linkage:o(3+1)n
HistoricalEntity:superclass: lipid residue
NON3
Parent:1
Linkage:o(4+1)n
HistoricalEntity:superclass: lipid residue
NON4
Parent:1
Linkage:o(6+1)n
HistoricalEntity:superclass: lipid residue