RES
1r:r1
REP
REP1:4o(3+1)2d=-1--1
RES
2b:a-dgal-HEX-1:5
3s:n-acetyl
4b:b-dgal-HEX-1:5
5s:n-acetyl
6b:a-dxyl-HEX-1:5|3:d|6:d
7n:n1
LIN
1:2d(2+1)3n
2:2o(3+1)4d
3:4d(2+1)5n
4:4o(4+1)6d
5:6h(4+1)7n
NON
NON1
Parent:6
Linkage:h(4+1)n
SmallMolecule:SMILES [1C@H](O)C
Description:(R)-hydroxyethyl