RES
1r:r1
REP
REP1:6o(3+1)2d=-1--1
RES
2b:b-dxyl-PEN-1:5
3b:a-lgro-lman-NON-2:6|1:a|2:keto|3:d|9:d
4s:n-acetyl
5s:n-acetyl
6b:b-dgal-HEX-1:5|6:d
7s:n-acetyl
LIN
1:2o(4+2)3d
2:3d(5+1)4n
3:3d(7+1)5n
4:3o(4+1)6d
5:6d(2+1)7n