RES
1r:r1
REP
REP1:7o(4+1)2d=-1--1
RES
2b:a-lman-HEX-1:5|6:d
3b:a-lman-HEX-1:5|6:d
4b:a-dglc-HEX-1:5
5b:b-dglc-HEX-1:5|6:d
6s:n-acetyl
7b:a-dgal-HEX-1:5|6:a
8s:n-acetyl
LIN
1:2o(3+1)3d
2:3o(3+1)4d
3:3o(2+1)5d
4:5d(2+1)6n
5:5o(3+1)7d
6:7d(2+1)8n