RES
1b:b-dglc-HEX-1:5
2s:n-acetyl
3b:a-lman-HEX-1:5|6:d
4b:b-dglc-HEX-1:5|6:a
5b:a-lgal-HEX-1:5|6:d
6b:a-dgal-HEX-1:5
7b:a-lgal-HEX-1:5|6:d
8b:a-lman-HEX-1:5|6:d
LIN
1:1d(2+1)2n
2:1o(3+1)3d
3:3o(4+1)4d
4:4o(3+1)5d
5:5o(2+1)6d
6:6o(2+1)7d
7:7o(2+1)8d