RES
1r:r1
REP
REP1:7o(3+1)2d=-1--1
RES
2b:b-dman-HEX-1:5
3b:b-dman-HEX-1:5
4b:b-dglc-HEX-1:5
5b:a-dgal-HEX-1:5
6s:n-acetyl
7b:a-dglc-HEX-1:5
8s:n-acetyl
LIN
1:2o(4+1)3d
2:3o(2+1)4d
3:3o(3+1)5d
4:5d(2+1)6n
5:5o(4+1)7d
6:7d(2+1)8n