RES
1r:r1
REP
REP1:9o(6+1)2d=-1--1
RES
2b:b-dglc-HEX-1:5
3s:n-acetyl
4b:a-dglc-HEX-1:5
5b:a-dgal-HEX-1:5
6s:n-acetyl
7s:n-acetyl
8b:b-dgal-HEX-1:5
9b:a-dglc-HEX-1:5
10b:b-dglc-HEX-1:5
11s:n-acetyl
LIN
1:2d(2+1)3n
2:2o(6+1)4d
3:2o(3+1)5d
4:5d(2+1)6n
5:4d(2+1)7n
6:5o(3+1)8d
7:8o(4+1)9d
8:9o(3+1)10d
9:10d(2+1)11n