RES
1r:r1
REP
REP1:7o(2+1)2d=-1--1
RES
2b:a-lgal-HEX-1:5|6:d
3b:b-dglc-HEX-1:5
4s:n-acetyl
5b:a-dgal-HEX-1:5
6s:n-acetyl
7b:b-dgal-HEX-1:5
8b:a-dgal-HEX-1:5
LIN
1:2o(4+1)3d
2:3d(2+1)4n
3:3o(3+1)5d
4:5d(2+1)6n
5:5o(3+1)7d
6:7o(3+1)8d