RES
1r:r1
REP
REP1:9o(6+1)2d=-1--1
RES
2b:b-dman-HEX-1:5|6:a
3s:n-acetyl
4s:n-acetyl
5b:a-dglc-HEX-1:5
6s:n-acetyl
7s:n-acetyl
8b:b-dglc-HEX-1:5|6:a
9b:a-dglc-HEX-1:5
10s:n-acetyl
11s:n-acetyl
LIN
1:2d(2+1)3n
2:2d(3+1)4n
3:2o(4+1)5d
4:5d(2+1)6n
5:5d(3+1)7n
6:5o(4+1)8d
7:8o(4+1)9d
8:8d(3+1)10n
9:8d(2+1)11n