RES
1r:r1
REP
REP1:8o(4+1)2d=-1--1
RES
2b:b-dgal-HEX-1:5
3s:n-acetyl
4b:a-dgal-HEX-1:5|6:a
5b:b-dgal-HEX-1:5
6s:n-acetyl
7n:n1
8b:b-dglc-HEX-1:5|6:a
9b:a-dglc-HEX-1:5
LIN
1:2d(2+1)3n
2:2o(4+1)4d
3:2o(6+1)5d
4:5d(2+1)6n
5:4o(6+2)7n
6:5o(3+1)8d
7:8o(2+1)9d
NON
NON1
Parent:4
Linkage:o(6+2)n
SmallMolecule:SMILES [6CH2](N)[5CH2][4CH2][3CH2][2CH](N)[1C](=O)O
Description:lysine