RES
1r:r1
REP
REP1:4o(3+1)2d=-1--1
RES
2b:a-dgal-HEX-1:5
3s:n-acetyl
4b:b-dgal-HEX-1:5
5b:a-dxyl-HEX-1:5|3:d|6:d
6s:acetyl
7s:n-acetyl
8n:n1
LIN
1:2d(2+1)3n
2:2o(3+1)4d
3:2o(4+1)5d
4:5o(7+1)6n
5:4d(2+1)7n
6:5h(4+1)8n
NON
NON1
Parent:5
Linkage:h(4+1)n
SmallMolecule:SMILES [1C@H](O)C
Description:(R)-hydroxyethyl