RES
1b:a-dman-OCT-2:6|1:a|2:keto|3:d
2s:phosphate
3b:a-lgro-dman-HEP-1:5
4s:diphospho-ethanolamine
5b:b-dglc-HEX-1:5
6s:acetyl
7s:phosphate
8b:a-lgro-dman-HEP-1:5
9s:diphospho-ethanolamine
10n:n1
11b:a-lgro-dman-HEP-1:5
12s:acetyl
13b:a-dglc-HEX-1:5
14s:acetyl
15b:b-dgal-HEX-1:5
16b:a-dgro-dgal-NON-2:6|1:a|2:keto|3:d
17s:n-acetyl
LIN
1:1o(-1+1)2n
2:1o(5+1)3d
3:3o(-1+1)4n
4:3o(4+1)5d
5:5o(4+1)6n
6:5o(6+1)7n
7:5o(3+1)8d
8:8o(6+1)9n
9:7n(1+1)10n
10:8o(2+1)11d
11:11o(-1+1)12n
12:11o(2+1)13d
13:13o(-1+1)14n
14:13o(4+1)15d
15:15o(3+2)16d
16:16d(5+1)17n
NON
NON1
Parent:7
Linkage:n(1+1)n
SmallMolecule:SMILES C[N+](C)(C)[2CH2][1CH2]O
Description:choline