RES
1r:r1
REP
REP1:6o(4+1)2d=-1--1
RES
2b:b-dman-HEX-1:5
3s:n-acetyl
4b:a-lman-HEX-1:5|6:d
5b:b-dgal-HEX-1:5
6b:a-lman-HEX-1:5|6:d
7s:methyl
8s:n-acetyl
LIN
1:2d(2+1)3n
2:2o(3+1)4d
3:2o(4+1)5d
4:4o(3+1)6d
5:5o(4+1)7n
6:5d(2+1)8n