RES
1b:a-dglc-HEX-1:5
2s:amino
3n:n1
4b:a-dman-HEX-1:5
5b:a-dman-HEX-1:5
6b:a-dman-HEX-1:5
7b:a-dman-HEX-1:5
8s:phospho-ethanolamine
LIN
1:1d(2+1)2n
2:1o(1+6)3n
3:1o(4+1)4d
4:4o(3+1)5d
5:4o(6+1)6d
6:6o(2+1)7d
7:6o(6+1)8n
NON
NON1
Parent:1
Linkage:o(1+6)n
HistoricalEntity:superclass: any inositol