RES
1r:r1
REP
REP1:7o(4+1)2d=-1--1
RES
2b:b-dglc-HEX-1:5
3b:a-dglc-HEX-1:5
4b:b-dman-HEX-1:5
5s:n-acetyl
6b:a-dgal-HEX-1:5
7b:a-dglc-HEX-1:5|6:a
LIN
1:2o(4+1)3d
2:3o(4+1)4d
3:4d(2+1)5n
4:4o(3+1)6d
5:6o(3+1)7d