RES
1b:a-dman-OCT-x:x|1:a|2:keto|3:d
2b:a-dglc-HEX-1:5
3b:b-dglc-HEX-1:5
4b:b-dglc-HEX-1:5
5b:a-dglc-HEX-1:5
6b:a-dglc-HEX-1:5
7b:a-dglc-HEX-1:5
8b:b-dglc-HEX-1:5
9b:b-dgal-HEX-1:5
10b:a-dgal-HEX-1:5
11b:o-dgal-HEX-0:0
12s:n-acetyl
LIN
1:1o(5+1)2d
2:2o(4+1)3d
3:2o(6+1)4d
4:3o(2+1)5d
5:4o(2+1)6d
6:6o(2+1)7d
7:6o(4+1)8d
8:8o(4+1)9d
9:9o(4+1)10d
10:10o(4+1)11d
11:10o(6+1)11d
12:11d(2+1)12n