RES
1r:r1
REP
REP1:5o(4+1)2d=-1--1
RES
2b:b-dglc-HEX-1:5
3b:b-dglc-HEX-1:5|6:a
4b:b-dglc-HEX-1:5|6:a
5b:a-dglc-HEX-1:5
6b:b-dglc-HEX-1:5
7b:b-dglc-HEX-1:5
8b:b-dglc-HEX-1:5|6:a
9b:a-dgal-HEX-1:5
10b:b-dglc-HEX-1:5
11b:b-dgal-HEX-1:5
12b:b-dgal-HEX-1:5
13s:pyruvate
LIN
1:2o(4+1)3d
2:3o(4+1)4d
3:4o(4+1)5d
4:5o(6+1)6d
5:6o(4+1)7d
6:7o(4+1)8d
7:8o(4+1)9d
8:9o(6+1)10d
9:10o(6+1)11d
10:11o(6+1)12d
11:12o(6+2)13n
12:12o(4+2)13n