RES
1r:r1
REP
REP1:5o(4+1)2d=-1--1
RES
2b:b-dgal-HEX-1:5
3b:b-dglc-HEX-1:5
4b:b-dglc-HEX-1:5
5b:b-dglc-HEX-1:5
6b:b-dglc-HEX-1:5
7b:b-dglc-HEX-1:5
8b:a-dglc-HEX-1:5|6:a
9b:a-drib-PEN-1:4|5:a
LIN
1:2o(3+1)3d
2:3o(4+1)4d
3:4o(4+1)5d
4:5o(6+1)6d
5:6o(6+1)7d
6:7o(4+1)8d
7:8o(4+1)9d