RES
1r:r1
REP
REP1:8o(2+1)2d=-1--1
RES
2b:b-dglc-HEX-1:5
3s:n-acetyl
4s:acetyl
5b:a-lman-HEX-1:5|6:d
6s:acetyl
7b:a-lman-HEX-1:5|6:d
8b:a-lman-HEX-1:5|6:d
9b:a-dglc-HEX-1:5
LIN
1:2d(2+1)3n
2:2o(6+1)4n
3:2o(3+1)5d
4:5o(2+1)6n
5:5o(3+1)7d
6:7o(2+1)8d
7:8o(3+1)9d