RES
1b:a-lgro-dman-HEP-x:x
2b:a-lgro-dman-HEP-1:5
3b:b-dglc-HEX-1:5
4b:a-lgro-dman-HEP-1:5
5b:a-lgro-dman-HEP-1:5
6b:a-dglc-HEX-1:5
7s:amino
LIN
1:1o(2+1)2d
2:2o(4+1)3d
3:2o(6+1)4d
4:2o(3+1)5d
5:5o(7+1)6d
6:6d(2+1)7n