RES
1b:x-dglc-HEX-x:x
2b:a-dman-HEX-1:5
3b:b-dglc-HEX-1:5
4b:a-dgal-HEX-1:5
5b:b-dglc-HEX-1:5
6b:b-dglc-HEX-1:5|6:a
7b:a-dglc-HEX-1:5
8b:b-dglc-HEX-1:5
9b:a-dman-HEX-1:5
10b:b-dglc-HEX-1:5
11b:a-dgal-HEX-1:5
12b:b-dglc-HEX-1:5
13b:b-dglc-HEX-1:5|6:a
14b:a-dglc-HEX-1:5
LIN
1:1o(3+1)2d
2:2o(2+1)3d
3:2o(3+1)4d
4:4o(2+1)5d
5:4o(3+1)6d
6:6o(4+1)7d
7:6o(3+1)8d
8:8o(3+1)9d
9:9o(2+1)10d
10:9o(3+1)11d
11:11o(2+1)12d
12:11o(3+1)13d
13:13o(4+1)14d