RES
1b:b-dgal-HEX-1:4|6:d
2s:n-acetyl
3s:methyl
4b:b-dxyl-PEN-1:5
5b:a-lgro-lman-NON-2:6|1:a|2:keto|3:d|9:d
6s:n-acetyl
7s:n-formyl
LIN
1:1d(2+1)2n
2:1o(1+1)3n
3:1o(3+1)4d
4:4o(4+2)5d
5:5d(5+1)6n
6:5d(7+1)7n