RES
1r:r1
REP
REP1:9o(4+1)2d=-1--1
RES
2b:a-dglc-HEX-1:5
3b:a-dgal-HEX-1:5
4b:b-dgal-HEX-1:5
5s:n-acetyl
6b:b-dglc-HEX-1:5
7b:a-dgal-HEX-1:5
8s:n-acetyl
9b:b-dman-HEX-1:5
10s:n-acetyl
LIN
1:2o(3+1)3d
2:2o(4+1)4d
3:2d(2+1)5n
4:2o(6+1)6d
5:6o(3+1)7d
6:6d(2+1)8n
7:6o(4+1)9d
8:9d(2+1)10n