RES
1r:r1
REP
REP1:8o(4+1)2d=-1--1
RES
2b:a-lman-HEX-1:5|6:d
3b:b-dglc-HEX-1:5|6:d
4s:n-acetyl
5b:a-dgal-HEX-1:5|6:a
6s:n-formyl
7s:amino
8b:a-dgal-HEX-1:5|6:a
9s:n-acetyl
10s:amino
11s:acetyl
LIN
1:2o(3+1)3d
2:3d(2+1)4n
3:3o(3+1)5d
4:5d(2+1)6n
5:5d(6+1)7n
6:5o(4+1)8d
7:8d(2+1)9n
8:8d(6+1)10n
9:8o(3+1)11n