RES
1r:r1
REP
REP1:6o(2+1)2d=-1--1
RES
2b:b-dglc-HEX-1:5
3b:a-dman-HEX-1:5
4s:acetyl
5b:a-dman-HEX-1:5
6b:a-dglc-HEX-1:5|6:a
7b:b-dman-HEX-1:5
LIN
1:2o(3+1)3d
2:3o(6+1)4n
3:3o(2+1)5d
4:5o(3+1)6d
5:6o(4+1)7d