RES
1b:b-dgal-HEX-1:5
2s:n-acetyl
3b:b-dglc-HEX-1:5
4b:a-dgal-HEX-1:5
5b:b-dgal-HEX-1:5
6s:n-acetyl
7s:acetyl
8s:phosphate
9b:o-xgro-TRI-0:0|1:aldi
LIN
1:1d(2+1)2n
2:1o(3+1)3d
3:3o(6+1)4d
4:4o(3+1)5d
5:5d(2+1)6n
6:5o(3+1)7n
7:5o(4+1)8n
8:8n(1+2)9o