RES
1r:r1
REP
REP1:5o(4+1)2d=-1--1
RES
2b:b-dgal-HEX-1:5
3b:b-dgal-HEX-1:5
4b:a-dgal-HEX-1:5
5b:b-dgal-HEX-1:5
6b:b-dglc-HEX-1:5|6:a
7b:b-dglc-HEX-1:5
LIN
1:2o(3+1)3d
2:3o(6+1)4d
3:4o(3+1)5d
4:5o(3+1)6d
5:5o(6+1)7d