RES
1r:r1
REP
REP1:8o(3+1)2d=-1--1
RES
2b:b-dglc-HEX-1:5
3s:n-acetyl
4b:a-lman-HEX-1:5|6:d
5b:a-lgal-HEX-1:5|6:d
6b:a-dglc-HEX-1:5
7s:n-acetyl
8b:a-lgal-HEX-1:5|6:d
9s:n-acetyl
LIN
1:2d(2+1)3n
2:2o(6+1)4d
3:2o(3+1)5d
4:4o(2+1)6d
5:5d(2+1)7n
6:5o(3+1)8d
7:8d(2+1)9n