RES
1b:a-dman-OCT-2:6|1:a|2:keto|3:d
2b:a-lgro-dman-HEP-1:5
3a:a1
4b:a-lgro-dman-HEP-1:5
5b:a-lgro-dman-HEP-1:5
6s:phosphate
7b:a-dglc-HEX-1:5
8b:a-dgal-HEX-1:5
9b:a-dglc-HEX-1:5
10b:a-dglc-HEX-1:5
11b:a-lgro-dman-HEP-1:5
LIN
1:1o(5+1)2d
2:2o(4+1)3n
3:2o(3+1)4d
4:4o(7+1)5d
5:4o(4+1)6n
6:4o(3+1)7d
7:7o(6+1)8d
8:7o(3+1)9d
9:9o(2+1)10d
10:10o(6+1)11d
ALT
ALT1
ALTSUBGRAPH1
LEAD-IN RES:12
RES
12s:phospho-ethanolamine
ALTSUBGRAPH2
LEAD-IN RES:13
RES
13s:phosphate