RES
1r:r1
REP
REP1:8o(4+1)2d=-1--1
RES
2b:a-dgal-HEX-1:5
3s:pyruvate
4b:a-dgal-HEX-1:5
5s:n-acetyl
6b:a-lgal-HEX-1:5|6:d
7s:n-acetyl
8b:b-dman-HEX-1:5
9s:n-acetyl
LIN
1:2o(3+2)3n
2:2o(2+2)3n
3:2o(4+1)4d
4:4d(2+1)5n
5:4o(3+1)6d
6:6d(2+1)7n
7:6o(3+1)8d
8:8d(2+1)9n