RES
1r:r1
REP
REP1:8o(2+1)2d=-1--1
RES
2b:b-dglc-HEX-1:5
3s:n-acetyl
4b:b-lman-HEX-1:5|6:d
5s:acetyl
6b:a-dman-OCT-2:6|1:a|2:keto|3:d
7b:a-lman-HEX-1:5|6:d
8b:b-dglc-HEX-1:5|6:d
9s:amino
10n:n1
LIN
1:2d(2+1)3n
2:2o(4+1)4d
3:4o(2+1)5n
4:4o(3+2)6d
5:6o(5+1)7d
6:7o(3+1)8d
7:8d(3+1)9n
8:8o(3+1)10n
NON
NON1
Parent:8
Linkage:o(3+1)n
SmallMolecule:SMILES [4CH3][3C@@H](O)[2CH2][1C](=O)O
Description:(R)-3-hydroxybutanoic acid