RES
1r:r1
REP
REP1:8o(2+1)2d=-1--1
RES
2b:b-dglc-HEX-1:5
3s:n-acetyl
4b:a-lman-HEX-1:5|6:d
5b:a-dglc-HEX-1:5
6b:a-dglc-HEX-1:5
7b:a-lman-HEX-1:5|6:d
8b:a-lman-HEX-1:5|6:d
LIN
1:2d(2+1)3n
2:2o(3+1)4d
3:2o(4+1)5d
4:5o(2+1)6d
5:4o(3+1)7d
6:7o(2+1)8d