RES
1r:r1
REP
REP1:7o(4+1)2d=-1--1
RES
2b:a-dgal-HEX-1:5|6:d
3s:n-acetyl
4b:a-dglc-HEX-1:5
5s:n-acetyl
6s:acetyl
7b:b-dman-HEX-1:5|6:a
8s:n-acetyl
LIN
1:2d(4+1)3n
2:2o(3+1)4d
3:4d(2+1)5n
4:4o(6+1)6n
5:4o(4+1)7d
6:7d(2+1)8n