RES
1b:a-dman-OCT-2:6|1:a|2:keto|3:d
2b:x-dman-OCT-2:6|1:a|2:keto|3:d
3b:a-dglc-HEX-1:5
4b:b-dglc-HEX-1:5
5b:b-dglc-HEX-1:5
6b:b-dglc-HEX-1:5
7b:a-dglc-HEX-1:5
8b:a-dglc-HEX-1:5
9s:n-acetyl
10b:b-dgal-HEX-1:5
11b:b-dgal-HEX-1:5
12b:a-dgal-HEX-1:5
13b:a-dgal-HEX-1:5
LIN
1:1o(4+2)2d
2:1o(5+1)3d
3:3o(3+1)4d
4:3o(6+1)5d
5:3o(4+1)6d
6:5o(2+1)7d
7:6o(2+1)8d
8:8d(2+1)9n
9:7o(4+1)10d
10:8o(4+1)11d
11:11o(4+1)12d
12:10o(4+1)13d