RES
1n:n1
2s:pyrophosphate
3b:b-dglc-HEX-1:5
4s:n-acetyl
5b:b-lman-HEX-1:5|6:d
6b:a-lman-HEX-1:5|6:d
7b:a-lman-HEX-1:5|6:d
8b:b-dman-HEX-1:5
9s:n-acetyl
LIN
1:1n(1+1)2n
2:2n(1+1)3o
3:3d(2+1)4n
4:3o(4+1)5d
5:5o(3+1)6d
6:6o(3+1)7d
7:7o(2+1)8d
8:8d(2+1)9n
NON
NON1
SmallMolecule:SMILES [11CH3][10CH2][9CH2][8CH2][7CH2][6CH2][5CH2][4CH2][3CH2][2CH2][1CH2]O
Description:undecanol