RES
1b:o-lgro-TRI-0:0|1:aldi
2n:n1
3n:n2
4b:a-dglc-HEX-1:5
5n:n3
6b:a-dglc-HEX-1:5
7s:phosphate
8b:o-lgro-TRI-0:0|1:aldi
9b:a-dgal-HEX-1:5
10r:r1
11s:phosphate
12b:o-lgro-TRI-0:0|1:aldi
LIN
1:1o(1+1)2n
2:1o(2+1)3n
3:1o(3+1)4d
4:4o(6+1)5n
5:4o(2+1)6d
6:6o(6+1)7n
7:7n(1+1)8o
8:8o(2+1)9d
9:8o(3+1)10n
10:10n(3+1)11n
11:11n(1+1)12o
REP
REP1:19o(3+1)13n=6-7
RES
13s:phosphate
14b:o-lgro-TRI-0:0|1:aldi
15s:phosphate
16b:o-lgro-TRI-0:0|1:aldi
17b:a-dgal-HEX-1:5
18s:phosphate
19b:o-lgro-TRI-0:0|1:aldi
LIN
1:13n(1+1)14o
2:14o(3+1)15n
3:15n(1+1)16o
4:16o(2+1)17d
5:16o(3+1)18n
6:18n(1+1)19o
NON
NON1
Parent:1
Linkage:o(1+1)n
HistoricalEntity:superclass: lipid residue
NON2
Parent:1
Linkage:o(2+1)n
HistoricalEntity:superclass: lipid residue
NON3
Parent:4
Linkage:o(6+1)n
HistoricalEntity:superclass: lipid residue