RES
1n:n1
2s:phosphate
3b:a-dglc-HEX-1:5
4s:amino
5n:n2
6n:n3
7b:b-dglc-HEX-1:5
8s:amino
9n:n4
10n:n5
11b:a-dman-OCT-x:x|1:a|2:keto|3:d
12b:a-lgro-dman-HEP-1:5
13s:phospho-ethanolamine
14b:a-lgro-dman-HEP-1:5
15b:a-dgro-dman-HEP-1:5
16b:b-dgal-HEX-1:5
17b:b-dglc-HEX-1:5
18b:a-dglc-HEX-1:5
19s:n-acetyl
20b:a-lgal-HEX-1:5|6:d
21b:a-dgro-dman-HEP-1:5
22r:r1
23r:r2
24r:r3
25b:a-lgal-HEX-1:5|6:d
LIN
1:1n(1+1)2n
2:2n(1+1)3o
3:3d(2+1)4n
4:3o(-1+1)5n
5:3o(-1+1)6n
6:3o(6+1)7d
7:7d(2+1)8n
8:7o(-1+1)9n
9:7o(-1+1)10n
10:7o(6+2)11d
11:11o(5+1)12d
12:12o(-1+1)13n
13:12o(3+1)14d
14:14o(2+1)15d
15:15o(7+1)16d
16:15o(2+1)17d
17:16o(4+1)18d
18:17d(2+1)19n
19:17o(3+1)20d
20:20o(3+1)21d
21:21o(6+1)22n
22:22n(3+1)23n
23:23n(3+1)24n
24:24n(2+1)25d
REP
REP1:26o(6+1)26d=4-4
RES
26b:a-dglc-HEX-1:5
REP2:27o(3+1)27d=22-22
RES
27b:a-dgro-dman-HEP-1:5
REP3:29o(3+1)28d=0-6
RES
28b:b-dglc-HEX-1:5
29b:b-dgal-HEX-x:x
30b:a-lgal-HEX-x:x|6:d
31s:n-acetyl
LIN
1:28o(4+1)29d
2:28o(3+1)30d
3:28d(2+1)31n
NON
NON1
SmallMolecule:SMILES [2CH2](N)[1CH2](O)
Description:ethanolamine
NON2
Parent:3
Linkage:o(-1+1)n
HistoricalEntity:superclass: lipid residue
NON3
Parent:3
Linkage:o(-1+1)n
HistoricalEntity:superclass: lipid residue
NON4
Parent:7
Linkage:o(-1+1)n
HistoricalEntity:superclass: lipid residue
NON5
Parent:7
Linkage:o(-1+1)n
HistoricalEntity:superclass: lipid residue