RES
1b:b-dglc-HEX-1:5
2n:n1
3b:b-dman-HEX-1:5
4s:n-acetyl
5b:a-dgal-HEX-1:5
6b:a-dglc-HEX-1:5|6:a
LIN
1:1o(1+1)2n
2:1o(4+1)3d
3:3d(2+1)4n
4:3o(3+1)5d
5:5o(3+1)6d
NON
NON1
Parent:1
Linkage:o(1+1)n
SmallMolecule:SMILES [2CH2](N)[1CH2](O)
Description:ethanolamine