RES
1r:r1
REP
REP1:9o(6+1)2n=-1--1
RES
2s:phosphate
3b:a-dglc-HEX-1:5|6:a
4b:b-dglc-HEX-1:5|6:a
5b:a-dglc-HEX-1:5
6s:n-acetyl
7b:b-dglc-HEX-1:5
8b:a-dman-HEX-1:5
9b:a-dgal-HEX-1:5
LIN
1:2n(1+1)3o
2:3o(4+1)4d
3:4o(4+1)5d
4:5d(2+1)6n
5:5o(4+1)7d
6:7o(3+1)8d
7:8o(3+1)9d