RES
1b:x-dglc-HEX-1:5
2b:x-dglc-HEX-1:5
3b:x-dglc-HEX-1:5
4b:x-dgal-HEX-1:5
5b:x-dman-OCT-2:6|1:a|2:keto|3:d
6b:x-dgal-HEX-1:5
7b:x-dman-OCT-2:6|1:a|2:keto|3:d
LIN
1:1o(3+1)2d
2:2o(3+1)3d
3:2o(2+1)4d
4:4o(6+2)5d
5:4o(2+1)6d
6:6o(6+2)7d