RES
1b:x-dgal-HEX-1:5
2b:a-lgal-HEX-1:5
3s:anhydro
4b:b-dgal-HEX-1:5
5s:methyl
6b:a-lgal-HEX-1:5
7s:anhydro
LIN
1:1o(3+1)2d
2:2d(3+1)3n
3:2o(6+1)3n
4:2o(4+1)4d
5:4o(6+1)5n
6:4o(3+1)6d
7:6d(3+1)7n
8:6o(6+1)7n