RES
1r:r1
REP
REP1:7o(2+1)2d=-1--1
RES
2b:b-dglc-HEX-1:5
3s:n-acetyl
4b:b-dgal-HEX-1:5
5s:n-acetyl
6b:b-drib-PEN-1:4
7b:a-lman-HEX-1:5|6:d
8b:a-dglc-HEX-1:5
9s:(r)-carboxyethyl
LIN
1:2d(2+1)3n
2:2o(3+1)4d
3:4d(2+1)5n
4:4o(4+1)6d
5:6o(2+1)7d
6:7o(3+1)8d
7:8o(3+2)9n