RES
1b:o-xgro-TRI-0:0|1:aldi
2n:n1
3n:n2
4b:b-dgal-HEX-1:5
5r:r1
6b:b-dgal-HEX-1:4
7n:n3
8s:phosphate
9b:o-lgro-TRI-0:0|1:aldi
10n:n4
LIN
1:1o(2+1)2n
2:1o(1+1)3n
3:1o(3+1)4d
4:4o(6+1)5n
5:5n(6+1)6d
6:6o(5+1)7n
7:6o(6+1)8n
8:8n(1+1)9o
9:9o(3+1)10n
REP
REP1:11o(6+1)11d=15-15
RES
11b:b-dglc-HEX-1:5
NON
NON1
Parent:1
Linkage:o(2+1)n
HistoricalEntity:superclass: lipid residue
NON2
Parent:1
Linkage:o(1+1)n
HistoricalEntity:superclass: lipid residue
NON3
Parent:6
Linkage:o(5+1)n
HistoricalEntity:-5)[...]bDGalf(1-
NON4
Parent:9
Linkage:o(3+1)n
SmallMolecule:SMILES [3CH3][2CH](N)[1C](=O)O
Description:alanine