RES
1r:r1
REP
REP1:5o(3+1)2d=-1--1
RES
2b:b-dgal-HEX-1:5|6:a
3n:n1
4b:b-dglc-HEX-1:5|6:a
5b:b-dglc-HEX-1:5
6s:n-acetyl
LIN
1:2o(6+2)3n
2:2o(3+1)4d
3:4o(4+1)5d
4:5d(2+1)6n
NON
NON1
Parent:2
Linkage:o(6+2)n
SmallMolecule:SMILES [4CH3][3C@@H](O)[2C@H](N)[1C](=O)O
Description:(L)-threonine