RES
1b:a-dglc-HEX-1:5
2s:phosphate
3s:amino
4n:n1
5n:n2
6b:b-dglc-HEX-1:5
7s:phosphate
8s:amino
9n:n3
10n:n4
11n:n5
12n:n6
LIN
1:1o(1+1)2n
2:1d(2+1)3n
3:1o(2+1)4n
4:1o(3+1)5n
5:1o(6+1)6d
6:6o(4+1)7n
7:6d(2+1)8n
8:6o(3+1)9n
9:5n(3+1)10n
10:6o(2+1)11n
11:11n(3+1)12n
NON
NON1
Parent:1
Linkage:o(2+1)n
SmallMolecule:SMILES [12CH3][11CH2][10CH2][9CH2][8CH2][7CH2][6CH2][5CH2][4CH2][3CH](O)[2CH2][1C](=O)O
Description:3-hydroxy-dodecanoic acid
NON2
Parent:1
Linkage:o(3+1)n
SmallMolecule:SMILES [12CH3][11CH2][10CH2][9CH2][8CH2][7CH2][6CH2][5CH2][4CH2][3CH](O)[2CH2][1C](=O)O
Description:3-hydroxy-dodecanoic acid
NON3
Parent:6
Linkage:o(3+1)n
HistoricalEntity:superclass: lipid residue
NON4
Parent:5
Linkage:n(3+1)n
SmallMolecule:SMILES [10CH3][9CH2][8CH2][7CH2][6CH2][5CH2][4CH2][3CH2][2CH2][1C](=O)O
Description:capric acid
NON5
Parent:6
Linkage:o(2+1)n
SmallMolecule:SMILES [12CH3][11CH2][10CH2][9CH2][8CH2][7CH2][6CH2][5CH2][4CH2][3CH](O)[2CH2][1C](=O)O
Description:3-hydroxy-dodecanoic acid
NON6
Parent:11
Linkage:n(3+1)n
SmallMolecule:SMILES [12CH3][11CH2][10CH2][9CH2][8CH2][7CH2][6CH2][5CH2][4CH2][3CH](O)[2CH2][1C](=O)O
Description:3-hydroxy-dodecanoic acid