RES
1b:a-dman-HEX-1:5
2b:b-dman-HEX-1:5
3r:r1
4b:a-dman-HEX-1:5
5s:methyl
LIN
1:1o(3+1)2d
2:2o(3+1)3n
3:3n(3+1)4d
4:4o(3+1)5n
REP
REP1:8o(3+1)6d=-1--1
RES
6b:a-dman-HEX-1:5
7b:a-dman-HEX-1:5
8b:b-dman-HEX-1:5
LIN
1:6o(2+1)7d
2:7o(2+1)8d