RES
1b:a-dara-PEN-1:4
2b:a-dara-PEN-1:4
3b:a-dara-PEN-1:4
4b:a-dara-PEN-1:4
5b:a-dara-PEN-1:4
6b:a-dara-PEN-1:4
7b:a-dara-PEN-1:4
8b:b-dara-PEN-1:4
9b:a-dara-PEN-1:4
10b:a-dara-PEN-1:4
11b:b-dara-PEN-1:4
LIN
1:1o(3+1)2d
2:1o(5+1)3d
3:2o(5+1)4d
4:3o(5+1)5d
5:4o(5+1)6d
6:5o(5+1)7d
7:6o(2+1)8d
8:7o(5+1)9d
9:9o(5+1)10d
10:10o(2+1)11d