RES
1r:r1
REP
REP1:2o(7+1)2d=-1--1
RES
2b:a-dery-dgul-DEC-1:5|3:d|6:d|10:d
3s:acetyl
4s:acetyl
5s:acetyl
6n:n1
LIN
1:2o(5+1)3n
2:2o(8+1)4n
3:2o(9+1)5n
4:2h(4+1)6n
NON
NON1
Parent:2
Linkage:h(4+1)n
SmallMolecule:SMILES [1C@H](O)C
Description:(R)-hydroxyethyl