RES
1r:r1
REP
REP1:10o(3+1)2d=-1--1
RES
2b:a-dglc-HEX-1:5|6:d
3s:n-acetyl
4s:n-acetyl
5b:a-dgal-HEX-1:5
6s:n-acetyl
7b:b-dgal-HEX-1:5|6:a
8b:b-dglc-HEX-1:5
9s:acetyl
10b:a-dgal-HEX-1:5
11s:n-acetyl
LIN
1:2d(2+1)3n
2:2d(4+1)4n
3:2o(3+1)5d
4:5d(2+1)6n
5:5o(3+1)7d
6:7o(2+1)8d
7:7o(4+1)9n
8:7o(3+1)10d
9:10d(2+1)11n