RES
1r:r1
REP
REP1:7o(4+1)2d=-1--1
RES
2b:b-dgal-HEX-1:5
3s:n-acetyl
4b:b-dglc-HEX-1:5|6:d
5s:n-acetyl
6s:n-acetyl
7b:b-dglc-HEX-1:5|6:a
8s:n-acetyl
LIN
1:2d(2+1)3n
2:2o(3+1)4d
3:4d(2+1)5n
4:4d(4+1)6n
5:4o(3+1)7d
6:7d(2+1)8n