RES
1r:r1
REP
REP1:13o(4+1)2d=-1--1
RES
2b:a-dgal-HEX-1:5|6:a
3s:n-acetyl
4b:b-dglc-HEX-1:5|6:d
5s:amino
6n:n1
7b:b-dglc-HEX-1:5|6:d
8s:n-acetyl
9s:acetyl
10s:n-acetyl
11b:a-lgal-HEX-1:5|6:a
12s:n-acetyl
13b:a-dgal-HEX-1:5
14s:n-acetyl
LIN
1:2d(2+1)3n
2:2o(4+1)4d
3:4d(4+1)5n
4:4o(4+1)6n
5:4o(2+1)7d
6:7d(2+1)8n
7:6n(2+1)9n
8:7d(4+1)10n
9:7o(3+1)11d
10:11d(2+1)12n
11:11o(4+1)13d
12:13d(2+1)14n
NON
NON1
Parent:4
Linkage:o(4+1)n
SmallMolecule:SMILES [3CH3][2C@@H](N)[1C](=O)O
Description:(D)-alanine