RES
1r:r1
REP
REP1:10o(2+1)2d=-1--1
RES
2b:b-dglc-HEX-1:5|6:d
3s:n-acetyl
4s:amino
5n:n1
6b:a-lgal-HEX-1:5|6:a
7s:n-acetyl
8b:a-dglc-HEX-1:5
9s:n-acetyl
10b:a-lman-HEX-1:5|6:d
11s:acetyl
LIN
1:2d(2+1)3n
2:2d(4+1)4n
3:2o(4+1)5n
4:2o(3+1)6d
5:6d(2+1)7n
6:6o(4+1)8d
7:8d(2+1)9n
8:8o(6+1)10d
9:10o(3+1)11n
NON
NON1
Parent:2
Linkage:o(4+1)n
SmallMolecule:SMILES [4CH3][3CH](O)[2CH2][1C](=O)O
Description:3-hydroxybutanoic acid