RES
1r:r1
REP
REP1:5o(4+1)2d=-1--1
RES
2b:b-dglc-HEX-1:5|6:d
3s:n-acetyl
4s:n-acetyl
5b:b-dman-HEX-1:5|6:a
6s:n-acetyl
7b:a-dgal-HEX-1:5|6:d
8s:amino
9n:n1
LIN
1:2d(2+1)3n
2:2d(4+1)4n
3:2o(3+1)5d
4:5d(2+1)6n
5:5o(3+1)7d
6:7d(3+1)8n
7:7o(3+1)9n
NON
NON1
Parent:7
Linkage:o(3+1)n
SmallMolecule:SMILES [5C](=O)1[4CH2][3C@@]([6CH3])(O)[2C@@H](N1)[1C](=O)(O)
Description:(2R,3R)-3-hydroxy-3-methyl-5-oxoproline