RES
1r:r1
REP
REP1:12o(4+1)2d=-1--1
RES
2b:b-dglc-HEX-1:5|6:d
3s:n-acetyl
4s:n-acetyl
5b:a-lgul-HEX-1:5|6:a
6s:n-acetyl
7s:n-acetyl
8b:b-dman-HEX-1:5|6:a
9s:n-acetyl
10s:amino
11s:n-acetyl
12b:b-dglc-HEX-1:5|6:a
13s:n-acetyl
14s:amino
15s:amino
16n:n1
17s:formyl
LIN
1:2d(2+1)3n
2:2d(4+1)4n
3:2o(3+1)5d
4:5d(3+1)6n
5:5d(2+1)7n
6:5o(4+1)8d
7:8d(2+1)9n
8:8d(6+1)10n
9:8d(3+1)11n
10:8o(4+1)12d
11:12d(2+1)13n
12:12d(6+1)14n
13:12d(3+1)15n
14:12o(3+1)16n
15:16n(2+1)17n
NON
NON1
Parent:12
Linkage:o(3+1)n
SmallMolecule:SMILES [3CH3][2C@H](N)[1C](=O)O
Description:(L)-alanine