RES
1b:a-dglc-HEX-1:5
2s:phosphate
3s:amino
4b:b-dglc-HEX-1:5
5s:amino
6s:phosphate
7b:a-dman-OCT-2:6|1:a|2:keto|3:d
8b:a-dman-OCT-2:6|1:a|2:keto|3:d
9b:a-lgro-dman-HEP-1:5
10b:a-lgro-dman-HEP-1:5
11b:b-dglc-HEX-1:5
12s:phospho-ethanolamine
13b:b-dgal-HEX-1:5
14s:phosphate
15n:n1
16b:b-dglc-HEX-1:5
17b:b-dgal-HEX-1:5
18s:n-acetyl
LIN
1:1o(1+1)2n
2:1d(2+1)3n
3:1o(6+1)4d
4:4d(2+1)5n
5:4o(4+1)6n
6:4o(6+2)7d
7:7o(4+2)8d
8:7o(5+1)9d
9:9o(3+1)10d
10:9o(4+1)11d
11:10o(6+1)12n
12:11o(4+1)13d
13:11o(6+1)14n
14:14n(1+1)15n
15:13o(3+1)16d
16:16o(3+1)17d
17:16d(2+1)18n
NON
NON1
Parent:14
Linkage:n(1+1)n
SmallMolecule:SMILES C[N+](C)(C)[2CH2][1CH2]O
Description:choline