RES
1r:r1
REP
REP1:9o(6+1)2n=-1--1
RES
2s:phosphate
3b:a-dman-HEX-1:5
4b:b-dgal-HEX-1:5
5b:b-dglc-HEX-1:5
6s:n-acetyl
7b:a-dglc-HEX-1:5
8b:b-dgal-HEX-1:5
9b:b-dglc-HEX-1:5
10s:n-acetyl
LIN
1:2n(1+1)3o
2:3o(3+1)4d
3:4o(3+1)5d
4:4d(2+1)6n
5:4o(4+1)7d
6:7o(4+1)8d
7:8o(3+1)9d
8:8d(2+1)10n