RES
1b:a-dman-HEX-1:5
2b:a-dman-HEX-1:5
3b:a-dman-HEX-1:5
4b:a-dman-HEX-1:5
5b:a-dman-HEX-1:5
6b:a-dman-HEX-1:5
7b:a-dman-HEX-1:5
8r:r1
9b:a-dman-HEX-1:5
10s:phosphate
11s:methyl
LIN
1:1o(3+1)2d
2:2o(3+1)3d
3:3o(3+1)4d
4:4o(3+1)5d
5:5o(2+1)6d
6:6o(2+1)7d
7:7o(2+1)8n
8:8n(2+1)9d
9:9o(3+1)10n
10:10n(1+1)11n
REP
REP1:16o(2+1)12d=-1--1
RES
12b:a-dman-HEX-1:5
13b:a-dman-HEX-1:5
14b:a-dman-HEX-1:5
15b:a-dman-HEX-1:5
16b:a-dman-HEX-1:5
LIN
1:12o(3+1)13d
2:13o(3+1)14d
3:14o(2+1)15d
4:15o(2+1)16d