RES
1b:a-lgal-HEX-1:5|6:d
2b:b-dglc-HEX-1:5
3s:n-acetyl
4b:a-dgal-HEX-1:5
5b:a-dgal-HEX-1:5|6:a
6b:a-dglc-HEX-1:5
7s:n-acetyl
LIN
1:1o(4+1)2d
2:1d(2+1)3n
3:1o(3+1)4d
4:4o(2+1)5d
5:4o(3+1)6d
6:6d(2+1)7n