RES
1r:r1
REP
REP1:8o(3+1)2d=-1--1
RES
2b:a-dglc-HEX-1:5
3s:n-acetyl
4b:a-lgal-HEX-1:5|6:d
5b:b-dglc-HEX-1:5|6:d
6s:n-acetyl
7s:n-acetyl
8b:a-lgal-HEX-1:5|6:a
9s:amino
10n:n1
11b:b-dglc-HEX-1:5
12s:n-acetyl
13s:acetyl
LIN
1:2d(2+1)3n
2:2o(3+1)4d
3:4o(3+1)5d
4:5d(2+1)6n
5:5d(4+1)7n
6:5o(3+1)8d
7:8d(2+1)9n
8:8o(2+1)10n
9:8o(4+1)11d
10:11d(2+1)12n
11:11o(6+1)13n
NON
NON1
Parent:8
Linkage:o(2+1)n
SmallMolecule:SMILES [2CH3][1C](=N)O
Description:acetimidic acid