RES
1r:r1
REP
REP1:9o(3+1)2d=-1--1
RES
2b:a-lman-HEX-1:5|6:d
3b:b-dglc-HEX-1:5|6:d
4s:n-acetyl
5b:a-dglc-HEX-1:5|6:d
6s:n-acetyl
7b:a-lman-HEX-1:5|6:d
8s:acetyl
9b:b-dglc-HEX-1:5|6:d
10s:n-acetyl
LIN
1:2o(3+1)3d
2:3d(4+1)4n
3:3o(3+1)5d
4:5d(4+1)6n
5:5o(3+1)7d
6:7o(2+1)8n
7:7o(3+1)9d
8:9d(4+1)10n