RES
1b:a-lgro-dman-HEP-1:5
2b:a-dgro-dman-HEP-1:5
3b:a-dgro-dman-HEP-1:5
4b:b-dgal-HEX-1:5
5b:a-dglc-HEX-1:5
6b:a-dglc-HEX-1:5
7b:a-dglc-HEX-1:5
8b:a-dglc-HEX-1:5
9b:a-dglc-HEX-1:5
LIN
1:1o(2+1)2d
2:2o(2+1)3d
3:2o(7+1)4d
4:3o(2+1)5d
5:4o(4+1)6d
6:6o(3+1)7d
7:5o(6+1)8d
8:8o(6+1)9d