RES
1b:b-dglc-HEX-1:5
2n:n1
3b:b-dgal-HEX-1:5
4b:a-lman-HEX-1:5|6:d
5b:a-lman-HEX-1:5|6:d
6b:a-lman-HEX-1:5|6:d
7b:a-dgal-HEX-1:4
LIN
1:1o(1+1)2n
2:1o(3+1)3d
3:3o(4+1)4d
4:4o(3+1)5d
5:5o(2+1)6d
6:6o(2+1)7d
NON
NON1
Parent:1
Linkage:o(1+1)n
SmallMolecule:SMILES [2CH2](N)[1CH2](O)
Description:ethanolamine