RES
1b:x-dman-OCT-2:6|1:a|2:keto|3:d
2b:a-lgro-dman-HEP-1:5
3s:phosphate
4b:a-lgro-dman-HEP-1:5
5b:a-dgro-dman-HEP-1:5
6b:a-dgro-dman-HEP-1:5
7b:b-dgal-HEX-1:5
8b:a-dglc-HEX-1:5
9b:a-dglc-HEX-1:5
10b:a-dglc-HEX-1:5
11b:a-dglc-HEX-1:5
12b:a-dglc-HEX-1:5
LIN
1:1o(5+1)2d
2:2o(7+1)3n
3:2o(3+1)4d
4:4o(2+1)5d
5:5o(2+1)6d
6:5o(7+1)7d
7:6o(2+1)8d
8:7o(4+1)9d
9:9o(3+1)10d
10:8o(6+1)11d
11:11o(6+1)12d