RES
1b:b-dglc-HEX-1:5
2s:amino
3b:a-dman-OCT-2:6|1:a|2:keto|3:d
4b:a-lgro-dman-HEP-1:5
5a:a1
6b:a-lgro-dman-HEP-1:5
7b:b-dglc-HEX-1:5
8s:amino
9b:a-lgal-HEX-1:5|6:d
10b:a-dgro-dman-HEP-1:5
11b:a-dglc-HEX-1:5
12r:r1
13b:a-dglc-HEX-1:5
14b:a-dgro-dman-HEP-1:5
15n:n1
LIN
1:1d(2+1)2n
2:1o(6+2)3d
3:3o(5+1)4d
4:4o(-1+-1)5n
5:4o(3+1)6d
6:6o(2+1)7d
7:7d(2+1)8n
8:7o(3+1)9d
9:9o(3+1)10d
10:10o(6+1)11d
11:11o(6+1)12n
12:12n(6+1)13d
13:13o(3+1)14d
14:14o(-1+1)15n
REP
REP1:16o(6+1)16d=5-13
RES
16b:a-dglc-HEX-1:5
ALT
ALT1
ALTSUBGRAPH1
LEAD-IN RES:17
RES
17s:phospho-ethanolamine
ALTSUBGRAPH2
LEAD-IN RES:18
RES
18s:phospho-ethanolamine
NON
NON1
Parent:14
Linkage:o(-1+1)n
HistoricalEntity:OPS linker