RES
1b:b-dglc-HEX-1:5
2n:n1
3b:b-dgal-HEX-1:5
4b:b-dglc-HEX-1:5
5s:n-acetyl
6b:b-dgal-HEX-1:5
7b:b-dglc-HEX-1:5
8s:n-acetyl
9b:b-dgal-HEX-1:5
10b:a-dgro-dgal-NON-2:6|1:a|2:keto|3:d
11s:n-glycolyl
LIN
1:1o(1+-1)2n
2:1o(4+1)3d
3:3o(3+1)4d
4:4d(2+1)5n
5:4o(4+1)6d
6:6o(3+1)7d
7:7d(2+1)8n
8:7o(4+1)9d
9:9o(3+2)10d
10:10d(5+1)11n
NON
NON1
Parent:1
Linkage:o(1+-1)n
HistoricalEntity:superclass: ceramide