RES
1r:r1
REP
REP1:8o(3+1)2d=-1--1
RES
2b:b-dglc-HEX-1:5
3b:b-dgal-HEX-1:5
4b:b-dgal-HEX-1:5
5b:b-dglc-HEX-1:5
6s:n-acetyl
7b:b-dgal-HEX-1:5
8b:b-dglc-HEX-1:5
9b:a-dgro-dgal-NON-2:6|1:a|2:keto|3:d
10a:a1
11s:n-acetyl
LIN
1:2o(4+1)3d
2:3o(6+1)4d
3:3o(3+1)5d
4:5d(2+1)6n
5:5o(4+1)7d
6:7o(2+1)8d
7:7o(3+2)9d
8:9o(-1+-1)10n
9:9d(5+1)11n
ALT
ALT1
ALTSUBGRAPH1
LEAD-IN RES:12
RES
12s:acetyl
ALTSUBGRAPH2
LEAD-IN RES:13
RES
13s:acetyl
ALTSUBGRAPH3
LEAD-IN RES:14
RES
14s:acetyl