RES
1b:a-dman-OCT-2:6|1:a|2:keto|3:d
2b:a-dman-OCT-2:6|1:a|2:keto|3:d
3b:a-lgro-dman-HEP-1:5
4s:diphospho-ethanolamine
5s:phospho-ethanolamine
6b:a-dman-OCT-2:6|1:a|2:keto|3:d
7b:a-lgro-dman-HEP-1:5
8b:x-xman-HEX-1:5|6:d
9b:a-lgro-dman-HEP-1:5
10b:a-dglc-HEX-1:5
11b:a-dglc-HEX-1:5
12b:b-dglc-HEX-1:5|6:a
13b:a-dgal-HEX-1:5
LIN
1:1o(4+2)2d
2:1o(5+1)3d
3:3o(4+1)4n
4:2o(7+1)5n
5:2o(4+2)6d
6:3o(3+1)7d
7:6o(5+1)8d
8:7o(7+1)9d
9:7o(3+1)10d
10:10o(3+1)11d
11:9o(7+1)12d
12:10o(6+1)13d