RES
1r:r1
REP
REP1:9o(4+1)2d=-1--1
RES
2b:b-lman-HEX-1:5|6:d
3b:a-dgal-HEX-1:5
4b:a-dgal-HEX-1:5
5b:b-dglc-HEX-1:5
6b:a-lman-HEX-1:5|6:d
7s:phosphate
8b:o-dara-PEN-0:0|1:aldi
9b:a-lman-HEX-1:5|6:d
LIN
1:2o(4+1)3d
2:2o(3+1)4d
3:4o(3+1)5d
4:5o(4+1)6d
5:6o(4+1)7n
6:7n(1+1)8o
7:8o(2+1)9d