RES
1r:r1
REP
REP1:5o(6+1)2d=-1--1
RES
2b:a-dgal-HEX-1:5
3a:a1
4b:a-lman-HEX-1:5|6:d
5b:b-dman-HEX-1:5
LIN
1:2o(-1+-1)3n
2:2o(3+1)4d
3:4o(4+1)5d
ALT
ALT1
ALTSUBGRAPH1
LEAD-IN RES:6
RES
6s:acetyl
ALTSUBGRAPH2
LEAD-IN RES:7
RES
7b:a-dglc-HEX-1:5