RES
1r:r1
REP
REP1:7o(6+1)2d=-1--1
RES
2b:b-dglc-HEX-1:5
3s:n-acetyl
4b:b-dman-HEX-1:5
5s:n-acetyl
6s:acetyl
7b:a-dgal-HEX-1:5
8b:b-dgal-HEX-1:5
9s:n-acetyl
LIN
1:2d(2+1)3n
2:2o(4+1)4d
3:4d(2+1)5n
4:4o(3+1)6n
5:4o(4+1)7d
6:7o(3+1)8d
7:7d(2+1)9n