RES
1b:a-dgal-HEX-1:5
2b:b-dgal-HEX-1:4
3r:r1
4r:r2
5b:b-dglc-HEX-1:5
6b:b-dgal-HEX-1:4
7s:n-acetyl
LIN
1:1o(3+1)2d
2:2o(3+1)3n
3:3n(5+1)4n
4:4n(5+1)5d
5:5o(3+1)6d
6:5d(2+1)7n
REP
REP1:9o(3+1)8d=-1--1
RES
8b:a-dgal-HEX-1:5
9b:b-dgal-HEX-1:4
LIN
1:8o(3+1)9d
REP2:11o(5+1)10d=-1--1
RES
10b:b-dglc-HEX-1:5
11b:b-dgal-HEX-1:4
12s:n-acetyl
LIN
1:10o(3+1)11d
2:10d(2+1)12n