RES
1r:r1
REP
REP1:3o(4+1)2d=-1--1
RES
2b:b-dglc-HEX-1:5
3b:b-dglc-HEX-1:5
4b:a-dman-HEX-1:5
5s:acetyl
6b:b-dglc-HEX-1:5|6:a
7b:b-dman-HEX-1:5
8s:pyruvate
LIN
1:2o(4+1)3d
2:2o(3+1)4d
3:4o(6+1)5n
4:4o(2+1)6d
5:6o(4+1)7d
6:7o(6+2)8n
7:7o(4+2)8n