RES
1b:o-dgro-TRI-0:0|1:aldi
2n:n1
3n:n2
4b:b-dglc-HEX-1:5
5b:b-dglc-HEX-1:5
6s:phosphate
7b:o-xgro-TRI-0:0|1:aldi
8r:r1
9r:r2
LIN
1:1o(2+1)2n
2:1o(1+1)3n
3:1o(3+1)4d
4:4o(6+1)5d
5:5o(6+1)6n
6:6n(1+1)7o
7:7o(3+1)8n
8:8n(3+1)9n
REP
REP1:11o(3+1)10n=-1--1
RES
10s:phosphate
11b:o-xgro-TRI-0:0|1:aldi
LIN
1:10n(1+1)11o
REP2:13o(3+1)12n=32-32
RES
12s:phosphate
13b:o-xgro-TRI-0:0|1:aldi
14b:b-dglc-HEX-1:5
15s:n-acetyl
LIN
1:12n(1+1)13o
2:13o(2+1)14d
3:14d(2+1)15n
NON
NON1
Parent:1
Linkage:o(2+1)n
HistoricalEntity:superclass: lipid residue
NON2
Parent:1
Linkage:o(1+1)n
HistoricalEntity:superclass: lipid residue