RES
1b:x-dman-HEX-x:x
2s:methyl
3b:a-dman-HEX-1:5
4s:methyl
5b:a-dman-HEX-1:5
6s:methyl
7b:a-dman-HEX-1:5
8s:methyl
9b:a-dman-HEX-1:5
10s:methyl
11b:a-dman-HEX-1:5
12s:methyl
13b:a-dman-HEX-1:5
14b:a-dman-HEX-1:5
15s:methyl
LIN
1:1o(3+1)2n
2:1o(4+1)3d
3:3o(3+1)4n
4:3o(4+1)5d
5:5o(3+1)6n
6:5o(4+1)7d
7:7o(3+1)8n
8:7o(4+1)9d
9:9o(3+1)10n
10:9o(4+1)11d
11:11o(3+1)12n
12:11o(4+1)13d
13:13o(4+1)14d
14:13o(3+1)15n