RES
1b:a-dman-HEX-1:5
2s:methyl
3s:methyl
4b:a-dman-HEX-1:5
5s:methyl
6b:a-dman-HEX-1:5
7s:methyl
8b:a-dman-HEX-1:5
9s:methyl
10b:a-dman-HEX-1:5
11s:methyl
12b:a-dman-HEX-1:5
13s:methyl
14b:a-dman-HEX-1:5
15s:methyl
16b:a-dman-HEX-1:5
17s:methyl
18b:a-dman-HEX-1:5
19b:a-dman-HEX-1:5
20s:methyl
LIN
1:1o(3+1)2n
2:1o(1+1)3n
3:1o(4+1)4d
4:4o(3+1)5n
5:4o(4+1)6d
6:6o(3+1)7n
7:6o(4+1)8d
8:8o(3+1)9n
9:8o(4+1)10d
10:10o(3+1)11n
11:10o(4+1)12d
12:12o(3+1)13n
13:12o(4+1)14d
14:14o(3+1)15n
15:14o(4+1)16d
16:16o(3+1)17n
17:16o(4+1)18d
18:18o(4+1)19d
19:18o(3+1)20n