RES
1b:o-lgro-TRI-0:0|1:aldi
2n:n1
3n:n2
4b:a-dglc-HEX-1:5
5n:n3
6b:a-dglc-HEX-1:5
7r:r1
LIN
1:1o(2+1)2n
2:1o(1+1)3n
3:1o(3+1)4d
4:4o(6+1)5n
5:4o(2+1)6d
6:6o(6+1)7n
REP
REP1:12o(6+1)8n=7-7
RES
8s:phosphate
9b:o-xgro-TRI-0:0|1:aldi
10b:a-dgal-HEX-1:5
11b:a-dgal-HEX-1:5
12b:a-dgal-HEX-1:5
LIN
1:8n(1+1)9o
2:9o(2+1)10d
3:9o(3+1)11d
4:11o(6+1)12d
NON
NON1
Parent:1
Linkage:o(2+1)n
HistoricalEntity:superclass: lipid residue
NON2
Parent:1
Linkage:o(1+1)n
HistoricalEntity:superclass: lipid residue
NON3
Parent:4
Linkage:o(6+1)n
HistoricalEntity:superclass: lipid residue