RES
1b:x-dman-OCT-2:6|1:a|2:keto|3:d
2b:a-dman-OCT-2:6|1:a|2:keto|3:d
3b:x-dman-OCT-2:6|1:a|2:keto|3:d
4s:phospho-ethanolamine
5b:a-lgro-dman-HEP-1:5
6s:diphospho-ethanolamine
7b:a-lgro-dman-HEP-1:5
8b:a-lgro-dman-HEP-1:5
9s:phosphate
10b:a-dglc-HEX-1:5
11b:a-dgal-HEX-1:5
LIN
1:1o(4+2)2d
2:1o(7+2)3d
3:2o(-1+1)4n
4:3o(5+1)5d
5:5o(4+1)6n
6:5o(3+1)7d
7:7o(7+1)8d
8:7o(-1+1)9n
9:7o(3+1)10d
10:10o(6+1)11d