RES
1b:a-dglc-HEX-1:5
2b:a-dglc-HEX-1:5
3b:b-dglc-HEX-1:5
4b:b-dglc-HEX-1:5
5s:pyruvate
6b:b-dglc-HEX-1:5
7s:pyruvate
8s:methyl
LIN
1:1o(1+1)2d
2:2o(6+1)3d
3:3o(4+1)4d
4:4o(6+2)5n
5:4o(4+2)5n
6:4o(3+1)6d
7:6o(6+2)7n
8:6o(4+2)7n
9:6o(3+1)8n