RES
1b:x-dman-OCT-x:x|1:a|2:keto|3:d
2b:a-lgro-dman-HEP-1:5
3b:a-lgro-dman-HEP-1:5
4b:b-dglc-HEX-1:5
5b:b-dglc-HEX-1:5
6s:phospho-ethanolamine
7b:a-lgro-dman-HEP-1:5
8s:phosphate
9b:b-dgal-HEX-1:5
10n:n1
LIN
1:1o(5+1)2d
2:2o(3+1)3d
3:2o(4+1)4d
4:4o(4+1)5d
5:3o(6+1)6n
6:3o(2+1)7d
7:4o(6+1)8n
8:7o(2+1)9d
9:8n(1+1)10n
NON
NON1
Parent:8
Linkage:n(1+1)n
SmallMolecule:SMILES C[N+](C)(C)[2CH2][1CH2]O
Description:choline