RES
1b:x-ltal-HEX-x:x|6:d
2b:a-lman-HEX-1:5|6:d
3b:a-lgal-HEX-1:5|6:d
4s:methyl
5s:methyl
6b:b-dglc-HEX-1:5|6:a
7b:a-lgal-HEX-1:5|6:d
8s:methyl
9s:methyl
LIN
1:1o(2+1)2d
2:2o(3+1)3d
3:3o(2+1)4n
4:3o(3+1)5n
5:3o(4+1)6d
6:6o(4+1)7d
7:7o(2+1)8n
8:7o(3+1)9n