RES
1b:a-dglc-HEX-1:5
2s:amino
3b:a-dman-HEX-1:5
4b:a-dman-HEX-1:5
5b:b-dgal-HEX-1:4
6b:a-dgal-HEX-1:5
7b:a-dgal-HEX-1:5
8s:phosphate
9b:a-dman-HEX-1:5
LIN
1:1d(2+1)2n
2:1o(4+1)3d
3:3o(3+1)4d
4:4o(3+1)5d
5:5o(3+1)6d
6:6o(6+1)7d
7:7o(6+1)8n
8:8n(1+1)9o