RES
1r:r1
REP
REP1:4n(1+1)2o=-1--1
RES
2b:a-dman-HEX-1:5
3b:b-dgal-HEX-1:5
4s:phosphate
5b:b-dgal-HEX-1:5
6b:b-dgal-HEX-1:5
7b:b-dgal-HEX-1:5
8b:a-dara-PEN-1:5
LIN
1:2o(4+1)3d
2:3o(6+1)4n
3:3o(3+1)5d
4:5o(3+1)6d
5:6o(3+1)7d
6:7o(2+1)8d