RES
1b:o-dglc-HEX-0:0|1:aldi
2s:n-acetyl
3b:b-dglc-HEX-1:5
4s:n-acetyl
5b:a-dman-OCT-2:6|1:a|2:keto|3:d
6b:a-dman-OCT-2:6|1:a|2:keto|3:d
7b:a-lgro-dman-HEP-1:5
8b:b-dglc-HEX-1:5
9b:a-lgro-dman-HEP-1:5
10b:a-dglc-HEX-1:5
11b:b-dgal-HEX-1:5
12n:n1
13s:acetyl
14s:n-acetyl
15b:b-dglc-HEX-1:5
16s:n-acetyl
17b:b-dgal-HEX-1:5
18b:a-dgro-dgal-NON-2:6|1:a|2:keto|3:d
19s:n-acetyl
LIN
1:1d(2+1)2n
2:1o(6+1)3d
3:3d(2+1)4n
4:3o(6+2)5d
5:5o(4+2)6d
6:5o(5+1)7d
7:7o(4+1)8d
8:7o(3+1)9d
9:9o(2+1)10d
10:8o(4+1)11d
11:9o(3+1)12n
12:12n(2+1)13n
13:10d(2+1)14n
14:11o(3+1)15d
15:15d(2+1)16n
16:15o(4+1)17d
17:17o(3+2)18d
18:18d(5+1)19n
NON
NON1
Parent:9
Linkage:o(3+1)n
HistoricalEntity:diphospho-ethanolamine