RES
1b:x-dgal-HEX-x:x
2s:n-acetyl
3b:a-dman-HEX-1:5
4b:a-dman-HEX-1:5
5b:a-dman-HEX-1:5
6b:a-dman-HEX-1:5
7s:methyl
8b:a-dman-HEX-1:5
9s:methyl
LIN
1:1d(2+1)2n
2:1o(4+1)3d
3:3o(2+1)4d
4:4o(2+1)5d
5:5o(2+1)6d
6:6o(3+1)7n
7:6o(6+1)8d
8:8o(3+1)9n