RES
1b:x-dman-HEX-1:5
2n:n1
3b:x-dman-HEX-1:5|6:d
4b:x-dglc-HEX-1:5|6:a
5s:methyl
6s:methyl
7b:x-dglc-HEX-1:5
8b:x-dglc-HEX-1:5|6:a
9b:x-dglc-HEX-1:5|6:a
10s:n-acetyl
11b:x-dman-HEX-1:5
12s:methyl
LIN
1:1o(1+3)2n
2:1o(2+1)3d
3:1o(4+1)4d
4:3o(2+1)5n
5:4o(2+1)6n
6:4o(4+1)7d
7:7o(4+1)8d
8:8o(4+1)9d
9:9d(2+1)10n
10:9o(4+1)11d
11:11o(2+1)12n
NON
NON1
Parent:1
Linkage:o(1+3)n
SmallMolecule:SMILES [3CH2](O)[2CH](N)[1C](=O)O
Description:serine