RES
1r:r1
REP
REP1:8o(4+1)2d=-1--1
RES
2b:a-dgal-HEX-1:5
3s:n-acetyl
4b:b-dgal-HEX-1:5
5s:n-acetyl
6b:b-dglc-HEX-1:5
7b:b-dglc-HEX-1:5
8b:b-dgal-HEX-1:5|6:a
9s:n-acetyl
10s:n-acetyl
LIN
1:2d(2+1)3n
2:2o(3+1)4d
3:4d(2+1)5n
4:4o(3+1)6d
5:4o(4+1)7d
6:7o(3+1)8d
7:6d(2+1)9n
8:7d(2+1)10n