RES
1b:b-dglc-HEX-1:5
2s:methyl
3b:b-dgal-HEX-1:5
4b:b-dglc-HEX-1:5
5b:b-dgal-HEX-1:5
6s:n-acetyl
7b:b-dglc-HEX-1:5
8b:b-dgal-HEX-1:5
LIN
1:1o(1+1)2n
2:1o(4+1)3d
3:3o(3+1)4d
4:4o(4+1)5d
5:4d(2+1)6n
6:4o(6+1)7d
7:7o(4+1)8d