RES
1b:a-lman-HEX-1:5|6:d
2s:methyl
3s:methyl
4s:methyl
5b:a-lman-HEX-1:5|6:d
6s:methyl
7b:a-lman-HEX-1:5|6:d
8s:methyl
9s:methyl
LIN
1:1o(2+1)2n
2:1o(1+1)3n
3:1o(3+1)4n
4:1o(4+1)5d
5:5o(3+1)6n
6:5o(2+1)7d
7:7o(2+1)8n
8:7o(3+1)9n