RES
1r:r1
REP
REP1:7o(4+1)2d=-1--1
RES
2b:b-dglc-HEX-1:5
3b:b-dgal-HEX-1:5
4b:b-dglc-HEX-1:5
5b:b-dglc-HEX-1:5
6b:b-dglc-HEX-1:5
7b:b-dglc-HEX-1:5
8b:b-dglc-HEX-1:5
9b:b-dglc-HEX-1:5
10s:pyruvate
LIN
1:2o(4+1)3d
2:2o(6+1)4d
3:3o(3+1)5d
4:4o(6+1)6d
5:5o(4+1)7d
6:6o(3+1)8d
7:8o(3+1)9d
8:9o(6+2)10n
9:9o(4+2)10n