RES
1b:x-lgro-dman-HEP-x:x
2b:a-lgro-dman-HEP-1:5
3b:a-lgro-dman-HEP-1:5
4b:a-dglc-HEX-1:5
5b:a-dglc-HEX-1:5
6b:b-dgal-HEX-1:5
7b:a-dgal-HEX-1:5
8b:a-dgal-HEX-1:5
LIN
1:1o(3+1)2d
2:2o(6+1)3d
3:2o(3+1)4d
4:4o(3+1)5d
5:5o(4+1)6d
6:5o(2+1)7d
7:7o(2+1)8d