RES
1b:b-dglc-HEX-1:5
2n:n1
3b:b-dgal-HEX-1:5
4b:a-dgro-dgal-NON-2:6|1:a|2:keto|3:d
5b:b-dgal-HEX-1:5
6s:n-acetyl
7s:n-acetyl
8b:b-dgal-HEX-1:5
9b:a-dgro-dgal-NON-2:6|1:a|2:keto|3:d
10s:n-acetyl
11b:a-dgro-dgal-NON-2:6|1:a|2:keto|3:d
12s:n-acetyl
LIN
1:1o(1+-1)2n
2:1o(4+1)3d
3:3o(3+2)4d
4:3o(4+1)5d
5:4d(5+1)6n
6:5d(2+1)7n
7:5o(3+1)8d
8:8o(3+2)9d
9:9d(5+1)10n
10:9o(8+2)11d
11:11d(5+1)12n
NON
NON1
Parent:1
Linkage:o(1+-1)n
HistoricalEntity:superclass: ceramide