RES
1r:r1
REP
REP1:8o(3+1)2d=-1--1
RES
2b:a-dgal-HEX-1:5
3b:a-lgro-dgal-NON-2:6|1:a|2:keto|3:d|9:d
4s:n-acetyl
5s:n-acetyl
6b:a-dglc-HEX-1:5
7s:n-acetyl
8b:a-lgal-HEX-1:5|6:d
9s:n-acetyl
LIN
1:2o(6+2)3d
2:3d(5+1)4n
3:3d(7+1)5n
4:3o(4+1)6d
5:6d(2+1)7n
6:6o(3+1)8d
7:8d(2+1)9n