RES
1b:x-dman-OCT-x:x|1:a|2:keto|3:d
2b:a-dman-OCT-x:x|1:a|2:keto|3:d
3s:phospho-ethanolamine
4b:a-lgro-dman-HEP-1:5
5b:a-dgal-HEX-1:5
6b:b-dglc-HEX-1:5
7b:a-lgro-dman-HEP-1:5
8b:a-dglc-HEX-1:5
9b:a-dgal-HEX-1:5
10b:a-dgal-HEX-1:5
11s:n-acetyl
12b:b-dglc-HEX-1:5
13s:n-acetyl
LIN
1:1o(5+2)2d
2:2o(4+1)3n
3:2o(5+1)4d
4:4o(2+1)5d
5:4o(4+1)6d
6:4o(3+1)7d
7:7o(2+1)8d
8:7o(3+1)9d
9:9o(3+1)10d
10:10d(2+1)11n
11:10o(3+1)12d
12:12d(2+1)13n