RES
1b:x-dglc-HEX-x:x
2s:amino
3b:b-dglc-HEX-1:5
4s:amino
5b:b-dglc-HEX-1:5
6s:amino
7b:b-dglc-HEX-1:5
8s:amino
9b:b-dglc-HEX-1:5
10s:amino
LIN
1:1d(2+1)2n
2:1o(4+1)3d
3:3d(2+1)4n
4:3o(4+1)5d
5:5d(2+1)6n
6:5o(4+1)7d
7:7d(2+1)8n
8:7o(4+1)9d
9:9d(2+1)10n