RES
1b:a-dglc-HEX-1:5
2a:a1
3s:sulfate
4b:a-dglc-HEX-1:5
5a:a2
6a:a3
7n:n1
LIN
1:1o(6+1)2n
2:1o(2+1)3n
3:1o(1+1)4d
4:4o(6+1)5n
5:4o(2+1)6n
6:4o(3+1)7n
ALT
ALT1
ALTSUBGRAPH1
LEAD-IN RES:8
RES
8n:n2
ALTSUBGRAPH2
LEAD-IN RES:9
RES
9n:n3
ALT2
ALTSUBGRAPH1
LEAD-IN RES:10
RES
10n:n4
ALTSUBGRAPH2
LEAD-IN RES:11
RES
11n:n5
ALT3
ALTSUBGRAPH1
LEAD-IN RES:12
RES
12n:n6
ALTSUBGRAPH2
LEAD-IN RES:13
RES
13n:n7
NON
NON1
Parent:4
Linkage:o(3+1)n
SmallMolecule:SMILES [28CH3][27CH2][26CH]([30CH3])[25CH](O[29CH3])[24CH2][23CH2][22CH2][21CH2][20CH](O)[19CH2][18CH](O)[17CH2][16CH2][15CH2][14CH2][13CH2][12CH2][11CH2][10CH2][9CH2][8CH2][7CH2][6CH2][5CH2][4CH2][3CH2][2CH2][1CH2]O
Description:phthioceranol
NON2
HistoricalEntity:11-hydroxy-phthioceranol
NON3
HistoricalEntity:10-hydroxy-phthioceranol
NON4
HistoricalEntity:11-hydroxy-phthioceranol
NON5
HistoricalEntity:10-hydroxy-phthioceranol
NON6
SmallMolecule:SMILES [18CH3][17CH2][16CH2][15CH2][14CH2][13CH2][12CH2][11CH2][10CH2][9CH2][8CH2][7CH2][6CH2][5CH2][4CH2][3CH2][2CH2][1C](=O)O
Description:stearic acid
NON7
SmallMolecule:SMILES [16CH3][15CH2][14CH2][13CH2][12CH2][11CH2][10CH2][9CH2][8CH2][7CH2][6CH2][5CH2][4CH2][3CH2][2CH2][1C](=O)O
Description:palmitic acid