RES
1b:o-xgro-TRI-0:0|1:aldi
2n:n1
3s:phosphate
4n:n2
5b:a-dglc-HEX-1:5
6s:amino
7b:a-dman-HEX-1:5
8b:a-dman-HEX-1:5
9b:b-dgal-HEX-1:4
10s:phosphate
11b:a-dglc-HEX-1:5
12b:a-dgal-HEX-1:5
13b:a-dgal-HEX-1:5
14r:r1
15s:phosphate
16b:a-dman-HEX-1:5
17b:b-dgal-HEX-1:5
18b:a-dman-HEX-1:5
19b:a-dman-HEX-1:5
LIN
1:1o(1+1)2n
2:1o(3+1)3n
3:3n(1+1)4n
4:4n(6+1)5d
5:5d(2+1)6n
6:5o(4+1)7d
7:7o(3+1)8d
8:8o(3+1)9d
9:8o(6+1)10n
10:10n(1+1)11o
11:9o(3+1)12d
12:12o(6+1)13d
13:13o(6+1)14n
14:14n(6+1)15n
15:15n(1+1)16o
16:16o(4+1)17d
17:16o(2+1)18d
18:18o(2+1)19d
REP
REP1:22o(6+1)20n=-1--1
RES
20s:phosphate
21b:a-dman-HEX-1:5
22b:b-dgal-HEX-1:5
LIN
1:20n(1+1)21o
2:21o(4+1)22d
NON
NON1
Parent:1
Linkage:o(1+1)n
HistoricalEntity:superclass: alcohol residue
NON2
Parent:3
Linkage:n(1+1)n
SmallMolecule:SMILES [6C@H](O)1[5C@H](O)[4C@@H](O)[3C@H](O)[2C@H](O)[1C@H](O)1
Description:myo-inositol