RES
1b:b-dgal-HEX-1:5
2b:b-dglc-HEX-1:5
3b:b-dglc-HEX-1:5
4s:n-acetyl
5b:b-dgal-HEX-1:5
6b:a-dgro-dgal-NON-2:6|1:a|2:keto|3:d
7s:n-acetyl
LIN
1:1o(3+1)2d
2:2o(6+1)3d
3:2d(2+1)4n
4:2o(4+1)5d
5:5o(3+2)6d
6:6d(5+1)7n