RES
1b:o-drib-PEN-0:0|1:aldi
2s:phosphate
3b:b-dgal-HEX-1:5
4s:n-acetyl
5b:a-dgal-HEX-1:5
6s:n-acetyl
7b:a-dglc-HEX-1:5
8s:n-acetyl
LIN
1:1o(5+1)2n
2:1o(1+1)3d
3:3d(2+1)4n
4:3o(3+1)5d
5:5d(2+1)6n
6:5o(4+1)7d
7:7d(2+1)8n