RES
1r:r1
REP
REP1:10o(3+1)2d=-1--1
RES
2b:b-dgal-HEX-1:4
3b:a-dglc-HEX-1:5
4b:a-lgal-HEX-1:5
5b:b-dgro-lgal-NON-2:6|1:a|2:keto|3:d|9:d
6s:acetyl
7s:n-acetyl
8s:amino
9n:n1
10b:a-dglc-HEX-1:5
11s:n-acetyl
LIN
1:2o(2+1)3d
2:3o(2+1)4d
3:4o(6+2)5d
4:5o(4+1)6n
5:5d(5+1)7n
6:5d(7+1)8n
7:5o(7+1)9n
8:5o(8+1)10d
9:10d(2+1)11n
NON
NON1
Parent:5
Linkage:o(7+1)n
SmallMolecule:SMILES [4CH3][3CH](O)[2CH2][1C](=O)O
Description:3-hydroxybutanoic acid