RES
1b:b-dgal-HEX-1:5
2n:n1
3b:a-lman-HEX-1:5|6:d
4b:a-lman-HEX-1:5|6:d
5b:a-lman-HEX-1:5|6:d
6b:b-dman-HEX-1:5
7b:b-dman-HEX-1:5
8b:a-dglc-HEX-1:5
9s:n-acetyl
10s:n-acetyl
11s:phosphate
12b:b-dgal-HEX-1:5
13n:n2
14r:r1
15b:b-dman-HEX-1:5
16b:b-dgal-HEX-1:5
17b:a-dglc-HEX-1:5
18s:n-acetyl
LIN
1:1o(1+1)2n
2:1o(3+1)3d
3:3o(3+1)4d
4:4o(3+1)5d
5:5o(4+1)6d
6:5o(3+1)7d
7:7o(6+1)8d
8:7d(2+1)9n
9:6d(2+1)10n
10:6o(4+1)11n
11:7o(4+1)12d
12:11n(1+2)13n
13:12o(3+1)14n
14:14n(3+1)15d
15:15o(4+1)16d
16:15o(6+1)17d
17:15d(2+1)18n
REP
REP1:20o(3+1)19d=20-20
RES
19b:b-dman-HEX-1:5
20b:b-dgal-HEX-1:5
21b:a-dglc-HEX-1:5
22s:n-acetyl
LIN
1:19o(4+1)20d
2:19o(6+1)21d
3:19d(2+1)22n
NON
NON1
Parent:1
Linkage:o(1+1)n
SmallMolecule:SMILES [9CH]1=[8CH][7C](O)=[6CH][5CH]=[4C]1[3CH2][2CH](N)[1C](=O)O
Description:tyrosine
NON2
Parent:11
Linkage:n(1+2)n
SmallMolecule:SMILES [3CH2](O)[2CH](O)[1C](=O)O
Description:glyceric acid