RES
1b:o-xgro-TRI-0:0|1:aldi
2a:a2
3a:a1
4b:x-dman-HEX-x:x
5b:x-dglc-HEX-x:x
LIN
1:1o(3+1)2n
2:1o(2+1)3n
3:1o(1+1)4d
4:4o(-1+1)5d
ALT
ALT1
ALTSUBGRAPH1
LEAD-IN RES:6
RES
6n:n1
ALTSUBGRAPH2
LEAD-IN RES:7
RES
7n:n2
ALT2
ALTSUBGRAPH1
LEAD-IN RES:8
RES
8n:n3
ALTSUBGRAPH2
LEAD-IN RES:9
RES
9n:n4
NON
NON1
SmallMolecule:SMILES [14CH3][13CH2][12CH]([15CH3])[11CH2][10CH2][9CH2][8CH2][7CH2][6CH2][5CH2][4CH2][3CH2][2CH2][1C](=O)O
Description:anteiso-pentadecanoic acid
NON2
SmallMolecule:SMILES [16CH3][15CH2][14CH]([17CH3])[13CH2][12CH2][11CH2][10CH2][9CH2][8CH2][7CH2][6CH2][5CH2][4CH2][3CH2][2CH2][1C](=O)O
Description:anteiso-heptadecanoic acid
NON3
SmallMolecule:SMILES [16CH3][15CH2][14CH]([17CH3])[13CH2][12CH2][11CH2][10CH2][9CH2][8CH2][7CH2][6CH2][5CH2][4CH2][3CH2][2CH2][1C](=O)O
Description:anteiso-heptadecanoic acid
NON4
SmallMolecule:SMILES [16CH3][15CH2][14CH]([17CH3])[13CH2][12CH2][11CH2][10CH2][9CH2][8CH2][7CH2][6CH2][5CH2][4CH2][3CH2][2CH2][1C](=O)O
Description:anteiso-heptadecanoic acid