RES
1b:x-dman-OCT-x:x|1:a|2:keto|3:d
2s:phospho-ethanolamine
3b:a-lgro-dman-HEP-1:5
4b:a-dgal-HEX-1:5
5b:b-dglc-HEX-1:5
6b:a-lgro-dman-HEP-1:5
7b:a-dglc-HEX-1:5
8b:a-dgal-HEX-1:5
9b:a-dgal-HEX-1:5
10s:n-acetyl
11b:b-dglc-HEX-1:5
12s:n-acetyl
LIN
1:1o(4+1)2n
2:1o(5+1)3d
3:3o(2+1)4d
4:3o(4+1)5d
5:3o(3+1)6d
6:6o(2+1)7d
7:6o(3+1)8d
8:8o(3+1)9d
9:9d(2+1)10n
10:9o(3+1)11d
11:11d(2+1)12n