RES
1b:x-dman-HEX-x:x
2b:a-dman-HEX-1:5
3b:a-dman-HEX-1:5
4b:b-dglc-HEX-1:5
5b:b-dglc-HEX-1:5
6b:b-dglc-HEX-1:5
7b:b-dglc-HEX-1:5
8b:b-dgal-HEX-1:5
9b:b-dgal-HEX-1:5
10b:b-dgal-HEX-1:5
11b:b-dgal-HEX-1:5
12s:n-acetyl
13s:n-acetyl
14s:n-acetyl
15s:n-acetyl
LIN
1:1o(3+1)2d
2:1o(6+1)3d
3:2o(2+1)4d
4:2o(4+1)5d
5:3o(6+1)6d
6:3o(2+1)7d
7:7o(4+1)8d
8:4o(4+1)9d
9:6o(4+1)10d
10:5o(4+1)11d
11:4d(2+1)12n
12:6d(2+1)13n
13:7d(2+1)14n
14:5d(2+1)15n