RES
1r:r1
REP
REP1:8o(2+1)2d=-1--1
RES
2b:a-dglc-HEX-1:5|6:d
3s:n-acetyl
4b:a-dgal-HEX-1:5|6:a
5s:n-formyl
6s:amino
7b:a-dgal-HEX-1:5|6:a
8b:a-lman-HEX-1:5|6:d
9s:n-acetyl
10s:amino
11s:acetyl
LIN
1:2d(2+1)3n
2:2o(3+1)4d
3:4d(2+1)5n
4:4d(6+1)6n
5:4o(4+1)7d
6:7o(4+1)8d
7:7d(2+1)9n
8:7d(6+1)10n
9:7o(3+1)11n