RES
1r:r1
REP
REP1:7o(3+1)2d=-1--1
RES
2b:b-dglc-HEX-1:5
3s:n-acetyl
4b:b-dglc-HEX-1:5
5b:a-dglc-HEX-1:5
6s:phosphate
7b:a-dglc-HEX-1:5
8b:b-lman-HEX-1:5|6:d
9s:n-acetyl
LIN
1:2d(2+1)3n
2:2o(3+1)4d
3:4o(2+1)5d
4:5o(6+1)6n
5:6n(1+1)7o
6:7o(4+1)8d
7:7d(2+1)9n