RES
1r:r1
REP
REP1:11o(3+1)2d=-1--1
RES
2b:b-dglc-HEX-1:5
3s:n-acetyl
4b:a-lgal-HEX-1:5|6:d
5s:n-acetyl
6b:b-dglc-HEX-1:5
7b:a-dgal-HEX-1:5
8b:a-dglc-HEX-1:5
9s:acetyl
10s:phosphate
11b:o-dgro-TRI-0:0|1:aldi
LIN
1:2d(2+1)3n
2:2o(3+1)4d
3:4d(2+1)5n
4:4o(4+1)6d
5:4o(3+1)7d
6:7o(6+1)8d
7:7o(2+1)9n
8:6o(6+1)10n
9:10n(1+1)11o