RES
1r:r1
REP
REP1:10o(3+1)2d=-1--1
RES
2b:b-dglc-HEX-1:5
3r:r2
4b:b-dglc-HEX-1:5
5b:b-dglc-HEX-1:5
6n:n1
7b:b-dglc-HEX-1:5
8r:r3
9b:b-dglc-HEX-1:5
10b:b-dglc-HEX-1:5
11b:b-dglc-HEX-1:5
LIN
1:2o(6+1)3n
2:3n(3+1)4d
3:4o(3+1)5d
4:5o(6+1)6n
5:5o(3+1)7d
6:7o(6+1)8n
7:8n(3+1)9d
8:9o(3+1)10d
9:10o(6+1)11d
REP2:12o(6+1)12d=3-3
RES
12b:b-dglc-HEX-1:5
REP3:13o(6+1)13d=3-3
RES
13b:b-dglc-HEX-1:5
NON
NON1
Parent:5
Linkage:o(6+1)n
SmallMolecule:SMILES C[N+](C)(C)[2CH2][1CH2]O
Description:choline