RES
1b:a-ltal-HEX-1:5|6:d
2b:a-lman-HEX-1:5|6:d
3b:a-lman-HEX-1:5|6:d
4b:a-lara-HEX-1:5|6:d
5s:methyl
6s:methyl
7s:methyl
8b:b-dglc-HEX-1:5|6:a
9s:methyl
10s:methyl
LIN
1:1o(2+1)2d
2:2o(3+1)3d
3:3o(3+1)4d
4:4o(2+1)5n
5:4h(3+1)6n
6:4o(4+1)7n
7:4o(3+1)8d
8:8o(3+1)9n
9:8o(4+1)10n