RES
1r:r1
REP
REP1:7o(3+1)2d=-1--1
RES
2b:a-dglc-HEX-x:x
3s:acetyl
4s:amino
5b:b-dman-HEX-x:x|6:a
6s:acetyl
7b:a-dgal-HEX-x:x|6:d
8s:n-acetyl
LIN
1:2o(6+1)3n
2:2d(2+1)4n
3:2o(4+1)5d
4:5o(2+1)6n
5:5o(4+1)7d
6:7d(4+1)8n