RES
1b:a-lman-HEX-1:5|6:d
2n:n1
3b:a-lman-HEX-1:5|6:d
4b:a-lman-HEX-1:5|6:d
5b:b-dman-HEX-1:5
6b:b-dglc-HEX-1:5
7s:n-acetyl
LIN
1:1o(1+1)2n
2:1o(4+1)3d
3:3o(4+1)4d
4:4o(2+1)5d
5:4o(4+1)6d
6:6d(2+1)7n
NON
NON1
Parent:1
Linkage:o(1+1)n
SmallMolecule:SMILES [8CH3][7CH2][6CH2][5CH2][4CH2][3CH2][2CH2][1CH2]O
Description:octanol