RES
1r:r1
REP
REP1:9o(4+1)2d=-1--1
RES
2b:b-drib-PEN-1:4
3b:b-dglc-HEX-1:5|6:d
4s:n-formyl
5b:a-dgal-HEX-1:5|6:d
6s:amino
7s:n-acetyl
8b:b-dglc-HEX-1:5|6:a
9b:b-dglc-HEX-1:5|6:a
LIN
1:2o(2+1)3d
2:3d(4+1)4n
3:3o(2+1)5d
4:5d(4+1)6n
5:5d(2+1)7n
6:5o(3+1)8d
7:8o(4+1)9d