RES
1b:a-dman-OCT-2:6|1:a|2:keto|3:d
2b:a-dman-HEX-1:5
3b:a-dman-OCT-2:6|1:a|2:keto|3:d
4b:a-dgal-HEX-1:5|6:a
5b:a-dgal-HEX-1:5|6:a
6b:a-dgal-HEX-1:5|6:a
LIN
1:1o(5+1)2d
2:1o(4+2)3d
3:3o(4+1)4d
4:3o(5+1)5d
5:2o(4+1)6d