RES
1b:a-lara-PEN-x:x
2s:amino
3s:phosphate
4b:a-dglc-HEX-1:5
5n:n1
6b:b-dglc-HEX-1:5
7s:amino
8n:n2
9s:phosphate
10b:a-dman-OCT-2:6|1:a|2:keto|3:d
11b:a-dman-OCT-2:6|1:a|2:keto|3:d
12b:b-lara-PEN-1:5
13b:b-lara-PEN-1:5
14b:a-lgro-dman-HEP-1:5
15b:b-dglc-HEX-1:5
16s:amino
17s:amino
18b:a-lgro-dman-HEP-1:5
19b:a-dgal-HEX-1:5|6:a
20b:a-lgro-dman-HEP-1:5
LIN
1:1d(4+1)2n
2:1o(1+1)3n
3:3n(1+1)4o
4:4o(2+1)5n
5:4o(6+1)6d
6:6d(2+1)7n
7:6o(2+1)8n
8:6o(4+1)9n
9:6o(6+2)10d
10:10o(4+2)11d
11:9n(1+1)12o
12:10o(8+1)13d
13:10o(5+1)14d
14:14o(4+1)15d
15:13d(4+1)16n
16:12d(4+1)17n
17:14o(3+1)18d
18:18o(3+1)19d
19:18o(7+1)20d
NON
NON1
Parent:4
Linkage:o(2+1)n
SmallMolecule:SMILES [14CH3][13CH2][12CH2][11CH2][10CH2][9CH2][8CH2][7CH2][6CH2][5CH2][4CH2][3CH](O)[2CH2][1C](=O)O
Description:3-hydroxy-tetradecanoic acid
NON2
Parent:6
Linkage:o(2+1)n
SmallMolecule:SMILES [14CH3][13CH2][12CH2][11CH2][10CH2][9CH2][8CH2][7CH2][6CH2][5CH2][4CH2][3CH](O)[2CH2][1C](=O)O
Description:3-hydroxy-tetradecanoic acid