RES
1b:a-lman-HEX-1:5|6:d
2s:methyl
3b:a-lman-HEX-1:5|6:d
4b:b-dglc-HEX-1:5
5s:n-acetyl
6b:a-lman-HEX-1:5|6:d
7b:a-dglc-HEX-1:5
LIN
1:1o(1+1)2n
2:1o(2+1)3d
3:3o(2+1)4d
4:4d(2+1)5n
5:4o(3+1)6d
6:6o(4+1)7d