RES
1b:a-dman-OCT-x:x|1:a|2:keto|3:d
2b:a-lgro-dman-HEP-1:5
3s:phosphate
4s:phosphate
5b:a-lgro-dman-HEP-1:5
6s:phosphate
7n:n1
8b:a-dgal-HEX-1:5
9b:a-dglc-HEX-1:5
10s:amino
11n:n2
12b:b-dglc-HEX-1:5
13b:a-dglc-HEX-1:5
14b:a-lman-HEX-1:5|6:d
15b:b-dglc-HEX-1:5|6:d
16s:n-acetyl
17b:a-lgal-HEX-1:5|6:d
18s:amino
19n:n3
20b:a-lgro-dgal-NON-2:6|1:a|2:keto|3:d|9:d
21s:n-acetyl
22s:n-acetyl
LIN
1:1o(5+1)2d
2:2o(2+1)3n
3:2o(4+1)4n
4:2o(3+1)5d
5:5o(6+1)6n
6:5o(7+1)7n
7:5o(3+1)8d
8:8o(4+1)9d
9:8d(2+1)10n
10:8o(2+1)11n
11:8o(3+1)12d
12:12o(6+1)13d
13:12o(3+1)14d
14:14o(3+1)15d
15:15d(2+1)16n
16:15o(3+1)17d
17:17d(2+1)18n
18:17o(2+1)19n
19:17o(3+2)20d
20:20d(5+1)21n
21:20d(7+1)22n
NON
NON1
Parent:5
Linkage:o(7+1)n
SmallMolecule:SMILES [1C](=O)(O)N
Description:carbamic acid
NON2
Parent:8
Linkage:o(2+1)n
SmallMolecule:SMILES [3CH3][2C@H](N)[1C](=O)O
Description:(L)-alanine
NON3
Parent:17
Linkage:o(2+1)n
SmallMolecule:SMILES [2CH3][1C](=N)O
Description:acetimidic acid