RES
1b:a-dglc-HEX-1:5
2s:amino
3b:a-dman-HEX-1:5
4b:a-dman-HEX-1:5
5b:b-dgal-HEX-1:4
6s:phosphate
7b:a-dglc-HEX-1:5
8b:a-dgal-HEX-1:5
9b:a-dgal-HEX-1:5
10n:n1
LIN
1:1d(2+1)2n
2:1o(4+1)3d
3:3o(3+1)4d
4:4o(3+1)5d
5:4o(6+1)6n
6:6n(1+1)7o
7:5o(3+1)8d
8:8o(6+1)9d
9:9o(6+1)10n
NON
NON1
Parent:9
Linkage:o(6+1)n
HistoricalEntity: