RES
1b:a-dman-OCT-2:6|1:a|2:keto|3:d
2b:a-dman-OCT-2:6|1:a|2:keto|3:d
3b:a-dman-HEX-1:5
4b:a-dgal-HEX-1:5|6:a
5b:a-dgal-HEX-1:5|6:a
6b:a-dgal-HEX-1:5|6:a
7b:a-dgal-HEX-1:5
8b:a-dman-OCT-2:6|1:a|2:keto|3:d
LIN
1:1o(4+2)2d
2:1o(5+1)3d
3:2o(5+1)4d
4:3o(4+1)5d
5:2o(4+1)6d
6:3o(6+1)7d
7:7o(6+2)8d