RES
1r:r1
REP
REP1:9o(6+1)2n=-1--1
RES
2s:phosphate
3b:o-drib-PEN-0:0|1:aldi
4b:a-dglc-HEX-1:5
5s:n-acetyl
6s:phospho-ethanolamine
7b:a-dgal-HEX-1:5
8s:n-acetyl
9b:b-dgal-HEX-1:5
10s:n-acetyl
LIN
1:2n(1+5)3o
2:3o(2+1)4d
3:4d(2+1)5n
4:4o(6+1)6n
5:4o(3+1)7d
6:7d(2+1)8n
7:7o(4+1)9d
8:9d(2+1)10n