RES
1r:r1
REP
REP1:5o(6+1)2d=-1--1
RES
2b:a-dgal-HEX-1:5
3s:n-acetyl
4b:b-dgal-HEX-1:5
5b:a-dglc-HEX-1:5
6s:phosphate
7b:o-dgro-TRI-0:0|1:aldi
8s:n-acetyl
LIN
1:2d(2+1)3n
2:2o(3+1)4d
3:4o(3+1)5d
4:4o(4+1)6n
5:6n(1+1)7o
6:5d(2+1)8n