RES
1b:x-dman-OCT-x:x|1:a|2:keto|3:d
2b:a-dglc-HEX-1:5
3b:b-dglc-HEX-1:5
4b:b-dglc-HEX-1:5
5b:b-dglc-HEX-1:5
6b:a-dglc-HEX-1:5
7b:a-dglc-HEX-1:5
8s:n-acetyl
9b:b-dgal-HEX-1:5
10b:a-dgal-HEX-1:5
LIN
1:1o(5+1)2d
2:2o(3+1)3d
3:2o(6+1)4d
4:2o(4+1)5d
5:5o(2+1)6d
6:4o(2+1)7d
7:6d(2+1)8n
8:7o(4+1)9d
9:9o(4+1)10d