RES
1r:r1
REP
REP1:7o(4+1)2d=-1--1
RES
2b:a-lman-HEX-1:5|6:d
3b:a-dglc-HEX-1:5|6:d
4s:n-acetyl
5b:a-dgal-HEX-1:5
6b:b-dglc-HEX-1:5
7b:b-dgal-HEX-1:5
8s:n-acetyl
LIN
1:2o(3+1)3d
2:3d(3+1)4n
3:3o(4+1)5d
4:5o(4+1)6d
5:5o(3+1)7d
6:5d(2+1)8n