RES
1b:b-dglc-HEX-1:5|6:d
2s:thio
3b:b-dgal-HEX-1:5
4b:a-dgro-dgal-NON-2:6|1:a|2:keto|3:d
5s:n-acetyl
6b:a-dgro-dgal-NON-2:6|1:a|2:keto|3:d
7s:n-acetyl
LIN
1:1d(1+1)2n
2:1o(4+1)3d
3:3o(3+2)4d
4:4d(5+1)5n
5:4o(8+2)6d
6:6d(5+1)7n