RES
1r:r1
REP
REP1:6o(3+1)2n=-1--1
RES
2s:phosphate
3b:o-drib-PEN-0:0|1:aldi
4s:phosphate
5b:o-drib-PEN-0:0|1:aldi
6b:b-dgal-HEX-1:5|6:d
7s:n-acetyl
8s:amino
LIN
1:2n(1+5)3o
2:3o(1+1)4n
3:4n(1+5)5o
4:5o(1+1)6d
5:6d(2+1)7n
6:6d(4+1)8n