RES
1r:r1
REP
REP1:9o(6+1)2d=-1--1
RES
2b:a-dman-HEX-1:5
3b:a-dman-HEX-1:5
4b:a-dman-HEX-1:5
5b:a-dman-HEX-1:5
6b:a-dman-HEX-1:5
7b:a-dman-HEX-1:5
8b:a-dman-HEX-1:5
9b:a-dman-HEX-1:5
10b:a-dman-HEX-1:5
LIN
1:2o(2+1)3d
2:2o(6+1)4d
3:4o(6+1)5d
4:5o(2+1)6d
5:5o(6+1)7d
6:7o(6+1)8d
7:8o(6+1)9d
8:8o(2+1)10d