RES
1b:x-dman-OCT-x:x|1:a|2:keto|3:d
2b:a-lgro-dman-HEP-1:5
3b:b-dglc-HEX-1:5
4b:a-lgro-dman-HEP-1:5
5b:a-dglc-HEX-1:5|6:a
6s:phosphate
7b:a-dglc-HEX-1:5
8b:a-dgal-HEX-1:5|6:a
9b:a-dglc-HEX-1:5
10s:amino
11s:amino
12s:amino
13b:b-dgal-HEX-1:5|6:d
14s:n-acetyl
15s:amino
16b:b-dman-HEX-1:5|6:a
17s:n-acetyl
18s:n-acetyl
19b:a-dgal-HEX-1:5
20s:n-acetyl
21b:b-dglc-HEX-1:5|6:a
22s:n-acetyl
23s:amino
24s:n-acetyl
25n:n1
26s:acetyl
27s:amino
28s:acetyl
LIN
1:1o(5+1)2d
2:2o(4+1)3d
3:2o(3+1)4d
4:4o(2+1)5d
5:4o(4+1)6n
6:4o(7+1)7d
7:3o(6+1)8d
8:3o(4+1)9d
9:7d(2+1)10n
10:9d(2+1)11n
11:8d(2+1)12n
12:9o(6+1)13d
13:13d(2+1)14n
14:13d(4+1)15n
15:13o(3+1)16d
16:16d(2+1)17n
17:16d(3+1)18n
18:16o(4+1)19d
19:19d(2+1)20n
20:19o(4+1)21d
21:21d(2+1)22n
22:21d(6+1)23n
23:21d(3+1)24n
24:21o(4+1)25n
25:25n(2+1)26n
26:25n(6+1)27n
27:25n(3+1)28n
NON
NON1
Parent:21
Linkage:o(4+1)n
SmallMolecule:SMILES N{3}[C@H]1C=C({6}C(O)=O)O{1}[C@@H](O){2}[C@H]1N
Description:2,3-diamino-2,3,4-trideoxy-hex-4-enuronopyranose