RES
1b:x-dman-OCT-x:x|1:a|2:keto|3:d
2b:a-dman-OCT-2:6|1:a|2:keto|3:d
3b:a-dman-HEX-1:5
4b:a-dgal-HEX-1:5
5b:a-dman-OCT-2:6|1:a|2:keto|3:d
6b:a-dgal-HEX-1:5|6:a
7b:a-dgal-HEX-1:5|6:a
LIN
1:1o(4+2)2d
2:1o(5+1)3d
3:3o(6+1)4d
4:4o(6+2)5d
5:5o(4+1)6d
6:5o(5+1)7d