RES
1r:r1
REP
REP1:9o(6+1)2n=-1--1
RES
2s:phosphate
3b:a-dglc-HEX-1:5
4b:b-dgal-HEX-1:5
5s:n-acetyl
6b:a-dgal-HEX-1:5
7b:a-dglc-HEX-1:5
8s:n-acetyl
9b:a-dglc-HEX-1:5
10s:acetyl
11s:amino
12n:n1
LIN
1:2n(1+1)3o
2:3o(2+1)4d
3:4d(2+1)5n
4:4o(3+1)6d
5:6o(6+1)7d
6:6d(2+1)8n
7:6o(4+1)9d
8:9o(3+1)10n
9:9d(2+1)11n
10:9o(2+1)12n
NON
NON1
Parent:9
Linkage:o(2+1)n
SmallMolecule:SMILES [4CH3][3C@@H](O)[2CH2][1C](=O)O
Description:(R)-3-hydroxybutanoic acid