RES
1r:r1
REP
REP1:11o(2+1)2d=-1--1
RES
2b:b-dgal-HEX-1:5
3s:n-acetyl
4b:a-dgal-HEX-1:5
5b:a-dglc-HEX-1:5
6s:n-acetyl
7b:a-dglc-HEX-1:5
8s:amino
9n:n1
10s:phosphate
11b:a-dglc-HEX-1:5
LIN
1:2d(2+1)3n
2:2o(3+1)4d
3:4o(6+1)5d
4:4d(2+1)6n
5:4o(4+1)7d
6:7d(2+1)8n
7:7o(2+1)9n
8:7o(6+1)10n
9:10n(1+1)11o
NON
NON1
Parent:7
Linkage:o(2+1)n
SmallMolecule:SMILES [4CH3][3C@@H](O)[2CH2][1C](=O)O
Description:(R)-3-hydroxybutanoic acid