RES
1b:b-lara-PEN-1:5
2s:amino
3s:phosphate
4b:b-dglc-HEX-1:5
5s:amino
6b:a-dglc-HEX-1:5
7s:amino
8s:phosphate
9b:b-lara-PEN-1:5
10s:amino
LIN
1:1d(4+1)2n
2:1o(1+1)3n
3:3n(1+1)4o
4:4d(2+1)5n
5:4o(6+1)6d
6:6d(2+1)7n
7:6o(4+1)8n
8:8n(1+1)9o
9:9d(4+1)10n