RES
1b:a-dman-OCT-2:6|1:a|2:keto|3:d
2b:a-dman-OCT-2:6|1:a|2:keto|3:d
3b:a-lgro-dman-HEP-1:5
4b:a-lgro-dman-HEP-1:5
5b:b-dglc-HEX-1:5
6b:a-lgro-dman-HEP-1:5
7b:a-lgro-dman-HEP-1:5
8b:b-dgal-HEX-1:5
9b:b-dgal-HEX-1:5
10s:phosphate
11s:phosphate
12n:n1
13n:n2
LIN
1:1o(4+2)2d
2:1o(5+1)3d
3:3o(3+1)4d
4:3o(4+1)5d
5:4o(2+1)6d
6:5o(6+1)7d
7:7o(4+1)8d
8:7o(6+1)9d
9:8o(3+1)10n
10:9o(3+1)11n
11:10n(1+1)12n
12:11n(1+1)13n
NON
NON1
Parent:10
Linkage:n(1+1)n
SmallMolecule:SMILES C[N+](C)(C)[2CH2][1CH2]O
Description:choline
NON2
Parent:11
Linkage:n(1+1)n
SmallMolecule:SMILES C[N+](C)(C)[2CH2][1CH2]O
Description:choline