RES
1r:r1
REP
REP1:8o(6+1)2d=-1--1
RES
2b:b-dglc-HEX-1:5
3b:a-dgal-HEX-1:4
4b:b-dglc-HEX-1:5
5b:b-lman-HEX-1:5|6:d
6b:a-lman-HEX-1:5|6:d
7b:a-dgal-HEX-1:5
8b:b-dgal-HEX-1:5
LIN
1:2o(6+1)3d
2:3o(6+1)4d
3:4o(4+1)5d
4:5o(2+1)6d
5:5o(3+1)7d
6:7o(6+1)8d