RES
1r:r1
REP
REP1:7o(3+1)2d=-1--1
RES
2b:a-dgal-HEX-1:5
3b:a-dgal-HEX-1:5
4b:a-lman-HEX-1:5|6:d
5b:x-lgal-HEX-x:x|6:d
6b:a-lman-HEX-1:5|6:d
7b:a-dgal-HEX-1:5
8b:b-dgal-HEX-1:5
9b:b-dgal-HEX-1:5
LIN
1:2o(3+1)3d
2:3o(2+1)4d
3:4o(3+1)5d
4:4o(2+1)6d
5:6o(3+1)7d
6:6o(4+1)8d
7:8o(6+1)9d