RES
1b:b-dglc-HEX-1:5
2s:n-acetyl
3b:b-dglc-HEX-1:5
4s:n-acetyl
5b:b-dglc-HEX-1:5
6s:n-acetyl
7b:b-dglc-HEX-1:5
8s:n-acetyl
9b:b-dglc-HEX-1:5
10s:n-acetyl
11b:b-dglc-HEX-1:5
12s:n-acetyl
13b:b-dglc-HEX-1:5
14s:n-acetyl
LIN
1:1d(2+1)2n
2:1o(6+1)3d
3:3d(2+1)4n
4:3o(6+1)5d
5:5d(2+1)6n
6:5o(6+1)7d
7:7d(2+1)8n
8:7o(6+1)9d
9:9d(2+1)10n
10:9o(6+1)11d
11:11d(2+1)12n
12:11o(6+1)13d
13:13d(2+1)14n