RES
1b:b-dglc-HEX-1:5
2s:n-acetyl
3b:b-dglc-HEX-1:5
4s:n-acetyl
5b:b-dglc-HEX-1:5
6s:n-acetyl
7b:b-dglc-HEX-1:5
8s:n-acetyl
9b:b-dglc-HEX-1:5
10s:n-acetyl
11b:b-dglc-HEX-1:5
12s:n-acetyl
13b:b-dglc-HEX-1:5
14s:n-acetyl
15b:b-dglc-HEX-1:5
16s:n-acetyl
17b:b-dglc-HEX-1:5
18s:n-acetyl
19b:b-dglc-HEX-1:5
20s:n-acetyl
21b:b-dglc-HEX-1:5
22s:n-acetyl
LIN
1:1d(2+1)2n
2:1o(6+1)3d
3:3d(2+1)4n
4:3o(6+1)5d
5:5d(2+1)6n
6:5o(6+1)7d
7:7d(2+1)8n
8:7o(6+1)9d
9:9d(2+1)10n
10:9o(6+1)11d
11:11d(2+1)12n
12:11o(6+1)13d
13:13d(2+1)14n
14:13o(6+1)15d
15:15d(2+1)16n
16:15o(6+1)17d
17:17d(2+1)18n
18:17o(6+1)19d
19:19d(2+1)20n
20:19o(6+1)21d
21:21d(2+1)22n