RES
1r:r1
REP
REP1:8o(2+1)2d=-1--1
RES
2b:a-dglc-HEX-1:5
3b:a-dglc-HEX-1:5
4s:n-acetyl
5b:a-lgal-HEX-1:5|6:d
6s:n-acetyl
7b:a-dglc-HEX-1:5
8b:b-dgal-HEX-1:4
LIN
1:2o(6+1)3d
2:2d(2+1)4n
3:2o(3+1)5d
4:5d(2+1)6n
5:5o(3+1)7d
6:7o(6+1)8d