RES
1r:r1
REP
REP1:9o(2+1)2d=-1--1
RES
2b:a-dglc-HEX-1:5
3b:a-dgal-HEX-1:5
4b:a-lgro-lman-NON-2:6|1:a|2:keto|3:d|9:d
5s:n-acetyl
6s:amino
7n:n1
8b:a-dglc-HEX-1:5
9b:b-dgal-HEX-1:4
10s:n-acetyl
LIN
1:2o(6+1)3d
2:3o(6+2)4d
3:4d(5+1)5n
4:4d(7+1)6n
5:4o(7+1)7n
6:4o(8+1)8d
7:8o(3+1)9d
8:8d(2+1)10n
NON
NON1
Parent:4
Linkage:o(7+1)n
SmallMolecule:SMILES [4CH3][3C@@H](O)[2CH2][1C](=O)O
Description:(R)-3-hydroxybutanoic acid