RES
1r:r1
REP
REP1:5o(4+1)2d=-1--1
RES
2b:a-lglc-HEX-1:5|6:d
3s:n-acetyl
4b:a-lgal-HEX-1:5|6:d
5b:b-dglc-HEX-1:5|6:a
6b:a-dtal-HEX-1:5|6:d
7s:amino
8s:acetyl
9s:methyl
10n:n1
LIN
1:2d(2+1)3n
2:2o(3+1)4d
3:4o(4+1)5d
4:4o(3+1)6d
5:5d(3+1)7n
6:6o(2+1)8n
7:6o(3+1)9n
8:5o(3+1)10n
NON
NON1
Parent:5
Linkage:o(3+1)n
SmallMolecule:SMILES [2CH3][1C](=N)O
Description:acetimidic acid