RES
1b:a-dman-OCT-2:6|1:a|2:keto|3:d
2b:a-dman-OCT-2:6|1:a|2:keto|3:d
3b:a-dglc-HEX-1:5
4b:a-dgal-HEX-1:5|6:a
5s:acetyl
6b:b-dglc-HEX-1:5
7b:b-dglc-HEX-1:5
8b:a-dgal-HEX-1:5|6:a
9b:a-dgal-HEX-1:5|6:a
10b:a-xlyx-HEP-2:6|1:a|2:keto|3:d|7:a
11b:b-dglc-HEX-1:5|6:a
12b:a-dglc-HEX-1:5
13b:a-lgal-HEX-1:5|6:d
14s:n-acetyl
15b:b-dgal-HEX-1:5
16b:a-lgal-HEX-1:5|6:d
17s:acetyl
18s:acetyl
LIN
1:1o(4+2)2d
2:1o(5+1)3d
3:2o(7+1)4d
4:3o(3+1)5n
5:3o(6+1)6d
6:3o(4+1)7d
7:7o(3+1)8d
8:6o(3+1)9d
9:8o(3+2)10d
10:9o(4+1)11d
11:11o(4+1)12d
12:12o(4+1)13d
13:12d(2+1)14n
14:12o(3+1)15d
15:15o(2+1)16d
16:15o(4+1)17n
17:15o(3+1)18n