RES
1b:a-lgro-dman-HEP-1:5
2b:b-dglc-HEX-1:5
3b:a-lgal-HEX-1:5|6:d
4s:acetyl
5b:a-lgal-HEX-1:5|6:d
6b:a-dgal-HEX-1:5
7s:acetyl
8b:b-dglc-HEX-1:5|6:a
9b:a-dgal-HEX-1:5
10s:pyruvate
LIN
1:1o(7+1)2d
2:2o(3+1)3d
3:3o(-1+1)4n
4:3o(4+1)5d
5:5o(3+1)6d
6:6o(-1+1)7n
7:6o(3+1)8d
8:8o(4+1)9d
9:9o(6+2)10n
10:9o(4+2)10n