RES
1r:r1
REP
REP1:9o(2+1)2d=-1--1
RES
2b:a-dglc-HEX-1:5
3s:n-acetyl
4b:b-dgal-HEX-1:5
5b:a-dglc-HEX-1:5
6s:acetyl
7s:n-acetyl
8b:b-dgal-HEX-1:5
9b:b-drib-PEN-1:4
LIN
1:2d(2+1)3n
2:2o(3+1)4d
3:4o(4+1)5d
4:5o(6+1)6n
5:5d(2+1)7n
6:5o(4+1)8d
7:8o(4+1)9d