RES
1b:a-lman-HEX-1:5|6:d
2b:a-dman-HEX-1:5
3b:a-dxyl-HEX-1:5|3:d|6:d
4b:a-dgal-HEX-1:5
5b:a-lman-HEX-1:5|6:d
6b:a-dman-HEX-1:5
7b:a-dxyl-HEX-1:5|3:d|6:d
8b:a-dgal-HEX-1:5
9b:a-lman-HEX-1:5|6:d
10b:a-dman-HEX-1:5
11b:a-dgal-HEX-1:5
12b:a-dxyl-HEX-1:5|3:d|6:d
LIN
1:1o(4+1)2d
2:2o(3+1)3d
3:2o(2+1)4d
4:4o(3+1)5d
5:5o(4+1)6d
6:6o(3+1)7d
7:6o(2+1)8d
8:8o(3+1)9d
9:9o(4+1)10d
10:10o(2+1)11d
11:10o(3+1)12d