RES
1b:a-dman-OCT-2:6|1:a|2:keto|3:d
2b:b-dglc-HEX-1:5|6:d
3s:n-acetyl
4b:b-dman-HEX-1:5
5b:a-lgal-HEX-1:5|6:d
6s:methyl
7r:r1
8b:a-lgal-HEX-1:5|6:d
9s:methyl
10s:methyl
11s:methyl
LIN
1:1o(4+1)2d
2:2d(2+1)3n
3:2o(3+1)4d
4:4o(3+1)5d
5:5o(2+1)6n
6:5o(3+1)7n
7:7n(4+1)8d
8:8o(2+1)9n
9:8o(4+1)10n
10:8o(3+1)11n
REP
REP1:13o(3+1)12d=5-5
RES
12b:a-lgal-HEX-1:5|6:d
13b:a-dglc-HEX-1:5|6:a
14s:methyl
15b:b-dtal-HEX-1:5|6:d
16s:acetyl
17s:methyl
LIN
1:12o(4+1)13d
2:12o(2+1)14n
3:12o(3+1)15d
4:15o(2+1)16n
5:15o(3+1)17n