RES
1b:x-dman-OCT-x:x|1:a|2:keto|3:d
2b:a-lgro-dman-HEP-1:5
3b:a-lgro-dman-HEP-1:5
4b:b-dglc-HEX-1:5
5b:a-lgro-dman-HEP-1:5
6b:a-dgro-dman-HEP-1:5
7b:a-dgro-dman-HEP-1:5
8b:b-dgal-HEX-1:5
9b:a-dglc-HEX-1:5
10s:amino
LIN
1:1o(5+1)2d
2:2o(3+1)3d
3:2o(4+1)4d
4:3o(2+1)5d
5:4o(6+1)6d
6:6o(6+1)7d
7:6o(4+1)8d
8:5o(7+1)9d
9:9d(2+1)10n