RES
1b:x-dman-OCT-x:x|1:a|2:keto|3:d
2b:a-lgro-dman-HEP-1:5
3b:b-dglc-HEX-1:5
4s:phospho-ethanolamine
5b:a-lgro-dman-HEP-1:5
6b:b-dglc-HEX-1:5
LIN
1:1o(5+1)2d
2:2o(4+1)3d
3:2o(6+1)4n
4:2o(3+1)5d
5:5o(2+1)6d