RES
1b:x-dman-OCT-x:x|1:a|2:keto|3:d
2b:b-lara-PEN-1:5
3b:a-lgro-dman-HEP-1:5
4s:diphospho-ethanolamine
5s:amino
6b:a-lgro-dman-HEP-1:5
7s:phospho-ethanolamine
8b:a-dglc-HEX-1:5
9b:a-lgro-dman-HEP-1:5
10b:b-dgal-HEX-1:5|6:a
11b:a-dgal-HEX-1:5
12b:a-dglc-HEX-1:5
13b:a-dglc-HEX-1:5
14b:b-dglc-HEX-1:5
15s:n-acetyl
16b:b-dglc-HEX-1:5
17b:a-lgal-HEX-1:5|6:d
18b:a-dman-HEX-1:5
19b:a-lgal-HEX-1:5|6:d
20b:b-dglc-HEX-1:5|6:a
21b:a-dgal-HEX-1:5
22s:n-acetyl
LIN
1:1o(8+1)2d
2:1o(5+1)3d
3:3o(4+1)4n
4:2d(4+1)5n
5:3o(3+1)6d
6:6o(6+1)7n
7:6o(3+1)8d
8:6o(7+1)9d
9:9o(7+1)10d
10:8o(3+1)11d
11:11o(2+1)12d
12:12o(2+1)13d
13:12o(4+1)14d
14:14d(2+1)15n
15:14o(3+1)16d
16:16o(2+1)17d
17:17o(2+1)18d
18:18o(2+1)19d
19:19o(4+1)20d
20:19o(3+1)21d
21:21d(2+1)22n