RES
1r:r1
REP
REP1:8o(2+1)2d=-1--1
RES
2b:b-dglc-HEX-1:5
3s:n-acetyl
4b:b-dgal-HEX-1:4
5b:b-dgal-HEX-1:4
6b:a-dglc-HEX-1:5
7s:n-acetyl
8b:b-dgal-HEX-1:5|6:a
9b:a-dgal-HEX-1:4
10n:n1
LIN
1:2d(2+1)3n
2:2o(3+1)4d
3:4o(5+1)5d
4:5o(2+1)6d
5:6d(2+1)7n
6:6o(3+1)8d
7:8o(4+1)9d
8:8o(6+2)10n
NON
NON1
Parent:8
Linkage:o(6+2)n
SmallMolecule:SMILES [3CH3][2C@H](N)[1C](=O)O
Description:(L)-alanine