RES
1r:r1
REP
REP1:4o(4+1)2d=-1--1
RES
2b:b-dglc-HEX-1:5
3b:b-dgal-HEX-1:5
4b:a-dman-HEX-1:5
5b:a-lman-HEX-1:5|6:d
6b:b-dgal-HEX-1:4
7b:b-dglc-HEX-1:5|6:d
8s:n-acetyl
LIN
1:2o(4+1)3d
2:3o(4+1)4d
3:4o(3+1)5d
4:5o(4+1)6d
5:6o(6+1)7d
6:7d(3+1)8n