RES
1r:r1
REP
REP1:4o(3+1)2d=-1--1
RES
2b:a-dgal-HEX-1:5
3s:n-acetyl
4b:a-dgal-HEX-1:5
5b:b-dman-HEX-1:5
6s:n-acetyl
7b:a-dglc-HEX-1:5
8s:acetyl
LIN
1:2d(2+1)3n
2:2o(3+1)4d
3:2o(4+1)5d
4:4d(2+1)6n
5:5o(2+1)7d
6:7o(2+1)8n