RES
1r:r1
REP
REP1:8o(4+1)2d=-1--1
RES
2b:a-dman-HEX-1:5
3b:a-dxyl-HEX-1:5|3:d|6:d
4b:a-dman-HEX-1:5|6:d
5n:n1
6b:a-dxyl-HEX-1:5|3:d|6:d
7b:a-dman-HEX-1:5|6:d
8b:a-dman-HEX-1:5|6:d
9n:n2
LIN
1:2o(4+1)3d
2:2o(3+1)4d
3:3h(4+1)5n
4:4o(2+1)6d
5:4o(3+1)7d
6:7o(3+1)8d
7:6h(4+1)9n
NON
NON1
Parent:3
Linkage:h(4+1)n
SmallMolecule:SMILES [1C@@H](O)C
Description:(S)-hydroxyethyl
NON2
Parent:6
Linkage:h(4+1)n
SmallMolecule:SMILES [1C@@H](O)C
Description:(S)-hydroxyethyl