RES
1r:r1
REP
REP1:6o(4+1)2d=-1--1
RES
2b:b-dglc-HEX-1:5
3b:b-dglc-HEX-1:5|6:a
4s:acetyl
5b:b-dglc-HEX-1:5|6:a
6b:a-dglc-HEX-1:5
7b:b-dglc-HEX-1:5
8b:b-dglc-HEX-1:5|6:a
9b:b-dglc-HEX-1:5
10b:b-dglc-HEX-1:5
11s:(r)-pyruvate
12b:b-dgal-HEX-1:5
13s:(r)-pyruvate
LIN
1:2o(4+1)3d
2:3o(6+1)4n
3:3o(4+1)5d
4:5o(4+1)6d
5:6o(6+1)7d
6:7o(4+1)8d
7:8o(3+1)9d
8:9o(3+1)10d
9:10o(6+2)11n
10:10o(4+2)11n
11:10o(3+1)12d
12:12o(6+2)13n
13:12o(4+2)13n