RES
1r:r1
REP
REP1:7o(3+1)2d=-1--1
RES
2b:b-dglc-HEX-1:5
3b:a-dman-HEX-1:5
4b:b-dglc-HEX-1:5
5b:a-dgal-HEX-1:5
6b:b-dglc-HEX-1:5
7b:b-dglc-HEX-1:5|6:a
8b:a-dglc-HEX-1:5
LIN
1:2o(3+1)3d
2:3o(2+1)4d
3:3o(3+1)5d
4:5o(2+1)6d
5:5o(3+1)7d
6:7o(4+1)8d