RES
1b:a-dman-OCT-2:6|1:a|2:keto|3:d
2s:phosphate
3b:a-dglc-HEX-1:5
4b:a-dgal-HEX-1:5|6:a
5b:a-dglc-HEX-1:5
6s:phosphate
7b:a-dgal-HEX-1:5|6:a
8b:a-dman-HEX-1:5
9b:a-dman-HEX-1:5
LIN
1:1o(4+1)2n
2:1o(5+1)3d
3:2n(1+1)4o
4:3o(4+1)5d
5:3o(3+1)6n
6:6n(1+1)7o
7:5o(3+1)8d
8:8o(3+1)9d