RES
1r:r1
REP
REP1:6o(4+1)2d=-1--1
RES
2b:b-dglc-HEX-1:5
3b:a-lman-HEX-1:5|6:d
4b:b-dglc-HEX-1:5|6:a
5b:b-dglc-HEX-1:5
6b:a-lman-HEX-1:5
7s:acetyl
LIN
1:2o(3+1)3d
2:2o(4+1)4d
3:4o(4+1)5d
4:5o(3+1)6d
5:5o(-1+1)7n