RES
1b:x-dman-OCT-x:x|1:a|2:keto|3:d
2b:a-dgro-dtal-OCT-2:6|1:a|2:keto
3b:a-lgro-dman-HEP-1:5
4b:b-dglc-HEX-1:5
5b:b-lara-PEN-1:5
6b:a-lgro-dman-HEP-1:5
7b:a-lman-HEX-1:5|6:d
8s:amino
9b:a-lman-HEX-1:5|6:d
10b:b-dglc-HEX-1:5
11s:n-acetyl
12b:a-lman-HEX-1:5|6:d
13b:a-lman-HEX-1:5|6:d
14b:a-lman-HEX-1:5|6:d
LIN
1:1o(4+2)2d
2:1o(5+1)3d
3:3o(4+1)4d
4:3o(7+1)5d
5:3o(3+1)6d
6:6o(2+1)7d
7:5d(4+1)8n
8:6o(3+1)9d
9:9o(3+1)10d
10:10d(2+1)11n
11:10o(3+1)12d
12:12o(3+1)13d
13:13o(2+1)14d