RES
1r:r1
REP
REP1:7o(4+1)2d=-1--1
RES
2b:b-dglc-HEX-1:5|6:a
3s:(s)-carboxyethyl
4b:b-lglc-HEX-1:5|6:d
5s:n-acetyl
6b:a-dgal-HEX-1:5|6:a
7b:b-dglc-HEX-1:5|6:a
8s:n-acetyl
LIN
1:2o(4+2)3n
2:2o(2+1)4d
3:4d(2+1)5n
4:4o(3+1)6d
5:6o(4+1)7d
6:6d(2+1)8n