RES
1b:a-dgal-HEX-1:5|6:d
2s:n-acetyl
3s:amino
4n:n1
5b:b-dglc-HEX-1:5
6s:phosphate
7b:o-drib-PEN-0:0|1:aldi
8b:b-dgal-HEX-1:5
9s:n-acetyl
10s:phosphate
11b:a-dgal-HEX-1:5
12s:n-acetyl
13n:n2
14s:phosphate
15n:n3
LIN
1:1d(2+1)2n
2:1d(4+1)3n
3:1o(1+4)4n
4:1o(3+1)5d
5:5o(6+1)6n
6:6n(1+1)7o
7:7o(5+1)8d
8:8d(2+1)9n
9:8o(6+1)10n
10:8o(3+1)11d
11:11d(2+1)12n
12:10n(1+1)13n
13:11o(6+1)14n
14:14n(1+1)15n
NON
NON1
Parent:1
Linkage:o(1+4)n
HistoricalEntity:repeating unit of LTA
NON2
Parent:10
Linkage:n(1+1)n
SmallMolecule:SMILES C[N+](C)(C)[2CH2][1CH2]O
Description:choline
NON3
Parent:14
Linkage:n(1+1)n
SmallMolecule:SMILES C[N+](C)(C)[2CH2][1CH2]O
Description:choline