RES
1b:a-lman-HEX-1:5|6:d
2b:a-dglc-HEX-1:5
3n:n1
4b:b-dglc-HEX-1:5
5b:a-lman-HEX-1:5|6:d
6s:n-acetyl
LIN
1:1o(3+1)2d
2:1o(1+1)3n
3:1o(2+1)4d
4:4o(3+1)5d
5:4d(2+1)6n
NON
NON1
Parent:1
Linkage:o(1+1)n
SmallMolecule:SMILES [3CH3][2CH2][1CH2]O
Description:propanol