RES
1r:r1
REP
REP1:7o(4+1)2d=-1--1
RES
2b:b-lman-HEX-1:5|6:d
3s:acetyl
4b:a-dglc-HEX-1:5|6:a
5b:a-lman-HEX-1:5|6:d
6b:a-dglc-HEX-1:5|6:a
7b:a-dglc-HEX-1:5
8s:acetyl
LIN
1:2o(2+1)3n
2:2o(3+1)4d
3:4o(4+1)5d
4:5o(3+1)6d
5:6o(3+1)7d
6:6o(4+1)8n