RES
1b:b-dglc-HEX-1:5
2s:(r)-carboxyethyl
3s:n-acetyl
4n:n1
5n:n2
6b:b-dglc-HEX-1:5
7s:n-acetyl
8b:b-dglc-HEX-1:5
9s:n-acetyl
10s:(r)-carboxyethyl
11n:n3
12b:b-dglc-HEX-1:5
13s:n-acetyl
14n:n4
LIN
1:1o(3+1)2n
2:1d(2+1)3n
3:1o(1+-1)4n
4:1o(8+-1)5n
5:1o(4+1)6d
6:6d(2+1)7n
7:6o(4+1)8d
8:8d(2+1)9n
9:8o(3+1)10n
10:8o(8+-1)11n
11:8o(4+1)12d
12:12d(2+1)13n
13:12o(4+1)14n
NON
NON1
Parent:1
Linkage:o(1+-1)n
HistoricalEntity:oligoglucan
NON2
Parent:1
Linkage:o(8+-1)n
HistoricalEntity:side peptide chain
NON3
Parent:8
Linkage:o(8+-1)n
HistoricalEntity:side peptide chain
NON4
Parent:12
Linkage:o(4+1)n
HistoricalEntity:peptidoglycan