RES
1b:x-dman-OCT-x:x|1:a|2:keto|3:d
2b:a-lgro-dman-HEP-1:5
3s:diphospho-ethanolamine
4b:a-lgro-dman-HEP-1:5
5b:a-dglc-HEX-1:5
6b:a-lgro-dman-HEP-1:5
7b:a-dglc-HEX-1:5
8b:b-dgal-HEX-1:5|6:a
9s:phospho-ethanolamine
10b:a-dglc-HEX-1:5
11b:b-dgal-HEX-1:5
12b:a-dglc-HEX-1:5
LIN
1:1o(5+1)2d
2:2o(4+1)3n
3:2o(3+1)4d
4:4o(3+1)5d
5:4o(7+1)6d
6:5o(4+1)7d
7:6o(7+1)8d
8:8o(3+1)9n
9:7o(2+1)10d
10:10o(6+1)11d
11:11o(4+1)12d