RES
1r:r1
REP
REP1:6o(6+2)2d=-1--1
RES
2b:b-dman-OCT-2:6|1:a|2:keto|3:d
3b:b-dgal-HEX-1:5
4s:n-acetyl
5b:b-dgal-HEX-1:5
6b:b-dglc-HEX-1:5
7b:b-dglc-HEX-1:5
8s:n-acetyl
LIN
1:2o(4+1)3d
2:3d(2+1)4n
3:3o(3+1)5d
4:5o(6+1)6d
5:5o(2+1)7d
6:7d(2+1)8n