RES
1r:r1
REP
REP1:8o(3+1)2d=-1--1
RES
2b:a-dglc-HEX-1:5
3s:n-acetyl
4s:acetyl
5b:b-dglc-HEX-1:5
6b:a-lgal-HEX-1:5|6:d
7b:a-lgal-HEX-1:5|6:d
8b:b-dglc-HEX-1:5|6:a
9b:a-dglc-HEX-1:5
LIN
1:2d(2+1)3n
2:2o(6+1)4n
3:2o(3+1)5d
4:5o(2+1)6d
5:6o(4+1)7d
6:7o(4+1)8d
7:7o(3+1)9d