RES
1b:a-dglc-HEX-1:5
2b:a-dgal-HEX-1:5
3b:a-dgal-HEX-1:5
4b:a-dglc-HEX-1:5
5n:n1
6b:a-dglc-HEX-1:5
7s:n-acetyl
LIN
1:1o(6+1)2d
2:1o(3+1)3d
3:3o(2+1)4d
4:4o(6+1)5n
5:4o(2+1)6d
6:6d(2+1)7n
NON
NON1
Parent:4
Linkage:o(6+1)n
HistoricalEntity:O-antigen