RES
1b:a-dman-OCT-2:6|1:a|2:keto|3:d
2s:diphospho-ethanolamine
3b:a-lgro-dman-HEP-1:5
4b:a-lgro-dman-HEP-1:5
5b:b-dglc-HEX-1:5
6s:phospho-ethanolamine
7b:b-dgal-HEX-1:5
8s:phosphate
9b:a-lgro-dman-HEP-1:5
10s:phospho-ethanolamine
11n:n1
12b:b-dglc-HEX-1:5
13b:a-dgal-HEX-1:5
14b:b-dgal-HEX-1:5
15b:b-dgal-HEX-1:5
16s:n-acetyl
17b:a-dgal-HEX-1:5
18b:b-dgal-HEX-1:5
19s:n-acetyl
LIN
1:1o(4+1)2n
2:1o(5+1)3d
3:3o(3+1)4d
4:3o(4+1)5d
5:4o(6+1)6n
6:5o(4+1)7d
7:5o(6+1)8n
8:4o(2+1)9d
9:9o(3+1)10n
10:8n(1+1)11n
11:9o(2+1)12d
12:7o(4+1)13d
13:12o(4+1)14d
14:13o(3+1)15d
15:15d(2+1)16n
16:14o(4+1)17d
17:17o(3+1)18d
18:18d(2+1)19n
NON
NON1
Parent:8
Linkage:n(1+1)n
SmallMolecule:SMILES C[N+](C)(C)[2CH2][1CH2]O
Description:choline