RES
1r:r1
REP
REP1:8o(2+1)2d=-1--1
RES
2b:a-dglc-HEX-1:5
3s:n-acetyl
4b:b-dman-HEX-1:5
5b:b-dman-HEX-1:5
6b:b-dman-HEX-1:5
7b:a-dglc-HEX-1:5
8b:a-dman-HEX-1:5
9b:a-dxyl-HEX-1:5|3:d|6:d
10s:acetyl
LIN
1:2d(2+1)3n
2:2o(3+1)4d
3:4o(2+1)5d
4:5o(2+1)6d
5:6o(3+1)7d
6:6o(2+1)8d
7:8o(3+1)9d
8:9o(2+1)10n