RES
1b:a-lgal-HEX-1:5|6:a
2s:n-formyl
3s:n-acetyl
4s:amino
5s:amino
6n:n1
7n:n2
8s:methyl
LIN
1:1d(3+1)2n
2:1d(2+1)3n
3:1d(6+1)4n
4:1d(4+1)5n
5:1o(1+4)6n
6:1o(4+1)7n
7:7n(2+1)8n
NON
NON1
Parent:1
Linkage:o(1+4)n
HistoricalEntity:O-antigen
NON2
Parent:1
Linkage:o(4+1)n
SmallMolecule:SMILES [3CH3][2CH](O)[1C](=O)O
Description:lactate