RES
1r:r1
REP
REP1:9o(2+1)2d=-1--1
RES
2b:a-dglc-HEX-1:5|6:d
3s:n-acetyl
4b:a-dgal-HEX-1:5|6:a
5s:n-formyl
6s:acetyl
7s:amino
8b:a-dgal-HEX-1:5|6:a
9b:a-lman-HEX-1:5|6:d
10s:amino
11s:n-acetyl
LIN
1:2d(2+1)3n
2:2o(3+1)4d
3:4d(2+1)5n
4:4o(3+1)6n
5:4d(6+1)7n
6:4o(4+1)8d
7:8o(4+1)9d
8:8d(6+1)10n
9:8d(2+1)11n