RES
1b:a-dman-OCT-2:6|1:a|2:keto|3:d
2b:a-dgro-dtal-OCT-2:6|1:a|2:keto
3b:a-lgro-dman-HEP-1:5
4b:a-dglc-HEX-1:5
5b:x-lara-PEN-1:5
6b:a-lgro-dman-HEP-1:5
7b:a-lgro-dman-HEP-1:5
8s:amino
9b:a-dglc-HEX-1:5
10b:a-lgro-dman-HEP-1:5
11b:b-dglc-HEX-1:5|6:d
12s:n-acetyl
LIN
1:1o(4+2)2d
2:1o(5+1)3d
3:3o(4+1)4d
4:2o(8+1)5d
5:3o(3+1)6d
6:6o(7+1)7d
7:5d(4+1)8n
8:6o(3+1)9d
9:9o(2+1)10d
10:10o(7+1)11d
11:11d(2+1)12n