RES
1b:a-dman-OCT-2:6|1:a|2:keto|3:d
2b:a-dman-OCT-2:6|1:a|2:keto|3:d
3b:b-lara-PEN-1:5
4b:a-lgro-dman-HEP-1:5
5b:b-dglc-HEX-1:5
6s:amino
7b:a-lgro-dman-HEP-1:5
8s:phospho-ethanolamine
9b:a-lgro-dman-HEP-1:5
10b:a-dgal-HEX-1:5|6:a
11b:a-dgro-dman-HEP-1:5
12b:b-dgal-HEX-1:5|6:a
13b:a-dglc-HEX-1:5
14b:a-lgro-dman-HEP-1:5
15s:amino
16s:amino
17n:n1
18b:a-dgro-dman-HEP-1:5
19b:a-dgal-HEX-1:5
20b:a-dglc-HEX-1:5
21s:n-acetyl
LIN
1:1o(4+2)2d
2:1o(8+1)3d
3:1o(5+1)4d
4:4o(4+1)5d
5:3d(4+1)6n
6:4o(3+1)7d
7:7o(6+1)8n
8:7o(7+1)9d
9:7o(3+1)10d
10:10o(2+1)11d
11:9o(7+1)12d
12:10o(4+1)13d
13:11o(2+1)14d
14:12d(2+1)15n
15:13d(2+1)16n
16:13o(2+1)17n
17:13o(6+1)18d
18:18o(2+1)19d
19:19o(4+1)20d
20:19d(2+1)21n
NON
NON1
Parent:13
Linkage:o(2+1)n
SmallMolecule:SMILES [2CH2](N)[1C](=O)O
Description:glycine