RES
1b:a-dglc-HEX-1:5
2s:phosphate
3s:amino
4b:b-dglc-HEX-1:5
5s:phosphate
6s:amino
7b:a-dman-OCT-2:6|1:a|2:keto|3:d
8b:a-dman-OCT-2:6|1:a|2:keto|3:d
9b:a-lgro-dman-HEP-1:5
10b:b-dglc-HEX-1:5
11b:a-lgro-dman-HEP-1:5
12b:b-dglc-HEX-1:5
13b:a-lgro-dman-HEP-1:5
14b:b-dxyl-HEX-1:5|4:keto|6:d
15b:a-dgro-dman-HEP-1:5
16s:n-acetyl
17b:a-dgal-HEX-1:5
18b:b-dglc-HEX-1:5
19s:n-acetyl
20b:a-dgal-HEX-1:5
21b:a-dgal-HEX-1:5
22b:b-dglc-HEX-1:5
23s:n-acetyl
LIN
1:1o(1+1)2n
2:1d(2+1)3n
3:1o(6+1)4d
4:4o(4+1)5n
5:4d(2+1)6n
6:4o(6+2)7d
7:7o(4+2)8d
8:7o(5+1)9d
9:9o(4+1)10d
10:9o(3+1)11d
11:11o(2+1)12d
12:11o(7+1)13d
13:11o(3+1)14d
14:13o(7+1)15d
15:14d(2+1)16n
16:14o(3+1)17d
17:17o(3+1)18d
18:17d(2+1)19n
19:17o(4+1)20d
20:20o(6+1)21d
21:21o(6+1)22d
22:21d(2+1)23n