RES
1b:a-dman-OCT-2:6|1:a|2:keto|3:d
2b:a-dman-OCT-2:6|1:a|2:keto|3:d
3b:a-lgro-dman-HEP-1:5
4b:b-dglc-HEX-1:5
5b:a-lgro-dman-HEP-1:5
6b:b-dgal-HEX-1:5|6:a
7b:a-dgal-HEX-1:5|6:a
8b:a-lgro-dman-HEP-1:5
9b:b-dgal-HEX-1:5|6:a
10b:a-dglc-HEX-1:5
11s:n-acetyl
12b:a-dman-OCT-2:6|1:a|2:keto|3:d
13b:a-lgro-dman-HEP-1:5
LIN
1:1o(4+2)2d
2:1o(5+1)3d
3:3o(4+1)4d
4:3o(3+1)5d
5:4o(6+1)6d
6:5o(3+1)7d
7:5o(7+1)8d
8:8o(7+1)9d
9:7o(4+1)10d
10:10d(2+1)11n
11:10o(6+2)12d
12:12o(4+1)13d