RES
1r:r1
REP
REP1:5o(6+1)2d=-1--1
RES
2b:b-dgro-dgal-HEP-1:5
3b:b-dgro-dgal-HEP-1:5
4b:b-dgro-dgal-HEP-1:5
5b:b-dgro-dgal-HEP-1:5
6b:a-dgal-HEX-1:4|6:d
7b:a-dgal-HEX-1:4|6:d
8s:acetyl
LIN
1:2o(3+1)3d
2:3o(6+1)4d
3:4o(3+1)5d
4:5o(4+1)6d
5:6o(2+1)7d
6:7o(2+1)8n