RES
1r:r1
REP
REP1:24o(4+1)2d=-1--1
RES
2b:b-dglc-HEX-1:5
3s:(r)-carboxyethyl
4s:n-acetyl
5n:n1
6b:b-dglc-HEX-1:5
7s:n-acetyl
8n:n2
9b:b-dglc-HEX-1:5
10s:amino
11s:(r)-carboxyethyl
12n:n3
13b:b-dglc-HEX-1:5
14s:n-acetyl
15n:n4
16b:b-dglc-HEX-1:5
17s:(r)-carboxyethyl
18s:amino
19b:b-dglc-HEX-1:5
20s:n-acetyl
21b:b-dglc-HEX-1:5
22s:(r)-carboxyethyl
23s:amino
24b:b-dglc-HEX-1:5
25s:n-acetyl
LIN
1:2o(3+1)3n
2:2d(2+1)4n
3:2o(8+2)5n
4:2o(4+1)6d
5:6d(2+1)7n
6:5n(1+2)8n
7:6o(4+1)9d
8:9d(2+1)10n
9:9o(3+1)11n
10:8n(-1+-1)12n
11:9o(4+1)13d
12:13d(2+1)14n
13:12n(-1+-1)15n
14:13o(4+1)16d
15:16o(3+1)17n
16:16d(2+1)18n
17:16o(4+1)19d
18:19d(2+1)20n
19:19o(4+1)21d
20:21o(3+1)22n
21:21d(2+1)23n
22:21o(4+1)24d
23:24d(2+1)25n
NON
NON1
Parent:2
Linkage:o(8+2)n
SmallMolecule:SMILES [3CH3][2C@H](N)[1C](=O)O
Description:(L)-alanine
NON2
Parent:5
Linkage:n(1+2)n
SmallMolecule:SMILES [5C](=O)(O)[4CH2][3CH2][2C@@H](N)[1C](=O)O
Description:(D)-glutamic acid
NON3
Parent:8
Linkage:n(-1+-1)n
SmallMolecule:SMILES [7C](=O)(O)[6C@H](N)[5CH2][4CH2][3CH2][2C@H](N)[1C](=O)O
Description:meso-diaminopimelic acid
NON4
Parent:12
Linkage:n(-1+-1)n
SmallMolecule:SMILES [3CH3][2C@@H](N)[1C](=O)O
Description:(D)-alanine