RES
1b:a-lman-HEX-1:5|6:d
2s:methyl
3b:b-dglc-HEX-1:5
4s:n-acetyl
5b:a-lman-HEX-1:5|6:d
6b:a-lman-HEX-1:5|6:d
7b:a-lman-HEX-1:5|6:d
LIN
1:1o(1+1)2n
2:1o(2+1)3d
3:3d(2+1)4n
4:3o(3+1)5d
5:5o(3+1)6d
6:6o(2+1)7d