RES
1b:x-dman-OCT-2:6|1:a|2:keto|3:d
2b:x-lgro-dman-HEP-1:5
3b:x-dman-HEX-1:5
4b:x-lgro-dman-HEP-1:5
5b:x-lgro-dman-HEP-1:5
6s:phosphate
7n:n1
LIN
1:1o(-1+1)2d
2:2o(4+1)3d
3:2o(3+1)4d
4:4o(7+1)5d
5:4o(3+1)6n
6:3o(2+1)7n
NON
NON1
Parent:3
Linkage:o(2+1)n
HistoricalEntity:superclass: any monosaccharide