RES
1r:r1
REP
REP1:5o(4+1)2d=-1--1
RES
2b:b-dglc-HEX-1:5
3b:b-dgal-HEX-1:5
4b:a-lman-HEX-1:5|6:d
5b:b-dglc-HEX-1:5
6s:phosphate
7b:a-dgal-HEX-1:5
LIN
1:2o(4+1)3d
2:3o(2+1)4d
3:3o(4+1)5d
4:3o(3+1)6n
5:6n(1+1)7o