RES
1r:r1
REP
REP1:7o(4+1)2d=-1--1
RES
2b:b-dglc-HEX-1:5|6:a
3s:n-acetyl
4s:acetyl
5b:b-dglc-HEX-1:5|6:d
6s:n-acetyl
7b:a-lgal-HEX-1:5|6:d
8s:acetyl
9s:amino
10n:n1
LIN
1:2d(2+1)3n
2:2o(3+1)4n
3:2o(4+1)5d
4:5d(2+1)6n
5:5o(3+1)7d
6:7o(3+1)8n
7:7d(2+1)9n
8:7o(2+1)10n
NON
NON1
Parent:7
Linkage:o(2+1)n
SmallMolecule:SMILES [2CH3][1C](=N)O
Description:acetimidic acid