RES
1b:a-dglc-HEX-1:5
2s:n-acetyl
3b:a-lgal-HEX-1:5|6:d
4s:n-acetyl
5b:a-dgal-HEX-1:5|6:a
6s:n-acetyl
7b:a-lgal-HEX-1:5|6:d
8b:b-dglc-HEX-1:5
9s:n-acetyl
10s:n-acetyl
11b:a-lgal-HEX-1:5|6:d
12s:n-acetyl
13b:a-dgal-HEX-1:5|6:a
14s:n-acetyl
15b:a-lgal-HEX-1:5|6:d
16s:n-acetyl
LIN
1:1d(2+1)2n
2:1o(3+1)3d
3:3d(2+1)4n
4:3o(3+1)5d
5:5d(2+1)6n
6:5o(4+1)7d
7:5o(3+1)8d
8:7d(2+1)9n
9:8d(2+1)10n
10:8o(3+1)11d
11:11d(2+1)12n
12:11o(3+1)13d
13:13d(2+1)14n
14:13o(4+1)15d
15:15d(2+1)16n