RES
1b:a-dglc-HEX-1:5
2s:n-acetyl
3b:a-dman-HEX-1:5
4b:a-dman-HEX-1:5
5r:r1
6b:a-dman-HEX-1:5
7s:methyl
LIN
1:1d(2+1)2n
2:1o(3+1)3d
3:3o(3+1)4d
4:4o(3+1)5n
5:5n(3+1)6d
6:6o(3+1)7n
REP
REP1:10o(3+1)8d=-1--1
RES
8b:a-dman-HEX-1:5
9b:a-dman-HEX-1:5
10b:b-dman-HEX-1:5
LIN
1:8o(2+1)9d
2:9o(2+1)10d