RES
1b:a-dman-OCT-2:6|1:a|2:keto|3:d
2s:diphospho-ethanolamine
3b:a-lgro-dman-HEP-1:5
4b:b-dglc-HEX-1:5
5b:a-lgro-dman-HEP-1:5
6s:phospho-ethanolamine
7s:phosphate
8b:a-lgro-dman-HEP-1:5
9b:b-dglc-HEX-1:5
10n:n1
LIN
1:1o(4+1)2n
2:1o(5+1)3d
3:3o(4+1)4d
4:3o(3+1)5d
5:5o(6+1)6n
6:4o(6+1)7n
7:5o(2+1)8d
8:8o(2+1)9d
9:7n(1+1)10n
NON
NON1
Parent:7
Linkage:n(1+1)n
SmallMolecule:SMILES C[N+](C)(C)[2CH2][1CH2]O
Description:choline