RES
1b:o-xery-TET-0:0|1:aldi
2b:b-dglc-HEX-1:5|6:d
3s:amino
4b:a-dgal-HEX-1:5
5n:n1
6s:n-acetyl
7s:acetyl
LIN
1:1o(1+1)2d
2:2d(3+1)3n
3:2o(2+1)4d
4:2o(3+1)5n
5:4d(2+1)6n
6:5n(2+1)7n
NON
NON1
Parent:2
Linkage:o(3+1)n
SmallMolecule:SMILES [3CH3][2C@H](N)[1C](=O)O
Description:(L)-alanine