RES
1b:x-dman-OCT-x:x|1:a|2:keto|3:d
2b:x-lgro-dman-HEP-1:5
3b:o-HEP-x:x
4b:x-lgro-dman-HEP-1:5
5n:n1
6b:x-lgro-dman-HEP-1:5
7b:o-HEP-x:x
LIN
1:1o(-1+1)2d
2:2o(7+1)3d
3:2o(3+1)4d
4:4o(3+1)5n
5:4o(7+1)6d
6:6o(7+1)7d
NON
NON1
Parent:4
Linkage:o(3+1)n
HistoricalEntity:outer core