RES
1b:a-dglc-HEX-1:5
2s:phosphate
3s:amino
4b:b-dglc-HEX-1:5
5s:phosphate
6s:amino
7b:a-dman-OCT-2:6|1:a|2:keto|3:d
8b:a-dman-OCT-2:6|1:a|2:keto|3:d
9b:a-lgro-dman-HEP-1:5
10s:phosphate
11b:a-lgro-dman-HEP-1:5
12b:a-dglc-HEX-1:5
13b:a-lgro-dman-HEP-1:5
14b:a-dglc-HEX-1:5
15b:a-dgal-HEX-1:5
16s:amino
17b:a-dglc-HEX-1:5
18b:a-dglc-HEX-1:5
19b:a-dglc-HEX-1:5
20s:amino
21b:b-dglc-HEX-1:5
22s:amino
23b:a-dman-HEX-1:5|6:d
24b:a-dman-HEX-1:5|6:d
25b:a-dman-HEX-1:5|6:d
LIN
1:1o(1+1)2n
2:1d(2+1)3n
3:1o(6+1)4d
4:4o(4+1)5n
5:4d(2+1)6n
6:4o(6+2)7d
7:7o(4+2)8d
8:7o(5+1)9d
9:9o(4+1)10n
10:9o(3+1)11d
11:11o(3+1)12d
12:11o(7+1)13d
13:13o(7+1)14d
14:12o(3+1)15d
15:14d(2+1)16n
16:15o(3+1)17d
17:15o(2+1)18d
18:18o(2+1)19d
19:17d(2+1)20n
20:18o(4+1)21d
21:21d(2+1)22n
22:21o(3+1)23d
23:23o(3+1)24d
24:24o(2+1)25d