RES
1r:r1
REP
REP1:10o(2+1)2d=-1--1
RES
2b:b-dglc-HEX-1:5
3s:n-acetyl
4b:a-lgal-HEX-1:5|6:d
5s:amino
6n:n1
7b:a-dgal-HEX-1:5
8s:acetyl
9s:phosphate
10b:o-drib-PEN-0:0|1:aldi
LIN
1:2d(2+1)3n
2:2o(3+1)4d
3:4d(2+1)5n
4:4o(2+1)6n
5:4o(3+1)7d
6:7o(4+1)8n
7:7o(6+1)9n
8:9n(1+5)10o
NON
NON1
Parent:4
Linkage:o(2+1)n
SmallMolecule:SMILES [2CH3][1C](=N)O
Description:acetimidic acid