RES
1b:a-dman-OCT-x:x|1:a|2:keto|3:d
2s:diphospho-ethanolamine
3b:a-lgro-dman-HEP-1:5
4b:a-dglc-HEX-1:5
5b:b-dglc-HEX-1:5
6b:a-lgro-dman-HEP-1:5
7b:a-lgro-dman-HEP-1:5
8b:a-lgro-dman-HEP-1:5
9b:a-dgal-HEX-1:5
10b:b-dgal-HEX-1:5
11s:phosphate
12s:phosphate
13n:n1
14n:n2
LIN
1:1o(4+1)2n
2:1o(5+1)3d
3:3o(6+1)4d
4:3o(4+1)5d
5:3o(3+1)6d
6:6o(2+1)7d
7:5o(6+1)8d
8:8o(6+1)9d
9:8o(4+1)10d
10:10o(3+1)11n
11:9o(3+1)12n
12:11n(1+1)13n
13:12n(1+1)14n
NON
NON1
Parent:11
Linkage:n(1+1)n
SmallMolecule:SMILES C[N+](C)(C)[2CH2][1CH2]O
Description:choline
NON2
Parent:12
Linkage:n(1+1)n
SmallMolecule:SMILES C[N+](C)(C)[2CH2][1CH2]O
Description:choline