RES
1b:a-dman-OCT-x:x|1:a|2:keto|3:d
2b:a-dman-OCT-2:6|1:a|2:keto|3:d
3b:a-dglc-HEX-1:5
4b:a-dman-OCT-2:6|1:a|2:keto|3:d
5b:b-dglc-HEX-1:5
6b:a-dglc-HEX-1:5
7b:b-dgal-HEX-1:5
8s:amino
9b:a-dgal-HEX-1:5
10s:amino
LIN
1:1o(4+2)2d
2:1o(5+1)3d
3:1o(8+2)4d
4:3o(6+1)5d
5:4o(5+1)6d
6:6o(6+1)7d
7:7d(2+1)8n
8:7o(3+1)9d
9:9d(2+1)10n