RES
1b:o-dglc-HEX-0:0|1:aldi
2s:n-acetyl
3s:amino
4b:b-dglc-HEX-1:5
5s:n-acetyl
6b:a-dman-OCT-2:6|1:a|2:keto|3:d
7b:a-lgro-dman-HEP-1:5
8b:b-dglc-HEX-1:5|6:a
9b:a-lgro-dman-HEP-1:5
10b:b-dglc-HEX-1:5
11b:b-dgal-HEX-1:5
12b:b-dglc-HEX-1:5
13s:n-acetyl
LIN
1:1d(2+1)2n
2:1d(1+1)3n
3:1o(6+1)4d
4:4d(2+1)5n
5:4o(6+2)6d
6:6o(5+1)7d
7:7o(2+1)8d
8:7o(3+1)9d
9:7o(4+1)10d
10:9o(2+1)11d
11:10o(4+1)12d
12:12d(2+1)13n