RES
1b:a-dman-OCT-2:6|1:a|2:keto|3:d
2b:a-dman-OCT-2:6|1:a|2:keto|3:d
3b:a-lgro-dman-HEP-1:5
4s:phospho-ethanolamine
5s:diphospho-ethanolamine
6b:a-lgro-dman-HEP-1:5
7b:a-lgro-dman-HEP-1:5
8s:phosphate
9b:a-dglc-HEX-1:5
10b:a-dgal-HEX-1:5
11b:a-dglc-HEX-1:5
12b:a-dglc-HEX-1:5
13b:a-lgro-dman-HEP-1:5
LIN
1:1o(4+2)2d
2:1o(5+1)3d
3:2o(7+1)4n
4:3o(4+1)5n
5:3o(3+1)6d
6:6o(7+1)7d
7:6o(4+1)8n
8:6o(3+1)9d
9:9o(6+1)10d
10:9o(3+1)11d
11:11o(2+1)12d
12:12o(6+1)13d