RES
1r:r1
REP
REP1:8o(3+2)2d=-1--1
RES
2b:a-dgro-dgal-NON-2:6|1:a|2:keto|3:d|9:d
3s:n-acetyl
4s:n-acetyl
5b:a-dgal-HEX-1:5
6b:b-dgal-HEX-1:5
7s:n-acetyl
8b:b-dgal-HEX-1:5
9b:a-dglc-HEX-1:5
LIN
1:2d(5+1)3n
2:2d(7+1)4n
3:2o(4+1)5d
4:5o(4+1)6d
5:6d(2+1)7n
6:6o(3+1)8d
7:8o(4+1)9d