RES
1b:x-dglc-HEX-x:x
2b:a-dman-HEX-1:5
3b:b-dgal-HEX-1:5
4b:a-dglc-HEX-1:5|6:a
5b:a-dgal-HEX-1:5
6b:a-dman-HEX-1:5|6:d
7b:b-dgal-HEX-1:5
LIN
1:1o(3+1)2d
2:2o(6+1)3d
3:2o(3+1)4d
4:4o(2+1)5d
5:4o(4+1)6d
6:6o(2+1)7d