RES
1r:r1
REP
REP1:5o(3+1)2d=-1--1
RES
2b:b-dglc-HEX-1:5
3s:n-acetyl
4b:b-dglc-HEX-1:5
5b:b-dgal-HEX-1:5
6b:a-dgal-HEX-1:5
7b:x-dgro-dgal-NON-2:6|1:a|2:keto|3:d
8s:n-acetyl
LIN
1:2d(2+1)3n
2:2o(6+1)4d
3:4o(4+1)5d
4:4o(6+1)6d
5:6o(3+2)7d
6:7d(5+1)8n