RES
1r:r1
REP
REP1:5o(3+1)2d=-1--1
RES
2b:b-dglc-HEX-1:5
3s:n-acetyl
4b:b-dglc-HEX-1:5
5b:b-dgal-HEX-1:5
6b:b-dgal-HEX-1:5
7s:n-acetyl
8s:phosphate
9b:o-xrib-PEN-0:0|1:aldi
10s:acetyl
LIN
1:2d(2+1)3n
2:2o(3+1)4d
3:4o(4+1)5d
4:4o(2+1)6d
5:6d(2+1)7n
6:5o(6+1)8n
7:8n(1+5)9o
8:9o(1+1)10n