RES
1r:r1
REP
REP1:10o(6+1)2d=-1--1
RES
2b:b-dglc-HEX-1:5
3b:b-dgal-HEX-1:4
4s:acetyl
5s:acetyl
6b:b-dgal-HEX-1:5
7b:a-dglc-HEX-1:5
8s:phosphate
9b:o-xman-HEX-0:0|1:aldi
10b:b-dgal-HEX-1:4
LIN
1:2o(3+1)3d
2:3o(5+1)4n
3:3o(6+1)5n
4:3o(3+1)6d
5:6o(2+1)7d
6:6o(3+1)8n
7:8n(1+6)9o
8:9o(1+1)10d