RES
1r:r1
REP
REP1:8o(3+1)2d=-1--1
RES
2b:b-dglc-HEX-1:5|6:d
3s:n-acetyl
4b:a-dgal-HEX-1:5
5b:a-dglc-HEX-1:5
6s:n-acetyl
7b:b-dgal-HEX-1:5
8b:b-drib-PEN-1:4
LIN
1:2d(3+1)3n
2:2o(4+1)4d
3:4o(4+1)5d
4:4d(2+1)6n
5:4o(3+1)7d
6:7o(4+1)8d