RES
1b:b-dglc-HEX-1:5|6:a
2s:amino
3n:n1
4b:a-lglc-HEX-1:5|6:d
5s:n-acetyl
6b:a-lgal-HEX-1:5|6:d
7s:acetyl
8b:a-dtal-HEX-1:5|6:d
9b:b-dglc-HEX-1:5|6:a
10s:methyl
11s:amino
12s:acetyl
13n:n2
14b:a-lglc-HEX-1:5|6:d
15s:n-acetyl
16b:a-lgal-HEX-1:5|6:d
17s:acetyl
18b:a-dtal-HEX-1:5|6:d
19b:b-dglc-HEX-1:5|6:a
20s:acetyl
21s:methyl
22s:amino
23n:n3
24b:a-lglc-HEX-1:5|6:d
25s:n-acetyl
26b:a-lgal-HEX-1:5|6:d
27s:acetyl
28b:a-dtal-HEX-1:5|6:d
29b:b-dglc-HEX-1:5|6:a
30s:acetyl
31s:amino
32s:methyl
33n:n4
34n:n5
35s:methyl
36s:formyl
LIN
1:1d(3+1)2n
2:1o(3+1)3n
3:1o(4+1)4d
4:4d(2+1)5n
5:4o(3+1)6d
6:6o(2+1)7n
7:6o(3+1)8d
8:6o(4+1)9d
9:8o(3+1)10n
10:9d(3+1)11n
11:8o(2+1)12n
12:9o(3+1)13n
13:9o(4+1)14d
14:14d(2+1)15n
15:14o(3+1)16d
16:16o(2+1)17n
17:16o(3+1)18d
18:16o(4+1)19d
19:18o(2+1)20n
20:18o(3+1)21n
21:19d(3+1)22n
22:19o(3+1)23n
23:19o(4+1)24d
24:24d(2+1)25n
25:24o(3+1)26d
26:26o(2+1)27n
27:26o(3+1)28d
28:26o(4+1)29d
29:28o(2+1)30n
30:29d(3+1)31n
31:28o(3+1)32n
32:29o(3+1)33n
33:29o(4+1)34n
34:34n(3+1)35n
35:34n(4+1)36n
NON
NON1
Parent:1
Linkage:o(3+1)n
SmallMolecule:SMILES [2CH3][1C](=N)O
Description:acetimidic acid
NON2
Parent:9
Linkage:o(3+1)n
SmallMolecule:SMILES [2CH3][1C](=N)O
Description:acetimidic acid
NON3
Parent:19
Linkage:o(3+1)n
SmallMolecule:SMILES [2CH3][1C](=N)O
Description:acetimidic acid
NON4
Parent:29
Linkage:o(3+1)n
SmallMolecule:SMILES [2CH3][1C](=N)O
Description:acetimidic acid
NON5
Parent:29
Linkage:o(4+1)n
HistoricalEntity:4-amino-6-deoxy-hexose