RES
1r:r1
REP
REP1:8o(2+1)2d=-1--1
RES
2b:b-dglc-HEX-1:5
3s:n-acetyl
4b:b-dgal-HEX-1:4
5s:acetyl
6b:b-dman-HEX-1:5
7s:n-acetyl
8b:a-dgal-HEX-1:5
9b:a-dgal-HEX-1:4
LIN
1:2d(2+1)3n
2:2o(3+1)4d
3:4o(2+1)5n
4:4o(6+1)6d
5:6d(2+1)7n
6:6o(3+1)8d
7:8o(4+1)9d