RES
1b:b-dglc-HEX-1:5
2s:amino
3n:n1
4b:x-xglc-HEX-1:5|6:a
5s:sulfate
6b:x-xglc-HEX-1:5|6:a
7s:sulfate
8b:x-xglc-HEX-1:5|6:a
9s:sulfate
LIN
1:1d(1+1)2n
2:1o(1+4)3n
3:1o(4+1)4d
4:4o(3+1)5n
5:4o(4+1)6d
6:6o(3+1)7n
7:6o(4+1)8d
8:8o(3+1)9n
NON
NON1
Parent:1
Linkage:o(1+4)n
SmallMolecule:SMILES [4C](=O)(N)[3CH2][2CH](N)[1C](=O)O
Description:asparagine