RES
1r:r1
REP
REP1:14o(6+1)2n=-1--1
RES
2s:phosphate
3b:o-xrib-PEN-0:0|1:aldi
4b:a-dgal-HEX-1:5
5b:b-dgal-HEX-1:5
6s:n-acetyl
7s:n-acetyl
8s:phosphate
9b:a-dgal-HEX-1:5
10s:n-acetyl
11n:n1
12s:phosphate
13b:a-dgal-HEX-1:5|6:d
14b:b-dglc-HEX-1:5
15s:n-acetyl
16s:n-acetyl
17n:n2
LIN
1:2n(1+1)3o
2:3o(3+1)4d
3:3o(5+1)5d
4:4d(2+1)6n
5:5d(2+1)7n
6:5o(6+1)8n
7:5o(3+1)9d
8:9d(2+1)10n
9:8n(1+1)11n
10:9o(6+1)12n
11:9o(4+1)13d
12:13o(3+1)14d
13:13d(2+1)15n
14:13d(4+1)16n
15:12n(1+1)17n
NON
NON1
Parent:8
Linkage:n(1+1)n
SmallMolecule:SMILES C[N+](C)(C)[2CH2][1CH2]O
Description:choline
NON2
Parent:12
Linkage:n(1+1)n
SmallMolecule:SMILES C[N+](C)(C)[2CH2][1CH2]O
Description:choline