RES
1b:a-dgal-HEX-1:5
2b:b-xrib-HEX-1:5|2:d|6:d
3b:b-dglc-HEX-1:5|6:a
4b:a-dxyl-PEN-1:5
5b:a-dgal-HEX-1:5|6:d
6b:a-dgal-HEX-1:5
7s:methyl
LIN
1:1o(2+1)2d
2:1o(3+1)3d
3:3o(3+1)4d
4:3o(4+1)5d
5:5o(2+1)6d
6:6o(4+1)7n