RES
1b:b-dgal-HEX-1:5
2b:b-dglc-HEX-1:5
3s:n-acetyl
4b:a-dglc-HEX-1:5
5b:b-dgal-HEX-1:5
6s:n-acetyl
7b:b-dglc-HEX-1:5
8s:phosphate
9n:n1
LIN
1:1o(3+1)2d
2:1d(2+1)3n
3:1o(4+1)4d
4:4o(4+1)5d
5:5d(2+1)6n
6:5o(3+1)7d
7:7o(6+1)8n
8:8n(1+1)9n
NON
NON1
Parent:8
Linkage:n(1+1)n
HistoricalEntity:cell wall polysaccharide (ID 28305)