RES
1b:a-dman-OCT-2:6|1:a|2:keto|3:d
2s:phospho-ethanolamine
3b:a-dman-HEX-1:5
4s:phospho-ethanolamine
5b:a-dman-HEX-1:5
6b:b-dgal-HEX-1:5
7b:a-lman-HEX-1:5|6:d
8b:a-dgal-HEX-1:5
9s:amino
LIN
1:1o(4+1)2n
2:1o(5+1)3d
3:3o(6+1)4n
4:3o(3+1)5d
5:3o(4+1)6d
6:6o(3+1)7d
7:5o(6+1)8d
8:8d(2+1)9n