RES
1b:o-lery-TET-0:0|1:aldi|4:d
2b:a-dgal-HEX-1:5
3b:b-dman-HEX-1:5
4b:a-dglc-HEX-1:5
5b:b-lman-HEX-1:5|6:d
6s:n-acetyl
7s:n-acetyl
8s:n-formyl
LIN
1:1o(2+1)2d
2:2o(3+1)3d
3:3o(2+1)4d
4:3o(3+1)5d
5:4d(2+1)6n
6:5d(2+1)7n
7:5d(3+1)8n