RES
1b:a-dman-OCT-2:6|1:a|2:keto|3:d
2s:diphospho-ethanolamine
3b:a-lgro-dman-HEP-1:5
4b:b-dglc-HEX-1:5
5b:a-lgro-dman-HEP-1:5
6s:phospho-ethanolamine
7b:a-lgro-dman-HEP-1:5
8b:a-dglc-HEX-1:5
9b:b-dglc-HEX-1:5
10b:b-dglc-HEX-1:5
11s:phosphate
12b:b-dgal-HEX-1:5
13n:n1
14b:a-dgal-HEX-1:5
15b:b-dgal-HEX-1:5
16s:n-acetyl
LIN
1:1o(4+1)2n
2:1o(5+1)3d
3:3o(4+1)4d
4:3o(3+1)5d
5:5o(6+1)6n
6:5o(2+1)7d
7:5o(3+1)8d
8:7o(2+1)9d
9:8o(4+1)10d
10:9o(6+1)11n
11:10o(4+1)12d
12:11n(1+1)13n
13:12o(4+1)14d
14:14o(3+1)15d
15:15d(2+1)16n
NON
NON1
Parent:11
Linkage:n(1+1)n
SmallMolecule:SMILES C[N+](C)(C)[2CH2][1CH2]O
Description:choline