RES
1b:b-dgal-HEX-1:5
2s:amino
3n:n1
4b:b-dglc-HEX-1:5
5b:b-dgal-HEX-1:5|6:d
6b:a-dgro-dgal-HEP-1:5
7s:sulfate
8b:a-dman-HEX-1:5
9b:a-dman-HEX-1:5
10b:a-dman-HEX-1:5
11b:a-dman-HEX-1:5
LIN
1:1d(1+1)2n
2:1o(1+4)3n
3:1o(3+1)4d
4:4o(4+1)5d
5:5o(2+1)6d
6:5d(6+1)7n
7:5o(3+1)8d
8:8o(6+1)9d
9:8o(3+1)10d
10:10o(6+1)11d
NON
NON1
Parent:1
Linkage:o(1+4)n
SmallMolecule:SMILES [4C](=O)(N)[3CH2][2CH](N)[1C](=O)O
Description:asparagine