RES
1r:r1
REP
REP1:9o(3+1)2d=-1--1
RES
2b:a-dgal-HEX-1:5
3b:a-dglc-HEX-1:5
4s:n-acetyl
5b:a-dgal-HEX-1:5|6:d
6s:n-acetyl
7s:acetyl
8b:b-dglc-HEX-1:5
9b:b-dman-HEX-1:5
10b:b-dglc-HEX-1:5
11s:n-acetyl
LIN
1:2o(6+1)3d
2:2d(2+1)4n
3:2o(4+1)5d
4:5d(2+1)6n
5:5o(4+1)7n
6:5o(3+1)8d
7:8o(4+1)9d
8:9o(2+1)10d
9:10d(2+1)11n