RES
1r:r1
REP
REP1:10o(3+1)2d=-1--1
RES
2b:a-dman-HEX-1:5|6:d
3s:n-acetyl
4b:a-dman-HEX-1:5|6:d
5s:n-acetyl
6b:a-dman-HEX-1:5|6:d
7s:n-acetyl
8b:a-dman-HEX-1:5|6:d
9s:n-acetyl
10b:a-dman-HEX-1:5|6:d
11s:n-acetyl
LIN
1:2d(4+1)3n
2:2o(2+1)4d
3:4d(4+1)5n
4:4o(3+1)6d
5:6d(4+1)7n
6:6o(2+1)8d
7:8d(4+1)9n
8:8o(2+1)10d
9:10d(4+1)11n