RES
1r:r1
REP
REP1:9o(4+1)2d=-1--1
RES
2b:a-dglc-HEX-1:5
3s:n-acetyl
4b:b-dgal-HEX-1:5
5b:a-dglc-HEX-1:5
6s:n-acetyl
7b:b-dgal-HEX-1:5
8s:phosphate
9b:a-dgal-HEX-1:5
10b:b-dglc-HEX-1:5
11s:n-acetyl
LIN
1:2d(2+1)3n
2:2o(4+1)4d
3:4o(4+1)5d
4:4d(2+1)6n
5:4o(3+1)7d
6:7o(6+1)8n
7:8n(1+1)9o
8:9o(3+1)10d
9:9d(2+1)11n