RES
1r:r1
REP
REP1:11o(3+1)2d=-1--1
RES
2b:b-dglc-HEX-1:5
3b:a-dglc-HEX-1:5
4s:n-acetyl
5b:a-lgal-HEX-1:5|6:d
6s:n-acetyl
7b:b-dglc-HEX-1:5
8b:a-dgal-HEX-1:5
9b:a-dglc-HEX-1:5
10s:phosphate
11b:o-xgro-TRI-0:0|1:aldi
LIN
1:2o(6+1)3d
2:2d(2+1)4n
3:2o(3+1)5d
4:5d(2+1)6n
5:5o(4+1)7d
6:5o(3+1)8d
7:8o(6+1)9d
8:7o(6+1)10n
9:10n(1+1)11o