RES
1r:r1
REP
REP1:6o(2+1)2d=-1--1
RES
2b:a-dgal-HEX-1:5
3s:n-acetyl
4b:b-dglc-HEX-1:5
5b:a-dglc-HEX-1:5|6:a
6b:b-dglc-HEX-1:5|6:d
7b:a-dglc-HEX-1:5
8s:amino
9n:n1
10s:acetyl
LIN
1:2d(2+1)3n
2:2o(3+1)4d
3:4o(4+1)5d
4:4o(6+1)6d
5:5o(4+1)7d
6:6d(3+1)8n
7:6o(3+1)9n
8:9n(2+1)10n
NON
NON1
Parent:6
Linkage:o(3+1)n
SmallMolecule:SMILES [3CH3][2C@H](N)[1C](=O)O
Description:(L)-alanine