RES
1r:r1
REP
REP1:8o(3+1)2d=-1--1
RES
2b:b-dgal-HEX-1:5|6:d
3s:n-acetyl
4s:amino
5s:phosphate
6b:o-dgro-TRI-0:0|1:aldi
7b:b-dgal-HEX-1:5
8b:b-dglc-HEX-1:5
9s:n-acetyl
10n:n1
LIN
1:2d(2+1)3n
2:2d(4+1)4n
3:2o(3+1)5n
4:5n(1+1)6o
5:6o(2+1)7d
6:7o(3+1)8d
7:8d(2+1)9n
8:8o(4+2)10n
NON
NON1
Parent:8
Linkage:o(4+2)n
SmallMolecule:SMILES [5CH3][4C@@H](O)[3CH2][2C@H](O)[1C](=O)O
Description:2S,4R-dihydroxy-valeric acid