RES
1r:r1
REP
REP1:7o(3+1)2d=-1--1
RES
2b:a-dgal-HEX-1:5
3s:n-acetyl
4b:b-dglc-HEX-1:5|6:a
5s:acetyl
6b:a-lgal-HEX-1:5|6:d
7b:a-dman-HEX-1:5
LIN
1:2d(2+1)3n
2:2o(3+1)4d
3:4o(4+1)5n
4:4o(2+1)6d
5:6o(2+1)7d