RES
1r:r1
REP
REP1:12o(2+1)2d=-1--1
RES
2b:b-dglc-HEX-1:5
3s:n-acetyl
4b:a-lgal-HEX-1:5|6:d
5b:a-dglc-HEX-1:5
6s:n-acetyl
7b:a-dgal-HEX-1:5
8s:n-acetyl
9b:b-dglc-HEX-1:5
10b:a-dglc-HEX-1:5
11s:phosphate
12b:o-xgro-TRI-0:0|1:aldi
LIN
1:2d(2+1)3n
2:2o(3+1)4d
3:4o(4+1)5d
4:4d(2+1)6n
5:4o(3+1)7d
6:7d(2+1)8n
7:7o(6+1)9d
8:9o(2+1)10d
9:9o(6+1)11n
10:11n(1+1)12o