RES
1r:r1
REP
REP1:7o(4+1)2d=-1--1
RES
2b:b-dglc-HEX-1:5
3s:n-acetyl
4b:a-lman-HEX-1:5|6:d
5b:b-dman-HEP-1:5|6:d
6s:acetyl
7b:b-dgro-dman-HEP-1:5
8b:a-lman-HEX-1:5|6:d
9b:b-dgal-HEX-1:4
LIN
1:2d(2+1)3n
2:2o(3+1)4d
3:4o(4+1)5d
4:5o(2+1)6n
5:5o(3+1)7d
6:7o(3+1)8d
7:8o(4+1)9d