RES
1r:r1
REP
REP1:5o(2+1)2d=-1--1
RES
2b:a-dgal-HEX-1:5|6:d
3s:n-acetyl
4b:a-lman-HEX-1:5|6:d
5b:b-dglc-HEX-1:5|6:d
6s:amino
7n:n1
LIN
1:2d(2+1)3n
2:2o(3+1)4d
3:4o(3+1)5d
4:5d(3+1)6n
5:5o(3+1)7n
NON
NON1
Parent:5
Linkage:o(3+1)n
SmallMolecule:SMILES [5C](=O)1[4CH2][3C]([7CH3])(O)[2C]([6CH3])(N1)[1C](=O)(O)
Description:3-hydroxy-2,3-dimethyl-5-oxoproline