RES
1r:r1
REP
REP1:4o(7+1)2d=-1--1
RES
2b:b-dglc-HEX-1:5
3s:n-acetyl
4b:b-dgro-dman-HEP-1:5
5b:a-lman-HEX-1:5|6:d
6b:b-dgal-HEX-1:5
7s:n-acetyl
LIN
1:2d(2+1)3n
2:2o(3+1)4d
3:4o(3+1)5d
4:4o(4+1)6d
5:6d(2+1)7n