RES
1r:r1
REP
REP1:7o(6+1)2d=-1--1
RES
2b:b-dglc-HEX-1:5|6:a
3n:n1
4b:b-dgal-HEX-1:5
5s:n-acetyl
6b:b-dglc-HEX-1:5
7b:b-dgal-HEX-1:5
LIN
1:2o(6+2)3n
2:2o(4+1)4d
3:4d(2+1)5n
4:4o(3+1)6d
5:6o(6+1)7d
NON
NON1
Parent:2
Linkage:o(6+2)n
SmallMolecule:SMILES [6CH2](N)[5CH2][4CH2][3CH2][2C@H](N[8C@H]([9CH3])[7C](=O)O)[1C](=O)O
Description:(2S,8R)-N(epsilon)-(1-carboxyethyl)lysine