RES
1b:a-dglc-HEX-1:5
2s:amino
3n:n1
4b:b-dglc-HEX-1:5
5s:n-acetyl
6s:acetyl
7b:b-dman-HEX-1:5
8s:(s)-pyruvate
9s:n-acetyl
LIN
1:1d(2+1)2n
2:1o(1+4)3n
3:1o(6+1)4d
4:4d(2+1)5n
5:4o(3+1)6n
6:4o(4+1)7d
7:7o(6+2)8n
8:7o(4+2)8n
9:7d(2+1)9n
NON
NON1
Parent:1
Linkage:o(1+4)n
HistoricalEntity:cell wall polysaccharide (ID 27153)