RES
1r:r1
REP
REP1:8o(3+1)2d=-1--1
RES
2b:b-dglc-HEX-1:5|6:d
3s:amino
4n:n1
5b:b-dglc-HEX-1:5|6:d
6s:acetyl
7s:n-acetyl
8b:a-dgal-HEX-1:5|6:a
9s:n-acetyl
LIN
1:2d(3+1)3n
2:2o(3+1)4n
3:2o(4+1)5d
4:4n(2+1)6n
5:5d(2+1)7n
6:5o(3+1)8d
7:8d(2+1)9n
NON
NON1
Parent:2
Linkage:o(3+1)n
SmallMolecule:SMILES [3CH3][2C@H](N)[1C](=O)O
Description:(L)-alanine