RES
1r:r1
REP
REP1:8o(4+1)2d=-1--1
RES
2b:a-dglc-HEX-1:5
3s:n-acetyl
4b:a-lglc-HEX-1:5|6:d
5b:a-dglc-HEX-1:5
6b:a-lgal-HEX-1:5|6:d
7b:b-dglc-HEX-1:5|6:a
8b:a-dgal-HEX-1:5
9s:n-acetyl
LIN
1:2d(2+1)3n
2:2o(3+1)4d
3:4o(4+1)5d
4:5o(3+1)6d
5:6o(4+1)7d
6:6o(3+1)8d
7:8d(2+1)9n