RES
1b:b-dglc-HEX-1:5
2b:a-dgal-HEX-1:5|6:d
3s:n-acetyl
4s:sulfate
5b:b-dgal-HEX-1:5
6b:a-dgro-dgal-NON-x:x|1:a|2:keto|3:d
7s:n-acetyl
LIN
1:1o(3+1)2d
2:1d(2+1)3n
3:1o(6+1)4n
4:1o(4+1)5d
5:5o(3+2)6d
6:6d(5+1)7n