RES
1b:a-lman-HEX-1:5|6:d
2b:a-dglc-HEX-1:5
3s:n-acetyl
4b:a-dgal-HEX-1:5
5b:a-lman-HEX-1:5|6:d
6b:a-lman-HEX-1:5|6:d
7b:a-dglc-HEX-1:5
8s:n-acetyl
9b:a-dgal-HEX-1:5
10b:a-lman-HEX-1:5|6:d
11b:a-lman-HEX-1:5|6:d
12b:a-dglc-HEX-1:5
13s:n-acetyl
LIN
1:1o(3+1)2d
2:2d(2+1)3n
3:2o(3+1)4d
4:4o(2+1)5d
5:5o(3+1)6d
6:6o(3+1)7d
7:7d(2+1)8n
8:7o(3+1)9d
9:9o(2+1)10d
10:10o(3+1)11d
11:11o(3+1)12d
12:12d(2+1)13n