RES
1b:o-dgro-TRI-0:0|1:aldi
2s:methyl
3s:methyl
4b:a-dgal-HEX-1:5
5s:methyl
6s:methyl
7s:methyl
8b:b-dgal-HEX-1:5
9s:methyl
10s:methyl
11s:methyl
12s:methyl
LIN
1:1o(2+1)2n
2:1o(3+1)3n
3:1o(1+1)4d
4:4o(2+1)5n
5:4o(3+1)6n
6:4o(6+1)7n
7:4o(4+1)8d
8:8o(2+1)9n
9:8o(3+1)10n
10:8o(6+1)11n
11:8o(4+1)12n