RES
1r:r1
REP
REP1:6o(6+1)2n=-1--1
RES
2s:phosphate
3b:o-xgro-TRI-0:0|1:aldi
4a:a1
5b:b-dgal-HEX-1:5
6b:b-dglc-HEX-1:5
LIN
1:2n(1+2)3o
2:3o(-1+-1)4n
3:4n(6+1)5d
4:5o(6+1)6d
ALT
ALT1
ALTSUBGRAPH1
LEAD-IN RES:7
LEAD-OUT RES:7+5
RES
7b:a-dglc-HEX-1:5
ALTSUBGRAPH2
LEAD-IN RES:8
LEAD-OUT RES:8+5
RES
8b:a-dglc-HEX-1:5