RES
1r:r1
REP
REP1:8o(4+1)2d=-1--1
RES
2b:b-dglc-HEX-1:5
3s:n-acetyl
4b:a-dglc-HEX-1:5|6:d
5b:a-dglc-HEX-1:5
6b:a-lgal-HEX-1:5|6:d
7b:a-dgal-HEX-1:5
8b:b-dglc-HEX-1:5|6:a
9s:n-acetyl
10n:n1
LIN
1:2d(2+1)3n
2:2o(3+1)4d
3:4o(4+1)5d
4:5o(4+1)6d
5:6o(3+1)7d
6:6o(4+1)8d
7:7d(2+1)9n
8:8o(6+2)10n
NON
NON1
Parent:8
Linkage:o(6+2)n
SmallMolecule:SMILES [3CH3][2C@H](N)[1C](=O)O
Description:(L)-alanine