RES
1b:a-dman-OCT-x:x|1:a|2:keto|3:d
2b:a-dgro-dtal-OCT-2:6|1:a|2:keto
3b:a-lgro-dman-HEP-1:5
4b:b-dglc-HEX-1:5
5b:a-lgro-dman-HEP-1:5
6b:b-dglc-HEX-1:5
7b:a-lgro-dman-HEP-1:5
8b:a-dgal-HEX-1:5
9b:a-dglc-HEX-1:5
10b:a-lgro-dman-HEP-1:5
11b:a-lgro-dman-HEP-1:5
12b:b-dgal-HEX-1:5
13b:b-dglc-HEX-1:5|6:d
14s:n-acetyl
LIN
1:1o(4+2)2d
2:1o(5+1)3d
3:3o(4+1)4d
4:3o(3+1)5d
5:5o(2+1)6d
6:5o(7+1)7d
7:5o(3+1)8d
8:8o(6+1)9d
9:8o(2+1)10d
10:10o(3+1)11d
11:9o(3+1)12d
12:10o(7+1)13d
13:13d(2+1)14n