RES
1b:a-dman-OCT-2:6|1:a|2:keto|3:d
2s:phosphate
3b:a-lgro-dman-HEP-1:5
4b:a-lgro-dman-HEP-1:5
5b:b-dglc-HEX-1:5
6b:a-lgro-dman-HEP-1:5
7b:a-lgro-dman-HEP-1:5
8b:a-dgro-dman-HEP-1:5
9b:a-dgro-dman-HEP-1:5
10b:a-dglc-HEX-1:5
11b:b-dgal-HEX-1:5
12s:amino
13n:n1
LIN
1:1o(4+1)2n
2:1o(5+1)3d
3:3o(6+1)4d
4:3o(4+1)5d
5:3o(3+1)6d
6:6o(2+1)7d
7:5o(6+1)8d
8:8o(6+1)9d
9:7o(7+1)10d
10:8o(4+1)11d
11:10d(2+1)12n
12:11o(-1+1)13n
NON
NON1
Parent:11
Linkage:o(-1+1)n
HistoricalEntity:O-antigen