RES
1r:r1
REP
REP1:9o(4+1)2d=-1--1
RES
2b:a-dglc-HEX-1:5
3s:n-acetyl
4b:a-dman-HEX-1:5
5b:b-dglc-HEX-1:5
6s:n-acetyl
7s:(s)-pyruvate
8s:n-acetyl
9b:b-dman-HEX-1:5|6:a
10s:n-acetyl
11b:b-dglc-HEX-1:5
12s:n-acetyl
LIN
1:2d(2+1)3n
2:2o(4+1)4d
3:2o(6+1)5d
4:5d(2+1)6n
5:4o(6+2)7n
6:4o(4+2)7n
7:4d(2+1)8n
8:5o(4+1)9d
9:9d(2+1)10n
10:9o(3+1)11d
11:11d(2+1)12n