RES
1r:r1
REP
REP1:6o(3+1)2d=-1--1
RES
2b:b-dglc-HEX-1:5|6:a
3b:a-dglc-HEX-1:5
4b:b-dgal-HEX-1:5
5s:n-acetyl
6b:b-dgal-HEX-1:5
7b:a-dgal-HEX-1:5|6:a
8s:n-acetyl
9n:n1
LIN
1:2o(2+1)3d
2:2o(4+1)4d
3:4d(2+1)5n
4:4o(6+1)6d
5:4o(4+1)7d
6:6d(2+1)8n
7:7o(6+2)9n
NON
NON1
Parent:7
Linkage:o(6+2)n
SmallMolecule:SMILES [6CH2](N)[5CH2][4CH2][3CH2][2C@H](N)[1C](=O)O
Description:(L)-lysine