RES
1b:b-dgal-HEX-1:5|6:a
2n:n1
3b:a-lman-HEX-1:5|6:d
4b:a-lman-HEX-1:5|6:d
5s:acetyl
6b:b-dgal-HEX-1:5
7s:n-acetyl
LIN
1:1o(1+1)2n
2:1o(4+1)3d
3:3o(2+1)4d
4:4o(3+1)5n
5:4o(2+1)6d
6:6d(2+1)7n
NON
NON1
Parent:1
Linkage:o(1+1)n
SmallMolecule:SMILES [3CH3][2CH2][1CH2]O
Description:propanol