RES
1b:b-dglc-HEX-1:5
2b:a-dman-HEX-1:5
3b:b-dgal-HEX-1:5
4b:a-dglc-HEX-1:5|6:a
5b:a-dgal-HEX-1:5
6b:b-dglc-HEX-1:5
7b:a-lman-HEX-1:5|6:d
8b:b-dgal-HEX-1:5
9b:a-dman-HEX-1:5
10b:b-dgal-HEX-1:5
11b:a-dglc-HEX-1:5|6:a
12b:a-lman-HEX-1:5|6:d
LIN
1:1o(3+1)2d
2:2o(6+1)3d
3:2o(3+1)4d
4:4o(2+1)5d
5:4o(3+1)6d
6:4o(4+1)7d
7:7o(2+1)8d
8:6o(3+1)9d
9:9o(6+1)10d
10:9o(3+1)11d
11:11o(4+1)12d