RES
1b:a-lgro-dman-HEP-1:5
2b:b-dglc-HEX-1:5
3b:b-dglc-HEX-1:5
4b:b-dgal-HEX-1:5
5b:a-dgal-HEX-1:5
6b:b-dgal-HEX-1:5
7s:n-acetyl
LIN
1:1o(4+1)2d
2:1o(6+1)3d
3:3o(4+1)4d
4:4o(4+1)5d
5:5o(3+1)6d
6:6d(2+1)7n