RES
1r:r1
REP
REP1:11n(1+1)2o=-1--1
RES
2b:a-dgal-HEX-1:5
3b:b-dglc-HEX-1:5
4s:n-acetyl
5b:a-dglc-HEX-1:5
6s:n-acetyl
7b:b-dgal-HEX-1:5
8s:n-acetyl
9b:b-dgal-HEX-1:5
10b:a-dglc-HEX-1:5
11s:phosphate
LIN
1:2o(3+1)3d
2:2d(2+1)4n
3:2o(4+1)5d
4:5d(2+1)6n
5:5o(4+1)7d
6:7d(2+1)8n
7:7o(3+1)9d
8:9o(2+1)10d
9:9o(6+1)11n