RES
1b:a-dgal-HEX-1:5
2b:a-dglc-HEX-1:5
3s:amino
4n:n1
5b:b-dglc-HEX-1:5
6b:a-dglc-HEX-1:5
7b:a-lman-HEX-1:5|6:d
8r:r1
LIN
1:1o(4+1)2d
2:1d(2+1)3n
3:1o(2+1)4n
4:1o(3+1)5d
5:5o(6+1)6d
6:5o(3+1)7d
7:7o(3+1)8n
REP
REP1:9n(3+1)9n=1-?
RES
9n:n2
NON
NON1
Parent:1
Linkage:o(2+1)n
SmallMolecule:SMILES [3CH3][2CH](N)[1C](=O)O
Description:alanine
NON2
HistoricalEntity:O-unit or O-antigen polymer