RES
1r:r1
REP
REP1:5o(4+1)2d=-1--1
RES
2b:b-dxyl-HEX-1:5|4:keto|6:d
3s:n-acetyl
4b:a-lgal-HEX-1:5|6:d
5b:b-dglc-HEX-1:5
6s:n-acetyl
7b:b-dglc-HEX-1:5|6:a
8b:a-ltal-HEX-1:5|6:d
9s:n-acetyl
LIN
1:2d(2+1)3n
2:2o(3+1)4d
3:4o(4+1)5d
4:4d(2+1)6n
5:4o(3+1)7d
6:7o(2+1)8d
7:8d(2+1)9n