RES
1b:a-dman-OCT-2:6|1:a|2:keto|3:d
2s:phosphate
3b:a-lgro-dman-HEP-1:5
4b:a-dglc-HEX-1:5
5b:a-lgro-dman-HEP-1:5
6b:b-dglc-HEX-1:5
7b:a-lgro-dman-HEP-1:5
8b:a-dgro-dman-HEP-1:5
9b:a-dgro-dman-HEP-1:5
LIN
1:1o(4+1)2n
2:1o(5+1)3d
3:3o(6+1)4d
4:3o(3+1)5d
5:3o(4+1)6d
6:5o(2+1)7d
7:6o(6+1)8d
8:8o(6+1)9d