RES
1b:a-dglc-HEX-1:5
2a:a1
3s:amino
4n:n1
5s:phosphate
6b:b-dglc-HEX-1:5
7b:a-dglc-HEX-1:5
8b:x-dman-HEX-1:5
9s:amino
10b:a-dgal-HEX-1:5
11a:a2
12a:a3
13s:amino
LIN
1:1o(2+1)2n
2:1d(2+1)3n
3:1o(3+1)4n
4:1o(1+1)5n
5:1o(6+1)6d
6:6o(6+1)7d
7:6o(4+1)8d
8:6d(2+1)9n
9:5n(1+1)10o
10:6o(2+1)11n
11:11n(3+1)12n
12:10d(2+1)13n
ALT
ALT1
ALTSUBGRAPH1
LEAD-IN RES:14
RES
14n:n2
ALTSUBGRAPH2
LEAD-IN RES:15
RES
15n:n3
ALT2
ALTSUBGRAPH1
LEAD-IN RES:16
LEAD-OUT RES:16+12
RES
16n:n4
ALTSUBGRAPH2
LEAD-IN RES:17
LEAD-OUT RES:17+12
RES
17n:n5
ALT3
ALTSUBGRAPH1
LEAD-IN RES:18
RES
18n:n6
ALTSUBGRAPH2
LEAD-IN RES:19
RES
19n:n7
ALTSUBGRAPH3
LEAD-IN RES:20
RES
20n:n8
NON
NON1
Parent:1
Linkage:o(3+1)n
SmallMolecule:SMILES [18CH3][17CH2][16CH2][15CH2][14CH2][13CH2][12CH2][11CH2][10CH2][9CH2][8CH2][7CH2][6CH2][5CH2][4CH2][3C@@H](O)[2CH2][1C](=O)O
Description:(R)-3-hydroxy-stearic acid
NON2
SmallMolecule:SMILES [18CH3][17CH2][16CH2][15CH2][14CH2][13CH2][12CH2][11CH2][10CH2][9CH2][8CH2][7CH2][6CH2][5CH2][4CH2][3C@@H](O)[2CH2][1C](=O)O
Description:(R)-3-hydroxy-stearic acid
NON3
SmallMolecule:SMILES [16CH3][15CH2][14CH2][13CH2][12CH2][11CH2][10CH2][9CH2][8CH2][7CH2][6CH2][5CH2][4CH2][3C@@H](O)[2CH2][1C](=O)O
Description:(R)-3-hydroxy-hexadecanoic acid
NON4
SmallMolecule:SMILES [18CH3][17CH2][16CH2][15CH2][14CH2][13CH2][12CH2][11CH2][10CH2][9CH2][8CH2][7CH2][6CH2][5CH2][4CH2][3C@@H](O)[2CH2][1C](=O)O
Description:(R)-3-hydroxy-stearic acid
NON5
SmallMolecule:SMILES [16CH3][15CH2][14CH2][13CH2][12CH2][11CH2][10CH2][9CH2][8CH2][7CH2][6CH2][5CH2][4CH2][3C@@H](O)[2CH2][1C](=O)O
Description:(R)-3-hydroxy-hexadecanoic acid
NON6
SmallMolecule:SMILES [18CH3][17CH2][16CH2][15CH2][14CH2][13CH2][12CH2][11CH2][10CH2][9CH2][8CH2][7CH2][6CH2][5CH2][4CH2][3CH2][2CH2][1C](=O)O
Description:stearic acid
NON7
SmallMolecule:SMILES [16CH3][15CH2][14CH2][13CH2][12CH2][11CH2][10CH2][9CH2][8CH2][7CH2][6CH2][5CH2][4CH2][3CH2][2CH2][1C](=O)O
Description:palmitic acid
NON8
SmallMolecule:SMILES [14CH3][13CH2][12CH2][11CH2][10CH2][9CH2][8CH2][7CH2][6CH2][5CH2][4CH2][3CH2][2CH2][1C](=O)O
Description:myristic acid