RES
1r:r1
REP
REP1:5o(6+1)2d=-1--1
RES
2b:b-dglc-HEX-1:5
3s:n-acetyl
4b:b-dglc-HEX-1:5|6:a
5b:b-dgal-HEX-1:5
6s:n-acetyl
7b:a-dgal-HEX-1:5|6:a
8n:n1
LIN
1:2d(2+1)3n
2:2o(3+1)4d
3:4o(4+1)5d
4:5d(2+1)6n
5:5o(4+1)7d
6:7o(6+2)8n
NON
NON1
Parent:7
Linkage:o(6+2)n
SmallMolecule:SMILES [6CH2](N)[5CH2][4CH2][3CH2][2C@H](N[8C@H]([9CH3])[7C](=O)O)[1C](=O)O
Description:(2S,8R)-N(epsilon)-(1-carboxyethyl)lysine