RES
1b:b-dglc-HEX-1:5
2b:a-lgal-HEX-1:5|6:d
3b:a-lgal-HEX-1:5|6:d
4b:a-dgal-HEX-1:5
5b:b-dglc-HEX-1:5|6:a
6b:a-dgal-HEX-1:5
7s:pyruvate
LIN
1:1o(3+1)2d
2:2o(4+1)3d
3:2o(3+1)4d
4:4o(3+1)5d
5:5o(4+1)6d
6:6o(6+2)7n
7:6o(4+2)7n