RES
1b:b-dglc-HEX-1:5
2s:n-acetyl
3r:r1
4b:b-dglc-HEX-1:5
5s:amino
6b:b-dglc-HEX-1:5
7s:n-acetyl
8b:b-dglc-HEX-1:5
9s:n-acetyl
LIN
1:1d(2+1)2n
2:1o(6+1)3n
3:3n(6+1)4d
4:4d(2+1)5n
5:4o(6+1)6d
6:6d(2+1)7n
7:6o(6+1)8d
8:8d(2+1)9n
REP
REP1:10o(6+1)10d=-1--1
RES
10b:b-dglc-HEX-1:5
11s:n-acetyl
LIN
1:10d(2+1)11n