RES
1b:a-dgro-dgal-NON-2:6|1:a|2:keto|3:d
2s:n-acetyl
3b:a-dgro-dgal-NON-2:6|1:a|2:keto|3:d
4s:n-acetyl
5b:a-dgro-dgal-NON-2:6|1:a|2:keto|3:d
6s:n-acetyl
LIN
1:1d(5+1)2n
2:1o(8+2)3d
3:3d(5+1)4n
4:3o(8+2)5d
5:5d(5+1)6n