RES
1b:a-dman-OCT-2:6|1:a|2:keto|3:d
2b:a-dman-OCT-2:6|1:a|2:keto|3:d
3b:b-lara-PEN-1:5
4b:a-lgro-dman-HEP-1:5
5b:b-dglc-HEX-1:5
6s:amino
7b:a-lgro-dman-HEP-1:5
8b:a-lgro-dman-HEP-1:5
9s:phospho-ethanolamine
10b:a-dgal-HEX-1:5|6:a
11b:a-dglc-HEX-1:5
12s:amino
13n:n1
14b:b-dglc-HEX-1:5
15s:n-acetyl
16b:b-dgal-HEX-1:5|6:a
17s:phospho-ethanolamine
18n:n2
LIN
1:1o(4+2)2d
2:1o(8+1)3d
3:1o(5+1)4d
4:4o(4+1)5d
5:3d(4+1)6n
6:4o(3+1)7d
7:7o(7+1)8d
8:7o(6+1)9n
9:7o(3+1)10d
10:10o(4+1)11d
11:11d(2+1)12n
12:11o(2+1)13n
13:11o(6+1)14d
14:14d(2+1)15n
15:14o(3+1)16d
16:16o(4+1)17n
17:16o(6+2)18n
NON
NON1
Parent:11
Linkage:o(2+1)n
SmallMolecule:SMILES [2CH2](N)[1C](=O)O
Description:glycine
NON2
Parent:16
Linkage:o(6+2)n
SmallMolecule:SMILES [6CH2](N)[5CH2][4CH2][3CH2][2C@H](N)[1C](=O)O
Description:(L)-lysine