RES
1r:r1
REP
REP1:6o(4+1)2d=-1--1
RES
2b:b-dgal-HEX-1:5
3s:n-acetyl
4b:b-dgal-HEX-1:5
5b:a-dgro-dgal-NON-2:6|1:a|2:keto|3:d
6b:a-dgal-HEX-1:5
7s:n-acetyl
8s:acetyl
9s:acetyl
LIN
1:2d(2+1)3n
2:2o(3+1)4d
3:4o(3+2)5d
4:5o(4+1)6d
5:5d(5+1)7n
6:5o(7+1)8n
7:5o(9+1)9n