RES
1b:b-dglc-HEX-1:5
2s:n-acetyl
3b:a-lman-HEX-1:5|6:d
4b:a-dglc-HEX-1:5
5b:a-lman-HEX-1:5|6:d
6b:a-lman-HEX-1:5|6:d
7b:b-dglc-HEX-1:5
8s:n-acetyl
9b:a-lman-HEX-1:5|6:d
10b:a-dglc-HEX-1:5
11b:a-lman-HEX-1:5|6:d
12b:a-lman-HEX-1:5|6:d
LIN
1:1d(2+1)2n
2:1o(3+1)3d
3:3o(4+1)4d
4:3o(3+1)5d
5:5o(2+1)6d
6:6o(2+1)7d
7:7d(2+1)8n
8:7o(3+1)9d
9:9o(4+1)10d
10:9o(3+1)11d
11:11o(2+1)12d