RES
1r:r1
REP
REP1:6o(2+1)2d=-1--1
RES
2b:a-dglc-HEX-1:5
3s:n-acetyl
4b:b-lman-HEX-1:5|6:d
5b:a-dman-HEX-1:5
6b:b-dman-HEX-1:5
7s:n-acetyl
LIN
1:2d(2+1)3n
2:2o(4+1)4d
3:4o(3+1)5d
4:5o(3+1)6d
5:5d(2+1)7n