RES
1b:b-dglc-HEX-1:5
2b:a-dglc-HEX-1:5
3s:n-acetyl
4n:n1
5b:a-lman-HEX-1:5|6:d
6b:a-lman-HEX-1:5|6:d
LIN
1:1o(4+1)2d
2:1d(2+1)3n
3:1o(1+1)4n
4:1o(3+1)5d
5:5o(3+1)6d
NON
NON1
Parent:1
Linkage:o(1+1)n
SmallMolecule:SMILES [3CH3][2CH2][1CH2]O
Description:propanol