RES
1r:r1
REP
REP1:7o(6+1)2d=-1--1
RES
2b:a-dglc-HEX-1:5
3b:a-dgal-HEX-1:5
4b:b-dgal-HEX-1:4
5b:a-dglc-HEX-1:5
6b:b-dgal-HEX-1:4
7b:a-dglc-HEX-1:5
8b:a-dglc-HEX-1:5
LIN
1:2o(3+1)3d
2:3o(3+1)4d
3:4o(2+1)5d
4:5o(3+1)6d
5:6o(3+1)7d
6:6o(6+1)8d