RES
1b:a-lman-HEX-1:5|6:d
2b:a-lman-HEX-1:5|6:d
3b:b-dglc-HEX-1:5
4s:n-acetyl
5b:a-lman-HEX-1:5|6:d
6b:a-lman-HEX-1:5|6:d
7b:a-lman-HEX-1:5|6:d
8b:b-dglc-HEX-1:5
9s:n-acetyl
10b:a-lman-HEX-1:5|6:d
11b:a-lman-HEX-1:5|6:d
12b:a-lman-HEX-1:5|6:d
13b:b-dglc-HEX-1:5
14s:n-acetyl
15b:a-lman-HEX-1:5|6:d
16b:a-lman-HEX-1:5|6:d
17b:a-lman-HEX-1:5|6:d
18b:b-dglc-HEX-1:5
19b:a-lman-HEX-1:5|6:d
20s:n-acetyl
LIN
1:1o(2+1)2d
2:2o(2+1)3d
3:3d(2+1)4n
4:3o(3+1)5d
5:5o(3+1)6d
6:6o(2+1)7d
7:7o(2+1)8d
8:8d(2+1)9n
9:8o(3+1)10d
10:10o(3+1)11d
11:11o(2+1)12d
12:12o(2+1)13d
13:13d(2+1)14n
14:13o(3+1)15d
15:15o(3+1)16d
16:16o(2+1)17d
17:17o(2+1)18d
18:18o(3+1)19d
19:18d(2+1)20n