RES
1r:r1
REP
REP1:10o(5+1)2d=-1--1
RES
2b:b-dgal-HEX-1:5
3b:a-dgal-HEX-1:5
4s:phosphate
5b:o-drib-PEN-0:0|1:aldi
6b:a-dgal-HEX-1:5
7b:a-dgal-HEX-1:5
8b:b-dgal-HEX-1:5
9s:n-acetyl
10b:b-dgal-HEX-1:4
11s:acetyl
LIN
1:2o(3+1)3d
2:3o(3+1)4n
3:4n(1+5)5o
4:5o(3+1)6d
5:6o(2+1)7d
6:6o(3+1)8d
7:8d(2+1)9n
8:8o(3+1)10d
9:10o(6+1)11n