RES
1r:r1
REP
REP1:9o(3+1)2n=-1--1
RES
2s:phosphate
3b:o-dman-HEX-0:0|1:aldi
4b:a-dgal-HEX-1:4
5b:b-dglc-HEX-1:5
6b:b-dgal-HEX-1:4
7s:acetyl
8s:acetyl
9b:b-dgal-HEX-1:5
10b:a-dglc-HEX-1:5
LIN
1:2n(1+5)3o
2:3o(1+1)4d
3:4o(6+1)5d
4:5o(3+1)6d
5:6o(6+1)7n
6:6o(5+1)8n
7:6o(3+1)9d
8:9o(2+1)10d