RES
1r:r1
REP
REP1:6o(4+1)2d=-1--1
RES
2b:b-dman-HEX-1:5|6:a
3s:n-acetyl
4s:n-acetyl
5b:a-dglc-HEX-1:5
6b:b-dman-HEX-1:5|6:a
7s:n-acetyl
8s:n-acetyl
LIN
1:2d(2+1)3n
2:2d(3+1)4n
3:2o(4+1)5d
4:5o(6+1)6d
5:6d(2+1)7n
6:6d(3+1)8n