RES
1r:r1
REP
REP1:9o(2+1)2d=-1--1
RES
2b:b-dglc-HEX-1:5
3s:n-acetyl
4s:acetyl
5b:a-lman-HEX-1:5|6:d
6s:acetyl
7b:a-lman-HEX-1:5|6:d
8s:phospho-ethanolamine
9b:a-lman-HEX-1:5|6:d
10s:phospho-ethanolamine
LIN
1:2d(2+1)3n
2:2o(6+1)4n
3:2o(3+1)5d
4:5o(2+1)6n
5:5o(3+1)7d
6:7o(3+1)8n
7:7o(2+1)9d
8:9o(3+1)10n