RES
1b:a-dman-OCT-2:6|1:a|2:keto|3:d
2b:a-lgro-dman-HEP-1:5
3s:diphospho-ethanolamine
4b:a-lgro-dman-HEP-1:5
5b:a-lgro-dman-HEP-1:5
6s:diphospho-ethanolamine
7b:a-dglc-HEX-1:5
8b:a-dgal-HEX-1:5
9b:a-dglc-HEX-1:5
10b:a-dglc-HEX-1:5
11b:a-lgro-dman-HEP-1:5
12b:b-dglc-HEX-1:5
13s:n-acetyl
14b:a-lman-HEX-1:5|6:d
15s:acetyl
16b:a-dglc-HEX-1:5
17b:a-lman-HEX-1:5|6:d
18b:b-dglc-HEX-1:5
LIN
1:1o(5+1)2d
2:2o(4+1)3n
3:2o(3+1)4d
4:4o(7+1)5d
5:4o(4+1)6n
6:4o(3+1)7d
7:7o(6+1)8d
8:7o(3+1)9d
9:9o(2+1)10d
10:10o(6+1)11d
11:11o(7+1)12d
12:12d(2+1)13n
13:12o(3+1)14d
14:14o(2+1)15n
15:14o(3+1)16d
16:16o(3+1)17d
17:16o(6+1)18d