RES
1r:r1
REP
REP1:6o(2+1)2d=-1--1
RES
2b:a-dgal-HEX-1:5
3s:n-acetyl
4b:a-dglc-HEX-1:5
5b:b-dgal-HEX-1:5
6b:a-dman-HEX-1:5
7n:n1
LIN
1:2d(2+1)3n
2:2o(4+1)4d
3:2o(3+1)5d
4:5o(3+1)6d
5:4o(6+1)7n
NON
NON1
Parent:4
Linkage:o(6+1)n
SmallMolecule:SMILES O{1}[C@@H](O[C@H](C)[C@](C1)([C@@H](O)CO)O)[C@@H]1O
Description:3,6-dideoxy-4-C-[(S)-1',2'-dihydroxyethyl]-D-xylo-hexose