RES
1r:r1
REP
REP1:8o(4+1)2d=-1--1
RES
2b:b-dglc-HEX-1:5
3s:n-acetyl
4b:a-lglc-HEX-1:5|6:d
5s:n-acetyl
6s:phosphate
7b:a-dglc-HEX-1:5
8b:a-dgal-HEX-1:5
9s:acetyl
10s:n-acetyl
11b:a-lglc-HEX-1:5|6:d
12s:n-acetyl
LIN
1:2d(2+1)3n
2:2o(3+1)4d
3:4d(2+1)5n
4:4o(4+1)6n
5:6n(1+1)7o
6:7o(6+1)8d
7:8o(6+1)9n
8:8d(2+1)10n
9:8o(3+1)11d
10:11d(2+1)12n