RES
1b:a-dman-OCT-2:6|1:a|2:keto|3:d
2s:diphospho-ethanolamine
3b:a-lgro-dman-HEP-1:5
4b:a-dglc-HEX-1:5
5b:b-dglc-HEX-1:5
6b:a-lgro-dman-HEP-1:5
7b:a-lgro-dman-HEP-1:5
8b:b-dgal-HEX-1:5
9s:phospho-ethanolamine
LIN
1:1o(4+1)2n
2:1o(5+1)3d
3:3o(6+1)4d
4:3o(4+1)5d
5:3o(3+1)6d
6:6o(2+1)7d
7:5o(4+1)8d
8:6o(3+1)9n