RES
1r:r1
REP
REP1:5o(8+1)2d=-1--1
RES
2b:a-dgal-HEX-1:5
3b:b-dgal-HEX-1:4
4b:b-dgal-HEX-1:5
5b:b-lgro-lman-NON-2:6|1:a|2:keto|3:d|9:d
6b:a-dgal-HEX-1:5
7s:n-acetyl
8s:n-acetyl
LIN
1:2o(3+1)3d
2:3o(6+1)4d
3:4o(6+2)5d
4:5o(4+1)6d
5:5d(5+1)7n
6:5d(7+1)8n