RES
1r:r1
REP
REP1:6o(3+1)2d=-1--1
RES
2b:a-dgal-HEX-1:5|6:a
3b:a-dgal-HEX-1:5|6:a
4s:acetyl
5s:acetyl
6b:a-dgal-HEX-1:5|6:d
7s:n-acetyl
8s:amino
LIN
1:2o(3+1)3d
2:3o(2+1)4n
3:3o(3+1)5n
4:3o(4+1)6d
5:6d(2+1)7n
6:6d(4+1)8n