RES
1r:r1
REP
REP1:9o(6+1)2n=-1--1
RES
2s:phosphate
3b:a-dglc-HEX-1:5
4b:b-dgal-HEX-1:4
5b:b-dglc-HEX-1:5
6b:a-dglc-HEX-1:5
7s:n-acetyl
8b:a-lman-HEX-1:5|6:d
9b:b-dglc-HEX-1:5
10s:n-acetyl
LIN
1:2n(1+1)3o
2:3o(6+1)4d
3:4o(2+1)5d
4:5o(6+1)6d
5:5d(2+1)7n
6:5o(3+1)8d
7:8o(3+1)9d
8:9d(2+1)10n