RES
1r:r1
REP
REP1:3o(3+1)2d=-1--1
RES
2b:b-dglc-HEX-1:5
3b:a-ltal-HEX-1:5|6:d
4a:a1
LIN
1:2o(3+1)3d
2:3o(2+1)4n
ALT
ALT1
ALTSUBGRAPH1
LEAD-IN RES:5
RES
5s:methyl
ALTSUBGRAPH2
LEAD-IN RES:6
RES
6s:acetyl