RES
1r:r1
REP
REP1:6o(3+1)2d=-1--1
RES
2b:a-dglc-HEX-1:5|6:d
3s:n-acetyl
4s:n-acetyl
5b:a-dgal-HEX-1:5|6:a
6b:a-dman-HEX-1:5|6:d
7s:n-acetyl
8s:amino
LIN
1:2d(2+1)3n
2:2d(4+1)4n
3:2o(3+1)5d
4:5o(4+1)6d
5:5d(2+1)7n
6:5d(6+1)8n