RES
1b:a-dglc-HEX-1:5
2b:a-lglc-HEX-1:5|6:d
3s:n-acetyl
4b:a-dglc-HEX-1:5
5b:a-lglc-HEX-1:5|6:d
6b:a-dglc-HEX-1:5
7s:n-acetyl
LIN
1:1o(4+1)2d
2:2d(2+1)3n
3:2o(3+1)4d
4:4o(4+1)5d
5:5o(3+1)6d
6:5d(2+1)7n