RES
1r:r1
REP
REP1:6o(4+1)2d=-1--1
RES
2b:a-dgal-HEX-1:5
3b:a-lman-HEX-1:5|6:d
4b:a-dgal-HEX-1:5
5b:b-dglc-HEX-1:5
6b:b-lman-HEX-1:5|6:d
7b:a-dglc-HEX-1:5
LIN
1:2o(3+1)3d
2:3o(3+1)4d
3:3o(4+1)5d
4:5o(4+1)6d
5:6o(3+1)7d