RES
1r:r1
REP
REP1:6o(6+1)2d=-1--1
RES
2b:b-dglc-HEX-1:5
3b:b-dgal-HEX-1:5
4b:a-dgal-HEX-1:5
5s:acetyl
6b:a-dglc-HEX-1:5
7s:n-acetyl
8s:acetyl
9s:phosphate
10b:o-xrib-PEN-0:0|1:aldi
LIN
1:2o(4+1)3d
2:3o(3+1)4d
3:4o(2+1)5n
4:4o(4+1)6d
5:6d(2+1)7n
6:6o(3+1)8n
7:6o(4+1)9n
8:9n(1+1)10o