RES
1b:a-dman-OCT-2:6|1:a|2:keto|3:d
2s:diphospho-ethanolamine
3b:a-lgro-dman-HEP-1:5
4s:acetyl
5b:a-lgro-dman-HEP-1:5
6b:b-dglc-HEX-1:5
7s:acetyl
8s:phospho-ethanolamine
9b:a-lgro-dman-HEP-1:5
10b:b-dgal-HEX-1:5
11b:a-lgro-dman-HEP-1:5
12b:x-HEX-1:5
13s:acetyl
14s:phosphate
15b:a-dgal-HEX-1:5
16b:b-dgal-HEX-1:5
17s:acetyl
18b:b-dgal-HEX-1:5
19s:phosphate
20s:n-acetyl
21n:n1
LIN
1:1o(4+1)2n
2:1o(5+1)3d
3:3o(-1+1)4n
4:3o(3+1)5d
5:3o(4+1)6d
6:6o(-1+1)7n
7:5o(6+1)8n
8:6o(6+1)9d
9:6o(4+1)10d
10:5o(2+1)11d
11:9o(4+1)12d
12:11o(-1+1)13n
13:11o(7+1)14n
14:10o(4+1)15d
15:11o(2+1)16d
16:16o(-1+1)17n
17:15o(3+1)18d
18:16o(6+1)19n
19:18d(2+1)20n
20:19n(1+1)21n
NON
NON1
Parent:19
Linkage:n(1+1)n
SmallMolecule:SMILES C[N+](C)(C)[2CH2][1CH2]O
Description:choline