RES
1r:r1
REP
REP1:9o(3+1)2d=-1--1
RES
2b:b-dglc-HEX-1:5|6:d
3b:a-lgal-HEX-1:5|6:d
4s:n-acetyl
5b:b-dman-HEX-1:5
6s:n-acetyl
7b:a-HEP-1:5
8n:n1
9b:a-dgal-HEX-1:5|6:d
10s:n-acetyl
11s:amino
LIN
1:2o(2+1)3d
2:2d(3+1)4n
3:2o(4+1)5d
4:5d(2+1)6n
5:5o(3+1)7d
6:7o(6+1)8n
7:7o(2+1)9d
8:9d(2+1)10n
9:9d(4+1)11n
NON
NON1
Parent:7
Linkage:o(6+1)n
SmallMolecule:SMILES [4CH3][3C@@H](O)[2CH2][1C](=O)O
Description:(R)-3-hydroxybutanoic acid