RES
1b:x-dman-OCT-2:6|1:a|2:keto|3:d
2b:a-HEP-1:5
3b:a-HEP-1:5
4b:a-HEP-1:5
5b:a-HEP-1:5
6b:a-dglc-HEX-1:5
7b:b-dgal-HEX-1:5
8b:a-HEP-1:5
9b:x-dglc-HEX-1:5
10b:b-dglc-HEX-1:5
11b:b-dglc-HEX-1:5
12s:n-acetyl
LIN
1:1o(-1+1)2d
2:2o(7+1)3d
3:2o(3+1)4d
4:4o(7+1)5d
5:4o(3+1)6d
6:6o(-1+1)7d
7:5o(7+1)8d
8:6o(-1+1)9d
9:9o(4+1)10d
10:9o(-1+1)11d
11:11d(2+1)12n