RES
1r:r1
REP
REP1:6o(3+1)2d=-1--1
RES
2b:a-dman-HEX-1:5
3b:b-dgal-HEX-1:5
4b:a-dglc-HEX-1:5|6:a
5b:a-dgal-HEX-1:5
6b:b-dglc-HEX-1:5
7b:a-dman-HEX-1:5|6:d
8b:b-dgal-HEX-1:5
LIN
1:2o(6+1)3d
2:2o(3+1)4d
3:4o(2+1)5d
4:4o(3+1)6d
5:4o(4+1)7d
6:7o(2+1)8d