RES
1b:a-dman-OCT-2:6|1:a|2:keto|3:d
2b:a-lgro-dman-HEP-1:5
3b:a-lgro-dman-HEP-1:5
4b:a-lgro-dman-HEP-1:5
5b:a-lgro-dman-HEP-1:5
6b:a-dgro-dman-HEP-1:5
LIN
1:1o(-1+1)2d
2:2o(3+1)3d
3:2o(4+1)4d
4:3o(7+1)5d
5:4o(2+1)6d