RES
1b:a-dglc-HEX-1:5
2s:phosphate
3s:amino
4b:b-dglc-HEX-1:5
5s:phosphate
6s:amino
7b:a-dman-OCT-2:6|1:a|2:keto|3:d
8b:a-dman-OCT-2:6|1:a|2:keto|3:d
9b:a-lgro-dman-HEP-1:5
10b:b-dglc-HEX-1:5
11s:phosphate
12b:a-lgro-dman-HEP-1:5
13b:a-lgro-dman-HEP-1:5
14b:a-dgal-HEX-1:5|6:a
15b:a-dgro-dman-HEP-1:5
16b:b-dgal-HEX-1:5|6:a
17b:a-dgal-HEX-1:5
18a:a1
19s:amino
20b:o-dgal-HEX-0:0
21b:b-dglc-HEX-1:5
22s:n-acetyl
LIN
1:1o(1+1)2n
2:1d(2+1)3n
3:1o(6+1)4d
4:4o(4+1)5n
5:4d(2+1)6n
6:4o(6+2)7d
7:7o(4+2)8d
8:7o(5+1)9d
9:9o(4+1)10d
10:8o(7+1)11n
11:9o(3+1)12d
12:12o(7+1)13d
13:12o(3+1)14d
14:14o(2+1)15d
15:13o(7+1)16d
16:14o(4+1)17d
17:16o(6+1)18n
18:17d(2+1)19n
19:17o(4+1)20d
20:17o(6+1)20d
21:20o(5+1)21d
22:20d(2+1)22n
ALT
ALT1
ALTSUBGRAPH1
LEAD-IN RES:23
RES
23n:n1
ALTSUBGRAPH2
LEAD-IN RES:24
RES
24n:n2
NON
NON1
SmallMolecule:SMILES N{1}CCCCN
Description:putrescine
NON2
SmallMolecule:SMILES N{1}CCCNCCCCN
Description:spermidine