RES
1r:r1
REP
REP1:9o(3+1)2d=-1--1
RES
2b:a-dman-HEX-1:5|6:d
3s:acetyl
4s:n-acetyl
5b:a-dman-HEX-1:5|6:d
6s:n-acetyl
7b:a-dman-HEX-1:5|6:d
8s:n-acetyl
9b:a-dman-HEX-1:5|6:d
10s:n-acetyl
LIN
1:2o(2+1)3n
2:2d(4+1)4n
3:2o(3+1)5d
4:5d(4+1)6n
5:5o(2+1)7d
6:7d(4+1)8n
7:7o(2+1)9d
8:9d(4+1)10n