RES
1b:b-dglc-HEX-1:5
2r:r1
3s:amino
4n:n1
LIN
1:1o(4+1)2n
2:1d(1+1)3n
3:1o(1+4)4n
REP
REP1:5o(4+1)5d=9-9
RES
5b:b-dglc-HEX-1:5
NON
NON1
Parent:1
Linkage:o(1+4)n
SmallMolecule:SMILES [4C](=O)(N)[3CH2][2CH](N)[1C](=O)O
Description:asparagine