RES
1b:a-ltal-HEX-1:5|6:d
2n:n1
3b:a-lman-HEX-1:5|6:d
4b:a-lgal-HEX-1:5|6:d
5s:methyl
6b:a-dman-HEX-1:5|6:d
7s:methyl
LIN
1:1o(1+3)2n
2:1o(2+1)3d
3:3o(3+1)4d
4:4o(2+1)5n
5:4o(3+1)6d
6:6o(2+1)7n
NON
NON1
Parent:1
Linkage:o(1+3)n
SmallMolecule:SMILES [4CH3][3C@@H](O)[2C@@H](N)[1C](=O)O
Description:(D)-allothreonine