RES
1b:a-dman-OCT-2:6|1:a|2:keto|3:d
2b:a-dman-OCT-2:6|1:a|2:keto|3:d
3b:a-lgro-dman-HEP-1:5
4b:x-dman-OCT-2:6|1:a|2:keto|3:d
5s:phosphate
6b:a-lgro-dman-HEP-1:5
7s:phosphate
8b:a-lgro-dman-HEP-1:5
9b:a-dglc-HEX-1:5
10b:a-dglc-HEX-1:5
11b:a-dgal-HEX-1:5
12s:n-acetyl
13b:a-dglc-HEX-1:5
14b:a-dglc-HEX-1:5
15b:a-dglc-HEX-1:5
16s:n-acetyl
LIN
1:1o(4+2)2d
2:1o(5+1)3d
3:2o(4+2)4d
4:3o(4+1)5n
5:3o(3+1)6d
6:6o(4+1)7n
7:6o(7+1)8d
8:6o(3+1)9d
9:8o(7+1)10d
10:9o(3+1)11d
11:10d(2+1)12n
12:11o(3+1)13d
13:11o(2+1)14d
14:14o(2+1)15d
15:13d(2+1)16n