RES
1b:x-dman-OCT-x:x|1:a|2:keto|3:d
2b:a-lgro-dman-HEP-1:5
3s:diphospho-ethanolamine
4b:a-lgro-dman-HEP-1:5
5b:a-dglc-HEX-1:5
6b:a-lgro-dman-HEP-1:5
7b:b-dgal-HEX-1:5|6:a
8b:a-dglc-HEX-1:5
9b:a-dgal-HEX-1:5
10b:a-dglc-HEX-1:5
LIN
1:1o(5+1)2d
2:2o(4+1)3n
3:2o(3+1)4d
4:4o(3+1)5d
5:4o(7+1)6d
6:6o(7+1)7d
7:5o(4+1)8d
8:8o(2+1)9d
9:9o(2+1)10d