RES
1b:a-dman-OCT-2:6|1:a|2:keto|3:d
2b:a-dman-OCT-2:6|1:a|2:keto|3:d
3b:a-lgro-dman-HEP-1:5
4s:phosphate
5b:b-dglc-HEX-1:5
6b:a-lgro-dman-HEP-1:5
7b:a-dgal-HEX-1:5|6:a
8s:phospho-ethanolamine
9b:a-lgro-dman-HEP-1:5
10b:a-dgal-HEX-1:5|6:a
11b:b-dgal-HEX-1:5|6:a
12b:a-dgro-dman-HEP-1:5
13b:a-dgal-HEX-1:5
14b:b-dgal-HEX-1:5
15s:amino
16b:o-dgal-HEX-0:0
17b:b-dglc-HEX-1:5
18s:n-acetyl
LIN
1:1o(4+2)2d
2:1o(5+1)3d
3:2o(7+1)4n
4:3o(4+1)5d
5:3o(3+1)6d
6:5o(6+1)7d
7:6o(6+1)8n
8:6o(7+1)9d
9:6o(3+1)10d
10:9o(7+1)11d
11:10o(2+1)12d
12:10o(4+1)13d
13:12o(7+1)14d
14:13d(2+1)15n
15:13o(4+1)16d
16:13o(6+1)16d
17:16o(5+1)17d
18:16d(2+1)18n