RES
1b:a-dman-OCT-2:6|1:a|2:keto|3:d
2s:phosphate
3b:a-lgro-dman-HEP-1:5
4b:b-dglc-HEX-1:5
5b:a-lgro-dman-HEP-1:5
6b:b-dglc-HEX-1:5|6:a
7s:phosphate
8b:a-dglc-HEX-1:5
9b:a-dgal-HEX-1:5|6:a
10b:a-dglc-HEX-1:5
11b:a-lgro-dman-HEP-1:5
12a:a1
13s:amino
14s:amino
15s:amino
LIN
1:1o(4+1)2n
2:1o(5+1)3d
3:3o(4+1)4d
4:3o(3+1)5d
5:5o(2+1)6d
6:5o(4+1)7n
7:5o(7+1)8d
8:4o(6+1)9d
9:4o(4+1)10d
10:10o(4+1)11d
11:10o(6+1)12n
12:8d(2+1)13n
13:10d(2+1)14n
14:9d(2+1)15n
ALT
ALT1
ALTSUBGRAPH1
LEAD-IN RES:16
RES
16b:b-dgal-HEX-1:5|6:d
17s:n-acetyl
18s:n-acetyl
19n:n1
LIN
1:16d(2+1)17n
2:16d(4+1)18n
3:16o(3+1)19n
ALTSUBGRAPH2
LEAD-IN RES:20
RES
20b:b-dgal-HEX-1:5|6:d
21s:n-methyl
22s:amino
23n:n2
LIN
1:20d(4+1)21n
2:20d(2+1)22n
3:20o(3+1)23n
ALTSUBGRAPH3
LEAD-IN RES:24
RES
24b:b-dgal-HEX-1:5|6:d
25s:n-methyl
26s:amino
LIN
1:24d(4+1)25n
2:24d(2+1)26n
ALTSUBGRAPH4
LEAD-IN RES:27
RES
27b:b-dgal-HEX-1:5|6:d
28s:amino
29s:amino
LIN
1:27d(4+1)28n
2:27d(2+1)29n
NON
NON1
Parent:16
Linkage:o(3+1)n
SmallMolecule:SMILES NC1=C[C@@H](C(O)=O)O{1}C(O)[C@H]1N
Description:2,3-diamino-2,3,4-trideoxy-hex-4-enuronopyranose
NON2
Parent:20
Linkage:o(3+1)n
SmallMolecule:SMILES NC1=C[C@@H](C(O)=O)O{1}C(O)[C@H]1N
Description:2,3-diamino-2,3,4-trideoxy-hex-4-enuronopyranose