RES
1r:r1
REP
REP1:5o(3+1)2d=-1--1
RES
2b:a-ltal-HEX-1:5|6:d
3s:acetyl
4b:a-dglc-HEX-1:5
5b:b-dglc-HEX-1:5
6b:b-lman-HEX-1:5|6:d
7s:n-acetyl
8s:n-acetyl
9s:n-acetyl
LIN
1:2o(2+1)3n
2:2o(3+1)4d
3:4o(4+1)5d
4:4o(3+1)6d
5:5d(2+1)7n
6:6d(2+1)8n
7:6d(3+1)9n