RES
1r:r1
REP
REP1:9o(3+1)2d=-1--1
RES
2b:b-dglc-HEX-1:5|6:d
3s:amino
4n:n1
5b:b-dglc-HEX-1:5
6s:acetyl
7s:n-acetyl
8b:b-dgal-HEX-1:5
9b:b-drib-PEN-1:4
LIN
1:2d(3+1)3n
2:2o(3+1)4n
3:2o(4+1)5d
4:4n(2+1)6n
5:5d(2+1)7n
6:5o(3+1)8d
7:8o(4+1)9d
NON
NON1
Parent:2
Linkage:o(3+1)n
SmallMolecule:SMILES [3CH2](O)[2CH](N)[1C](=O)O
Description:serine