RES
1b:b-dglc-HEX-1:5
2s:phosphate
3s:amino
4b:b-dglc-HEX-1:5
5s:phosphate
6s:amino
7b:a-dman-OCT-2:6|1:a|2:keto|3:d
8s:phosphate
9b:a-lgro-dman-HEP-1:5
10b:a-dglc-HEX-1:5
11b:b-dglc-HEX-1:5
12b:a-lgro-dman-HEP-1:5
13b:a-lgro-dman-HEP-1:5
14b:x-dara-HEX-2:5|1:aldi|2:keto
15b:a-lgro-dman-HEP-1:5
16s:acetyl
17b:a-dglc-HEX-1:5
18b:b-dglc-HEX-1:5|6:d
19s:n-acetyl
20s:amino
21b:a-dgal-HEX-1:5|6:a
22b:b-dglc-HEX-1:5
23b:a-lxyl-HEX-1:5|3:d|6:d
24s:n-acetyl
25b:b-dgal-HEX-1:5
26b:a-lxyl-HEX-1:5|3:d|6:d
27s:phosphate
LIN
1:1o(1+1)2n
2:1d(2+1)3n
3:1o(6+1)4d
4:4o(4+1)5n
5:4d(2+1)6n
6:4o(6+2)7d
7:7o(4+1)8n
8:7o(5+1)9d
9:9o(6+1)10d
10:9o(4+1)11d
11:9o(3+1)12d
12:12o(6+1)13d
13:11o(6+2)14d
14:12o(2+1)15d
15:15o(-1+1)16n
16:15o(7+1)17d
17:15o(3+1)18d
18:18d(2+1)19n
19:17d(2+1)20n
20:18o(3+1)21d
21:21o(4+1)22d
22:22o(4+1)23d
23:22d(2+1)24n
24:22o(3+1)25d
25:25o(2+1)26d
26:25o(6+1)27n
27:25o(4+1)27n