RES
1r:r1
REP
REP1:5o(4+2)2d=-1--1
RES
2b:a-dgro-dgal-NON-2:6|1:a|2:keto|3:d
3s:n-acetyl
4b:a-dgal-HEX-1:5|6:d
5b:b-dgal-HEX-1:5
6s:n-acetyl
7s:amino
LIN
1:2d(5+1)3n
2:2o(4+1)4d
3:4o(3+1)5d
4:4d(2+1)6n
5:4d(4+1)7n