RES
1b:x-dglc-HEX-x:x
2b:a-lgal-HEX-1:5|6:d
3s:n-acetyl
4b:a-dglc-HEX-1:5
5s:n-acetyl
6b:a-lgal-HEX-1:5|6:d
7b:a-dglc-HEX-1:5
8s:n-acetyl
LIN
1:1o(4+1)2d
2:2d(2+1)3n
3:2o(3+1)4d
4:4d(2+1)5n
5:4o(3+1)6d
6:6o(3+1)7d
7:6d(2+1)8n