RES
1b:a-dglc-HEX-1:5
2s:phosphate
3s:amino
4b:b-dglc-HEX-1:5
5s:amino
6b:a-dman-OCT-2:6|1:a|2:keto|3:d
7s:phosphate
8b:a-lman-HEX-1:5|6:d
9b:b-dgal-HEX-1:4
10b:b-dgal-HEX-1:5
11b:a-lgal-HEX-1:5|6:d
12b:b-dglc-HEX-1:5
13b:a-lman-HEX-1:5|6:d
14r:r1
LIN
1:1o(1+1)2n
2:1d(2+1)3n
3:1o(6+1)4d
4:4d(2+1)5n
5:4o(6+2)6d
6:6o(4+1)7n
7:6o(5+1)8d
8:8o(3+1)9d
9:8o(4+1)10d
10:10o(2+1)11d
11:10o(6+1)12d
12:12o(3+1)13d
13:13o(4+1)14n
REP
REP1:16o(4+1)15d=-1--1
RES
15b:b-dman-HEX-1:5
16b:a-lman-HEX-1:5|6:d
LIN
1:15o(3+1)16d