RES
1r:r1
REP
REP1:7o(4+1)2d=-1--1
RES
2b:b-dglc-HEX-1:5|6:d
3s:n-acetyl
4s:n-acetyl
5b:a-dgal-HEX-1:5|6:a
6s:n-acetyl
7b:a-dgal-HEX-1:5|6:a
8s:n-acetyl
9n:n1
LIN
1:2d(2+1)3n
2:2d(4+1)4n
3:2o(3+1)5d
4:5d(2+1)6n
5:5o(4+1)7d
6:7d(2+1)8n
7:7o(6+2)9n
NON
NON1
Parent:7
Linkage:o(6+2)n
SmallMolecule:SMILES [3CH3][2C@@H](N)[1C](=O)O
Description:(D)-alanine