RES
1r:r1
REP
REP1:4o(4+1)2d=-1--1
RES
2b:b-dglc-HEX-1:5
3s:n-acetyl
4b:b-dman-HEX-1:5|6:a
5b:b-dara-HEX-2:5|1:aldi|2:keto
6s:n-acetyl
7n:n1
LIN
1:2d(2+1)3n
2:2o(3+1)4d
3:4o(3+2)5d
4:4d(2+1)6n
5:4o(6+2)7n
NON
NON1
Parent:4
Linkage:o(6+2)n
SmallMolecule:SMILES [2CH2](N)[1C](=O)O
Description:glycine