RES
1r:r1
REP
REP1:5n(4+1)2d=-1--1
RES
2b:a-dgal-HEX-1:5|6:d
3s:methyl
4s:amino
5n:n1
LIN
1:2o(3+1)3n
2:2d(4+1)4n
3:2o(4+1)5n
NON
NON1
Parent:2
Linkage:o(4+1)n
SmallMolecule:SMILES [5C](=O)1[4CH](O)[3C]([6CH3])(O)[2C@@H](N1C)[1C](=O)(O)
Description:(D)-3,4-dihydroxy-N,3-dimethyl-5-oxoproline