RES
1r:r1
REP
REP1:6o(4+1)2d=-1--1
RES
2b:b-dgal-HEX-1:5
3b:b-lman-HEX-1:5|6:d
4b:a-dgal-HEX-1:5
5b:a-dglc-HEX-1:5
6b:a-dman-HEX-1:5
7b:a-dglc-HEX-1:5
8b:a-lman-HEX-1:5|6:d
9b:a-dglc-HEX-1:5|6:a
10b:a-dglc-HEX-1:5|6:a
11b:a-dglc-HEX-1:5
12s:pyruvate
LIN
1:2o(3+1)3d
2:3o(3+1)4d
3:4o(3+1)5d
4:5o(4+1)6d
5:5o(6+1)7d
6:7o(3+1)8d
7:8o(3+1)9d
8:9o(4+1)10d
9:10o(4+1)11d
10:11o(6+2)12n
11:11o(4+2)12n