RES
1r:r1
REP
REP1:6o(3+1)2d=-1--1
RES
2b:b-dglc-HEX-1:5
3s:n-acetyl
4b:a-lman-HEX-1:5|6:d
5b:a-dglc-HEX-1:5
6b:a-lman-HEX-1:5|6:d
7b:a-dgal-HEX-1:5|6:a
8b:a-lman-HEX-1:5|6:d
9s:acetyl
10s:acetyl
11s:acetyl
LIN
1:2d(2+1)3n
2:2o(3+1)4d
3:4o(2+1)5d
4:5o(4+1)6d
5:6o(2+1)7d
6:7o(4+1)8d
7:8o(2+1)9n
8:8o(4+1)10n
9:8o(3+1)11n