RES
1b:a-dman-OCT-2:6|1:a|2:keto|3:d
2s:diphospho-ethanolamine
3b:a-lgro-dman-HEP-1:5
4b:a-lgro-dman-HEP-1:5
5b:b-dglc-HEX-1:5
6s:phospho-ethanolamine
7b:b-dglc-HEX-1:5
8b:a-lgro-dman-HEP-1:5
9s:phosphate
10s:phospho-ethanolamine
11n:n1
12b:b-dgal-HEX-1:5
13b:a-dgal-HEX-1:5
14b:b-dgal-HEX-1:5
15s:n-acetyl
LIN
1:1o(4+1)2n
2:1o(5+1)3d
3:3o(3+1)4d
4:3o(4+1)5d
5:4o(6+1)6n
6:5o(4+1)7d
7:4o(2+1)8d
8:5o(6+1)9n
9:8o(3+1)10n
10:9n(1+1)11n
11:7o(4+1)12d
12:12o(4+1)13d
13:13o(3+1)14d
14:14d(2+1)15n
NON
NON1
Parent:9
Linkage:n(1+1)n
SmallMolecule:SMILES C[N+](C)(C)[2CH2][1CH2]O
Description:choline