RES
1b:a-dglc-HEX-1:5
2s:phosphate
3s:amino
4b:b-dglc-HEX-1:5
5s:amino
6s:phosphate
7b:a-dman-OCT-2:6|1:a|2:keto|3:d
8b:a-dman-OCT-2:6|1:a|2:keto|3:d
9b:a-dgal-HEX-1:5
10b:b-dglc-HEX-x:x
11b:a-dgal-HEX-1:5|6:a
12s:amino
13b:b-dglc-HEX-1:5|6:a
14b:a-lman-HEX-1:5|6:d
15s:amino
16b:b-dglc-HEX-1:5|6:d
17s:amino
18n:n1
LIN
1:1o(1+1)2n
2:1d(2+1)3n
3:1o(6+1)4d
4:4d(2+1)5n
5:4o(4+1)6n
6:4o(6+2)7d
7:7o(4+2)8d
8:7o(5+1)9d
9:9o(4+1)10d
10:9o(6+1)11d
11:11d(6+1)12n
12:10o(3+1)13d
13:11o(4+1)14d
14:13d(6+1)15n
15:14o(2+1)16d
16:16d(3+1)17n
17:16o(3+1)18n
NON
NON1
Parent:16
Linkage:o(3+1)n
SmallMolecule:SMILES [5C](=O)1[4CH2][3C]([7CH3])(O)[2C]([6CH3])(N1)[1C](=O)(O)
Description:3-hydroxy-2,3-dimethyl-5-oxoproline