RES
1b:a-dman-OCT-2:6|1:a|2:keto|3:d
2s:diphospho-ethanolamine
3b:a-lgro-dman-HEP-1:5
4b:a-lgro-dman-HEP-1:5
5b:b-dglc-HEX-1:5
6s:phospho-ethanolamine
7b:a-lgro-dman-HEP-1:5
8b:b-dglc-HEX-1:5
9b:a-dgro-dman-HEP-1:5
10b:b-dgal-HEX-1:5
11s:phospho-ethanolamine
12b:b-dgal-HEX-1:5
13b:a-dgal-HEX-1:5
LIN
1:1o(4+1)2n
2:1o(5+1)3d
3:3o(3+1)4d
4:3o(4+1)5d
5:4o(6+1)6n
6:4o(2+1)7d
7:5o(4+1)8d
8:5o(6+1)9d
9:9o(4+1)10d
10:7o(3+1)11n
11:8o(4+1)12d
12:12o(4+1)13d