RES
1b:o-dglc-HEX-0:0|1:aldi
2s:amino
3b:b-dglc-HEX-1:5
4s:amino
5b:a-dman-OCT-2:6|1:a|2:keto|3:d
6b:a-lgro-dman-HEP-1:5
7b:b-dglc-HEX-1:5
8b:a-lgro-dman-HEP-1:5
9b:a-lgro-dman-HEP-1:5
10b:b-dglc-HEX-1:5
11b:a-dglc-HEX-1:5
12b:b-dglc-HEX-1:5
13b:b-dgal-HEX-1:5
14b:a-dgal-HEX-1:5
15b:b-dgal-HEX-1:5
16b:a-dgal-HEX-1:5
LIN
1:1d(2+1)2n
2:1o(6+1)3d
3:3d(2+1)4n
4:3o(6+2)5d
5:5o(5+1)6d
6:6o(4+1)7d
7:6o(3+1)8d
8:8o(2+1)9d
9:7o(4+1)10d
10:8o(3+1)11d
11:11o(4+1)12d
12:10o(4+1)13d
13:13o(4+1)14d
14:12o(4+1)15d
15:15o(4+1)16d