RES
1b:a-dman-HEX-1:5
2s:acetyl
3b:b-dman-HEX-1:5
4b:b-dglc-HEX-1:5
5b:a-dglc-HEX-1:5|6:a
6b:b-dgal-HEX-1:5
7s:(r)-pyruvate
LIN
1:1o(6+1)2n
2:1o(4+1)3d
3:3o(4+1)4d
4:3o(3+1)5d
5:3o(6+1)6d
6:6o(6+2)7n
7:6o(4+2)7n