RES
1r:r1
REP
REP1:10o(5+1)2n=-1--1
RES
2s:phosphate
3b:o-drib-PEN-0:0|1:aldi
4b:a-dgal-HEX-1:5
5b:b-dgal-HEX-1:5
6b:b-dgal-HEX-1:4
7b:b-dgal-HEX-1:5
8s:n-acetyl
9b:b-dgal-HEX-1:5
10b:b-dgal-HEX-1:4
LIN
1:2n(1+5)3o
2:3o(2+1)4d
3:4o(3+1)5d
4:5o(3+1)6d
5:5o(6+1)7d
6:5d(2+1)8n
7:5o(4+1)9d
8:9o(3+1)10d