RES
1r:r1
REP
REP1:10o(6+1)2n=-1--1
RES
2s:phosphate
3b:o-drib-PEN-0:0|1:aldi
4b:a-dgal-HEX-1:5
5b:b-dgal-HEX-1:5
6b:b-dgal-HEX-1:5
7s:n-acetyl
8b:b-dgal-HEX-1:5
9b:b-dgal-HEX-1:4
10b:b-dgal-HEX-1:4
11s:acetyl
12s:acetyl
LIN
1:2n(1+5)3o
2:3o(1+1)4d
3:4o(3+1)5d
4:5o(6+1)6d
5:5d(2+1)7n
6:5o(4+1)8d
7:5o(3+1)9d
8:8o(3+1)10d
9:9o(3+1)11n
10:9o(6+1)12n