RES
1b:b-dglc-HEX-1:5
2s:n-acetyl
3b:a-dman-HEX-1:5
4s:acetyl
5b:a-dman-HEX-1:5
6s:acetyl
7b:a-lman-HEX-1:5|6:d
8n:n1
9s:methyl
LIN
1:1d(2+1)2n
2:1o(3+1)3d
3:3o(2+1)4n
4:3o(4+1)5d
5:5o(2+1)6n
6:5o(3+1)7d
7:7o(3+2)8n
8:8n(1+1)9n
NON
NON1
Parent:7
Linkage:o(3+2)n
SmallMolecule:SMILES [3CH3][2C@@H](O)[1C](=O)O
Description:(R)-carboxyethyl