RES
1r:r1
REP
REP1:11o(2+1)2d=-1--1
RES
2b:b-dglc-HEX-1:5
3s:n-acetyl
4b:b-dglc-HEX-1:5
5b:a-lgal-HEX-1:5|6:d
6s:amino
7s:n-acetyl
8n:n1
9b:a-dgal-HEX-1:5
10s:phosphate
11b:o-drib-PEN-0:0|1:aldi
LIN
1:2d(2+1)3n
2:2o(4+1)4d
3:2o(3+1)5d
4:5d(2+1)6n
5:4d(2+1)7n
6:5o(2+1)8n
7:5o(3+1)9d
8:9o(6+1)10n
9:10n(1+5)11o
NON
NON1
Parent:5
Linkage:o(2+1)n
SmallMolecule:SMILES [2CH3][1C](=N)O
Description:acetimidic acid