RES
1b:a-lman-HEX-1:5|6:d
2s:methyl
3b:a-lman-HEX-1:5|6:d
4b:a-dglc-HEX-1:5
5b:a-lman-HEX-1:5|6:d
6b:b-dglc-HEX-1:5
7s:n-acetyl
LIN
1:1o(1+1)2n
2:1o(3+1)3d
3:3o(3+1)4d
4:3o(2+1)5d
5:5o(2+1)6d
6:6d(2+1)7n