RES
1b:x-dgal-HEX-x:x
2b:b-dglc-HEX-1:5
3b:a-dgal-HEX-1:5
4b:b-dglc-HEX-1:5
5b:b-dglc-HEX-1:5|6:a
6b:a-dgal-HEX-1:5
7b:b-dglc-HEX-1:5
LIN
1:1o(3+1)2d
2:2o(6+1)3d
3:3o(6+1)4d
4:3o(4+1)5d
5:5o(4+1)6d
6:6o(6+1)7d