RES
1b:o-dglc-HEX-0:0|1:aldi
2s:amino
3b:b-dglc-HEX-1:5
4s:amino
5b:a-dman-OCT-2:6|1:a|2:keto|3:d
6b:a-dman-OCT-2:6|1:a|2:keto|3:d
7b:a-lgro-dman-HEP-1:5
8b:a-lgro-dman-HEP-1:5
9b:a-lgro-dman-HEP-1:5
10b:a-dglc-HEX-1:5
11b:a-dgal-HEX-1:5
12b:a-dgal-HEX-1:5
13b:a-dglc-HEX-1:5
14b:b-dgal-HEX-1:5
15b:a-dglc-HEX-1:5
16s:amino
17b:a-lman-HEX-1:5|6:d
18b:a-dman-HEX-1:5
19b:a-dgal-HEX-1:5
20b:a-lman-HEX-1:5|6:d
21b:a-dman-HEX-1:5
22b:a-dgal-HEX-1:5
23b:a-lman-HEX-1:5|6:d
24b:a-dman-HEX-1:5
25b:a-dgal-HEX-1:5
LIN
1:1d(2+1)2n
2:1o(6+1)3d
3:3d(2+1)4n
4:3o(6+2)5d
5:5o(4+2)6d
6:5o(5+1)7d
7:7o(3+1)8d
8:8o(7+1)9d
9:8o(3+1)10d
10:10o(6+1)11d
11:10o(3+1)12d
12:12o(2+1)13d
13:13o(4+1)14d
14:13o(2+1)15d
15:15d(2+1)16n
16:14o(3+1)17d
17:17o(4+1)18d
18:18o(2+1)19d
19:19o(3+1)20d
20:20o(4+1)21d
21:21o(2+1)22d
22:22o(3+1)23d
23:23o(4+1)24d
24:24o(2+1)25d