RES
1r:r1
REP
REP1:7o(2+1)2d=-1--1
RES
2b:b-dglc-HEX-1:5
3b:a-dglc-HEX-1:5
4s:n-acetyl
5b:a-lman-HEX-1:5|6:d
6b:a-lman-HEX-1:5|6:d
7b:a-lman-HEX-1:5|6:d
LIN
1:2o(6+1)3d
2:2d(2+1)4n
3:2o(3+1)5d
4:5o(3+1)6d
5:6o(2+1)7d