RES
1r:r1
REP
REP1:4o(3+1)2d=-1--1
RES
2b:a-lgal-HEX-1:5|6:d
3b:a-lman-HEX-1:5|6:d
4b:b-dglc-HEX-1:5
5b:a-dglc-HEX-1:5
6s:n-acetyl
7b:a-dxyl-HEX-1:5|3:d|6:d
8n:n1
LIN
1:2o(4+1)3d
2:3o(3+1)4d
3:3o(2+1)5d
4:4d(2+1)6n
5:5o(6+1)7d
6:7h(4+1)8n
NON
NON1
Parent:7
Linkage:h(4+1)n
SmallMolecule:SMILES [1C@@H](O)C
Description:(S)-hydroxyethyl