RES
1b:a-dman-OCT-2:6|1:a|2:keto|3:d
2b:a-dman-OCT-2:6|1:a|2:keto|3:d
3b:a-lgro-dman-HEP-1:5
4b:b-dglc-HEX-1:5
5b:a-lgro-dman-HEP-1:5
6b:b-dglc-HEX-1:5
7b:a-lgro-dman-HEP-1:5
8b:b-dgal-HEX-1:5|6:d
9s:n-acetyl
10s:phosphate
11b:a-dgro-dman-HEP-1:5
12b:a-dgal-HEX-1:5
13b:b-dglc-HEX-1:5
14s:n-acetyl
15s:phosphate
16b:a-dgal-HEX-1:5
17b:a-dgal-HEX-1:5
18b:b-dglc-HEX-1:5
19s:n-acetyl
LIN
1:1o(4+2)2d
2:1o(5+1)3d
3:3o(4+1)4d
4:3o(3+1)5d
5:5o(2+1)6d
6:5o(7+1)7d
7:5o(3+1)8d
8:8d(2+1)9n
9:8o(4+1)10n
10:7o(7+1)11d
11:8o(3+1)12d
12:12o(3+1)13d
13:12d(2+1)14n
14:11o(7+1)15n
15:12o(4+1)16d
16:16o(6+1)17d
17:17o(6+1)18d
18:17d(2+1)19n