RES
1r:r1
REP
REP1:7o(6+1)2n=-1--1
RES
2s:phosphate
3b:o-dgro-TRI-0:0|1:aldi
4b:b-dglc-HEX-1:5
5s:n-acetyl
6b:a-lgal-HEX-1:5|6:d
7b:b-dglc-HEX-1:5
8s:n-acetyl
9b:a-dgal-HEX-1:5
10b:a-dglc-HEX-1:5
11s:n-acetyl
LIN
1:2n(1+1)3o
2:3o(3+1)4d
3:4d(2+1)5n
4:4o(3+1)6d
5:6o(4+1)7d
6:6d(2+1)8n
7:6o(3+1)9d
8:9o(6+1)10d
9:9d(2+1)11n