RES
1b:o-dgro-TRI-0:0|1:aldi
2b:b-dglc-HEX-1:5
3s:n-acetyl
4b:a-lgal-HEX-1:5|6:d
5b:b-dglc-HEX-1:5
6s:n-acetyl
7b:a-dgal-HEX-1:5
8b:a-dglc-HEX-1:5
9s:n-acetyl
LIN
1:1o(3+1)2d
2:2d(2+1)3n
3:2o(3+1)4d
4:4o(4+1)5d
5:4d(2+1)6n
6:4o(3+1)7d
7:7o(6+1)8d
8:7d(2+1)9n