RES
1r:r1
REP
REP1:9o(6+1)2d=-1--1
RES
2b:b-dglc-HEX-1:5
3b:b-dglc-HEX-1:5
4s:n-acetyl
5s:phospho-ethanolamine
6b:a-lgal-HEX-1:5|6:d
7b:b-dglc-HEX-1:5
8s:n-acetyl
9b:a-dglc-HEX-1:5
10s:n-acetyl
LIN
1:2o(2+1)3d
2:3d(2+1)4n
3:3o(6+1)5n
4:3o(3+1)6d
5:6o(4+1)7d
6:6d(2+1)8n
7:6o(3+1)9d
8:9d(2+1)10n