RES
1b:x-dman-OCT-x:x|1:a|2:keto|3:d
2b:a-lgro-dman-HEP-1:5
3b:a-lgro-dman-HEP-1:5
4b:a-lgro-dman-HEP-1:5
5b:a-dglc-HEX-1:5
6b:a-dgal-HEX-1:5
7b:a-dglc-HEX-1:5
8b:a-dglc-HEX-1:5
9b:a-lgro-dman-HEP-1:5
10b:x-dglc-HEX-1:5
11s:n-acetyl
12b:x-dgal-HEX-1:5
13b:b-dglc-HEX-1:5
14b:b-dgal-HEX-1:5
15s:n-acetyl
LIN
1:1o(5+1)2d
2:2o(3+1)3d
3:3o(7+1)4d
4:3o(3+1)5d
5:5o(6+1)6d
6:5o(3+1)7d
7:7o(2+1)8d
8:8o(6+1)9d
9:9o(7+1)10d
10:10d(2+1)11n
11:10o(3+1)12d
12:12o(3+1)13d
13:13o(4+1)14d
14:13d(2+1)15n