RES
1r:r1
REP
REP1:3o(3+1)2d=-1--1
RES
2b:b-dglc-HEX-1:5
3b:b-dgal-HEX-1:5
4s:acetyl
5b:a-dglc-HEX-1:5
6b:b-dglc-HEX-1:5|6:a
7b:a-dglc-HEX-1:5
8b:b-dglc-HEX-1:5
LIN
1:2o(4+1)3d
2:3o(6+1)4n
3:3o(4+1)5d
4:5o(6+1)6d
5:6o(4+1)7d
6:7o(6+1)8d