RES
1r:r1
REP
REP1:5o(4+1)2d=-1--1
RES
2b:a-lgal-HEX-1:5|6:d
3b:b-dglc-HEX-1:5
4b:a-dgal-HEX-1:5
5b:a-lgal-HEX-1:5|6:d
6b:a-dglc-HEX-1:5|6:a
7b:a-dgal-HEX-1:5
8s:pyruvate
LIN
1:2o(4+1)3d
2:2o(3+1)4d
3:3o(3+1)5d
4:4o(3+1)6d
5:6o(4+1)7d
6:7o(6+2)8n
7:7o(4+2)8n