RES
1r:r1
REP
REP1:9o(4+1)2d=-1--1
RES
2b:a-dgal-HEX-1:5
3b:a-dgal-HEX-1:5|6:d
4b:b-dglc-HEX-1:5
5s:acetyl
6s:n-acetyl
7s:amino
8n:n1
9b:a-lgul-HEX-1:5|6:a
10s:n-acetyl
LIN
1:2o(4+1)3d
2:2o(3+1)4d
3:4o(3+1)5n
4:4d(2+1)6n
5:3d(3+1)7n
6:3o(3+1)8n
7:4o(4+1)9d
8:9d(2+1)10n
NON
NON1
Parent:3
Linkage:o(3+1)n
SmallMolecule:SMILES [4CH2](O)[3CH2][2CH2][1C](=O)O
Description:4-hydroxybutanoic acid