RES
1r:r1
REP
REP1:9o(2+1)2d=-1--1
RES
2b:b-dgal-HEX-1:5
3s:n-acetyl
4b:b-dgal-HEX-1:5
5b:a-dglc-HEX-x:x
6b:a-dglc-HEX-1:5
7s:n-acetyl
8b:b-dgal-HEX-1:5|6:d
9b:b-dglc-HEX-1:5
10s:amino
11n:n1
LIN
1:2d(2+1)3n
2:2o(3+1)4d
3:4o(2+1)5d
4:4o(4+1)6d
5:6d(2+1)7n
6:6o(6+1)8d
7:8o(2+1)9d
8:8d(3+1)10n
9:8o(3+1)11n
NON
NON1
Parent:8
Linkage:o(3+1)n
SmallMolecule:SMILES [4CH3][3C@@H](O)[2CH2][1C](=O)O
Description:(R)-3-hydroxybutanoic acid