RES
1b:x-dman-OCT-x:x|1:a|2:keto|3:d
2b:a-lgro-dman-HEP-1:5
3b:b-dglc-HEX-1:5
4b:a-lgro-dman-HEP-1:5
5s:phospho-ethanolamine
6b:a-lgro-dman-HEP-1:5
7s:phosphate
8n:n1
9b:b-dglc-HEX-1:5
10b:b-dgal-HEX-1:5
11b:a-dgal-HEX-1:5
12b:b-dgal-HEX-1:5
13s:n-acetyl
LIN
1:1o(5+1)2d
2:2o(4+1)3d
3:2o(3+1)4d
4:4o(6+1)5n
5:4o(2+1)6d
6:3o(6+1)7n
7:7n(1+1)8n
8:6o(2+1)9d
9:9o(4+1)10d
10:10o(4+1)11d
11:11o(3+1)12d
12:12d(2+1)13n
NON
NON1
Parent:7
Linkage:n(1+1)n
SmallMolecule:SMILES C[N+](C)(C)[2CH2][1CH2]O
Description:choline