RES
1b:x-lgro-dman-HEP-x:x
2b:x-dglc-HEX-1:5
3b:x-lgro-dman-HEP-1:5
4s:phospho-ethanolamine
5b:x-dgal-HEX-1:5
6b:x-dglc-HEX-1:5
7s:n-acetyl
8b:x-dglc-HEX-1:5
9b:x-dgal-HEX-1:5
10s:n-acetyl
LIN
1:1o(4+1)2d
2:1o(3+1)3d
3:3o(6+1)4n
4:2o(4+1)5d
5:3o(2+1)6d
6:6d(2+1)7n
7:5o(3+1)8d
8:8o(4+1)9d
9:8d(2+1)10n