RES
1r:r1
REP
REP1:7o(4+1)2d=-1--1
RES
2b:b-dgal-HEX-1:5
3b:b-dglc-HEX-1:5
4b:b-dglc-HEX-1:5
5s:acetyl
6b:b-dglc-HEX-1:5
7b:b-dglc-HEX-1:5
8b:b-dglc-HEX-1:5|6:a
9b:a-dglc-HEX-1:5|6:a
10b:a-dgal-HEX-1:5
11s:(r)-pyruvate
12s:acetyl
LIN
1:2o(3+1)3d
2:3o(4+1)4d
3:4o(6+1)5n
4:4o(4+1)6d
5:6o(6+1)7d
6:7o(-1+1)8d
7:8o(4+1)9d
8:9o(4+1)10d
9:10o(6+2)11n
10:10o(4+2)11n
11:10o(-1+1)12n