RES
1r:r1
REP
REP1:9o(4+1)2d=-1--1
RES
2b:a-dglc-HEX-1:5
3s:acetyl
4s:acetyl
5b:b-dglc-HEX-1:5
6b:b-dglc-HEX-1:5
7b:b-dglc-HEX-1:5
8b:b-dglc-HEX-1:5|6:a
9b:b-dglc-HEX-1:5|6:a
10s:acetyl
11b:b-dglc-HEX-1:5
12s:(r)-pyruvate
13b:b-dgal-HEX-1:5
14s:(r)-pyruvate
15n:n1
LIN
1:2o(2+1)3n
2:2o(3+1)4n
3:2o(6+1)5d
4:2o(4+1)6d
5:5o(4+1)7d
6:6o(4+1)8d
7:8o(4+1)9d
8:8o(3+1)10n
9:7o(4+1)11d
10:11o(6+2)12n
11:11o(4+2)12n
12:11o(3+1)13d
13:13o(6+2)14n
14:13o(4+2)14n
15:13o(3+1)15n
NON
NON1
Parent:13
Linkage:o(3+1)n
SmallMolecule:SMILES [4CH3][3CH](O)[2CH2][1C](=O)O
Description:3-hydroxybutanoic acid