RES
1b:b-dglc-HEX-1:5
2a:a1
3n:n1
LIN
1:1o(6+1)2n
2:1o(1+3)3n
ALT
ALT1
ALTSUBGRAPH1
LEAD-IN RES:4
RES
4n:n2
ALTSUBGRAPH2
LEAD-IN RES:5
RES
5n:n3
ALTSUBGRAPH3
LEAD-IN RES:6
RES
6n:n4
NON
NON1
Parent:1
Linkage:o(1+3)n
SmallMolecule:SMILES C[C@H](CCCC(C)C)[C@H]1CC[C@@H]2[C@@]1(CC[C@H]3[C@H]2CC=C4[C@@]3(CC{3}[C@@H](C4)O)C)C
Description:cholesterol
NON2
SmallMolecule:SMILES [16CH3][15CH2][14CH2][13CH2][12CH2][11CH2][10CH2][9CH2][8CH2][7CH2][6CH2][5CH2][4CH2][3CH2][2CH2][1C](=O)O
Description:palmitic acid
NON3
SmallMolecule:SMILES [18CH3][17CH2][16CH2][15CH2][14CH2][13CH2][12CH2][11CH2][10CH2][9CH2][8CH2][7CH2][6CH2][5CH2][4CH2][3CH2][2CH2][1C](=O)O
Description:stearic acid
NON4
SmallMolecule:SMILES [18CH3][17CH2][16CH2][15CH2][14CH2][13CH2][12CH2][11CH2]/[10CH]=[9CH]\[8CH2][7CH2][6CH2][5CH2][4CH2][3CH2][2CH2][1C](=O)O
Description:oleic acid