RES
1n:n1
2b:a-lgro-dman-HEP-1:5
3b:b-dglc-HEX-1:5
4b:a-lgro-dman-HEP-1:5
5s:phospho-ethanolamine
6b:a-lgro-dman-HEP-1:5
7s:phosphate
8b:b-dglc-HEX-1:5
9n:n2
LIN
1:1n(5+1)2d
2:2o(4+1)3d
3:2o(3+1)4d
4:4o(6+1)5n
5:4o(2+1)6d
6:3o(6+1)7n
7:6o(2+1)8d
8:7n(1+1)9n
NON
NON1
HistoricalEntity:anhKdo-ol
NON2
Parent:7
Linkage:n(1+1)n
SmallMolecule:SMILES C[N+](C)(C)[2CH2][1CH2]O
Description:choline