RES
1r:r1
REP
REP1:6o(4+1)2d=-1--1
RES
2b:b-dara-HEX-1:5|2:d|6:a
3b:b-dglc-HEX-1:5
4b:a-lman-HEX-1:5|6:d
5b:b-dglc-HEX-1:5
6b:b-dglc-HEX-1:5
7b:b-dglc-HEX-1:5
LIN
1:2o(4+1)3d
2:3o(3+1)4d
3:3o(6+1)5d
4:4o(4+1)6d
5:5o(6+1)7d