RES
1r:r1
REP
REP1:6o(4+1)2d=-1--1
RES
2b:a-xgal-HEX-1:5
3b:b-dglc-HEX-1:5
4b:b-dglc-HEX-1:5|6:a
5b:b-xxyl-PEN-1:5
6b:b-dman-HEX-1:5
7b:b-dman-HEX-1:5
8s:methyl
LIN
1:2o(4+1)3d
2:3o(6+1)4d
3:3o(4+1)5d
4:5o(4+1)6d
5:6o(6+1)7d
6:6o(3+1)8n