RES
1r:r1
REP
REP1:7o(4+1)2d=-1--1
RES
2b:b-dglc-HEX-1:5
3s:n-acetyl
4b:b-dgal-HEX-1:5|6:a
5s:acetyl
6b:a-dgal-HEX-1:5
7b:a-dgal-HEX-1:5|6:a
8n:n1
LIN
1:2d(2+1)3n
2:2o(3+1)4d
3:4o(4+1)5n
4:4o(3+1)6d
5:6o(4+1)7d
6:7o(6+2)8n
NON
NON1
Parent:7
Linkage:o(6+2)n
SmallMolecule:SMILES [6CH2](N)[5CH2][4CH2][3CH2][2C@H](N)[1C](=O)O
Description:(L)-lysine