RES
1r:r1
REP
REP1:8o(4+1)2d=-1--1
RES
2b:b-dglc-HEX-1:5
3s:n-acetyl
4s:acetyl
5b:b-dglc-HEX-1:5
6s:n-acetyl
7b:a-dgal-HEX-1:5
8b:b-dglc-HEX-1:5|6:a
9s:n-acetyl
LIN
1:2d(2+1)3n
2:2o(4+1)4n
3:2o(3+1)5d
4:5d(2+1)6n
5:5o(6+1)7d
6:7o(6+1)8d
7:7d(2+1)9n