RES
1r:r1
REP
REP1:5o(4+1)2d=-1--1
RES
2b:b-lman-HEX-1:5|6:d
3b:b-dgal-HEX-1:5
4s:n-acetyl
5b:b-dglc-HEX-1:5
6b:a-dgal-HEX-1:5|6:a
7s:acetyl
8s:acetyl
9s:n-acetyl
10n:n1
LIN
1:2o(3+1)3d
2:3d(2+1)4n
3:3o(4+1)5d
4:3o(3+1)6d
5:5o(6+1)7n
6:6o(3+1)8n
7:5d(2+1)9n
8:6o(6+2)10n
NON
NON1
Parent:6
Linkage:o(6+2)n
SmallMolecule:SMILES [4CH3][3C@@H](O)[2C@H](N)[1C](=O)O
Description:(L)-threonine