RES
1n:n1
2b:a-lgro-dman-HEP-1:5
3b:b-dglc-HEX-1:5
4b:a-lgro-dman-HEP-1:5
5s:phospho-ethanolamine
6b:a-lgro-dman-HEP-1:5
7s:phosphate
8n:n2
9b:b-dglc-HEX-1:5
10b:b-dgal-HEX-1:5
11b:a-dgal-HEX-1:5
LIN
1:1n(5+1)2d
2:2o(4+1)3d
3:2o(3+1)4d
4:4o(6+1)5n
5:4o(2+1)6d
6:3o(6+1)7n
7:7n(1+1)8n
8:6o(2+1)9d
9:9o(4+1)10d
10:10o(4+1)11d
NON
NON1
HistoricalEntity:anhKdo-ol
NON2
Parent:7
Linkage:n(1+1)n
SmallMolecule:SMILES C[N+](C)(C)[2CH2][1CH2]O
Description:choline