RES
1r:r1
REP
REP1:14o(4+1)2d=-1--1
RES
2b:a-dgal-HEX-1:5
3s:acetyl
4s:acetyl
5b:a-dgal-HEX-1:5|6:a
6s:n-acetyl
7b:b-dglc-HEX-1:5|6:d
8s:amino
9n:n1
10b:b-dglc-HEX-1:5|6:d
11s:n-acetyl
12s:n-acetyl
13s:acetyl
14b:a-lgal-HEX-1:5|6:a
15s:n-acetyl
LIN
1:2o(2+1)3n
2:2o(6+1)4n
3:2o(4+1)5d
4:5d(2+1)6n
5:5o(4+1)7d
6:7d(3+1)8n
7:7o(3+1)9n
8:7o(2+1)10d
9:10d(2+1)11n
10:10d(4+1)12n
11:9n(2+1)13n
12:10o(3+1)14d
13:14d(2+1)15n
NON
NON1
Parent:7
Linkage:o(3+1)n
SmallMolecule:SMILES [3CH3][2C@@H](N)[1C](=O)O
Description:(D)-alanine