RES
1b:x-dman-OCT-x:x|1:a|2:keto|3:d
2b:a-lgro-dman-HEP-1:5
3b:b-dglc-HEX-1:5
4b:a-lgro-dman-HEP-1:5
5b:b-dglc-HEX-1:5
6b:b-dgal-HEX-1:5
7b:b-dgal-HEX-1:5
8b:b-dgal-HEX-1:5
9s:n-acetyl
LIN
1:1o(5+1)2d
2:2o(4+1)3d
3:2o(3+1)4d
4:4o(2+1)5d
5:4o(3+1)6d
6:6o(4+1)7d
7:7o(3+1)8d
8:7d(2+1)9n