RES
1b:x-dgro-dgal-NON-x:x|1:a|2:keto|3:d
2s:n-acetyl
3b:a-dgal-HEX-1:5|6:a
4b:o-xgro-TRI-0:0|1:aldi
5b:b-dglc-HEX-1:5
6s:n-acetyl
7s:amino
8b:b-dgal-HEX-1:5|6:a
9b:o-xgro-TRI-0:0|1:aldi
10s:amino
LIN
1:1d(5+1)2n
2:1o(4+1)3d
3:3o(6+2)4d
4:3o(3+1)5d
5:5d(2+1)6n
6:4d(2+1)7n
7:5o(3+1)8d
8:8o(6+2)9d
9:9d(2+1)10n