RES
1b:a-dglc-HEX-1:5
2s:phosphate
3s:amino
4b:b-dglc-HEX-1:5
5s:phosphate
6s:amino
7b:a-dman-OCT-2:6|1:a|2:keto|3:d
8b:a-dman-OCT-x:x|1:a|2:keto|3:d
9b:a-lgro-dman-HEP-1:5
10b:a-dman-OCT-2:6|1:a|2:keto|3:d
11b:b-dglc-HEX-1:5
12b:a-lgro-dman-HEP-1:5
13b:b-dgal-HEX-1:5|6:a
14b:a-lgro-dman-HEP-1:5
15b:a-dgal-HEX-1:5|6:a
16b:a-dglc-HEX-1:5
17s:amino
18b:a-dgro-dman-HEP-1:5
19b:a-dgro-dman-HEP-1:5
20b:a-dgro-dman-HEP-1:5
21b:a-dgro-dman-HEP-1:5
LIN
1:1o(1+1)2n
2:1d(2+1)3n
3:1o(6+1)4d
4:4o(4+1)5n
5:4d(2+1)6n
6:4o(6+2)7d
7:7o(4+2)8d
8:7o(5+1)9d
9:8o(4+2)10d
10:9o(4+1)11d
11:9o(3+1)12d
12:11o(6+1)13d
13:12o(7+1)14d
14:12o(3+1)15d
15:15o(4+1)16d
16:16d(2+1)17n
17:16o(6+1)18d
18:18o(2+1)19d
19:19o(2+1)20d
20:20o(2+1)21d