RES
1b:b-dglc-HEX-1:5|6:d
2s:n-acetyl
3s:n-acetyl
4b:a-dgal-HEX-1:5|6:a
5s:n-acetyl
6b:a-dgal-HEX-1:5
7s:n-acetyl
8r:r1
9b:b-dglc-HEX-1:5|6:d
10s:n-acetyl
11s:n-acetyl
12b:a-dgal-HEX-1:5|6:a
13s:n-acetyl
14b:a-dgal-HEX-1:5
15s:n-acetyl
LIN
1:1d(2+1)2n
2:1d(4+1)3n
3:1o(3+1)4d
4:4d(2+1)5n
5:4o(4+1)6d
6:6d(2+1)7n
7:6o(3+1)8n
8:8n(3+1)9d
9:9d(2+1)10n
10:9d(4+1)11n
11:9o(3+1)12d
12:12d(2+1)13n
13:12o(4+1)14d
14:14d(2+1)15n
REP
REP1:21o(3+1)16d=0-4
RES
16b:b-dglc-HEX-1:5|6:d
17s:n-acetyl
18s:n-acetyl
19b:a-dgal-HEX-1:5|6:a
20s:n-acetyl
21b:a-dgal-HEX-1:5
22s:n-acetyl
LIN
1:16d(2+1)17n
2:16d(4+1)18n
3:16o(3+1)19d
4:19d(2+1)20n
5:19o(4+1)21d
6:21d(2+1)22n