RES
1r:r1
REP
REP1:4o(3+1)2d=-1--1
RES
2b:a-dgal-HEX-1:5|6:a
3s:n-acetyl
4b:b-dglc-HEX-1:5
5b:b-drib-PEN-1:5
6s:n-acetyl
7b:b-dgal-HEX-1:5|6:a
8s:n-acetyl
9b:a-dglc-HEX-1:5
10b:b-lgro-lman-NON-2:6|1:a|2:keto|3:d|9:d
11s:(r)-lactate
12s:n-acetyl
13s:amino
LIN
1:2d(2+1)3n
2:2o(3+1)4d
3:2o(4+1)5d
4:4d(2+1)6n
5:5o(2+1)7d
6:7d(2+1)8n
7:7o(3+1)9d
8:9o(2+2)10d
9:10o(5+1)11n
10:10d(7+1)12n
11:10d(5+1)13n