RES
1b:a-dglc-HEX-1:5
2s:n-acetyl
3b:a-dglc-HEX-1:5
4s:n-acetyl
5b:a-dgal-HEX-1:5
6s:n-acetyl
7b:a-dglc-HEX-1:5
8b:b-dglc-HEX-1:5
9s:n-acetyl
LIN
1:1d(2+1)2n
2:1o(6+1)3d
3:3d(2+1)4n
4:3o(3+1)5d
5:5d(2+1)6n
6:5o(4+1)7d
7:7o(3+1)8d
8:7d(2+1)9n