RES
1r:r1
REP
REP1:9n(1+1)2o=-1--1
RES
2b:a-dglc-HEX-1:5
3b:a-dgal-HEX-1:5
4b:b-dgal-HEX-1:4
5b:b-dglc-HEX-1:5
6b:a-dglc-HEX-1:5
7s:n-acetyl
8b:a-dgal-HEX-1:5
9s:phosphate
LIN
1:2o(6+1)3d
2:3o(6+1)4d
3:4o(6+1)5d
4:5o(6+1)6d
5:5d(2+1)7n
6:5o(3+1)8d
7:8o(6+1)9n