RES
1r:r1
REP
REP1:11o(4+1)2d=-1--1
RES
2b:a-dglc-HEX-1:5
3s:acetyl
4s:acetyl
5b:b-dglc-HEX-1:5
6b:b-dman-HEX-1:5
7s:n-acetyl
8s:acetyl
9s:acetyl
10b:a-dgal-HEX-1:5
11b:a-dglc-HEX-1:5|6:a
12s:acetyl
13s:acetyl
LIN
1:2o(2+1)3n
2:2o(3+1)4n
3:2o(4+1)5d
4:5o(4+1)6d
5:6d(2+1)7n
6:6o(6+1)8n
7:6o(4+1)9n
8:6o(3+1)10d
9:10o(3+1)11d
10:11o(2+1)12n
11:11o(3+1)13n