RES
1r:r1
REP
REP1:5o(3+1)2d=-1--1
RES
2b:a-lman-HEX-1:5|6:d
3b:b-dglc-HEX-1:5
4b:b-dglc-HEX-1:5|6:a
5b:b-dglc-HEX-1:5
6s:acetyl
7n:n1
LIN
1:2o(4+1)3d
2:3o(4+1)4d
3:4o(4+1)5d
4:5o(6+1)6n
5:5o(2+1)7n
NON
NON1
Parent:5
Linkage:o(2+1)n
SmallMolecule:SMILES [3CH2](O)[2C@H](O)[1C](=O)O
Description:(L)-glyceric acid