RES
1b:o-dman-OCT-0:0|1:a|3:d
2b:b-lara-PEN-1:5
3b:a-lgro-dman-HEP-1:5
4b:b-dglc-HEX-1:5
5s:amino
6b:a-lgro-dman-HEP-1:5
7s:phospho-ethanolamine
8b:a-lgro-dman-HEP-1:5
9b:a-dgal-HEX-1:5|6:a
10b:a-dgro-dman-HEP-1:5
11b:b-dgal-HEX-1:5|6:a
12b:a-dgal-HEX-1:5
13s:amino
14b:a-dglc-HEX-1:5
15s:n-acetyl
16b:a-dgal-HEX-1:5
17b:b-dglc-HEX-1:5|6:d
18s:amino
19n:n1
20n:n2
LIN
1:1o(8+1)2d
2:1o(5+1)3d
3:3o(4+1)4d
4:2d(4+1)5n
5:3o(3+1)6d
6:6o(6+1)7n
7:6o(7+1)8d
8:6o(3+1)9d
9:9o(2+1)10d
10:8o(7+1)11d
11:9o(4+1)12d
12:12d(2+1)13n
13:12o(4+1)14d
14:14d(2+1)15n
15:14o(6+1)16d
16:16o(3+1)17d
17:17d(4+1)18n
18:17o(4+1)19n
19:19n(2+1)20n
NON
NON1
Parent:17
Linkage:o(4+1)n
SmallMolecule:SMILES [3CH3][2C@H](N)[1C](=O)O
Description:(L)-alanine
NON2
Parent:19
Linkage:n(2+1)n
SmallMolecule:SMILES [3CH3][2C@H](N)[1C](=O)O
Description:(L)-alanine