RES
1b:b-dglc-HEX-1:5
2n:n1
3b:a-dglc-HEX-1:5
4b:b-dglc-HEX-1:5
5b:a-dglc-HEX-1:5
6s:methyl
7b:a-dglc-HEX-1:5
8b:b-dglc-HEX-1:5
9s:methyl
10b:a-dglc-HEX-1:5
11s:methyl
12b:a-dglc-HEX-1:5
13s:methyl
14b:a-dglc-HEX-1:5
15s:methyl
16b:a-dglc-HEX-1:5
17s:methyl
18b:a-dglc-HEX-1:5
19s:methyl
20b:a-dglc-HEX-1:5
21s:methyl
22b:a-dglc-HEX-1:5
23s:methyl
24b:a-dglc-HEX-1:5
25s:methyl
26b:a-dglc-HEX-1:5
27s:methyl
28b:a-dglc-HEX-1:5
29s:methyl
30b:a-dglc-HEX-1:5
31b:a-dglc-HEX-1:5
32b:a-dglc-HEX-1:5
33b:a-dglc-HEX-1:5
34s:methyl
LIN
1:1o(1+2)2n
2:1o(6+1)3d
3:3o(3+1)4d
4:3o(4+1)5d
5:5o(6+1)6n
6:5o(4+1)7d
7:7o(3+1)8d
8:7o(6+1)9n
9:7o(4+1)10d
10:10o(6+1)11n
11:10o(4+1)12d
12:12o(6+1)13n
13:12o(4+1)14d
14:14o(6+1)15n
15:14o(4+1)16d
16:16o(6+1)17n
17:16o(4+1)18d
18:18o(6+1)19n
19:18o(4+1)20d
20:20o(6+1)21n
21:20o(4+1)22d
22:22o(6+1)23n
23:22o(4+1)24d
24:24o(6+1)25n
25:24o(4+1)26d
26:26o(6+1)27n
27:26o(4+1)28d
28:28o(6+1)29n
29:28o(4+1)30d
30:30o(4+1)31d
31:31o(4+1)32d
32:32o(4+1)33d
33:33o(3+1)34n
NON
NON1
Parent:1
Linkage:o(1+2)n
SmallMolecule:SMILES [3CH2](O)[2C@H](O)[1C](=O)O
Description:(L)-glyceric acid