RES
1b:a-lgal-HEX-1:5|6:a
2s:n-formyl
3s:n-formyl
4s:amino
5s:amino
6n:n1
7s:formyl
LIN
1:1d(3+1)2n
2:1d(4+1)3n
3:1d(6+1)4n
4:1d(2+1)5n
5:1o(2+1)6n
6:6n(2+1)7n
NON
NON1
Parent:1
Linkage:o(2+1)n
SmallMolecule:SMILES [3CH3][2C@H](N)[1C](=O)O
Description:(L)-alanine