RES
1b:a-dglc-HEX-1:5
2s:phosphate
3s:amino
4b:b-dglc-HEX-1:5
5s:phosphate
6s:amino
7b:a-dman-OCT-2:6|1:a|2:keto|3:d
8b:a-dman-OCT-2:6|1:a|2:keto|3:d
9b:a-lgro-dman-HEP-1:5
10b:b-dglc-HEX-1:5
11b:a-lgro-dman-HEP-1:5
12b:b-dgal-HEX-1:5|6:a
13b:a-dgal-HEX-1:5|6:a
14b:a-lgro-dman-HEP-1:5
15b:b-dgal-HEX-1:5|6:a
16b:a-dglc-HEX-1:5
17s:amino
18b:a-dman-OCT-2:6|1:a|2:keto|3:d
19b:a-lgro-dman-HEP-1:5
LIN
1:1o(1+1)2n
2:1d(2+1)3n
3:1o(6+1)4d
4:4o(4+1)5n
5:4d(2+1)6n
6:4o(6+2)7d
7:7o(4+2)8d
8:7o(5+1)9d
9:9o(4+1)10d
10:9o(3+1)11d
11:10o(6+1)12d
12:11o(3+1)13d
13:11o(7+1)14d
14:14o(7+1)15d
15:13o(4+1)16d
16:16d(2+1)17n
17:16o(6+2)18d
18:18o(4+1)19d