RES
1b:a-dglc-HEX-1:5
2s:amino
3s:phosphate
4b:b-dglc-HEX-1:5
5s:amino
6b:b-lara-PEN-1:5
7s:phosphate
8b:a-dman-OCT-2:6|1:a|2:keto|3:d
9b:a-dman-OCT-2:6|1:a|2:keto|3:d
10s:amino
11b:b-lara-PEN-1:5
12b:b-lara-PEN-1:5
13b:a-lgro-dman-HEP-1:5
14b:b-dglc-HEX-1:5
15s:amino
16s:amino
17b:a-lgro-dman-HEP-1:5
18b:a-lgro-dman-HEP-1:5
19s:phospho-ethanolamine
20b:a-dgal-HEX-1:5|6:a
21b:a-dgro-dman-HEP-1:5
22b:a-dgal-HEX-1:5
23b:a-lgro-dman-HEP-1:5
24s:amino
LIN
1:1d(2+1)2n
2:1o(1+1)3n
3:1o(6+1)4d
4:4d(2+1)5n
5:3n(1+1)6o
6:4o(4+1)7n
7:4o(6+2)8d
8:8o(4+2)9d
9:6d(4+1)10n
10:7n(1+1)11o
11:8o(8+1)12d
12:8o(5+1)13d
13:13o(4+1)14d
14:12d(4+1)15n
15:11d(4+1)16n
16:13o(3+1)17d
17:17o(7+1)18d
18:17o(6+1)19n
19:17o(3+1)20d
20:20o(2+1)21d
21:20o(4+1)22d
22:21o(2+1)23d
23:22d(2+1)24n