RES
1b:a-dglc-HEX-1:5
2s:phosphate
3s:amino
4b:b-dglc-HEX-1:5
5s:amino
6b:a-dman-OCT-2:6|1:a|2:keto|3:d
7b:a-dman-OCT-2:6|1:a|2:keto|3:d
8b:a-dman-HEX-1:5
9b:a-dglc-HEX-1:5
10b:a-dman-HEX-1:5
11b:a-dman-OCT-2:6|1:a|2:keto|3:d
12s:amino
13s:phosphate
14b:a-dgal-HEX-1:5
15b:a-dman-HEX-1:5
16b:a-dglc-HEX-1:5
17b:b-lara-PEN-1:5
18b:a-dglc-HEX-1:5
19b:a-dglc-HEX-1:5
20s:amino
LIN
1:1o(1+1)2n
2:1d(2+1)3n
3:1o(6+1)4d
4:4d(2+1)5n
5:4o(6+2)6d
6:6o(4+2)7d
7:6o(5+1)8d
8:7o(4+1)9d
9:8o(4+1)10d
10:10o(3+2)11d
11:9d(2+1)12n
12:9o(6+1)13n
13:10o(2+1)14d
14:10o(6+1)15d
15:15o(3+1)16d
16:13n(1+1)17o
17:14o(3+1)18d
18:18o(2+1)19d
19:17d(4+1)20n