RES
1b:o-dman-OCT-0:0|1:a|3:d
2b:a-dman-HEX-1:5
3b:a-dman-HEX-1:5
4b:a-dgal-HEX-1:5
5b:a-dman-HEX-1:5
6b:a-dglc-HEX-1:5
7b:a-dglc-HEX-1:5
8b:a-dglc-HEX-1:5
LIN
1:1o(5+1)2d
2:2o(4+1)3d
3:3o(2+1)4d
4:3o(6+1)5d
5:5o(3+1)6d
6:4o(3+1)7d
7:7o(2+1)8d