RES
1b:b-dglc-HEX-1:5
2s:n-acetyl
3b:b-dglc-HEX-1:5|6:a
4b:b-dglc-HEX-1:5
5s:n-acetyl
6b:b-dglc-HEX-1:5|6:a
7b:b-dglc-HEX-1:5
8b:a-ltre-HEX-1:5|4,5:en|6:a
9s:n-acetyl
LIN
1:1d(2+1)2n
2:1o(3+1)3d
3:3o(4+1)4d
4:4d(2+1)5n
5:4o(3+1)6d
6:6o(4+1)7d
7:7o(3+1)8d
8:7d(2+1)9n