RES
1b:a-dglc-HEX-1:5
2s:phosphate
3s:amino
4b:b-dglc-HEX-1:5
5s:amino
6s:phosphate
7b:a-dman-OCT-2:6|1:a|2:keto|3:d
8s:phosphate
9b:a-lgro-dman-HEP-1:5
10b:a-dglc-HEX-1:5
11b:b-dglc-HEX-1:5
12b:a-lgro-dman-HEP-1:5
13b:a-lgro-dman-HEP-1:5
14b:b-dara-HEX-2:5|1:aldi|2:keto
15b:a-lgro-dman-HEP-1:5
16b:a-dglc-HEX-1:5
17s:amino
LIN
1:1o(1+1)2n
2:1d(2+1)3n
3:1o(6+1)4d
4:4d(2+1)5n
5:4o(4+1)6n
6:4o(6+2)7d
7:7o(4+1)8n
8:7o(5+1)9d
9:9o(6+1)10d
10:9o(4+1)11d
11:9o(3+1)12d
12:12o(6+1)13d
13:11o(6+2)14d
14:12o(2+1)15d
15:15o(7+1)16d
16:16d(2+1)17n