RES
1b:a-dglc-HEX-1:5
2s:phosphate
3s:amino
4b:b-dglc-HEX-1:5
5s:phosphate
6s:amino
7b:a-dgro-dtal-OCT-2:6|1:a|2:keto
8b:a-dman-OCT-2:6|1:a|2:keto|3:d
9b:a-dglc-HEX-1:5
10b:b-dgal-HEX-1:5
11b:b-dglc-HEX-1:5
12b:a-dglc-HEX-1:5
13b:b-dglc-HEX-1:5
14b:a-dglc-HEX-1:5
LIN
1:1o(1+1)2n
2:1d(2+1)3n
3:1o(6+1)4d
4:4o(4+1)5n
5:4d(2+1)6n
6:4o(6+2)7d
7:7o(4+2)8d
8:7o(5+1)9d
9:8o(7+1)10d
10:9o(4+1)11d
11:11o(6+1)12d
12:10o(3+1)13d
13:13o(6+1)14d