RES
1r:r1
REP
REP1:10o(4+1)2n=-1--1
RES
2s:phosphate
3b:a-dgal-HEX-1:5
4b:a-dgal-HEX-1:5
5s:n-acetyl
6b:a-lglc-HEX-1:5|6:d
7b:a-dglc-HEX-1:5
8s:n-acetyl
9s:n-acetyl
10b:a-lglc-HEX-1:5|6:d
11s:n-acetyl
LIN
1:2n(1+1)3o
2:3o(4+1)4d
3:4d(2+1)5n
4:4o(3+1)6d
5:4o(4+1)7d
6:7d(2+1)8n
7:6d(2+1)9n
8:7o(3+1)10d
9:10d(2+1)11n