RES
1b:a-dman-OCT-2:6|1:a|2:keto|3:d
2b:a-lgro-dman-HEP-1:5
3b:a-lgro-dman-HEP-1:5
4b:b-dglc-HEX-1:5
5b:a-dglc-HEX-1:5
6b:b-dgal-HEX-1:5
7s:n-acetyl
8b:b-dglc-HEX-1:5
9s:n-acetyl
10b:b-dgal-HEX-1:5
11b:b-dgal-HEX-1:5
12s:n-acetyl
LIN
1:1o(5+1)2d
2:2o(3+1)3d
3:2o(4+1)4d
4:3o(2+1)5d
5:4o(4+1)6d
6:5d(2+1)7n
7:6o(3+1)8d
8:8d(2+1)9n
9:8o(4+1)10d
10:10o(3+1)11d
11:11d(2+1)12n