RES
1r:r1
REP
REP1:8o(4+1)2d=-1--1
RES
2b:a-dman-HEX-1:5
3b:a-lman-HEX-1:5|6:d
4b:b-dglc-HEX-1:5
5b:b-dglc-HEX-1:5
6s:(s)-pyruvate
7b:a-dman-HEX-1:5
8b:a-dglc-HEX-1:5|6:a
LIN
1:2o(3+1)3d
2:2o(4+1)4d
3:2o(2+1)5d
4:5o(6+2)6n
5:5o(4+2)6n
6:4o(3+1)7d
7:7o(3+1)8d