RES
1b:x-dglc-HEX-1:5
2b:a-lgal-HEX-1:5|6:d
3s:n-acetyl
4b:b-dgal-HEX-1:5
5b:b-dglc-HEX-1:5
6b:a-lgal-HEX-1:5|6:d
7s:n-acetyl
8b:b-dgal-HEX-1:5
9b:b-dglc-HEX-1:5
10b:a-lgal-HEX-1:5|6:d
11s:n-acetyl
12b:b-dgal-HEX-1:5
13b:b-dglc-HEX-1:5
14b:a-lgal-HEX-1:5|6:d
15b:b-dgal-HEX-1:5
16s:n-acetyl
LIN
1:1o(3+1)2d
2:1d(2+1)3n
3:1o(4+1)4d
4:4o(3+1)5d
5:5o(3+1)6d
6:5d(2+1)7n
7:5o(4+1)8d
8:8o(3+1)9d
9:9o(3+1)10d
10:9d(2+1)11n
11:9o(4+1)12d
12:12o(3+1)13d
13:13o(3+1)14d
14:13o(4+1)15d
15:13d(2+1)16n