RES
1b:a-dman-OCT-2:6|1:a|2:keto|3:d
2b:a-dman-OCT-2:6|1:a|2:keto|3:d
3b:a-lgro-dman-HEP-1:5
4s:phospho-ethanolamine
5b:b-dglc-HEX-1:5
6b:a-lgro-dman-HEP-1:5
7s:phospho-ethanolamine
8b:a-dglc-HEX-1:5
9b:b-dgal-HEX-1:5
10b:a-dglc-HEX-1:5
11b:b-dgal-HEX-1:5
12b:a-dgal-HEX-1:5
13s:n-acetyl
LIN
1:1o(4+2)2d
2:1o(5+1)3d
3:3o(-1+1)4n
4:3o(4+1)5d
5:3o(3+1)6d
6:6o(-1+1)7n
7:6o(2+1)8d
8:5o(4+1)9d
9:6o(3+1)10d
10:10o(4+1)11d
11:9o(4+1)12d
12:8d(2+1)13n