RES
1b:a-dglc-HEX-1:5
2s:n-acetyl
3s:phosphate
4b:b-dglc-HEX-1:5
5s:n-acetyl
6b:x-dman-OCT-2:6|1:a|2:keto|3:d
7b:a-dgal-HEX-1:5
8s:n-acetyl
9s:phosphate
10b:b-dglc-HEX-1:5
11b:b-dxyl-PEN-1:5
12b:a-dman-HEX-1:5
13b:a-dman-HEX-1:5
LIN
1:1d(2+1)2n
2:1o(1+1)3n
3:1o(6+1)4d
4:4d(2+1)5n
5:4o(6+2)6d
6:6o(5+1)7d
7:7d(2+1)8n
8:7o(6+1)9n
9:7o(3+1)10d
10:10o(2+1)11d
11:9n(1+1)12o
12:12o(2+1)13d