RES
1b:a-dglc-HEX-1:5
2s:phosphate
3s:amino
4b:b-dglc-HEX-1:5
5s:amino
6s:phosphate
7b:a-dman-OCT-2:6|1:a|2:keto|3:d
8s:diphospho-ethanolamine
9s:amino
10b:a-dgro-dman-HEP-1:5
11b:a-lgro-dman-HEP-1:5
12b:b-dglc-HEX-1:5
13b:a-lgro-dman-HEP-1:5
14b:a-dglc-HEX-1:5
15b:a-dglc-HEX-1:5
LIN
1:1o(1+1)2n
2:1d(2+1)3n
3:1o(6+1)4d
4:4d(2+1)5n
5:4o(4+1)6n
6:4o(6+2)7d
7:7o(4+1)8n
8:7d(8+1)9n
9:7o(5+1)10d
10:10o(2+1)11d
11:10o(6+1)12d
12:10o(7+1)13d
13:12o(2+1)14d
14:13o(2+1)15d