RES
1b:x-dman-OCT-x:x|1:a|2:keto|3:d
2b:b-dglc-HEX-1:5|6:d
3s:n-acetyl
4b:x-dman-HEX-1:5
5b:a-lgal-HEX-1:5|6:d
6s:methyl
7b:a-lgal-HEX-1:5|6:d
8s:methyl
9b:a-ltal-HEX-1:5|6:d
10b:a-dglc-HEX-1:5|6:a
11s:methyl
12s:methyl
13r:r1
14b:a-lgal-HEX-1:5|6:d
15s:methyl
16s:methyl
17s:methyl
LIN
1:1o(4+1)2d
2:2d(2+1)3n
3:2o(3+1)4d
4:4o(3+1)5d
5:5o(2+1)6n
6:5o(3+1)7d
7:7o(2+1)8n
8:7o(3+1)9d
9:7o(4+1)10d
10:9o(3+1)11n
11:10o(6+1)12n
12:10o(4+1)13n
13:13n(4+1)14d
14:14o(2+1)15n
15:14o(3+1)16n
16:14o(4+1)17n
REP
REP1:21o(4+1)18d=4-4
RES
18b:a-lgal-HEX-1:5|6:d
19s:methyl
20b:a-ltal-HEX-1:5|6:d
21b:a-dglc-HEX-1:5|6:a
22s:methyl
23s:methyl
LIN
1:18o(2+1)19n
2:18o(3+1)20d
3:18o(4+1)21d
4:21o(6+1)22n
5:20o(3+1)23n