RES
1r:r1
REP
REP1:4o(3+1)2d=-1--1
RES
2b:b-dglc-HEX-1:5
3b:a-lgal-HEX-1:5|6:d
4b:b-lgal-HEX-1:5|6:d
5b:b-dgal-HEX-1:5
6b:b-dglc-HEX-1:5|6:a
7b:b-dgal-HEX-1:5
8s:(s)-pyruvate
LIN
1:2o(3+1)3d
2:3o(4+1)4d
3:4o(4+1)5d
4:5o(3+1)6d
5:6o(4+1)7d
6:7o(6+2)8n
7:7o(4+2)8n