RES
1r:r1
REP
REP1:4o(4+1)2d=-1--1
RES
2b:b-dglc-HEX-1:5
3s:acetyl
4b:b-dman-HEX-1:5
5s:acetyl
6b:a-lgal-HEX-1:5|6:d
7b:b-dglc-HEX-1:5|6:a
8s:(s)-carboxyethyl
LIN
1:2o(6+1)3n
2:2o(4+1)4d
3:4o(6+1)5n
4:4o(3+1)6d
5:6o(4+1)7d
6:7o(4+2)8n