RES
1r:r1
REP
REP1:8o(2+1)2d=-1--1
RES
2b:b-dgal-HEX-1:5
3s:n-acetyl
4b:a-dgal-HEX-1:5
5b:b-dglc-HEX-1:5
6s:n-acetyl
7b:a-dglc-HEX-1:5
8b:a-dgal-HEX-1:5
LIN
1:2d(2+1)3n
2:2o(3+1)4d
3:4o(3+1)5d
4:4d(2+1)6n
5:4o(4+1)7d
6:7o(6+1)8d