RES
1r:r1
REP
REP1:9o(2+1)2d=-1--1
RES
2b:b-dglc-HEX-1:5|6:d
3s:n-acetyl
4s:amino
5n:n1
6b:b-dglc-HEX-1:5|6:a
7b:b-dglc-HEX-1:5
8s:n-acetyl
9b:b-dgal-HEX-1:5
10s:(r)-pyruvate
LIN
1:2d(2+1)3n
2:2d(4+1)4n
3:2o(4+1)5n
4:2o(3+1)6d
5:6o(4+1)7d
6:7d(2+1)8n
7:7o(3+1)9d
8:9o(6+2)10n
9:9o(4+2)10n
NON
NON1
Parent:2
Linkage:o(4+1)n
SmallMolecule:SMILES [4CH3][3C@H](O)[2CH2][1C](=O)O
Description:(S)-3-hydroxybutanoic acid