RES
1r:r1
REP
REP1:6o(3+1)2d=-1--1
RES
2b:a-dgal-HEX-1:5|6:a
3s:n-acetyl
4b:b-dglc-HEX-1:5|6:d
5s:amino
6b:b-dglc-HEX-1:5|6:d
7n:n1
8s:n-acetyl
9s:acetyl
LIN
1:2d(2+1)3n
2:2o(3+1)4d
3:4d(3+1)5n
4:4o(4+1)6d
5:4o(3+1)7n
6:6d(2+1)8n
7:7n(2+1)9n
NON
NON1
Parent:4
Linkage:o(3+1)n
SmallMolecule:SMILES [3CH3][2C@H](N)[1C](=O)O
Description:(L)-alanine