RES
1r:r1
REP
REP1:5o(4+1)2d=-1--1
RES
2b:b-dgal-HEX-1:5
3b:b-dglc-HEX-1:5
4b:b-dglc-HEX-1:5
5b:b-dglc-HEX-1:5
6b:b-dglc-HEX-1:5
7b:b-dglc-HEX-1:5
8b:b-dglc-HEX-1:5
9s:(s)-pyruvate
10b:b-dgal-HEX-1:5
11s:(r)-pyruvate
LIN
1:2o(3+1)3d
2:3o(4+1)4d
3:4o(4+1)5d
4:5o(6+1)6d
5:6o(6+1)7d
6:7o(3+1)8d
7:8o(6+2)9n
8:8o(4+2)9n
9:8o(3+1)10d
10:10o(6+2)11n
11:10o(4+2)11n