RES
1r:r1
REP
REP1:6o(3+1)2d=-1--1
RES
2b:b-lman-HEX-1:5|6:d
3b:b-lman-HEX-1:5|6:d
4b:b-lman-HEX-1:5|6:d
5b:b-dglc-HEX-1:5|6:a
6b:a-dgal-HEX-1:5
7s:methyl
LIN
1:2o(4+1)3d
2:3o(4+1)4d
3:3o(2+1)5d
4:4o(3+1)6d
5:5o(2+1)7n