RES
1r:r1
REP
REP1:5o(4+1)2d=-1--1
RES
2b:b-dglc-HEX-1:5
3b:b-dglc-HEX-1:5|6:a
4b:b-dglc-HEX-1:5
5b:a-lman-HEX-1:5|6:d
6s:acetyl
7n:n1
LIN
1:2o(4+1)3d
2:3o(4+1)4d
3:4o(3+1)5d
4:4o(6+1)6n
5:4o(2+1)7n
NON
NON1
Parent:4
Linkage:o(2+1)n
SmallMolecule:SMILES [3CH2](O)[2C@H](O)[1C](=O)O
Description:(L)-glyceric acid