RES
1r:r1
REP
REP1:6o(3+1)2d=-1--1
RES
2b:a-dglc-HEX-1:5
3a:a1
4s:phosphate
5b:o-drib-PEN-0:0|1:aldi
6b:a-lman-HEX-1:5|6:d
LIN
1:2o(3+1)3n
2:3n(2+1)4n
3:4n(1+5)5o
4:5o(4+1)6d
ALT
ALT1
ALTSUBGRAPH1
LEAD-IN RES:7
LEAD-OUT RES:7+4
RES
7b:a-dglc-HEX-1:5
ALTSUBGRAPH2
LEAD-IN RES:8
LEAD-OUT RES:8+4
RES
8b:a-dgal-HEX-1:5