RES
1r:r1
REP
REP1:6o(4+1)2d=-1--1
RES
2b:b-lman-HEX-1:5|6:d
3b:a-dglc-HEX-1:5
4b:b-dgal-HEX-1:5
5b:a-dglc-HEX-1:5
6b:b-dglc-HEX-1:5
7s:phosphate
8b:o-dgro-TRI-0:0|1:aldi
LIN
1:2o(3+1)3d
2:3o(4+1)4d
3:4o(2+1)5d
4:4o(4+1)6d
5:4o(3+1)7n
6:7n(1+1)8o