RES
1r:r1
REP
REP1:6o(4+1)2d=-1--1
RES
2b:b-lman-HEX-1:5|6:d
3s:acetyl
4s:phosphate
5b:a-dglc-HEX-1:5
6b:b-dglc-HEX-1:5
7n:n1
8s:phosphate
9b:a-lman-HEX-1:5|6:d
LIN
1:2o(2+1)3n
2:2o(3+1)4n
3:2o(4+1)5d
4:5o(3+1)6d
5:4n(1+1)7n
6:5o(2+1)8n
7:8n(1+1)9o
NON
NON1
Parent:4
Linkage:n(1+1)n
SmallMolecule:SMILES C[N+](C)(C)[2CH2][1CH2]O
Description:choline