RES
1b:a-dman-OCT-2:6|1:a|2:keto|3:d
2b:a-lgro-dman-HEP-1:5
3b:b-dglc-HEX-1:5
4b:a-lgro-dman-HEP-1:5
5b:a-dglc-HEX-1:5
6b:a-dglc-HEX-1:5
7b:b-dgal-HEX-1:5
8s:n-acetyl
9b:b-dglc-HEX-1:5
10s:n-acetyl
11b:b-dgal-HEX-1:5
12b:a-dgro-dgal-NON-2:6|1:a|2:keto|3:d
13s:n-acetyl
LIN
1:1o(5+1)2d
2:2o(4+1)3d
3:2o(3+1)4d
4:4o(3+1)5d
5:4o(2+1)6d
6:3o(4+1)7d
7:6d(2+1)8n
8:7o(3+1)9d
9:9d(2+1)10n
10:9o(4+1)11d
11:11o(3+2)12d
12:12d(5+1)13n