RES
1b:b-dgal-HEX-1:5
2s:methyl
3b:b-dglc-HEX-1:5
4s:n-acetyl
5b:b-dgal-HEX-1:5
6b:b-dglc-HEX-1:5
7b:a-dgro-dgal-NON-2:6|1:a|2:keto|3:d
8b:b-dgal-HEX-1:5
9s:n-acetyl
10b:b-dglc-HEX-1:5
11b:b-dglc-HEX-1:5
12s:amino
13b:b-dgal-HEX-1:5
14b:a-dgro-dgal-NON-2:6|1:a|2:keto|3:d
15s:n-acetyl
LIN
1:1o(1+1)2n
2:1o(3+1)3d
3:3d(2+1)4n
4:3o(4+1)5d
5:3o(6+1)6d
6:5o(3+2)7d
7:6o(4+1)8d
8:7d(5+1)9n
9:8o(3+1)10d
10:10o(6+1)11d
11:10d(2+1)12n
12:10o(4+1)13d
13:13o(3+2)14d
14:14d(5+1)15n