RES
1b:a-lman-HEX-1:5|6:d
2b:a-dglc-HEX-1:5
3b:b-dman-HEX-1:5
4s:n-acetyl
5r:r1
6s:phosphate
7b:a-lman-HEX-1:5|6:d
8b:a-dglc-HEX-1:5
9b:b-dman-HEX-1:5
10s:n-acetyl
11s:phosphate
LIN
1:1o(2+1)2d
2:2o(4+1)3d
3:3d(2+1)4n
4:3o(4+1)5n
5:5n(4+1)6n
6:6n(1+1)7o
7:7o(2+1)8d
8:8o(4+1)9d
9:9d(2+1)10n
10:9o(4+1)11n
REP
REP1:15o(4+1)12n=-1--1
RES
12s:phosphate
13b:a-lman-HEX-1:5|6:d
14b:a-dglc-HEX-1:5
15b:b-dman-HEX-1:5
16s:n-acetyl
LIN
1:12n(1+1)13o
2:13o(2+1)14d
3:14o(4+1)15d
4:15d(2+1)16n