RES
1b:x-dglc-HEX-x:x
2b:a-lxyl-HEX-1:5|3:d|6:d
3s:n-acetyl
4b:b-dgal-HEX-1:5
5b:b-dglc-HEX-1:5|6:d
6b:a-lxyl-HEX-1:5|3:d|6:d
7s:n-acetyl
8s:phosphate
9b:a-dgal-HEX-1:5|6:a
10b:b-dglc-HEX-1:5
11b:a-lxyl-HEX-1:5|3:d|6:d
12s:n-acetyl
13b:b-dglc-HEX-1:5|6:d
14b:b-dgal-HEX-1:5
15b:b-ltre-HEX-x:x|4,5:en|6:a
16b:a-lxyl-HEX-1:5|3:d|6:d
17s:n-acetyl
18s:phosphate
LIN
1:1o(4+1)2d
2:1d(2+1)3n
3:1o(3+1)4d
4:1o(6+1)5d
5:4o(2+1)6d
6:5d(2+1)7n
7:4o(6+1)8n
8:4o(4+1)8n
9:5o(3+1)9d
10:9o(4+1)10d
11:10o(4+1)11d
12:10d(2+1)12n
13:10o(6+1)13d
14:10o(3+1)14d
15:13o(3+1)15d
16:14o(2+1)16d
17:13d(2+1)17n
18:14o(6+1)18n
19:14o(4+1)18n