RES
1r:r1
REP
REP1:8o(3+1)2d=-1--1
RES
2b:b-dglc-HEX-1:5
3s:n-acetyl
4b:a-dgal-HEX-1:5
5b:b-dglc-HEX-1:5
6s:(s)-carboxyethyl
7s:n-acetyl
8b:b-dglc-HEX-1:5
9s:n-acetyl
LIN
1:2d(2+1)3n
2:2o(3+1)4d
3:4o(3+1)5d
4:5o(3+2)6n
5:5d(2+1)7n
6:5o(4+1)8d
7:8d(2+1)9n