RES
1b:a-dgro-dman-HEP-1:5
2b:a-dgro-dman-HEP-1:5
3b:a-dgro-dman-HEP-1:5
4b:a-dgro-dman-HEP-1:5
5r:r1
LIN
1:1o(2+1)2d
2:2o(2+1)3d
3:3o(6+1)4d
4:4o(3+1)5n
REP
REP1:6o(3+1)6d=4-4
RES
6b:a-dgro-dman-HEP-1:5