RES
1b:b-dglc-HEX-1:5
2b:b-dxyl-PEN-1:5
3b:b-dman-HEX-1:5
4b:a-lara-PEN-1:5
5b:b-dglc-HEX-1:5
6b:a-xery-HEX-1:5|4,5:en|6:a
7s:carboxyethyl
LIN
1:1o(4+1)2d
2:2o(4+1)3d
3:3o(3+1)4d
4:4o(4+1)5d
5:5o(6+1)6d
6:6o(3+2)7n