RES
1b:x-dman-OCT-2:6|1:a|2:keto|3:d
2b:a-lgro-dman-HEP-1:5
3b:b-dgal-HEX-1:5
4s:n-acetyl
5b:b-dgal-HEX-1:5
6b:b-dglc-HEX-1:5
7b:b-dgal-HEX-1:5
LIN
1:1o(8+1)2d
2:1o(7+1)3d
3:3d(2+1)4n
4:3o(3+1)5d
5:5o(3+1)6d
6:6o(6+1)7d