RES
1b:a-dman-OCT-x:x|1:a|2:keto|3:d
2b:a-dman-OCT-x:x|1:a|2:keto|3:d
3b:a-lgro-dman-HEP-1:5
4s:phospho-ethanolamine
5b:a-lgro-dman-HEP-1:5
6b:a-lgro-dman-HEP-1:5
7s:phosphate
8b:b-dglc-HEX-1:5
9b:a-dglc-HEX-1:5
10b:a-dgal-HEX-1:5
11b:b-dglc-HEX-1:5
12b:a-dgal-HEX-1:5
13n:n1
LIN
1:1o(4+2)2d
2:1o(5+1)3d
3:3o(4+1)4n
4:3o(3+1)5d
5:5o(7+1)6d
6:5o(4+1)7n
7:5o(3+1)8d
8:8o(3+1)9d
9:9o(2+1)10d
10:9o(3+1)11d
11:10o(2+1)12d
12:11o(3+1)13n
NON
NON1
Parent:11
Linkage:o(3+1)n
HistoricalEntity:O-antigen