RES
1b:b-dgal-HEX-1:5
2s:n-acetyl
3b:b-dgal-HEX-x:x
4b:a-dgro-dgal-NON-2:6|1:a|2:keto|3:d
5b:b-dgal-HEX-1:5
6s:n-acetyl
7s:n-acetyl
LIN
1:1d(2+1)2n
2:1o(3+1)3d
3:3o(3+2)4d
4:3o(4+1)5d
5:4d(5+1)6n
6:5d(2+1)7n