RES
1b:o-dery-TET-0:0|1:aldi
2b:b-dgal-HEX-1:5
3b:b-dglc-HEX-1:5
4b:b-dglc-HEX-1:5
5s:n-acetyl
6b:b-dgal-HEX-1:5
7b:b-dgal-HEX-1:5
8b:a-dgro-dgal-NON-2:6|1:a|2:keto|3:d
9b:b-dglc-HEX-1:5
10b:b-dglc-HEX-1:5
11s:n-acetyl
12s:n-acetyl
13b:b-dgal-HEX-1:5
14b:b-dgal-HEX-1:5
15b:a-dgro-dgal-NON-2:6|1:a|2:keto|3:d
16b:b-dglc-HEX-1:5
17b:b-dglc-HEX-1:5
18s:n-acetyl
19s:n-acetyl
20b:b-dgal-HEX-1:5
21b:b-dgal-HEX-1:5
22b:a-dgro-dgal-NON-2:6|1:a|2:keto|3:d
23b:b-dglc-HEX-1:5
24s:n-acetyl
25s:n-acetyl
26b:b-dgal-HEX-1:5
27b:a-dgro-dgal-NON-2:6|1:a|2:keto|3:d
28s:n-acetyl
LIN
1:1o(3+1)2d
2:2o(4+1)3d
3:2o(3+1)4d
4:4d(2+1)5n
5:4o(4+1)6d
6:3o(4+1)7d
7:6o(3+2)8d
8:7o(4+1)9d
9:7o(3+1)10d
10:10d(2+1)11n
11:8d(5+1)12n
12:10o(4+1)13d
13:9o(4+1)14d
14:13o(3+2)15d
15:14o(4+1)16d
16:14o(3+1)17d
17:17d(2+1)18n
18:15d(5+1)19n
19:17o(4+1)20d
20:16o(4+1)21d
21:20o(3+2)22d
22:21o(3+1)23d
23:22d(5+1)24n
24:23d(2+1)25n
25:23o(4+1)26d
26:26o(3+2)27d
27:27d(5+1)28n