RES
1b:b-dgal-HEX-1:5
2b:b-dglc-HEX-1:5
3b:b-dglc-HEX-1:5
4b:b-lgal-HEX-1:5|6:d
5s:n-acetyl
6b:b-dgal-HEX-1:5
7b:b-dgal-HEX-1:5
8b:a-dgro-dgal-NON-2:6|1:a|2:keto|3:d
9b:b-dglc-HEX-1:5
10b:b-dglc-HEX-1:5
11b:b-lgal-HEX-1:5|6:d
12s:n-acetyl
13s:n-acetyl
14b:b-dgal-HEX-1:5
15b:b-dgal-HEX-1:5
16b:a-dgro-dgal-NON-2:6|1:a|2:keto|3:d
17b:b-dglc-HEX-1:5
18b:b-lgal-HEX-1:5|6:d
19s:n-acetyl
20s:n-acetyl
21b:b-dgal-HEX-1:5
22b:a-dgro-dgal-NON-2:6|1:a|2:keto|3:d
23s:n-acetyl
LIN
1:1o(4+1)2d
2:1o(3+1)3d
3:3o(3+1)4d
4:3d(2+1)5n
5:3o(4+1)6d
6:2o(4+1)7d
7:6o(3+2)8d
8:7o(4+1)9d
9:7o(3+1)10d
10:10o(3+1)11d
11:10d(2+1)12n
12:8d(5+1)13n
13:10o(4+1)14d
14:9o(4+1)15d
15:14o(3+2)16d
16:15o(3+1)17d
17:17o(3+1)18d
18:16d(5+1)19n
19:17d(2+1)20n
20:17o(4+1)21d
21:21o(3+2)22d
22:22d(5+1)23n