RES
1b:b-dgal-HEX-1:5
2b:b-dglc-HEX-1:5
3b:b-dglc-HEX-1:5
4b:b-lgal-HEX-1:5|6:d
5s:n-acetyl
6b:b-dgal-HEX-1:5
7b:b-dgal-HEX-1:5
8b:a-dgro-dgal-NON-2:6|1:a|2:keto|3:d
9b:b-dglc-HEX-1:5
10b:b-dglc-HEX-1:5
11b:b-lgal-HEX-1:5|6:d
12s:n-acetyl
13s:n-acetyl
14b:b-dgal-HEX-1:5
15b:b-dgal-HEX-1:5
16b:a-dgro-dgal-NON-2:6|1:a|2:keto|3:d
17b:b-dglc-HEX-1:5
18b:b-dglc-HEX-1:5
19b:b-lgal-HEX-1:5|6:d
20s:n-acetyl
21s:n-acetyl
22b:b-dgal-HEX-1:5
23b:b-dgal-HEX-1:5
24b:a-dgro-dgal-NON-2:6|1:a|2:keto|3:d
25b:b-dglc-HEX-1:5
26b:b-lgal-HEX-1:5|6:d
27s:n-acetyl
28s:n-acetyl
29b:b-dgal-HEX-1:5
30b:a-dgro-dgal-NON-2:6|1:a|2:keto|3:d
31s:n-acetyl
LIN
1:1o(4+1)2d
2:1o(3+1)3d
3:3o(3+1)4d
4:3d(2+1)5n
5:3o(4+1)6d
6:2o(4+1)7d
7:6o(3+2)8d
8:7o(4+1)9d
9:7o(3+1)10d
10:10o(3+1)11d
11:8d(5+1)12n
12:10d(2+1)13n
13:10o(4+1)14d
14:9o(4+1)15d
15:14o(3+2)16d
16:15o(4+1)17d
17:15o(3+1)18d
18:18o(3+1)19d
19:16d(5+1)20n
20:18d(2+1)21n
21:17o(4+1)22d
22:18o(4+1)23d
23:23o(3+2)24d
24:22o(3+1)25d
25:25o(3+1)26d
26:25d(2+1)27n
27:24d(5+1)28n
28:25o(4+1)29d
29:29o(3+2)30d
30:30d(5+1)31n