RES
1b:o-dman-HEX-0:0|1:aldi
2s:anhydro
3b:b-dgal-HEX-1:5
4b:b-dglc-HEX-1:5
5b:a-dgro-dgal-NON-2:6|1:a|2:keto|3:d
6b:b-dgal-HEX-1:5
7s:n-acetyl
8b:b-dglc-HEX-1:5
9s:amino
10b:b-dgal-HEX-1:5
11b:b-dglc-HEX-1:5
12b:a-dgro-dgal-NON-2:6|1:a|2:keto|3:d
13b:b-dgal-HEX-1:5
14s:n-acetyl
15b:b-dglc-HEX-1:5
16s:amino
17b:b-dgal-HEX-1:5
18b:b-dglc-HEX-1:5
19b:a-dgro-dgal-NON-2:6|1:a|2:keto|3:d
20b:b-dgal-HEX-1:5
21s:n-acetyl
22b:b-dglc-HEX-1:5
23s:amino
24b:b-dgal-HEX-1:5
25b:b-dglc-HEX-1:5
26b:a-dgro-dgal-NON-2:6|1:a|2:keto|3:d
27b:b-dgal-HEX-1:5
28s:n-acetyl
29b:b-dglc-HEX-1:5
30s:amino
31b:b-dgal-HEX-1:5
32b:b-dglc-HEX-1:5
33b:b-dgal-HEX-1:5
34b:a-dgro-dgal-NON-2:6|1:a|2:keto|3:d
35s:n-acetyl
LIN
1:1d(2+1)2n
2:1o(5+1)2n
3:1o(4+1)3d
4:1o(6+1)4d
5:3o(3+2)5d
6:4o(4+1)6d
7:5d(5+1)7n
8:6o(3+1)8d
9:8d(2+1)9n
10:8o(4+1)10d
11:8o(6+1)11d
12:10o(3+2)12d
13:11o(4+1)13d
14:12d(5+1)14n
15:13o(3+1)15d
16:15d(2+1)16n
17:15o(4+1)17d
18:15o(6+1)18d
19:17o(3+2)19d
20:18o(4+1)20d
21:19d(5+1)21n
22:20o(3+1)22d
23:22d(2+1)23n
24:22o(4+1)24d
25:22o(6+1)25d
26:24o(3+2)26d
27:25o(4+1)27d
28:26d(5+1)28n
29:27o(3+1)29d
30:29d(2+1)30n
31:29o(4+1)31d
32:29o(6+1)32d
33:32o(4+1)33d
34:31o(3+2)34d
35:34d(5+1)35n