RES
1r:r1
REP
REP1:9o(6+1)2d=-1--1
RES
2b:b-dglc-HEX-1:5|6:d
3s:amino
4n:n1
5b:a-dglc-HEX-1:5
6s:n-acetyl
7s:acetyl
8b:a-dgal-HEX-1:5|6:a
9b:a-dglc-HEX-1:5
10s:n-acetyl
LIN
1:2d(4+1)3n
2:2o(4+4)4n
3:2o(3+1)5d
4:5d(2+1)6n
5:4n(2+1)7n
6:5o(3+1)8d
7:8o(4+1)9d
8:9d(2+1)10n
NON
NON1
Parent:2
Linkage:o(4+4)n
SmallMolecule:SMILES [4C](=O)(O)[3CH2][2C@@H](N)[1C](=O)O
Description:(D)-aspartic acid