RES
1b:a-dman-OCT-2:6|1:a|2:keto|3:d
2b:a-dman-OCT-2:6|1:a|2:keto|3:d
3b:a-lgro-dman-HEP-1:5
4b:a-lgro-dman-HEP-1:5
5b:a-dglc-HEX-1:5
6s:n-acetyl
LIN
1:1o(4+2)2d
2:1o(5+1)3d
3:3o(3+1)4d
4:4o(2+1)5d
5:5d(2+1)6n