RES
1r:r1
REP
REP1:4o(4+1)2d=-1--1
RES
2b:a-dgal-HEX-1:5
3b:a-dgal-HEX-1:5|6:a
4b:b-dglc-HEX-1:5
5s:sulfate
6b:b-dglc-HEX-1:5|6:a
7b:a-dglc-HEX-1:5
8b:b-dglc-HEX-1:5|6:a
9b:a-dglc-HEX-1:5
10b:a-dgal-HEX-1:5
11b:b-dglc-HEX-1:5
LIN
1:2o(4+1)3d
2:3o(4+1)4d
3:3o(2+1)5n
4:3o(3+1)6d
5:6o(3+1)7d
6:6o(4+1)8d
7:8o(2+1)9d
8:8o(4+1)10d
9:10o(6+1)11d