RES
1r:r1
REP
REP1:7o(3+1)2d=-1--1
RES
2b:b-dglc-HEX-1:5
3s:n-acetyl
4b:b-dgal-HEX-1:5
5b:b-dglc-HEX-1:5
6s:n-acetyl
7b:b-dgal-HEX-1:5
8b:b-dglc-HEX-1:5|6:d
9s:amino
10n:n1
11s:acetyl
LIN
1:2d(2+1)3n
2:2o(3+1)4d
3:4o(6+1)5d
4:5d(2+1)6n
5:5o(6+1)7d
6:7o(6+1)8d
7:8d(4+1)9n
8:8o(4+4)10n
9:10n(2+1)11n
NON
NON1
Parent:8
Linkage:o(4+4)n
SmallMolecule:SMILES [4C](=O)(O)[3CH2][2C@H](N)[1C](=O)O
Description:(L)-aspartic acid