RES
1r:r1
REP
REP1:9o(6+1)2n=-1--1
RES
2s:phosphate
3b:a-dglc-HEX-1:5
4s:n-acetyl
5b:b-dglc-HEX-1:5
6b:b-dgal-HEX-1:4
7b:b-dgal-HEX-1:4
8b:b-dglc-HEX-1:5
9b:a-dglc-HEX-1:5
LIN
1:2n(1+1)3o
2:3d(2+1)4n
3:3o(3+1)5d
4:5o(4+1)6d
5:5o(3+1)7d
6:7o(3+1)8d
7:8o(6+1)9d