RES
1r:r1
REP
REP1:5o(4+1)2d=-1--1
RES
2b:a-lman-HEX-1:5|6:d
3b:a-dglc-HEX-1:5
4b:b-dgal-HEX-1:5
5b:b-dglc-HEX-1:5
6s:phosphate
7b:a-dglc-HEX-1:5
8b:o-dgro-TRI-0:0|1:aldi
9s:acetyl
LIN
1:2o(3+1)3d
2:3o(4+1)4d
3:4o(4+1)5d
4:4o(3+1)6n
5:4o(2+1)7d
6:6n(1+1)8o
7:7o(3+1)9n