RES
1b:a-dman-OCT-2:6|1:a|2:keto|3:d
2b:a-dman-OCT-2:6|1:a|2:keto|3:d
3b:a-lgro-dman-HEP-1:5
4s:phosphate
5s:phosphate
6b:a-lgro-dman-HEP-1:5
7s:phosphate
8s:phosphate
9b:a-dgal-HEX-1:5
10s:amino
11b:a-dglc-HEX-1:5
12b:a-dglc-HEX-1:5
13b:a-lman-HEX-1:5|6:d
14b:b-dglc-HEX-1:5
15s:n-acetyl
LIN
1:1o(4+2)2d
2:1o(5+1)3d
3:3o(2+1)4n
4:3o(4+1)5n
5:3o(3+1)6d
6:6o(2+1)7n
7:6o(4+1)8n
8:6o(3+1)9d
9:9d(2+1)10n
10:9o(4+1)11d
11:9o(3+1)12d
12:12o(3+1)13d
13:11o(2+1)14d
14:12d(2+1)15n