RES
1b:a-dman-OCT-x:x|1:a|2:keto|3:d
2b:a-dman-OCT-2:6|1:a|2:keto|3:d
3b:a-dman-HEX-1:5
4b:a-dgal-HEX-1:5|6:a
5b:a-dgal-HEX-1:5|6:a
6b:a-dgal-HEX-1:5|6:a
7b:a-dgal-HEX-1:5
8b:a-dman-OCT-x:x|1:a|2:keto|3:d
9b:b-dglc-HEX-1:5|6:d
10s:n-acetyl
11b:b-dman-HEX-1:5
12b:a-lgal-HEX-1:5|6:d
13n:n1
LIN
1:1o(4+2)2d
2:1o(5+1)3d
3:2o(5+1)4d
4:2o(4+1)5d
5:3o(4+1)6d
6:3o(6+1)7d
7:7o(6+2)8d
8:8o(4+1)9d
9:9d(2+1)10n
10:9o(3+1)11d
11:11o(3+1)12d
12:12o(3+1)13n
NON
NON1
Parent:12
Linkage:o(3+1)n
HistoricalEntity:O-antigen