RES
1b:x-dman-OCT-x:x|1:a|2:keto|3:d
2s:anhydro
3b:a-lgro-dman-HEP-1:5
4b:a-lgro-dman-HEP-1:5
5b:a-lgro-dman-HEP-1:5
6b:b-dglc-HEX-1:5
7b:a-lgro-dman-HEP-1:5
8b:a-dgro-dman-HEP-1:5
9b:b-dgal-HEX-1:5
10b:a-dgro-dman-HEP-1:5
11b:a-dglc-HEX-1:5
12s:amino
LIN
1:1d(2+1)2n
2:1o(7+1)2n
3:1o(5+1)3d
4:3o(6+1)4d
5:3o(3+1)5d
6:3o(4+1)6d
7:5o(2+1)7d
8:6o(6+1)8d
9:8o(4+1)9d
10:8o(6+1)10d
11:7o(7+1)11d
12:11d(2+1)12n