RES
1b:a-dglc-HEX-1:5
2s:phosphate
3s:amino
4b:b-dglc-HEX-1:5
5s:phosphate
6s:amino
7b:a-dman-OCT-2:6|1:a|2:keto|3:d
8b:a-dman-OCT-2:6|1:a|2:keto|3:d
9b:a-lgro-dman-HEP-1:5
10s:phosphate
11b:a-lgro-dman-HEP-1:5
12b:a-lgro-dman-HEP-1:5
13b:a-dglc-HEX-1:5
14b:a-dgal-HEX-1:5
15b:a-dglc-HEX-1:5
16b:a-dglc-HEX-1:5
17b:a-dglc-HEX-1:5
18s:amino
19b:b-dgal-HEX-1:5
20s:amino
21b:b-dglc-HEX-1:5
22b:a-lgal-HEX-1:5|6:d
23b:a-dman-HEX-1:5|6:d
24s:amino
LIN
1:1o(1+1)2n
2:1d(2+1)3n
3:1o(6+1)4d
4:4o(4+1)5n
5:4d(2+1)6n
6:4o(6+2)7d
7:7o(4+2)8d
8:7o(5+1)9d
9:9o(4+1)10n
10:9o(3+1)11d
11:11o(7+1)12d
12:11o(3+1)13d
13:13o(3+1)14d
14:14o(3+1)15d
15:14o(2+1)16d
16:16o(2+1)17d
17:15d(2+1)18n
18:16o(4+1)19d
19:19d(2+1)20n
20:19o(3+1)21d
21:21o(4+1)22d
22:22o(3+1)23d
23:23d(4+1)24n