RES
1r:r1
REP
REP1:8o(3+1)2d=-1--1
RES
2b:b-dglc-HEX-1:5
3s:n-acetyl
4b:a-dgal-HEX-1:5|6:d
5s:phosphate
6b:o-xgro-TRI-0:0|1:aldi
7b:a-dman-HEX-1:5
8b:a-lman-HEX-1:5|6:d
LIN
1:2d(2+1)3n
2:2o(3+1)4d
3:2o(6+1)5n
4:5n(1+1)6o
5:4o(3+1)7d
6:7o(6+1)8d
