RES
1r:r1
REP
REP1:5o(4+2)2d=-1--1
RES
2b:a-lgro-lman-NON-2:6|1:a|2:keto|3:d|9:d
3s:n-acetyl
4s:n-formyl
5b:b-dglc-HEX-1:5|6:d
6s:n-acetyl
7b:a-dgal-HEX-1:5|6:a
8s:n-acetyl
9s:acetyl
10b:b-dgal-HEX-1:5
11b:a-dglc-HEX-1:5|6:a
12s:n-acetyl
LIN
1:2d(5+1)3n
2:2d(7+1)4n
3:2o(4+1)5d
4:5d(2+1)6n
5:5o(3+1)7d
6:7d(2+1)8n
7:7o(3+1)9n
8:7o(4+1)10d
9:10o(4+1)11d
10:10d(2+1)12n
