RES
1b:a-dman-HEX-1:5
2s:phosphate
3b:b-dgal-HEX-1:5
4s:phosphate
5b:a-dman-HEX-1:5
6b:b-dgal-HEX-1:5
7a:a1
8s:phosphate
9b:a-dman-HEX-1:5
10b:b-dgal-HEX-1:5
11a:a2
12s:phosphate
13b:a-dman-HEX-1:5
14b:b-dgal-HEX-1:5
15a:a3
16s:phosphate
17b:a-dman-HEX-1:5
18b:b-dgal-HEX-1:5
19b:a-dman-HEX-1:5
20b:a-dman-HEX-1:5
LIN
1:1o(1+1)2n
2:1o(2+1)3d
3:3o(6+1)4n
4:4n(1+1)5o
5:5o(4+1)6d
6:6o(3+1)7n
7:6o(6+1)8n
8:8n(1+1)9o
9:9o(4+1)10d
10:10o(3+1)11n
11:10o(6+1)12n
12:12n(1+1)13o
13:13o(4+1)14d
14:14o(3+1)15n
15:14o(6+1)16n
16:16n(1+1)17o
17:17o(4+1)18d
18:17o(2+1)19d
19:19o(2+1)20d
ALT
ALT1
ALTSUBGRAPH1
LEAD-IN RES:21
RES
21b:b-dgal-HEX-1:5
22b:b-dgal-HEX-1:5
LIN
1:21o(3+1)22d
ALTSUBGRAPH2
LEAD-IN RES:23
RES
23b:b-dgal-HEX-1:5
24b:b-dara-PEN-1:5
LIN
1:23o(2+1)24d
ALTSUBGRAPH3
LEAD-IN RES:25
RES
25b:b-dgal-HEX-1:5
ALT2
ALTSUBGRAPH1
LEAD-IN RES:26
RES
26b:b-dgal-HEX-1:5
27b:b-dgal-HEX-1:5
LIN
1:26o(3+1)27d
ALTSUBGRAPH2
LEAD-IN RES:28
RES
28b:b-dgal-HEX-1:5
29b:b-dara-PEN-1:5
LIN
1:28o(2+1)29d
ALTSUBGRAPH3
LEAD-IN RES:30
RES
30b:b-dgal-HEX-1:5
ALT3
ALTSUBGRAPH1
LEAD-IN RES:31
RES
31b:b-dgal-HEX-1:5
32b:b-dgal-HEX-1:5
LIN
1:31o(3+1)32d
ALTSUBGRAPH2
LEAD-IN RES:33
RES
33b:b-dgal-HEX-1:5
34b:b-dara-PEN-1:5
LIN
1:33o(2+1)34d
ALTSUBGRAPH3
LEAD-IN RES:35
RES
35b:b-dgal-HEX-1:5
