RES
1r:r1
REP
REP1:6o(4+1)2d=-1--1
RES
2b:b-dgal-HEX-1:5
3b:a-dglc-HEX-1:5
4b:a-dgal-HEX-1:5
5b:b-dman-HEX-1:5
6b:b-dman-HEX-1:5
7b:a-lman-HEX-1:5|6:d
8b:a-dgal-HEX-1:5
LIN
1:2o(2+1)3d
2:2o(3+1)4d
3:4o(4+1)5d
4:5o(4+1)6d
5:6o(3+1)7d
6:7o(2+1)8d
