RES
1b:a-dman-OCT-2:6|1:a|2:keto|3:d
2b:a-dman-OCT-2:6|1:a|2:keto|3:d
3b:a-lgro-dman-HEP-1:5
4b:a-lgro-dman-HEP-1:5
5b:a-lgro-dman-HEP-1:5
6b:a-dgal-HEX-1:5
7b:a-dgal-HEX-1:5
LIN
1:1o(4+2)2d
2:1o(5+1)3d
3:3o(3+1)4d
4:4o(7+1)5d
5:4o(3+1)6d
6:6o(6+1)7d
