RES
1b:a-dgal-HEX-1:5|6:a
2s:acetyl
3s:n-acetyl
4s:methyl
5b:a-dgal-HEX-1:5|6:a
6s:n-acetyl
7s:acetyl
8b:a-dgal-HEX-1:5|6:a
9s:n-acetyl
10s:acetyl
11b:a-dgal-HEX-1:5|6:a
12s:n-acetyl
13s:acetyl
14b:a-dgal-HEX-1:5|6:a
15s:n-acetyl
16s:acetyl
17b:a-dgal-HEX-1:5|6:a
18s:n-acetyl
19s:methyl
20s:acetyl
LIN
1:1o(3+1)2n
2:1d(2+1)3n
3:1o(1+1)4n
4:1o(4+1)5d
5:5d(2+1)6n
6:5o(3+1)7n
7:5o(4+1)8d
8:8d(2+1)9n
9:8o(3+1)10n
10:8o(4+1)11d
11:11d(2+1)12n
12:11o(3+1)13n
13:11o(4+1)14d
14:14d(2+1)15n
15:14o(3+1)16n
16:14o(4+1)17d
17:17d(2+1)18n
18:17o(4+1)19n
19:17o(3+1)20n
