RES
1b:a-dglc-HEX-1:5
2s:phosphate
3s:amino
4b:b-dglc-HEX-1:5
5s:amino
6s:phosphate
7b:a-dman-OCT-2:6|1:a|2:keto|3:d
8b:a-dman-OCT-2:6|1:a|2:keto|3:d
9s:phosphate
10b:a-dglc-HEX-1:5
11b:b-dglc-HEX-1:5
12b:b-dglc-HEX-1:5
13b:b-dglc-HEX-1:5
14b:b-dgal-HEX-1:5
15b:a-lman-HEX-1:5|6:d
16b:a-dglc-HEX-1:5
17s:n-acetyl
18s:(r)-carboxyethyl
LIN
1:1o(1+1)2n
2:1d(2+1)3n
3:1o(6+1)4d
4:4d(2+1)5n
5:4o(4+1)6n
6:4o(6+2)7d
7:7o(-1+2)8d
8:7o(4+1)9n
9:7o(5+1)10d
10:10o(3+1)11d
11:10o(6+1)12d
12:10o(4+1)13d
13:13o(4+1)14d
14:14o(3+1)15d
15:15o(3+1)16d
16:16d(2+1)17n
17:16o(3+1)18n
