RES
1b:b-dglc-HEX-1:5
2n:n1
3b:a-dglc-HEX-1:5
4b:b-dglc-HEX-1:5
5b:a-dglc-HEX-1:5
6b:a-dglc-HEX-1:5
7b:b-dglc-HEX-1:5
8s:methyl
9b:a-dglc-HEX-1:5
10s:methyl
11b:a-dglc-HEX-1:5
12s:methyl
13b:a-dglc-HEX-1:5
14s:methyl
15b:a-dglc-HEX-1:5
16s:methyl
17b:a-dglc-HEX-1:5
18s:methyl
19b:a-dglc-HEX-1:5
20s:methyl
21b:a-dglc-HEX-1:5
22s:methyl
23b:a-dglc-HEX-1:5
24s:methyl
25b:a-dglc-HEX-1:5
26s:methyl
27b:a-dglc-HEX-1:5
28s:methyl
29b:a-dglc-HEX-1:5
30b:a-dglc-HEX-1:5
31b:a-dglc-HEX-1:5
32b:a-dglc-HEX-1:5
33s:methyl
LIN
1:1o(1+2)2n
2:1o(6+1)3d
3:3o(3+1)4d
4:3o(4+1)5d
5:5o(4+1)6d
6:6o(3+1)7d
7:6o(6+1)8n
8:6o(4+1)9d
9:9o(6+1)10n
10:9o(4+1)11d
11:11o(6+1)12n
12:11o(4+1)13d
13:13o(6+1)14n
14:13o(4+1)15d
15:15o(6+1)16n
16:15o(4+1)17d
17:17o(6+1)18n
18:17o(4+1)19d
19:19o(6+1)20n
20:19o(4+1)21d
21:21o(6+1)22n
22:21o(4+1)23d
23:23o(6+1)24n
24:23o(4+1)25d
25:25o(6+1)26n
26:25o(4+1)27d
27:27o(6+1)28n
28:27o(4+1)29d
29:29o(4+1)30d
30:30o(4+1)31d
31:31o(4+1)32d
32:32o(3+1)33n
NON
NON1
Parent:1
Linkage:o(1+2)n
SmallMolecule:SMILES [3CH2](O)[2C@H](O)[1C](=O)O
Description:(L)-glyceric acid
