RES
1b:a-dman-OCT-2:6|1:a|2:keto|3:d
2b:a-lgro-dman-HEP-1:5
3b:a-lgro-dman-HEP-1:5
4b:b-dglc-HEX-1:5
5b:a-dgro-dman-HEP-1:5
6b:b-dgal-HEX-1:5
7b:b-dglc-HEX-1:5
8s:n-acetyl
9b:b-dgal-HEX-1:5
10b:b-dglc-HEX-1:5
11s:n-acetyl
12b:b-dgal-HEX-1:5
13b:b-dglc-HEX-1:5
14s:n-acetyl
15b:b-dgal-HEX-1:5
16b:b-dglc-HEX-1:5
17b:b-dgal-HEX-1:5
18s:n-acetyl
LIN
1:1o(5+1)2d
2:2o(3+1)3d
3:2o(4+1)4d
4:4o(6+1)5d
5:5o(4+1)6d
6:6o(3+1)7d
7:7d(2+1)8n
8:7o(4+1)9d
9:9o(3+1)10d
10:10d(2+1)11n
11:10o(4+1)12d
12:12o(3+1)13d
13:13d(2+1)14n
14:13o(4+1)15d
15:15o(3+1)16d
16:16o(4+1)17d
17:16d(2+1)18n
