RES
1b:o-xgro-TRI-0:0|1:aldi
2b:b-dglc-HEX-1:5
3s:n-acetyl
4b:b-dglc-HEX-1:5
5b:a-lgal-HEX-1:5|6:d
6b:b-dglc-HEX-1:5
7s:n-acetyl
8s:n-acetyl
9b:a-dgal-HEX-1:5
10b:a-dglc-HEX-1:5
11s:n-acetyl
LIN
1:1o(2+1)2d
2:2d(2+1)3n
3:2o(4+1)4d
4:2o(3+1)5d
5:5o(4+1)6d
6:5d(2+1)7n
7:4d(2+1)8n
8:5o(3+1)9d
9:9o(6+1)10d
10:9d(2+1)11n
