RES
1b:a-dman-OCT-2:6|1:a|2:keto|3:d
2b:a-dman-OCT-2:6|1:a|2:keto|3:d
3b:b-lara-PEN-1:5
4b:a-lgro-dman-HEP-1:5
5b:b-dglc-HEX-1:5
6s:amino
7b:a-lgro-dman-HEP-1:5
8s:phospho-ethanolamine
9b:a-lgro-dman-HEP-1:5
10b:a-dgal-HEX-1:5|6:a
11b:a-dgal-HEX-1:5
12b:a-dgro-dman-HEP-1:5
13b:b-dgal-HEX-1:5|6:a
14b:a-lgro-dman-HEP-1:5
15s:amino
16s:amino
LIN
1:1o(4+2)2d
2:1o(8+1)3d
3:1o(5+1)4d
4:4o(4+1)5d
5:3d(4+1)6n
6:4o(3+1)7d
7:7o(6+1)8n
8:7o(7+1)9d
9:7o(3+1)10d
10:10o(4+1)11d
11:10o(2+1)12d
12:9o(7+1)13d
13:12o(2+1)14d
14:13d(2+1)15n
15:11d(2+1)16n
