RES
1b:a-dman-OCT-x:x|1:a|2:keto|3:d
2b:a-lgro-dman-HEP-1:5
3b:a-lgro-dman-HEP-1:5
4b:b-dglc-HEX-1:5
5b:a-lgro-dman-HEP-1:5
6b:a-lgro-dman-HEP-1:5
7b:a-dgro-dman-HEP-1:5
8b:a-dgro-dman-HEP-1:5
9b:b-dgal-HEX-1:5
10b:a-dglc-HEX-1:5
11s:n-acetyl
LIN
1:1o(5+1)2d
2:2o(6+1)3d
3:2o(4+1)4d
4:2o(3+1)5d
5:5o(2+1)6d
6:4o(6+1)7d
7:7o(6+1)8d
8:7o(4+1)9d
9:6o(7+1)10d
10:10d(2+1)11n
