RES
1b:x-dman-OCT-x:x|1:a|2:keto|3:d
2b:a-lgro-dman-HEP-1:5
3b:b-dglc-HEX-1:5
4s:phosphate
5b:a-lgro-dman-HEP-1:5
6b:b-dglc-HEX-1:5
7b:b-dgal-HEX-1:5
8b:b-dgal-HEX-1:5
9b:b-dgal-HEX-1:5
10s:n-acetyl
LIN
1:1o(5+1)2d
2:2o(4+1)3d
3:2o(7+1)4n
4:2o(3+1)5d
5:5o(2+1)6d
6:5o(3+1)7d
7:7o(4+1)8d
8:8o(3+1)9d
9:8d(2+1)10n
