RES
1b:x-dman-OCT-x:x|1:a|2:keto|3:d
2b:a-lgro-dman-HEP-1:5
3s:diphospho-ethanolamine
4b:a-lgro-dman-HEP-1:5
5b:a-lgro-dman-HEP-1:5
6s:phosphate
7b:a-dglc-HEX-1:5
8b:a-dglc-HEX-1:5
LIN
1:1o(5+1)2d
2:2o(4+1)3n
3:2o(3+1)4d
4:4o(7+1)5d
5:4o(4+1)6n
6:4o(3+1)7d
7:7o(3+1)8d
