RES
1b:x-dman-OCT-x:x|1:a|2:keto|3:d
2s:phosphate
3b:a-dgro-dman-HEP-1:5
4b:a-lgro-dman-HEP-1:5
5b:b-dglc-HEX-1:5
6b:a-dglc-HEX-1:5
7b:a-lgro-dgal-NON-2:6|1:a|2:keto|3:d|9:d
8b:a-lman-HEX-1:5|6:d
9s:amino
10s:amino
LIN
1:1o(4+1)2n
2:1o(5+1)3d
3:3o(3+1)4d
4:3o(4+1)5d
5:4o(2+1)6d
6:5o(6+2)7d
7:6o(4+1)8d
8:7d(5+1)9n
9:7d(7+1)10n
