RES
1r:r1
REP
REP1:8o(6+1)2d=-1--1
RES
2b:b-dglc-HEX-1:5
3b:b-dgal-HEX-1:4
4b:b-dgal-HEX-1:5
5b:a-dglc-HEX-1:5
6s:phosphate
7b:o-dman-HEX-0:0|1:aldi
8b:b-dgal-HEX-1:4
LIN
1:2o(3+1)3d
2:3o(3+1)4d
3:4o(2+1)5d
4:4o(3+1)6n
5:6n(1+6)7o
6:7o(1+1)8d
