RES
1r:r1
REP
REP1:10o(3+1)2d=-1--1
RES
2b:a-dglc-HEX-1:5
3s:n-acetyl
4b:a-lgal-HEX-1:5|6:d
5s:n-acetyl
6b:a-dglc-HEX-1:5
7s:phosphate
8b:a-dglc-HEX-1:5
9s:acetyl
10b:a-lgal-HEX-1:5|6:d
11s:n-acetyl
LIN
1:2d(2+1)3n
2:2o(3+1)4d
3:4d(2+1)5n
4:4o(3+1)6d
5:6o(4+1)7n
6:7n(1+1)8o
7:8o(6+1)9n
8:8o(4+1)10d
9:10d(2+1)11n
