RES
1b:a-ltal-HEX-1:5|6:d
2b:a-lman-HEX-1:5|6:d
3b:a-lgal-HEX-1:5|6:d
4s:methyl
5b:a-dman-HEX-1:5|6:d
6s:methyl
7b:a-lara-HEX-1:5|6:d
8s:methyl
9s:methyl
10s:formyl
LIN
1:1o(2+1)2d
2:2o(3+1)3d
3:3o(2+1)4n
4:3o(3+1)5d
5:5o(2+1)6n
6:5o(3+1)7d
7:7o(2+1)8n
8:7h(3+1)9n
9:7o(4+1)10n
