RES
1b:a-dglc-HEX-1:5
2s:amino
3n:n1
4b:a-dman-HEX-1:5
5b:a-dman-HEX-1:5
6b:a-dman-HEX-1:5
7b:a-dgal-HEX-1:5
8s:phospho-ethanolamine
9b:b-dgal-HEX-1:5
10b:b-dglc-HEX-1:5
11b:b-dglc-HEX-1:5
12s:n-acetyl
13s:n-acetyl
14b:b-dgal-HEX-1:5
15b:b-dgal-HEX-1:5
16b:b-dglc-HEX-1:5
17b:b-dglc-HEX-1:5
18b:b-dglc-HEX-1:5
19b:b-dgal-HEX-1:5
20b:b-dgal-HEX-1:5
21s:n-acetyl
22s:n-acetyl
23s:n-acetyl
24b:b-dgal-HEX-1:5
25b:b-dglc-HEX-1:5
26b:b-dgal-HEX-1:5
27s:n-acetyl
LIN
1:1d(2+1)2n
2:1o(1+6)3n
3:1o(4+1)4d
4:4o(6+1)5d
5:5o(2+1)6d
6:5o(3+1)7d
7:6o(6+1)8n
8:7o(3+1)9d
9:9o(3+1)10d
10:9o(6+1)11d
11:10d(2+1)12n
12:11d(2+1)13n
13:11o(4+1)14d
14:10o(3+1)15d
15:15o(3+1)16d
16:14o(6+1)17d
17:15o(6+1)18d
18:18o(4+1)19d
19:17o(4+1)20d
20:16d(2+1)21n
21:17d(2+1)22n
22:18d(2+1)23n
23:16o(3+1)24d
24:24o(3+1)25d
25:25o(3+1)26d
26:25d(2+1)27n
NON
NON1
Parent:1
Linkage:o(1+6)n
SmallMolecule:SMILES [6C@H](O)1[5C@H](O)[4C@@H](O)[3C@H](O)[2C@H](O)[1C@H](O)1
Description:myo-inositol
