RES
1r:r1
REP
REP1:4o(3+1)2d=-1--1
RES
2b:b-dgal-HEX-1:5
3b:a-dgal-HEX-1:5
4b:b-dgal-HEX-1:5
5b:b-dgal-HEX-1:5
6s:n-acetyl
7s:n-acetyl
8b:a-dgal-HEX-1:5
9s:n-acetyl
10b:b-dgal-HEX-1:5|6:d
11s:amino
12n:n1
LIN
1:2o(6+1)3d
2:3o(4+1)4d
3:3o(3+1)5d
4:4d(2+1)6n
5:5d(2+1)7n
6:5o(3+1)8d
7:8d(2+1)9n
8:8o(3+1)10d
9:10d(3+1)11n
10:10o(3+1)12n
NON
NON1
Parent:10
Linkage:o(3+1)n
SmallMolecule:SMILES [4CH3][3C@@H](O)[2CH2][1C](=O)O
Description:(R)-3-hydroxybutanoic acid
