RES
1b:x-dglc-HEX-x:x
2b:a-dglc-HEX-1:5
3b:a-dglc-HEX-1:5
4b:a-dglc-HEX-1:5
5b:a-dglc-HEX-1:5
6b:a-dglc-HEX-1:5
7b:a-dglc-HEX-1:5
8b:a-dglc-HEX-1:5
9b:a-dglc-HEX-1:5
10b:a-dglc-HEX-1:5
11b:a-dglc-HEX-1:5
12b:a-dglc-HEX-1:5
13b:a-dglc-HEX-1:5
14b:a-dglc-HEX-1:5
15b:a-dglc-HEX-1:5
16b:a-dglc-HEX-1:5
17b:a-dglc-HEX-1:5
18b:a-dglc-HEX-1:5
19b:a-dglc-HEX-1:5
20b:a-dglc-HEX-1:5
21b:a-dglc-HEX-1:5
22b:a-dglc-HEX-1:5
23b:a-dglc-HEX-1:5
24b:a-dglc-HEX-1:5
25b:a-dglc-HEX-1:5
26b:a-dglc-HEX-1:5
27b:a-dglc-HEX-1:5
28b:a-dglc-HEX-1:5
29b:a-dglc-HEX-1:5
30b:a-dglc-HEX-1:5
31b:a-dglc-HEX-1:5
32b:a-dglc-HEX-1:5
33b:a-dglc-HEX-1:5
34b:a-dglc-HEX-1:5
35b:a-dglc-HEX-1:5
LIN
1:1o(4+1)2d
2:2o(4+1)3d
3:2o(6+1)4d
4:3o(6+1)5d
5:4o(4+1)6d
6:6o(6+1)7d
7:5o(4+1)8d
8:8o(6+1)9d
9:7o(4+1)10d
10:9o(4+1)11d
11:10o(6+1)12d
12:11o(4+1)13d
13:12o(4+1)14d
14:13o(6+1)15d
15:14o(4+1)16d
16:14o(6+1)17d
17:16o(6+1)18d
18:17o(4+1)19d
19:15o(4+1)20d
20:20o(4+1)21d
21:20o(6+1)22d
22:18o(4+1)23d
23:19o(6+1)24d
24:23o(6+1)25d
25:22o(4+1)26d
26:24o(4+1)27d
27:25o(4+1)28d
28:26o(6+1)29d
29:27o(4+1)30d
30:27o(6+1)31d
31:30o(4+1)32d
32:29o(4+1)33d
33:31o(4+1)34d
34:34o(6+1)35d
