RES
1b:a-dman-OCT-2:6|1:a|2:keto|3:d
2b:a-dman-OCT-2:6|1:a|2:keto|3:d
3b:a-lgro-dman-HEP-1:5
4s:phosphate
5s:phosphate
6b:a-lgro-dman-HEP-1:5
7s:phosphate
8n:n1
9b:a-dgal-HEX-1:5
10b:a-dglc-HEX-1:5
11s:amino
12n:n2
13b:b-dglc-HEX-1:5
14b:a-dglc-HEX-1:5
15b:a-lman-HEX-1:5|6:d
16b:b-dglc-HEX-1:5|6:d
17s:n-acetyl
18b:a-dgal-HEX-1:5|6:a
19s:n-formyl
20s:amino
21b:a-dgal-HEX-1:5|6:a
22b:a-lman-HEX-1:5|6:d
23s:n-acetyl
24s:acetyl
25s:amino
LIN
1:1o(4+2)2d
2:1o(5+1)3d
3:3o(2+1)4n
4:3o(4+1)5n
5:3o(3+1)6d
6:6o(6+1)7n
7:6o(7+1)8n
8:6o(3+1)9d
9:9o(4+1)10d
10:9d(2+1)11n
11:9o(2+1)12n
12:9o(3+1)13d
13:13o(6+1)14d
14:13o(3+1)15d
15:15o(3+1)16d
16:16d(2+1)17n
17:16o(3+1)18d
18:18d(2+1)19n
19:18d(6+1)20n
20:18o(4+1)21d
21:21o(4+1)22d
22:21d(2+1)23n
23:21o(3+1)24n
24:21d(6+1)25n
NON
NON1
Parent:6
Linkage:o(7+1)n
SmallMolecule:SMILES [1C](=O)(O)N
Description:carbamic acid
NON2
Parent:9
Linkage:o(2+1)n
SmallMolecule:SMILES [3CH3][2C@H](N)[1C](=O)O
Description:(L)-alanine
