RES
1r:r1
REP
REP1:8n(1+1)2n=-1--1
RES
2s:phosphate
3b:o-xrib-PEN-0:0|1:aldi
4b:a-dgal-HEX-1:5
5b:b-dgal-HEX-1:4
6b:b-dgal-HEX-1:5
7b:b-dgal-HEX-1:4
8s:phosphate
LIN
1:2n(1+5)3o
2:3o(1+1)4d
3:4o(6+1)5d
4:5o(6+1)6d
5:6o(3+1)7d
6:7o(6+1)8n
