RES
1b:o-dglc-HEX-0:0|1:aldi
2s:amino
3b:b-dglc-HEX-1:5
4s:amino
5b:a-dman-OCT-2:6|1:a|2:keto|3:d
6b:a-lgro-dman-HEP-1:5
7s:phospho-ethanolamine
8b:a-lgro-dman-HEP-1:5
9b:a-dgro-dman-HEP-1:5
10b:b-dgal-HEX-1:5
11b:b-dglc-HEX-1:5
12b:a-dglc-HEX-1:5
13s:amino
14b:a-lgal-HEX-1:5|6:d
15b:a-dgro-dman-HEP-1:5
LIN
1:1d(2+1)2n
2:1o(6+1)3d
3:3d(2+1)4n
4:3o(6+2)5d
5:5o(5+1)6d
6:6o(7+1)7n
7:6o(3+1)8d
8:8o(2+1)9d
9:9o(7+1)10d
10:9o(2+1)11d
11:10o(4+1)12d
12:11d(2+1)13n
13:11o(3+1)14d
14:14o(3+1)15d
