RES
1r:r1
REP
REP1:7o(3+1)2d=-1--1
RES
2b:b-dglc-HEX-1:5
3b:a-ltal-HEX-1:5|6:d
4s:acetyl
5b:b-dglc-HEX-1:5
6b:a-ltal-HEX-1:5|6:d
7b:b-dglc-HEX-1:5
8s:acetyl
9s:methyl
LIN
1:2o(3+1)3d
2:3o(2+1)4n
3:3o(3+1)5d
4:5o(3+1)6d
5:6o(3+1)7d
6:6o(4+1)8n
7:6o(2+1)9n
