RES
1r:r1
REP
REP1:5o(4+1)2d=-1--1
RES
2b:b-dglc-HEX-1:5
3b:b-lman-HEX-1:5|6:d
4a:a1
5b:b-dglc-HEX-1:5
6s:n-acetyl
7b:a-lman-HEX-1:5|6:d
8b:b-drib-PEN-1:4
LIN
1:2o(4+1)3d
2:3o(3+1)4n
3:3o(4+1)5d
4:5d(2+1)6n
5:5o(3+1)7d
6:7o(4+1)8d
ALT
ALT1
ALTSUBGRAPH1
LEAD-IN RES:9
RES
9s:phosphate
10b:o-drib-PEN-0:0|1:aldi
LIN
1:9n(1+1)10o
ALTSUBGRAPH2
LEAD-IN RES:11
RES
11s:phosphate
12b:o-dara-PEN-0:0|1:aldi
LIN
1:11n(1+1)12o
