RES
1b:x-dman-OCT-x:x|1:a|2:keto|3:d
2b:a-dman-OCT-2:6|1:a|2:keto|3:d
3b:a-lgro-dman-HEP-1:5
4b:a-lgro-dman-HEP-1:5
5b:a-lgro-dman-HEP-1:5
6b:b-dglc-HEX-1:5
7b:b-dgal-HEX-1:5
8s:n-acetyl
9b:a-dgal-HEX-1:5
10b:b-dgro-dman-HEP-1:5
11b:a-dxyl-HEX-1:5|3:d|6:d
LIN
1:1o(4+2)2d
2:1o(5+1)3d
3:3o(3+1)4d
4:4o(7+1)5d
5:4o(3+1)6d
6:5o(7+1)7d
7:6d(2+1)8n
8:6o(3+1)9d
9:9o(4+1)10d
10:10o(3+1)11d
