RES
1r:r1
REP
REP1:7o(6+1)2d=-1--1
RES
2b:a-dgal-HEX-1:5
3b:b-dgal-HEX-1:4
4b:b-dgal-HEX-1:5
5b:a-dgal-HEX-1:5
6b:b-dgal-HEX-1:4
7b:b-dgal-HEX-1:5
LIN
1:2o(3+1)3d
2:3o(6+1)4d
3:4o(6+1)5d
4:4o(3+1)6d
5:6o(6+1)7d
