RES
1r:r1
REP
REP1:4o(4+1)2d=-1--1
RES
2b:a-dgal-HEX-1:5
3b:a-dman-HEX-1:5
4b:a-dman-HEX-1:5
5b:a-dglc-HEX-1:5
6b:a-dman-HEX-1:5
7b:a-dglc-HEX-1:5
LIN
1:2o(4+1)3d
2:3o(6+1)4d
3:4o(6+1)5d
4:5o(6+1)6d
5:6o(4+1)7d
