RES
1b:x-dglc-HEX-x:x
2b:a-lgal-HEX-1:5|6:d
3b:b-dgal-HEX-1:5
4b:b-dglc-HEX-1:5
5b:a-lgal-HEX-1:5|6:d
6s:n-acetyl
7b:b-dgal-HEX-1:5
8b:b-dglc-HEX-1:5
9b:b-dgal-HEX-1:5
10s:n-acetyl
LIN
1:1o(3+1)2d
2:1o(4+1)3d
3:3o(3+1)4d
4:4o(3+1)5d
5:4d(2+1)6n
6:4o(4+1)7d
7:7o(3+1)8d
8:8o(4+1)9d
9:8d(2+1)10n
