RES
1r:r1
REP
REP1:6o(3+1)2d=-1--1
RES
2b:a-ltal-HEX-1:5|6:d
3b:a-ltal-HEX-1:5|6:d
4b:a-ltal-HEX-1:5|6:d
5s:methyl
6b:a-ltal-HEX-1:5|6:d
7s:acetyl
LIN
1:2o(3+1)3d
2:3o(3+1)4d
3:4o(2+1)5n
4:4o(3+1)6d
5:6o(2+1)7n
