RES
1b:x-dman-OCT-x:x|1:a|2:keto|3:d
2b:a-lgro-dman-HEP-1:5
3s:phosphate
4b:a-lgro-dman-HEP-1:5
5b:a-dgro-dman-HEP-1:5
6b:b-dgal-HEX-1:5
7b:a-dgro-dman-HEP-1:5
8b:a-dglc-HEX-1:5
9b:a-dgro-dman-HEP-1:5
10b:a-dglc-HEX-1:5
11b:a-dglc-HEX-1:5
12b:a-dglc-HEX-1:5
13b:b-dglc-HEX-1:5
14b:b-dgal-HEX-1:5
15s:n-acetyl
16b:a-dglc-HEX-1:5
17b:a-dglc-HEX-1:5
LIN
1:1o(5+1)2d
2:2o(7+1)3n
3:2o(3+1)4d
4:4o(2+1)5d
5:5o(7+1)6d
6:5o(2+1)7d
7:7o(2+1)8d
8:7o(7+1)9d
9:6o(4+1)10d
10:10o(3+1)11d
11:8o(6+1)12d
12:9o(3+1)13d
13:13o(4+1)14d
14:13d(2+1)15n
15:12o(6+1)16d
16:16o(6+1)17d
