RES
1r:r1
REP
REP1:5o(4+1)2d=-1--1
RES
2b:a-dgal-HEX-1:5
3b:b-dglc-HEX-1:5|6:a
4b:b-dglc-HEX-1:5
5b:b-dgal-HEX-1:5
6s:n-acetyl
7b:a-dgal-HEX-1:4
8s:n-acetyl
LIN
1:2o(4+1)3d
2:2o(3+1)4d
3:4o(3+1)5d
4:4d(2+1)6n
5:3o(4+1)7d
6:7d(2+1)8n
