RES
1r:r1
REP
REP1:4o(4+1)2d=-1--1
RES
2b:a-dgal-HEX-1:5
3b:a-dgal-HEX-1:5
4b:a-dglc-HEX-1:5
5b:b-dglc-HEX-1:5
6b:a-dglc-HEX-1:5
7b:b-dgal-HEX-1:5
8b:a-dgal-HEX-1:5
LIN
1:2o(6+1)3d
2:2o(3+1)4d
3:4o(2+1)5d
4:4o(3+1)6d
5:5o(4+1)7d
6:6o(3+1)8d
