RES
1r:r1
REP
REP1:6o(3+1)2d=-1--1
RES
2b:b-dglc-HEX-1:5
3b:b-dgal-HEX-1:5
4s:(r)-pyruvate
5b:a-dgal-HEX-1:5
6b:b-dgal-HEX-1:5
7b:b-dglc-HEX-1:5|6:a
LIN
1:2o(4+1)3d
2:3o(6+2)4n
3:3o(4+2)4n
4:3o(3+1)5d
5:5o(3+1)6d
6:6o(4+1)7d
