RES
1b:o-dglc-HEX-0:0|1:aldi
2b:a-lman-HEX-1:5|6:d
3s:phosphate
4b:a-lman-HEX-1:5|6:d
5b:a-lman-HEX-1:5|6:d
6b:a-lman-HEX-1:5|6:d
7b:b-dglc-HEX-1:5
8s:n-acetyl
9b:a-dgal-HEX-1:5
10b:a-lman-HEX-1:5|6:d
LIN
1:1o(3+1)2d
2:1o(6+1)3n
3:1o(1+1)4d
4:4o(2+1)5d
5:5o(2+1)6d
6:5o(4+1)7d
7:7d(2+1)8n
8:7o(3+1)9d
9:9o(3+1)10d
