RES
1r:r1
REP
REP1:8o(2+1)2d=-1--1
RES
2b:a-dglc-HEX-1:5
3b:a-dglc-HEX-1:5
4s:n-acetyl
5b:a-dgal-HEX-1:5
6b:b-dglc-HEX-1:5
7b:a-dglc-HEX-1:5
8b:a-lman-HEX-1:5|6:d
9s:n-acetyl
LIN
1:2o(6+1)3d
2:2d(2+1)4n
3:2o(3+1)5d
4:5o(3+1)6d
5:5o(4+1)7d
6:7o(6+1)8d
7:6d(2+1)9n
