RES
1r:r1
REP
REP1:10o(6+1)2d=-1--1
RES
2b:b-dgal-HEX-1:5
3s:n-acetyl
4b:b-dglc-HEX-1:5
5b:a-lman-HEX-1:5|6:d
6b:a-dglc-HEX-1:5
7b:b-lman-HEX-1:5|6:d
8s:acetyl
9s:n-acetyl
10b:a-dgal-HEX-1:5
11b:b-dgal-HEX-1:5
LIN
1:2d(2+1)3n
2:2o(3+1)4d
3:2o(4+1)5d
4:5o(2+1)6d
5:4o(4+1)7d
6:7o(2+1)8n
7:6d(2+1)9n
8:7o(3+1)10d
9:10o(2+1)11d
