RES
1r:r1
REP
REP1:9o(6+1)2d=-1--1
RES
2b:b-dglc-HEX-1:5
3b:b-lman-HEX-1:5|6:d
4b:a-lman-HEX-1:5|6:d
5b:a-dgal-HEX-1:5
6s:n-acetyl
7s:phosphate
8b:a-dgal-HEX-1:5
9b:b-dgal-HEX-1:4
LIN
1:2o(4+1)3d
2:3o(2+1)4d
3:3o(3+1)5d
4:5d(2+1)6n
5:5o(6+1)7n
6:7n(1+1)8o
7:8o(6+1)9d
