RES
1b:b-dglc-HEX-1:5|6:d
2s:n-acetyl
3s:n-acetyl
4b:a-dgal-HEX-1:5
5s:n-acetyl
6b:a-dgal-HEX-1:5
7s:n-acetyl
8b:a-dgal-HEX-1:5
9b:b-dglc-HEX-1:5
10s:n-acetyl
11b:a-dgal-HEX-1:5
12s:n-acetyl
13b:a-dgal-HEX-1:5
14s:n-acetyl
LIN
1:1d(2+1)2n
2:1d(4+1)3n
3:1o(3+1)4d
4:4d(2+1)5n
5:4o(4+1)6d
6:6d(2+1)7n
7:6o(4+1)8d
8:8o(3+1)9d
9:8d(2+1)10n
10:8o(4+1)11d
11:11d(2+1)12n
12:11o(4+1)13d
13:13d(2+1)14n
