RES
1r:r1
REP
REP1:6o(3+1)2d=-1--1
RES
2b:a-dman-HEX-1:5
3b:a-dglc-HEX-1:5|6:a
4b:a-dgal-HEX-1:5
5b:b-dglc-HEX-1:5
6b:a-dman-HEX-1:5
7s:(r)-carboxyethyl
LIN
1:2o(3+1)3d
2:3o(2+1)4d
3:3o(3+1)5d
4:4o(3+1)6d
5:5o(4+2)7n
