RES
1r:r1
REP
REP1:6o(2+1)2d=-1--1
RES
2b:a-dgal-HEX-1:5
3s:n-acetyl
4b:a-lgal-HEX-1:5|6:d
5b:a-dman-HEX-1:5
6b:a-lgal-HEX-1:5|6:d
7b:a-lara-HEX-x:x|3:d|6:d
LIN
1:2d(2+1)3n
2:2o(3+1)4d
3:4o(4+1)5d
4:5o(3+1)6d
5:6o(3+1)7d
