RES
1b:x-dman-OCT-x:x|1:a|2:keto|3:d
2b:a-dgro-dman-HEP-1:5
3s:phospho-ethanolamine
4b:b-dglc-HEX-1:5
5b:b-dgal-HEX-1:5
6b:b-dgal-HEX-1:4
LIN
1:1o(5+1)2d
2:2o(2+1)3n
3:2o(4+1)4d
4:4o(4+1)5d
5:5o(3+1)6d
