RES
1r:r1
REP
REP1:6o(3+1)2d=-1--1
RES
2b:b-dgal-HEX-1:5
3b:a-dgal-HEX-1:5
4b:b-dgal-HEX-1:5
5s:n-acetyl
6b:b-dgal-HEX-1:5
7b:a-dglc-HEX-1:5
8s:n-acetyl
9s:n-acetyl
LIN
1:2o(4+1)3d
2:3o(3+1)4d
3:4d(2+1)5n
4:4o(4+1)6d
5:4o(3+1)7d
6:6d(2+1)8n
7:7d(2+1)9n
