RES
1b:b-dgal-HEX-1:5
2s:n-acetyl
3b:b-dgal-HEX-1:5
4b:b-dglc-HEX-1:5
5b:b-dgal-HEX-1:5
6s:n-acetyl
7b:b-dgal-HEX-1:5
8b:b-lgro-lman-NON-2:6|1:a|2:keto|3:d|9:d
9s:amino
10s:amino
11b:b-dglc-HEX-1:5
12b:a-lgro-lman-NON-2:6|1:a|2:keto|3:d|9:d
13s:amino
14s:amino
LIN
1:1d(2+1)2n
2:1o(3+1)3d
3:3o(6+1)4d
4:3o(3+1)5d
5:5d(2+1)6n
6:5o(3+1)7d
7:4o(6+2)8d
8:8d(7+1)9n
9:8d(5+1)10n
10:7o(6+1)11d
11:11o(6+2)12d
12:12d(7+1)13n
13:12d(5+1)14n
