RES
1b:a-dglc-HEX-1:5
2s:amino
3b:a-dman-HEX-1:5
4b:a-dman-HEX-1:5
5s:phosphate
6b:b-dgal-HEX-1:4
7b:a-dglc-HEX-1:5
8b:a-dgal-HEX-1:5
9b:a-dgal-HEX-1:5
10s:phosphate
11b:a-dman-HEX-1:5
12b:b-dgal-HEX-1:5
13b:b-dglc-HEX-1:5
14s:phosphate
15b:a-dman-HEX-1:5
16b:b-dgal-HEX-1:5
17b:b-dglc-HEX-1:5
18s:phosphate
19b:a-dman-HEX-1:5
20b:b-dgal-HEX-1:5
21b:b-dglc-HEX-1:5
22s:phosphate
23b:a-dman-HEX-1:5
24b:b-dgal-HEX-1:5
25b:b-dglc-HEX-1:5
26s:phosphate
27b:a-dman-HEX-1:5
28b:b-dgal-HEX-1:5
29b:b-dglc-HEX-1:5
30s:phosphate
31b:a-dman-HEX-1:5
32b:b-dglc-HEX-1:5
33b:b-dgal-HEX-1:5
LIN
1:1d(2+1)2n
2:1o(4+1)3d
3:3o(3+1)4d
4:4o(6+1)5n
5:4o(3+1)6d
6:5n(1+1)7o
7:6o(3+1)8d
8:8o(6+1)9d
9:9o(6+1)10n
10:10n(1+1)11o
11:11o(4+1)12d
12:12o(3+1)13d
13:12o(6+1)14n
14:14n(1+1)15o
15:15o(4+1)16d
16:16o(3+1)17d
17:16o(6+1)18n
18:18n(1+1)19o
19:19o(4+1)20d
20:20o(3+1)21d
21:20o(6+1)22n
22:22n(1+1)23o
23:23o(4+1)24d
24:24o(3+1)25d
25:24o(6+1)26n
26:26n(1+1)27o
27:27o(4+1)28d
28:28o(3+1)29d
29:28o(6+1)30n
30:30n(1+1)31o
31:31o(3+1)32d
32:31o(4+1)33d
