RES
1r:r1
REP
REP1:3o(3+1)2d=-1--1
RES
2b:b-dglc-HEX-1:5
3b:b-dglc-HEX-1:5
4b:a-lgal-HEX-1:5|6:d
5s:n-acetyl
6b:a-dman-HEX-1:5|6:d
7s:(s)-lactate
8s:amino
LIN
1:2o(4+1)3d
2:2o(3+1)4d
3:3d(2+1)5n
4:4o(3+1)6d
5:6o(4+1)7n
6:6d(4+1)8n
