RES
1b:a-dman-OCT-2:6|1:a|2:keto|3:d
2b:a-dman-OCT-2:6|1:a|2:keto|3:d
3b:a-dman-HEX-1:5
4b:a-dglc-HEX-1:5
5b:a-dman-HEX-1:5
6s:amino
7s:phosphate
8b:a-dgal-HEX-1:5
9b:a-dman-HEX-1:5
10b:a-dglc-HEX-1:5
11b:b-lara-PEN-1:5
12b:a-dglc-HEX-1:5
13b:a-dglc-HEX-1:5
14s:amino
LIN
1:1o(4+2)2d
2:1o(5+1)3d
3:2o(4+1)4d
4:3o(4+1)5d
5:4d(2+1)6n
6:4o(6+1)7n
7:5o(2+1)8d
8:5o(6+1)9d
9:9o(2+1)10d
10:7n(1+1)11o
11:8o(3+1)12d
12:12o(2+1)13d
13:11d(4+1)14n
