RES
1b:a-dman-OCT-2:6|1:a|2:keto|3:d
2s:diphospho-ethanolamine
3b:a-lgro-dman-HEP-1:5
4b:b-dglc-HEX-1:5
5b:a-lgro-dman-HEP-1:5
6b:a-dgro-dman-HEP-1:5
7s:phospho-ethanolamine
8b:a-lgro-dman-HEP-1:5
9b:b-dglc-HEX-1:5
10b:b-dgal-HEX-1:5
11b:a-dgro-dgal-NON-2:6|1:a|2:keto|3:d
12s:n-acetyl
13b:a-dgro-dgal-NON-2:6|1:a|2:keto|3:d
14s:n-acetyl
LIN
1:1o(4+1)2n
2:1o(5+1)3d
3:3o(4+1)4d
4:3o(3+1)5d
5:4o(6+1)6d
6:5o(6+1)7n
7:5o(2+1)8d
8:8o(2+1)9d
9:9o(4+1)10d
10:10o(3+2)11d
11:11d(5+1)12n
12:11o(8+2)13d
13:13d(5+1)14n
