RES
1b:b-dglc-HEX-1:5
2b:a-lgal-HEX-1:5|6:d
3s:n-acetyl
4b:b-dglc-HEX-1:5
5s:n-acetyl
6b:b-dman-HEX-1:5
7b:b-dglc-HEX-1:5
8b:a-dman-HEX-1:5
9b:a-dman-HEX-1:5
10b:a-dman-HEX-1:5
11s:sulfate
12s:n-acetyl
13b:a-dman-HEX-1:5
14b:a-dman-HEX-1:5
15b:b-dglc-HEX-1:5
16b:a-dman-HEX-1:5
17b:a-dman-HEX-1:5
18s:n-acetyl
LIN
1:1o(3+1)2d
2:1d(2+1)3n
3:1o(4+1)4d
4:4d(2+1)5n
5:4o(4+1)6d
6:6o(4+1)7d
7:6o(3+1)8d
8:6o(6+1)9d
9:8o(2+1)10d
10:8o(6+1)11n
11:7d(2+1)12n
12:9o(3+1)13d
13:9o(6+1)14d
14:9o(4+1)15d
15:13o(2+1)16d
16:14o(2+1)17d
17:15d(2+1)18n
