RES
1b:x-dglc-HEX-1:5
2s:n-acetyl
3b:b-dgal-HEX-1:4
4b:b-dgal-HEX-1:5
5b:b-dgal-HEX-1:5
6b:b-dgal-HEX-1:5
7b:b-dgal-HEX-1:5
LIN
1:1d(2+1)2n
2:1o(4+1)3d
3:1o(6+1)4d
4:3o(2+1)5d
5:4o(3+1)6d
6:4o(2+1)7d
