RES
1b:o-dery-TET-0:0|1:aldi
2b:b-dglc-HEX-1:5
3s:n-acetyl
4b:b-dglc-HEX-1:5|6:d
5s:n-acetyl
6b:a-lman-HEX-1:5|6:d
7b:a-lman-HEX-1:5|6:d
8n:n1
LIN
1:1o(2+1)2d
2:2d(2+1)3n
3:2o(4+1)4d
4:4d(2+1)5n
5:4o(3+1)6d
6:6o(3+1)7d
7:7o(3+-1)8n
NON
NON1
Parent:7
Linkage:o(3+-1)n
HistoricalEntity:O-antigen
