RES
1b:a-dman-OCT-2:6|1:a|2:keto|3:d
2b:a-dman-OCT-2:6|1:a|2:keto|3:d
3b:a-lgro-dman-HEP-1:5
4b:b-dglc-HEX-1:5
5b:a-lgro-dman-HEP-1:5
6s:phospho-ethanolamine
7b:a-dglc-HEX-1:5
8b:b-dgal-HEX-1:5
9s:n-acetyl
10b:b-dglc-HEX-1:5
11s:n-acetyl
12b:b-dgal-HEX-1:5
13b:a-dgro-dgal-NON-2:6|1:a|2:keto|3:d
14s:n-acetyl
LIN
1:1o(4+2)2d
2:1o(5+1)3d
3:3o(4+1)4d
4:3o(3+1)5d
5:5o(3+1)6n
6:5o(2+1)7d
7:4o(4+1)8d
8:7d(2+1)9n
9:8o(3+1)10d
10:10d(2+1)11n
11:10o(4+1)12d
12:12o(3+2)13d
13:13d(5+1)14n
