RES
1r:r1
REP
REP1:5o(2+1)2d=-1--1
RES
2b:a-dgal-HEX-1:5
3a:a1
4b:a-lman-HEX-1:5|6:d
5b:a-dman-HEX-1:5
6b:a-dxyl-HEX-1:5|3:d|6:d
7s:acetyl
LIN
1:2o(-1+-1)3n
2:2o(3+1)4d
3:4o(4+1)5d
4:5o(3+1)6d
5:6o(2+1)7n
ALT
ALT1
ALTSUBGRAPH1
LEAD-IN RES:8
RES
8b:a-dglc-HEX-1:5
ALTSUBGRAPH2
LEAD-IN RES:9
RES
9b:a-dglc-HEX-1:5
