RES
1r:r1
REP
REP1:16o(3+1)2n=-1--1
RES
2s:phosphate
3b:o-dgro-TRI-0:0|1:aldi
4n:n1
5s:phosphate
6b:o-dgro-TRI-0:0|1:aldi
7s:phosphate
8b:a-dglc-HEX-1:5
9s:n-acetyl
10b:o-dgro-TRI-0:0|1:aldi
11s:phosphate
12b:o-dgro-TRI-0:0|1:aldi
13s:phosphate
14b:a-dglc-HEX-1:5
15n:n2
16b:o-dgro-TRI-0:0|1:aldi
17b:a-dglc-HEX-1:5
LIN
1:2n(1+1)3o
2:3o(2+1)4n
3:3o(3+1)5n
4:5n(1+1)6o
5:6o(3+1)7n
6:6o(2+1)8d
7:8d(2+1)9n
8:7n(1+1)10o
9:10o(3+1)11n
10:11n(1+1)12o
11:12o(3+1)13n
12:12o(2+1)14d
13:14o(6+1)15n
14:13n(1+1)16o
15:16o(2+1)17d
NON
NON1
Parent:3
Linkage:o(2+1)n
SmallMolecule:SMILES [3CH3][2C@@H](N)[1C](=O)O
Description:(D)-alanine
NON2
Parent:14
Linkage:o(6+1)n
SmallMolecule:SMILES [3CH3][2C@@H](N)[1C](=O)O
Description:(D)-alanine
