RES
1b:b-dgal-HEX-1:5
2b:b-dglc-HEX-1:5
3b:b-dglc-HEX-1:5
4b:b-dgal-HEX-1:5
5s:n-acetyl
6b:b-dgal-HEX-1:5
7b:b-dglc-HEX-1:5
8b:b-dglc-HEX-1:5
9b:b-dgal-HEX-1:5
10s:n-acetyl
11b:b-dgal-HEX-1:5
12b:b-dglc-HEX-1:5
13b:b-dglc-HEX-1:5
14b:b-dgal-HEX-1:5
15s:n-acetyl
16b:b-dgal-HEX-1:5
17b:b-dglc-HEX-1:5
18b:b-dglc-HEX-1:5
19b:b-dgal-HEX-1:5
20s:n-acetyl
21b:b-dgal-HEX-1:5
22b:b-dglc-HEX-1:5
23b:b-dgal-HEX-1:5
24s:n-acetyl
LIN
1:1o(4+1)2d
2:1o(3+1)3d
3:3o(4+1)4d
4:3d(2+1)5n
5:2o(4+1)6d
6:6o(4+1)7d
7:6o(3+1)8d
8:8o(4+1)9d
9:8d(2+1)10n
10:7o(4+1)11d
11:11o(4+1)12d
12:11o(3+1)13d
13:13o(4+1)14d
14:13d(2+1)15n
15:12o(4+1)16d
16:16o(4+1)17d
17:16o(3+1)18d
18:18o(4+1)19d
19:18d(2+1)20n
20:17o(4+1)21d
21:21o(3+1)22d
22:22o(4+1)23d
23:22d(2+1)24n
