RES
1r:r1
REP
REP1:7o(3+1)2d=-1--1
RES
2b:b-dglc-HEX-1:5
3b:a-dglc-HEX-1:5
4b:a-dglc-HEX-1:5
5b:b-dgal-HEX-1:5
6b:a-dgal-HEX-1:5
7b:b-dgal-HEX-1:5
LIN
1:2o(3+1)3d
2:2o(6+1)4d
3:4o(6+1)5d
4:3o(6+1)6d
5:6o(3+1)7d
