RES
1r:r1
REP
REP1:7o(3+1)2d=-1--1
RES
2b:b-dglc-HEX-1:5
3s:(s)-pyruvate
4b:b-dglc-HEX-1:5
5b:a-dman-HEX-1:5
6b:a-dman-HEX-1:5
7b:b-dglc-HEX-1:5|6:a
8b:a-dgal-HEX-1:5
LIN
1:2o(6+2)3n
2:2o(4+2)3n
3:2o(3+1)4d
4:4o(3+1)5d
5:5o(2+1)6d
6:6o(2+1)7d
7:6o(3+1)8d
