RES
1r:r1
REP
REP1:7o(3+2)2d=-1--1
RES
2b:b-lgro-lman-NON-2:6|1:a|2:keto|3:d|9:d
3s:n-acetyl
4s:n-acetyl
5b:a-dgal-HEX-1:5
6b:b-dgal-HEX-1:4
7b:b-dgal-HEX-1:5
LIN
1:2d(5+1)3n
2:2d(7+1)4n
3:2o(4+1)5d
4:5o(3+1)6d
5:6o(6+1)7d
