RES
1b:a-dman-HEX-1:5
2b:a-dman-HEX-1:5
3b:a-dman-HEX-1:5
4b:a-dman-HEX-1:5
5b:a-dman-HEX-1:5
6b:a-dman-HEX-1:5
7b:a-dman-HEX-1:5
8b:a-dman-HEX-1:5
9b:a-dara-PEN-1:4
10b:a-dara-PEN-1:4
11b:a-dara-PEN-1:4
12b:a-dara-PEN-1:4
13b:a-dara-PEN-1:4
14b:a-dara-PEN-1:4
15b:a-dara-PEN-1:4
16b:a-dara-PEN-1:4
17b:a-dara-PEN-1:4
18b:a-dman-HEX-1:5
19b:a-dman-HEX-1:5
20b:a-dman-HEX-1:5
21b:a-dman-HEX-1:5
22b:a-dman-HEX-1:5
23b:a-dman-HEX-1:5
24b:a-dman-HEX-1:5
25b:a-dman-HEX-1:5
LIN
1:1o(6+1)2d
2:2o(2+1)3d
3:2o(6+1)4d
4:4o(2+1)5d
5:4o(6+1)6d
6:6o(2+1)7d
7:6o(6+1)8d
8:8o(6+1)9d
9:9o(5+1)10d
10:10o(5+1)11d
11:11o(5+1)12d
12:12o(5+1)13d
13:13o(5+1)14d
14:13o(3+1)15d
15:15o(2+1)16d
16:14o(2+1)17d
17:16o(5+1)18d
18:17o(5+1)19d
19:18o(2+1)20d
20:19o(2+1)21d
21:20o(2+1)22d
22:21o(2+1)23d
23:22o(2+1)24d
24:23o(2+1)25d
