RES
1r:r1
REP
REP1:3o(4+1)2d=-1--1
RES
2b:b-dman-HEX-1:5
3b:a-lman-HEX-1:5|6:d
4s:phosphate
5s:methyl
6s:phosphate
7b:o-xgro-TRI-0:0|1:aldi
LIN
1:2o(3+1)3d
2:2o(6+1)4n
3:4n(1+1)5n
4:3o(2+1)6n
5:6n(1+1)7o
