RES
1r:r1
REP
REP1:10o(4+1)2d=-1--1
RES
2b:b-dglc-HEX-1:5
3s:n-acetyl
4s:acetyl
5b:b-lman-HEX-1:5|6:d
6b:b-lman-HEX-1:5|6:d
7b:a-lman-HEX-1:5|6:d
8b:b-drib-PEN-1:4
9s:acetyl
10b:a-dglc-HEX-1:5|6:a
11s:acetyl
12s:acetyl
LIN
1:2d(2+1)3n
2:2o(6+1)4n
3:2o(3+1)5d
4:5o(4+1)6d
5:6o(3+1)7d
6:7o(3+1)8d
7:7o(4+1)9n
8:7o(2+1)10d
9:10o(2+1)11n
10:10o(3+1)12n
