RES
1b:x-dman-OCT-2:6|1:a|2:keto|3:d
2b:a-lgro-dman-HEP-1:5
3b:a-lgro-dman-HEP-1:5
4b:b-dgal-HEX-1:5
5b:b-dgal-HEX-1:5
6b:a-dgro-dgal-NON-2:6|1:a|2:keto|3:d
7b:b-dgal-HEX-1:5
8b:b-dgal-HEX-1:5
9s:n-acetyl
10s:n-acetyl
LIN
1:1o(5+1)2d
2:2o(3+1)3d
3:3o(3+1)4d
4:4o(3+1)5d
5:5o(3+2)6d
6:5o(4+1)7d
7:7o(3+1)8d
8:6d(5+1)9n
9:7d(2+1)10n
