RES
1b:a-lman-HEX-1:5|6:d
2n:n1
3b:b-dglc-HEX-1:5
4b:a-lman-HEX-1:5|6:d
5b:a-lman-HEX-1:5|6:d
6s:n-acetyl
7b:b-dglc-HEX-1:5
8s:n-acetyl
LIN
1:1o(1+1)2n
2:1o(3+1)3d
3:1o(2+1)4d
4:4o(2+1)5d
5:3d(2+1)6n
6:4o(3+1)7d
7:7d(2+1)8n
NON
NON1
Parent:1
Linkage:o(1+1)n
SmallMolecule:SMILES [3CH3][2CH2][1CH2]O
Description:propanol
