RES
1s:phosphate
2n:n1
3b:a-dglc-HEX-1:5
4s:amino
5b:a-dman-HEX-1:5
6b:a-dman-HEX-1:5
7b:b-dgal-HEX-1:5
8s:n-acetyl
9b:a-dman-HEX-1:5
10s:phospho-ethanolamine
LIN
1:1n(1+1)2n
2:2n(6+1)3d
3:3d(2+1)4n
4:3o(4+1)5d
5:5o(6+1)6d
6:5o(4+1)7d
7:7d(2+1)8n
8:6o(2+1)9d
9:9o(6+1)10n
NON
NON1
Parent:1
Linkage:n(1+1)n
SmallMolecule:SMILES [6C@H](O)1[5C@H](O)[4C@@H](O)[3C@H](O)[2C@H](O)[1C@H](O)1
Description:myo-inositol
