RES
1r:r1
REP
REP1:8o(4+1)2d=-1--1
RES
2b:b-dglc-HEX-1:5
3s:amino
4s:acetyl
5n:n1
6b:a-dglc-HEX-1:5|6:a
7b:b-dglc-HEX-1:5
8b:b-dglc-HEX-1:5|6:a
9a:a1
10s:acetyl
11s:n-acetyl
LIN
1:2d(2+1)3n
2:2o(3+1)4n
3:2o(2+1)5n
4:2o(4+1)6d
5:2o(6+1)7d
6:7o(3+1)8d
7:6o(-1+-1)9n
8:7o(6+1)10n
9:7d(2+1)11n
ALT
ALT1
ALTSUBGRAPH1
LEAD-IN RES:12
RES
12s:acetyl
ALTSUBGRAPH2
LEAD-IN RES:13
RES
13s:acetyl
NON
NON1
Parent:2
Linkage:o(2+1)n
SmallMolecule:SMILES [3CH3][2C@H](N)[1C](=O)O
Description:(L)-alanine
