RES
1b:b-dglc-HEX-1:5|6:d
2s:n-acetyl
3s:n-acetyl
4b:a-dgal-HEX-1:5
5s:n-acetyl
6b:a-dgal-HEX-1:5
7s:n-acetyl
8b:a-dglc-HEX-1:5
9s:n-acetyl
10b:a-dgal-HEX-1:5
11b:b-dglc-HEX-1:5
12b:b-dglc-HEX-1:5
13s:n-acetyl
14s:n-acetyl
LIN
1:1d(2+1)2n
2:1d(4+1)3n
3:1o(3+1)4d
4:4d(2+1)5n
5:4o(4+1)6d
6:6d(2+1)7n
7:6o(4+1)8d
8:8d(2+1)9n
9:8o(6+1)10d
10:8o(3+1)11d
11:11o(4+1)12d
12:11d(2+1)13n
13:10d(2+1)14n
