RES
1b:o-xgro-TRI-0:0|1:aldi
2b:b-xglc-HEX-1:5
3b:b-xman-HEX-1:5
4s:amino
5b:b-xman-HEX-1:5
6b:a-xrib-PEN-1:4
7s:n-acetyl
8s:phospho-ethanolamine
9b:b-xman-HEX-1:5
10s:n-acetyl
11b:b-xman-HEX-1:5
12s:n-acetyl
13s:phospho-ethanolamine
14b:b-xman-HEX-1:5
15s:n-acetyl
16s:phospho-ethanolamine
LIN
1:1o(-1+1)2d
2:2o(4+1)3d
3:3d(2+1)4n
4:3o(4+1)5d
5:5o(3+1)6d
6:5d(2+1)7n
7:5o(6+1)8n
8:5o(4+1)9d
9:9d(2+1)10n
10:9o(4+1)11d
11:11d(2+1)12n
12:11o(6+1)13n
13:11o(4+1)14d
14:14d(2+1)15n
15:14o(6+1)16n
