RES
1b:a-dglc-HEX-1:5
2s:amino
3b:b-dgal-HEX-1:5|6:d
4s:n-acetyl
5s:amino
6b:b-dman-HEX-1:5|6:a
7s:n-acetyl
8s:n-acetyl
9b:a-dgal-HEX-1:5
10s:n-acetyl
11b:b-dglc-HEX-1:5|6:a
12s:n-acetyl
13s:amino
14s:n-acetyl
15b:b-dman-HEX-1:5|6:a
16s:n-acetyl
17s:amino
18s:n-acetyl
19n:n1
LIN
1:1d(2+1)2n
2:1o(6+1)3d
3:3d(2+1)4n
4:3d(4+1)5n
5:3o(3+1)6d
6:6d(2+1)7n
7:6d(3+1)8n
8:6o(4+1)9d
9:9d(2+1)10n
10:9o(4+1)11d
11:11d(2+1)12n
12:11d(6+1)13n
13:11d(3+1)14n
14:11o(4+1)15d
15:15d(3+1)16n
16:15d(6+1)17n
17:15d(2+1)18n
18:15o(4+1)19n
NON
NON1
Parent:15
Linkage:o(4+1)n
HistoricalEntity:O-polysaccharide (ID 22025)
