RES
1r:r1
REP
REP1:10o(3+1)2d=-1--1
RES
2b:a-dglc-HEX-1:5
3s:n-acetyl
4b:a-dgal-HEX-1:5|6:a
5s:n-acetyl
6b:a-dgal-HEX-1:5|6:a
7s:n-acetyl
8s:amino
9s:acetyl
10b:b-dglc-HEX-1:5|6:d
11s:amino
12n:n1
13s:acetyl
LIN
1:2d(2+1)3n
2:2o(3+1)4d
3:4d(2+1)5n
4:4o(4+1)6d
5:6d(2+1)7n
6:6d(6+1)8n
7:6o(3+1)9n
8:6o(4+1)10d
9:10d(2+1)11n
10:10o(4+1)12n
11:12n(2+1)13n
NON
NON1
Parent:10
Linkage:o(4+1)n
SmallMolecule:SMILES [2CH2](N)[1C](=O)O
Description:glycine
