RES
1r:r1
REP
REP1:4o(3+1)2d=-1--1
RES
2b:a-dgal-HEX-1:5
3b:a-lman-HEX-1:5|6:d
4b:b-dglc-HEX-1:5|6:d
5s:n-acetyl
6s:n-acetyl
7b:a-lman-HEX-1:5|6:d
8b:b-dglc-HEX-1:5|6:a
9s:n-acetyl
10s:n-acetyl
11s:amino
12n:n1
13s:acetyl
14s:acetyl
15s:acetyl
LIN
1:2o(4+1)3d
2:2o(3+1)4d
3:4d(2+1)5n
4:4d(4+1)6n
5:3o(2+1)7d
6:7o(3+1)8d
7:8d(2+1)9n
8:8d(3+1)10n
9:8d(6+1)11n
10:8o(4+1)12n
11:12n(2+1)13n
12:12n(3+1)14n
13:12n(4+1)15n
NON
NON1
Parent:8
Linkage:o(4+1)n
SmallMolecule:SMILES O{1}[C@@H]1{2}[C@H](N){3}[C@@H](N){4}[C@@H](N)CO1
Description:2,3,4-triamino-2,3,4-trideoxy-L-arabinose
