RES
1b:a-dman-OCT-2:6|1:a|2:keto|3:d
2b:a-dgro-dtal-OCT-2:6|1:a|2:keto
3b:a-lgro-dman-HEP-1:5
4b:b-dglc-HEX-1:5
5s:phospho-ethanolamine
6b:a-lgro-dman-HEP-1:5
7b:a-lgro-dman-HEP-1:5
8b:b-dglc-HEX-1:5
9b:b-dgal-HEX-1:5
10s:n-acetyl
LIN
1:1o(4+2)2d
2:1o(5+1)3d
3:3o(4+1)4d
4:2o(7+1)5n
5:3o(3+1)6d
6:6o(7+1)7d
7:6o(3+1)8d
8:7o(7+1)9d
9:8d(2+1)10n
