RES
1b:a-dglc-HEX-1:5
2s:phosphate
3s:amino
4b:b-dglc-HEX-1:5
5s:amino
6b:a-dman-OCT-2:6|1:a|2:keto|3:d
7b:a-dman-OCT-2:6|1:a|2:keto|3:d
8b:b-lara-PEN-1:5
9b:a-lgro-dman-HEP-1:5
10b:b-dglc-HEX-1:5
11s:amino
12b:a-lgro-dman-HEP-1:5
13b:a-lgro-dman-HEP-1:5
14s:phospho-ethanolamine
15b:a-dgal-HEX-1:5|6:a
16b:a-dgro-dman-HEP-1:5
17b:a-dgal-HEX-1:5
18b:a-lgro-dman-HEP-1:5
19s:amino
20b:o-dgal-HEX-0:0
21s:n-acetyl
22b:b-dgal-HEX-1:5
23b:a-dglc-HEX-1:5
LIN
1:1o(1+1)2n
2:1d(2+1)3n
3:1o(6+1)4d
4:4d(2+1)5n
5:4o(6+2)6d
6:6o(4+2)7d
7:6o(8+1)8d
8:6o(5+1)9d
9:9o(4+1)10d
10:8d(4+1)11n
11:9o(3+1)12d
12:12o(7+1)13d
13:12o(6+1)14n
14:12o(3+1)15d
15:15o(2+1)16d
16:15o(4+1)17d
17:16o(2+1)18d
18:17d(2+1)19n
19:17o(4+1)20d
20:17o(6+1)20d
21:20d(2+1)21n
22:20o(4+1)22d
23:22o(6+1)23d
