RES
1r:r1
REP
REP1:11o(3+1)2d=-1--1
RES
2b:b-dglc-HEX-1:5|6:d
3s:amino
4n:n1
5b:a-dglc-HEX-1:5|6:d
6s:n-acetyl
7s:n-acetyl
8s:acetyl
9b:a-lgal-HEX-1:5|6:a
10s:n-acetyl
11b:a-dgal-HEX-1:5
12s:n-acetyl
LIN
1:2d(4+1)3n
2:2o(4+1)4n
3:2o(3+1)5d
4:5d(2+1)6n
5:5d(4+1)7n
6:4n(2+1)8n
7:5o(3+1)9d
8:9d(2+1)10n
9:9o(4+1)11d
10:11d(2+1)12n
NON
NON1
Parent:2
Linkage:o(4+1)n
SmallMolecule:SMILES [3CH3][2C@@H](N)[1C](=O)O
Description:(D)-alanine
