RES
1b:x-dman-OCT-x:x|1:a|2:keto|3:d
2b:a-lgro-dman-HEP-1:5
3s:phosphate
4b:a-lgro-dman-HEP-1:5
5b:a-lgro-dman-HEP-1:5
6s:phosphate
7b:a-dglc-HEX-1:5
8b:a-dglc-HEX-1:5
9b:a-dgal-HEX-1:5
10b:b-dgal-HEX-1:5
11b:a-dgal-HEX-1:5
12b:b-dglc-HEX-1:5
13s:n-acetyl
14b:a-dgal-HEX-1:5
15b:a-dman-HEX-1:5|6:d
16b:a-dman-HEX-1:5|6:d
LIN
1:1o(5+1)2d
2:2o(4+1)3n
3:2o(3+1)4d
4:4o(7+1)5d
5:4o(4+1)6n
6:4o(3+1)7d
7:7o(3+1)8d
8:8o(2+1)9d
9:8o(4+1)10d
10:9o(2+1)11d
11:10o(6+1)12d
12:12d(2+1)13n
13:12o(3+1)14d
14:14o(2+1)15d
15:15o(3+1)16d
