RES
1r:r1
REP
REP1:8o(3+1)2d=-1--1
RES
2b:b-dglc-HEX-1:5
3s:n-acetyl
4b:a-lglc-HEX-1:5|6:d
5s:n-acetyl
6b:a-dgal-HEX-1:5|6:a
7s:n-acetyl
8b:a-lglc-HEX-1:5|6:d
9s:n-acetyl
LIN
1:2d(2+1)3n
2:2o(3+1)4d
3:4d(2+1)5n
4:4o(3+1)6d
5:6d(2+1)7n
6:6o(4+1)8d
7:8d(2+1)9n
