RES
1b:a-dman-OCT-2:6|1:a|2:keto|3:d
2b:a-HEP-1:5
3b:a-HEP-1:5
4b:a-HEP-1:5
5b:a-dglc-HEX-1:5
6b:a-dgal-HEX-1:5
7b:a-dgal-HEX-1:5
8b:a-dglc-HEX-1:5
9b:a-dglc-HEX-1:5
10s:n-acetyl
LIN
1:1o(5+1)2d
2:2o(3+1)3d
3:3o(7+1)4d
4:3o(3+1)5d
5:5o(6+1)6d
6:5o(3+1)7d
7:7o(2+1)8d
8:8o(2+1)9d
9:9d(2+1)10n
