RES
1b:o-xgro-TRI-0:0|1:aldi
2n:n1
3n:n2
4b:a-dglc-HEX-1:5
5b:b-dgal-HEX-1:5|6:d
6s:n-acetyl
7s:amino
8b:b-dgal-HEX-1:5
9s:phosphate
10b:o-xrib-PEN-0:0|1:aldi
11n:n3
12n:n4
13n:n5
14b:b-dgal-HEX-1:5
15s:n-acetyl
16s:phosphate
17b:a-dgal-HEX-1:5
18s:n-acetyl
19n:n6
20s:phosphate
21b:a-dgal-HEX-1:5|6:d
22s:amino
23s:n-acetyl
24n:n7
25b:b-dgal-HEX-1:5
26s:phosphate
27b:o-xrib-PEN-0:0|1:aldi
28n:n8
29n:n9
30n:n10
31b:b-dgal-HEX-1:5
32s:n-acetyl
33s:phosphate
34b:a-dgal-HEX-1:5
35s:n-acetyl
36n:n11
37s:phosphate
38b:a-dgal-HEX-1:5|6:d
39s:amino
40s:n-acetyl
41n:n12
42b:b-dgal-HEX-1:5
43s:phosphate
44b:o-xrib-PEN-0:0|1:aldi
45n:n13
46n:n14
47n:n15
48b:b-dgal-HEX-1:5
49s:n-acetyl
50s:phosphate
51b:a-dgal-HEX-1:5
52s:n-acetyl
53n:n16
54s:phosphate
55b:a-dgal-HEX-1:5|6:d
56s:n-acetyl
57s:amino
58n:n17
59b:b-dgal-HEX-1:5
60s:phosphate
61b:o-xrib-PEN-0:0|1:aldi
62n:n18
63n:n19
64n:n20
65b:b-dgal-HEX-1:5
66s:n-acetyl
67s:phosphate
68b:a-dgal-HEX-1:5
69s:n-acetyl
70n:n21
71s:phosphate
72n:n22
LIN
1:1o(2+1)2n
2:1o(1+1)3n
3:1o(3+1)4d
4:4o(4+1)5d
5:5d(2+1)6n
6:5d(4+1)7n
7:5o(3+1)8d
8:8o(6+1)9n
9:9n(1+5)10o
10:10o(2+1)11n
11:10o(4+1)12n
12:10o(3+1)13n
13:10o(1+1)14d
14:14d(2+1)15n
15:14o(6+1)16n
16:14o(3+1)17d
17:17d(2+1)18n
18:16n(1+1)19n
19:17o(6+1)20n
20:17o(4+1)21d
21:21d(4+1)22n
22:21d(2+1)23n
23:20n(1+1)24n
24:21o(3+1)25d
25:25o(6+1)26n
26:26n(1+5)27o
27:27o(2+1)28n
28:27o(4+1)29n
29:27o(3+1)30n
30:27o(1+1)31d
31:31d(2+1)32n
32:31o(6+1)33n
33:31o(3+1)34d
34:34d(2+1)35n
35:33n(1+1)36n
36:34o(6+1)37n
37:34o(4+1)38d
38:38d(4+1)39n
39:38d(2+1)40n
40:37n(1+1)41n
41:38o(3+1)42d
42:42o(6+1)43n
43:43n(1+5)44o
44:44o(2+1)45n
45:44o(3+1)46n
46:44o(4+1)47n
47:44o(1+1)48d
48:48d(2+1)49n
49:48o(6+1)50n
50:48o(3+1)51d
51:51d(2+1)52n
52:50n(1+1)53n
53:51o(6+1)54n
54:51o(4+1)55d
55:55d(2+1)56n
56:55d(4+1)57n
57:54n(1+1)58n
58:55o(3+1)59d
59:59o(6+1)60n
60:60n(1+5)61o
61:61o(3+1)62n
62:61o(2+1)63n
63:61o(4+1)64n
64:61o(1+1)65d
65:65d(2+1)66n
66:65o(6+1)67n
67:65o(3+1)68d
68:68d(2+1)69n
69:67n(1+1)70n
70:68o(6+1)71n
71:71n(1+1)72n
NON
NON1
Parent:1
Linkage:o(2+1)n
HistoricalEntity:superclass: lipid residue
NON2
Parent:1
Linkage:o(1+1)n
HistoricalEntity:superclass: lipid residue
NON3
Parent:10
Linkage:o(2+1)n
SmallMolecule:SMILES [3CH3][2C@@H](N)[1C](=O)O
Description:(D)-alanine
NON4
Parent:10
Linkage:o(4+1)n
SmallMolecule:SMILES [3CH3][2C@@H](N)[1C](=O)O
Description:(D)-alanine
NON5
Parent:10
Linkage:o(3+1)n
SmallMolecule:SMILES [3CH3][2C@@H](N)[1C](=O)O
Description:(D)-alanine
NON6
Parent:16
Linkage:n(1+1)n
SmallMolecule:SMILES C[N+](C)(C)[2CH2][1CH2]O
Description:choline
NON7
Parent:20
Linkage:n(1+1)n
SmallMolecule:SMILES C[N+](C)(C)[2CH2][1CH2]O
Description:choline
NON8
Parent:27
Linkage:o(2+1)n
SmallMolecule:SMILES [3CH3][2C@@H](N)[1C](=O)O
Description:(D)-alanine
NON9
Parent:27
Linkage:o(4+1)n
SmallMolecule:SMILES [3CH3][2C@@H](N)[1C](=O)O
Description:(D)-alanine
NON10
Parent:27
Linkage:o(3+1)n
SmallMolecule:SMILES [3CH3][2C@@H](N)[1C](=O)O
Description:(D)-alanine
NON11
Parent:33
Linkage:n(1+1)n
SmallMolecule:SMILES C[N+](C)(C)[2CH2][1CH2]O
Description:choline
NON12
Parent:37
Linkage:n(1+1)n
SmallMolecule:SMILES C[N+](C)(C)[2CH2][1CH2]O
Description:choline
NON13
Parent:44
Linkage:o(2+1)n
SmallMolecule:SMILES [3CH3][2C@@H](N)[1C](=O)O
Description:(D)-alanine
NON14
Parent:44
Linkage:o(3+1)n
SmallMolecule:SMILES [3CH3][2C@@H](N)[1C](=O)O
Description:(D)-alanine
NON15
Parent:44
Linkage:o(4+1)n
SmallMolecule:SMILES [3CH3][2C@@H](N)[1C](=O)O
Description:(D)-alanine
NON16
Parent:50
Linkage:n(1+1)n
SmallMolecule:SMILES C[N+](C)(C)[2CH2][1CH2]O
Description:choline
NON17
Parent:54
Linkage:n(1+1)n
SmallMolecule:SMILES C[N+](C)(C)[2CH2][1CH2]O
Description:choline
NON18
Parent:61
Linkage:o(3+1)n
SmallMolecule:SMILES [3CH3][2C@@H](N)[1C](=O)O
Description:(D)-alanine
NON19
Parent:61
Linkage:o(2+1)n
SmallMolecule:SMILES [3CH3][2C@@H](N)[1C](=O)O
Description:(D)-alanine
NON20
Parent:61
Linkage:o(4+1)n
SmallMolecule:SMILES [3CH3][2C@@H](N)[1C](=O)O
Description:(D)-alanine
NON21
Parent:67
Linkage:n(1+1)n
SmallMolecule:SMILES C[N+](C)(C)[2CH2][1CH2]O
Description:choline
NON22
Parent:71
Linkage:n(1+1)n
SmallMolecule:SMILES C[N+](C)(C)[2CH2][1CH2]O
Description:choline
