RES
1b:a-dman-OCT-x:x|1:a|2:keto|3:d
2b:a-lgro-dman-HEP-1:5
3s:phospho-ethanolamine
4b:a-lgro-dman-HEP-1:5
5b:a-dgro-dman-HEP-1:5
6b:b-dgal-HEX-1:5
7b:a-dglc-HEX-1:5
8b:a-dglc-HEX-1:5
9s:n-acetyl
10b:a-lgal-HEX-1:5|6:d
11b:a-dgro-dman-HEP-1:5
12b:a-dglc-HEX-1:5
13b:a-dglc-HEX-1:5
14b:a-dglc-HEX-1:5
15b:a-dglc-HEX-1:5
16b:a-dglc-HEX-1:5
17b:a-dgro-dman-HEP-1:5
18b:a-dgro-dman-HEP-1:5
19b:a-dgro-dman-HEP-1:5
20b:a-dgro-dman-HEP-1:5
21b:a-dglc-HEX-1:5
22s:n-acetyl
23b:b-dgal-HEX-1:5
24b:a-dglc-HEX-1:5
25s:n-acetyl
26b:b-dgal-HEX-1:5
27b:a-dglc-HEX-1:5
28s:n-acetyl
29b:b-dgal-HEX-1:5
30b:a-dglc-HEX-1:5
31s:n-acetyl
32b:b-dgal-HEX-1:5
33b:b-dglc-HEX-1:5
34b:a-lgal-HEX-1:5|6:d
35s:n-acetyl
36b:b-dgal-HEX-1:5
37b:b-dglc-HEX-1:5
38b:a-lgal-HEX-1:5|6:d
39s:n-acetyl
40b:b-dgal-HEX-1:5
41b:b-dglc-HEX-1:5
42b:a-lgal-HEX-1:5|6:d
43s:n-acetyl
44b:b-dgal-HEX-1:5
45b:b-dglc-HEX-1:5
46b:a-lgal-HEX-1:5|6:d
47s:n-acetyl
48b:b-dgal-HEX-1:5
49b:a-lgal-HEX-1:5|6:d
LIN
1:1o(5+1)2d
2:2o(7+1)3n
3:2o(3+1)4d
4:4o(2+1)5d
5:5o(7+1)6d
6:5o(2+1)7d
7:6o(4+1)8d
8:7d(2+1)9n
9:7o(3+1)10d
10:10o(3+1)11d
11:11o(6+1)12d
12:12o(6+1)13d
13:13o(6+1)14d
14:14o(6+1)15d
15:15o(6+1)16d
16:16o(3+1)17d
17:17o(3+1)18d
18:18o(3+1)19d
19:19o(3+1)20d
20:20o(2+1)21d
21:21d(2+1)22n
22:21o(4+1)23d
23:23o(3+1)24d
24:24d(2+1)25n
25:24o(4+1)26d
26:26o(3+1)27d
27:27d(2+1)28n
28:27o(4+1)29d
29:29o(3+1)30d
30:30d(2+1)31n
31:30o(4+1)32d
32:32o(3+1)33d
33:33o(3+1)34d
34:33d(2+1)35n
35:33o(4+1)36d
36:36o(3+1)37d
37:37o(3+1)38d
38:37d(2+1)39n
39:37o(4+1)40d
40:40o(3+1)41d
41:41o(3+1)42d
42:41d(2+1)43n
43:41o(4+1)44d
44:44o(3+1)45d
45:45o(3+1)46d
46:45d(2+1)47n
47:45o(4+1)48d
48:48o(2+1)49d
