RES
1r:r1
REP
REP1:8o(4+1)2d=-1--1
RES
2b:b-lman-HEX-1:5|6:d
3s:acetyl
4b:a-dglc-HEX-1:5
5b:a-dglc-HEX-1:5|6:a
6s:acetyl
7s:n-acetyl
8b:b-dglc-HEX-1:5
9s:n-acetyl
LIN
1:2o(2+1)3n
2:2o(3+1)4d
3:4o(4+1)5d
4:4o(3+1)6n
5:4d(2+1)7n
6:4o(6+1)8d
7:8d(2+1)9n
