RES
1n:n1
2s:phosphate
3b:a-dglc-HEX-1:5
4s:amino
5n:n2
6n:n3
7b:b-dglc-HEX-1:5
8s:phospho-ethanolamine
9s:amino
10n:n4
11n:n5
12b:a-dman-OCT-2:6|1:a|2:keto|3:d
13b:a-lgro-dman-HEP-1:5
14s:phospho-ethanolamine
15b:a-lgro-dman-HEP-1:5
16b:a-dgro-dman-HEP-1:5
17b:b-dgal-HEX-1:5
18b:b-dglc-HEX-1:5
19b:a-dglc-HEX-1:5
20s:n-acetyl
21b:a-lgal-HEX-1:5|6:d
22b:a-dgro-dman-HEP-1:5
23b:a-dglc-HEX-1:5
24b:b-dgal-HEX-1:5
25b:b-drib-PEN-1:5
26b:b-drib-PEN-1:5
27b:b-drib-PEN-1:5
28b:b-drib-PEN-1:5
29b:b-dglc-HEX-1:5
30s:n-acetyl
31b:b-dgal-HEX-x:x
32b:b-dglc-HEX-1:5
33s:n-acetyl
34b:b-dgal-HEX-x:x
35b:b-dglc-HEX-1:5
36s:n-acetyl
37b:b-dgal-HEX-x:x
38b:b-dglc-HEX-1:5
39s:n-acetyl
40b:b-dgal-HEX-x:x
41b:b-dglc-HEX-1:5
42b:a-lgal-HEX-x:x|6:d
43s:n-acetyl
44b:b-dgal-HEX-x:x
45b:b-dglc-HEX-1:5
46b:a-lgal-HEX-x:x|6:d
47s:n-acetyl
48b:b-dgal-HEX-x:x
49b:b-dglc-HEX-1:5
50b:a-lgal-HEX-x:x|6:d
51s:n-acetyl
52b:b-dgal-HEX-x:x
53b:a-lgal-HEX-1:5|6:d
LIN
1:1n(1+1)2n
2:2n(1+1)3o
3:3d(2+1)4n
4:3o(2+1)5n
5:3o(3+1)6n
6:3o(6+1)7d
7:7o(4+1)8n
8:7d(2+1)9n
9:7o(3+1)10n
10:7o(2+1)11n
11:7o(6+2)12d
12:12o(5+1)13d
13:13o(-1+1)14n
14:13o(3+1)15d
15:15o(2+1)16d
16:16o(7+1)17d
17:16o(2+1)18d
18:17o(4+1)19d
19:18d(2+1)20n
20:18o(3+1)21d
21:21o(3+1)22d
22:22o(7+1)23d
23:23o(3+1)24d
24:24o(4+1)25d
25:25o(2+1)26d
26:26o(2+1)27d
27:27o(2+1)28d
28:28o(-1+1)29d
29:29d(2+1)30n
30:29o(4+1)31d
31:31o(3+1)32d
32:32d(2+1)33n
33:32o(4+1)34d
34:34o(3+1)35d
35:35d(2+1)36n
36:35o(4+1)37d
37:37o(3+1)38d
38:38d(2+1)39n
39:38o(4+1)40d
40:40o(3+1)41d
41:41o(3+1)42d
42:41d(2+1)43n
43:41o(4+1)44d
44:44o(3+1)45d
45:45o(3+1)46d
46:45d(2+1)47n
47:45o(4+1)48d
48:48o(3+1)49d
49:49o(3+1)50d
50:49d(2+1)51n
51:49o(4+1)52d
52:52o(2+1)53d
NON
NON1
SmallMolecule:SMILES [2CH2](N)[1CH2](O)
Description:ethanolamine
NON2
Parent:3
Linkage:o(2+1)n
HistoricalEntity:superclass: lipid residue
NON3
Parent:3
Linkage:o(3+1)n
HistoricalEntity:superclass: lipid residue
NON4
Parent:7
Linkage:o(3+1)n
HistoricalEntity:superclass: lipid residue
NON5
Parent:7
Linkage:o(2+1)n
HistoricalEntity:superclass: lipid residue
