RES
1b:a-dman-OCT-2:6|1:a|2:keto|3:d
2b:a-lgro-dman-HEP-1:5
3s:diphospho-ethanolamine
4b:a-lgro-dman-HEP-1:5
5s:phosphate
6b:a-lgro-dman-HEP-1:5
7b:a-dglc-HEX-1:5
8b:a-dglc-HEX-1:5
9n:n1
10n:n2
LIN
1:1o(5+1)2d
2:2o(4+1)3n
3:2o(3+1)4d
4:4o(4+1)5n
5:4o(7+1)6d
6:4o(3+1)7d
7:7o(3+1)8d
8:6o(-1+1)9n
9:7o(-1+1)10n
NON
NON1
Parent:6
Linkage:o(-1+1)n
SmallMolecule:SMILES [2CH2](N)[1C](=O)O
Description:glycine
NON2
Parent:7
Linkage:o(-1+1)n
SmallMolecule:SMILES [2CH2](N)[1C](=O)O
Description:glycine
