RES
1r:r1
REP
REP1:7o(3+1)2d=-1--1
RES
2b:a-dglc-HEX-1:5
3s:n-acetyl
4b:a-lgal-HEX-1:5|6:d
5b:b-dglc-HEX-1:5
6s:n-acetyl
7b:a-dgal-HEX-1:5
8b:a-dgal-HEX-1:5|6:a
9a:a1
LIN
1:2d(2+1)3n
2:2o(3+1)4d
3:4o(4+1)5d
4:4d(2+1)6n
5:4o(3+1)7d
6:7o(2+1)8d
7:8o(-1+-1)9n
ALT
ALT1
ALTSUBGRAPH1
LEAD-IN RES:10
RES
10s:acetyl
ALTSUBGRAPH2
LEAD-IN RES:11
RES
11s:acetyl
