RES
1r:r1
REP
REP1:6o(2+1)2d=-1--1
RES
2b:a-dgal-HEX-1:5|6:d
3s:n-acetyl
4b:a-lman-HEX-1:5|6:d
5s:acetyl
6b:b-dglc-HEX-1:5|6:d
7s:amino
8n:n1
LIN
1:2d(2+1)3n
2:2o(3+1)4d
3:4o(2+1)5n
4:4o(3+1)6d
5:6d(3+1)7n
6:6o(3+1)8n
NON
NON1
Parent:6
Linkage:o(3+1)n
SmallMolecule:SMILES [5C](=O)1[4CH2][3C]([7CH3])(O)[2C]([6CH3])(N1)[1C](=O)(O)
Description:3-hydroxy-2,3-dimethyl-5-oxoproline
