RES
1b:x-dman-OCT-x:x|1:a|2:keto|3:d
2b:a-lgro-dman-HEP-x:x
3b:a-dglc-HEX-1:5
4b:a-lgro-dman-HEP-1:5
5b:b-dglc-HEX-1:5
6b:a-lgro-dman-HEP-1:5
7n:n1
LIN
1:1o(-1+1)2d
2:2o(6+1)3d
3:2o(3+1)4d
4:2o(4+1)5d
5:4o(2+1)6d
6:5o(-1+1)7n
NON
NON1
Parent:5
Linkage:o(-1+1)n
HistoricalEntity:O-antigen
