RES
1r:r1
REP
REP1:5o(3+1)2d=-1--1
RES
2b:a-dman-HEX-1:5
3b:a-dman-HEX-1:5
4b:a-dglc-HEX-1:5|6:a
5b:b-dgal-HEX-1:5
6b:a-dglc-HEX-1:5
7b:b-dglc-HEX-1:5
8b:b-dgal-HEX-1:5
9s:(s)-pyruvate
LIN
1:2o(2+1)3d
2:3o(3+1)4d
3:4o(2+1)5d
4:4o(4+1)6d
5:6o(6+1)7d
6:7o(4+1)8d
7:8o(6+2)9n
8:8o(4+2)9n
