RES
1b:o-HEP-x:x
2b:b-dgal-HEX-1:5
3b:a-dgro-dgal-NON-2:6|1:a|2:keto|3:d
4b:b-dgal-HEX-1:5
5s:n-acetyl
6s:n-acetyl
7b:b-dgal-HEX-1:5
8b:a-dgro-dgal-NON-2:6|1:a|2:keto|3:d
9s:n-acetyl
LIN
1:1o(3+1)2d
2:2o(3+2)3d
3:2o(4+1)4d
4:3d(5+1)5n
5:4d(2+1)6n
6:4o(3+1)7d
7:7o(3+2)8d
8:8d(5+1)9n
