RES
1b:o-xgro-TRI-0:0|1:aldi
2b:a-lgro-dgal-NON-2:6|1:a|2:keto|3:d|9:d
3s:n-acetyl
4s:n-acetyl
5b:a-dglc-HEX-1:5
6s:n-acetyl
7b:a-lgal-HEX-1:5|6:d
8s:n-acetyl
LIN
1:1o(1+2)2d
2:2d(5+1)3n
3:2d(7+1)4n
4:2o(4+1)5d
5:5d(2+1)6n
6:5o(3+1)7d
7:7d(2+1)8n
