RES
1r:r1
REP
REP1:3o(4+1)2d=-1--1
RES
2b:b-dgal-HEX-1:5
3b:b-dglc-HEX-1:5
4s:acetyl
5b:a-dglc-HEX-1:5
6b:b-dglc-HEX-1:5|6:a
7s:carboxyethyl
LIN
1:2o(3+1)3d
2:2o(6+1)4n
3:2o(4+1)5d
4:5o(6+1)6d
5:6o(4+2)7n
