RES
1b:x-dman-OCT-2:6|1:a|2:keto|3:d
2b:a-lgro-dman-HEP-1:5
3b:x-dglc-HEX-1:5
4b:x-lgro-dman-HEP-1:5
5s:phospho-ethanolamine
6b:x-dgal-HEX-1:5
7b:x-dglc-HEX-1:5
8n:n1
9b:x-dgal-HEX-1:5
10s:n-acetyl
11n:n2
12n:n3
13b:x-dgal-HEX-1:5
14s:n-acetyl
LIN
1:1o(-1+1)2d
2:2o(-1+1)3d
3:2o(-1+1)4d
4:4o(-1+1)5n
5:3o(-1+1)6d
6:4o(-1+1)7d
7:4o(-1+1)8n
8:6o(-1+1)9d
9:7d(2+1)10n
10:8n(-1+1)11n
11:11n(-1+1)12n
12:12n(-1+1)13d
13:13d(2+1)14n
NON
NON1
Parent:4
Linkage:o(-1+1)n
HistoricalEntity:Glc or Gal
NON2
Parent:8
Linkage:n(-1+1)n
HistoricalEntity:Glc or Gal
NON3
Parent:11
Linkage:n(-1+1)n
HistoricalEntity:Glc or Gal
