RES
1r:r1
REP
REP1:8o(3+1)2d=-1--1
RES
2b:a-dglc-HEX-1:5|6:d
3s:n-acetyl
4b:a-dgal-HEX-1:5
5s:n-acetyl
6b:a-dgal-HEX-1:5|6:a
7s:n-acetyl
8b:b-dglc-HEX-1:5|6:d
9s:amino
10n:n1
11s:acetyl
LIN
1:2d(2+1)3n
2:2o(3+1)4d
3:4d(2+1)5n
4:4o(4+1)6d
5:6d(2+1)7n
6:6o(3+1)8d
7:8d(4+1)9n
8:8o(4+1)10n
9:10n(2+1)11n
NON
NON1
Parent:8
Linkage:o(4+1)n
SmallMolecule:SMILES [4CH3][3C@H](O)[2C@H](N)[1C](=O)O
Description:(L)-allothreonine
