RES
1r:r1
REP
REP1:6o(3+1)2d=-1--1
RES
2b:b-dgal-HEX-1:5|6:a
3b:a-lman-HEX-1:5|6:d
4b:b-dglc-HEX-1:5|6:d
5s:n-acetyl
6b:a-dgal-HEX-1:5|6:d
7s:n-acetyl
LIN
1:2o(4+1)3d
2:3o(3+1)4d
3:4d(3+1)5n
4:4o(2+1)6d
5:6d(2+1)7n
