RES
1b:o-xgro-TRI-0:0|1:aldi
2s:phosphate
3b:o-xgro-TRI-0:0|1:aldi
4b:b-dglc-HEX-1:5
5s:n-acetyl
6b:a-lgal-HEX-1:5|6:d
7s:n-acetyl
LIN
1:1o(1+1)2n
2:2n(1+1)3o
3:3o(2+1)4d
4:4d(2+1)5n
5:4o(3+1)6d
6:6d(2+1)7n
