RES
1r:r1
REP
REP1:7o(3+1)2d=-1--1
RES
2b:b-dglc-HEX-1:5
3b:b-dman-HEX-1:5|6:d
4b:a-dman-HEX-1:5|6:d
5b:a-dgal-HEX-1:5
6b:b-dgal-HEX-1:5
7b:b-dglc-HEX-1:5
8b:a-dman-HEX-1:5|6:d
9s:n-acetyl
10s:phospho-ethanolamine
LIN
1:2o(4+1)3d
2:3o(2+1)4d
3:3o(4+1)5d
4:5o(6+1)6d
5:5o(3+1)7d
6:7o(4+1)8d
7:7d(2+1)9n
8:7o(6+1)10n
