RES
1r:r1
REP
REP1:10o(4+1)2d=-1--1
RES
2b:a-dgal-HEX-1:5|6:a
3s:n-acetyl
4s:n-acetyl
5s:amino
6b:b-dglc-HEX-1:5|6:a
7s:n-acetyl
8s:amino
9s:n-acetyl
10b:b-dglc-HEX-1:5|6:a
11s:n-acetyl
12s:amino
13s:n-acetyl
LIN
1:2d(2+1)3n
2:2d(3+1)4n
3:2d(6+1)5n
4:2o(4+1)6d
5:6d(2+1)7n
6:6d(6+1)8n
7:6d(3+1)9n
8:6o(4+1)10d
9:10d(2+1)11n
10:10d(6+1)12n
11:10d(3+1)13n
