RES
1r:r1
REP
REP1:6o(4+1)2d=-1--1
RES
2b:b-dglc-HEX-1:5|6:d
3s:n-acetyl
4b:a-lalt-HEX-1:5|6:d
5s:n-acetyl
6b:b-lgro-lglc-NON-2:6|1:a|2:keto|3:d|9:d
7s:phosphate
8s:n-acetyl
9n:n1
LIN
1:2d(2+1)3n
2:2o(3+1)4d
3:4d(2+1)5n
4:4o(4+2)6d
5:4o(3+1)7n
6:6d(5+1)8n
7:7n(1+1)9n
NON
NON1
Parent:7
Linkage:n(1+1)n
SmallMolecule:SMILES C[N+](C)(C)[2CH2][1CH2]O
Description:choline
