RES
1b:a-dman-OCT-2:6|1:a|2:keto|3:d
2b:a-dman-OCT-2:6|1:a|2:keto|3:d
3b:a-lgro-dman-HEP-1:5
4b:b-dglc-HEX-1:5
5b:a-lgro-dman-HEP-1:5
6b:a-dgal-HEX-1:5|6:a
7b:a-lgro-dman-HEP-1:5
8b:b-dgal-HEX-1:5|6:a
9b:a-dglc-HEX-1:5
10s:amino
11b:a-dman-OCT-2:6|1:a|2:keto|3:d
12b:a-lgro-dman-HEP-1:5
LIN
1:1o(4+2)2d
2:1o(5+1)3d
3:3o(4+1)4d
4:3o(3+1)5d
5:5o(3+1)6d
6:5o(7+1)7d
7:7o(7+1)8d
8:6o(4+1)9d
9:9d(2+1)10n
10:9o(6+2)11d
11:11o(4+1)12d
