RES
1b:a-dglc-HEX-1:5
2s:phosphate
3s:amino
4b:b-dglc-HEX-1:5
5s:amino
6s:phosphate
7b:a-dman-OCT-2:6|1:a|2:keto|3:d
8b:a-dman-OCT-2:6|1:a|2:keto|3:d
9b:a-dman-OCT-2:6|1:a|2:keto|3:d
10b:b-dglc-HEX-1:5
11b:b-ltre-HEX-1:5|4,5:en|6:a
12s:amino
13s:amino
14b:b-dglc-HEX-1:5
15b:b-dglc-HEX-1:5
16b:b-dglc-HEX-1:5
17b:a-dglc-HEX-1:5
LIN
1:1o(1+1)2n
2:1d(2+1)3n
3:1o(6+1)4d
4:4d(2+1)5n
5:4o(4+1)6n
6:4o(6+2)7d
7:7o(4+2)8d
8:7o(5+2)9d
9:9o(7+1)10d
10:9o(4+1)11d
11:11d(2+1)12n
12:10d(2+1)13n
13:11o(3+1)14d
14:14o(4+1)15d
15:15o(4+1)16d
16:16o(2+1)17d
