RES
1r:r1
REP
REP1:7o(2+1)2d=-1--1
RES
2b:b-dglc-HEX-1:5
3s:n-acetyl
4b:b-dglc-HEX-1:5|6:a
5b:a-dgal-HEX-1:5
6s:n-acetyl
7b:b-dgal-HEX-1:5|6:a
8s:acetyl
9s:acetyl
10b:o-xgro-TRI-0:0|1:aldi
11s:amino
LIN
1:2d(2+1)3n
2:2o(3+1)4d
3:4o(4+1)5d
4:5d(2+1)6n
5:5o(3+1)7d
6:7o(3+1)8n
7:7o(4+1)9n
8:7o(6+2)10d
9:10d(2+1)11n
