RES
1r:r1
REP
REP1:8o(3+1)2d=-1--1
RES
2b:a-dglc-HEX-1:5
3b:a-lman-HEX-1:5|6:d
4b:a-lman-HEX-1:5|6:d
5b:a-lman-HEX-1:5|6:d
6b:a-dgal-HEX-1:5
7b:b-dglc-HEX-1:5
8b:a-lman-HEX-1:5|6:d
9s:(r)-pyruvate
LIN
1:2o(2+1)3d
2:3o(3+1)4d
3:4o(3+1)5d
4:5o(2+1)6d
5:5o(3+1)7d
6:7o(3+1)8d
7:6o(6+2)9n
8:6o(4+2)9n
