RES
1r:r1
REP
REP1:6o(4+1)2d=-1--1
RES
2b:b-dglc-HEX-1:5
3b:b-dgal-HEX-1:5
4b:b-dglc-HEX-1:5
5b:b-dgal-HEX-1:5
6b:a-dglc-HEX-1:5
7b:b-dgal-HEX-1:5
8b:b-dgal-HEX-1:5
9b:b-dgal-HEX-1:5
10b:b-dgal-HEX-1:5
11s:pyruvate
LIN
1:2o(4+1)3d
2:3o(4+1)4d
3:3o(6+1)5d
4:4o(4+1)6d
5:5o(6+1)7d
6:7o(6+1)8d
7:8o(6+1)9d
8:9o(6+1)10d
9:10o(6+2)11n
10:10o(4+2)11n
