RES
1b:b-dglc-HEX-1:5
2s:phosphate
3s:amino
4b:b-dglc-HEX-1:5
5s:phosphate
6s:amino
7b:a-dman-OCT-2:6|1:a|2:keto|3:d
8s:phosphate
9b:a-lgro-dman-HEP-1:5
10b:b-dglc-HEX-1:5
11b:a-dglc-HEX-1:5
12b:a-lgro-dman-HEP-1:5
13b:a-lgro-dman-HEP-1:5
14b:b-dara-HEX-2:5|1:aldi|2:keto
15b:a-dglc-HEX-1:5
16b:a-lgro-dman-HEP-1:5
17s:acetyl
18b:a-dglc-HEX-1:5
19b:b-dglc-HEX-1:5|6:d
20s:n-acetyl
21s:amino
22b:a-dgal-HEX-1:5|6:a
23b:a-dglc-HEX-1:5
24b:a-lxyl-HEX-1:5|3:d|6:d
25s:n-acetyl
26b:b-dgal-HEX-1:5|6:a
27b:a-lxyl-HEX-1:5|3:d|6:d
28a:a1
LIN
1:1o(1+1)2n
2:1d(2+1)3n
3:1o(6+1)4d
4:4o(4+1)5n
5:4d(2+1)6n
6:4o(6+2)7d
7:7o(4+1)8n
8:7o(5+1)9d
9:9o(4+1)10d
10:9o(6+1)11d
11:9o(3+1)12d
12:12o(6+1)13d
13:10o(6+2)14d
14:11o(6+1)15d
15:12o(2+1)16d
16:16o(-1+1)17n
17:16o(7+1)18d
18:16o(3+1)19d
19:19d(2+1)20n
20:18d(2+1)21n
21:19o(3+1)22d
22:22o(4+1)23d
23:23o(4+1)24d
24:23d(2+1)25n
25:23o(3+1)26d
26:26o(2+1)27d
27:26o(-1+-1)28n
ALT
ALT1
ALTSUBGRAPH1
LEAD-IN RES:29
RES
29s:acetyl
ALTSUBGRAPH2
LEAD-IN RES:30
RES
30s:acetyl
