RES
1b:b-dglc-HEX-1:5
2s:n-acetyl
3b:a-dgal-HEX-1:5
4b:b-dgal-HEX-1:4
5b:a-dgal-HEX-1:5
6b:b-dgal-HEX-1:4
7b:a-dgal-HEX-1:5
8b:b-dgal-HEX-1:4
LIN
1:1d(2+1)2n
2:1o(3+1)3d
3:3o(3+1)4d
4:4o(3+1)5d
5:5o(3+1)6d
6:6o(3+1)7d
7:7o(3+1)8d
