RES
1b:a-dgal-HEX-1:5
2b:b-dman-HEX-1:5
3b:a-dgal-HEX-1:5
4b:a-dglc-HEX-1:5
5b:b-dglc-HEX-1:5
6s:n-acetyl
7b:a-dman-HEX-1:5
8b:a-dman-HEX-1:5
9b:a-dman-HEX-1:5
10b:a-dman-HEX-1:5
11b:a-dman-HEX-1:5
12b:a-dman-HEX-1:5
13b:a-dman-HEX-1:5
14s:methyl
LIN
1:1o(3+1)2d
2:2o(3+1)3d
3:2o(2+1)4d
4:3o(3+1)5d
5:4d(2+1)6n
6:4o(3+1)7d
7:7o(3+1)8d
8:8o(3+1)9d
9:9o(3+1)10d
10:10o(3+1)11d
11:11o(2+1)12d
12:12o(2+1)13d
13:13o(3+1)14n
