RES
1b:x-dglc-HEX-x:x|6:d
2s:n-acetyl
3b:a-dgal-HEX-1:5|6:a
4b:b-dglc-HEX-1:5
5s:n-acetyl
6b:b-dgal-HEX-1:5
7b:b-dglc-HEX-1:5|6:d
8s:phosphate
9s:n-acetyl
10b:a-dgal-HEX-1:5|6:a
11b:b-dglc-HEX-1:5
12s:n-acetyl
13b:b-dgal-HEX-1:5
14s:phosphate
LIN
1:1d(2+1)2n
2:1o(3+1)3d
3:3o(4+1)4d
4:4d(2+1)5n
5:4o(3+1)6d
6:4o(6+1)7d
7:6o(6+1)8n
8:6o(4+1)8n
9:7d(2+1)9n
10:7o(3+1)10d
11:10o(4+1)11d
12:11d(2+1)12n
13:11o(3+1)13d
14:13o(6+1)14n
15:13o(4+1)14n
