RES
1r:r1
REP
REP1:8o(6+1)2d=-1--1
RES
2b:a-dglc-HEX-1:5
3s:n-acetyl
4b:b-dman-HEX-1:5
5b:a-dman-HEX-1:5
6b:a-dman-HEX-1:5
7b:a-dglc-HEX-1:5
8b:a-dman-HEX-1:5
9b:a-lman-HEX-1:5|6:d
LIN
1:2d(2+1)3n
2:2o(3+1)4d
3:4o(2+1)5d
4:5o(2+1)6d
5:6o(3+1)7d
6:6o(2+1)8d
7:8o(3+1)9d
