RES
1b:b-dgro-dgal-NON-2:6|1:a|2:keto|3:d
2b:a-dgro-dgal-NON-2:6|1:a|2:keto|3:d
3b:b-dgal-HEX-1:5
4s:methyl
5b:b-dgal-HEX-1:5
6s:methyl
LIN
1:1o(4+2)2d
2:1o(9+1)3d
3:3o(3+1)4n
4:2o(9+1)5d
5:5o(3+1)6n
