RES
1b:a-dman-OCT-2:6|1:a|2:keto|3:d
2b:a-lgro-dman-HEP-1:5
3b:b-dgal-HEX-1:5
4b:a-lgro-dman-HEP-1:5
5b:b-dglc-HEX-1:5
6b:a-lgro-dman-HEP-1:5
7b:a-dgal-HEX-1:5|6:a
8b:a-dglc-HEX-1:5
9b:b-dgal-HEX-1:5
10s:amino
11b:b-dglc-HEX-1:5
12b:b-dglc-HEX-1:5
13s:n-acetyl
14b:a-lman-HEX-1:5|6:d
15b:a-dglc-HEX-1:5
16s:acetyl
17b:a-lman-HEX-1:5|6:d
18s:acetyl
19b:a-dglc-HEX-1:5
20n:n1
LIN
1:1o(5+1)2d
2:2o(4+1)3d
3:2o(3+1)4d
4:4o(2+1)5d
5:4o(7+1)6d
6:4o(3+1)7d
7:7o(4+1)8d
8:8o(4+1)9d
9:8d(2+1)10n
10:8o(6+1)11d
11:11o(4+1)12d
12:12d(2+1)13n
13:12o(4+1)14d
14:14o(3+1)15d
15:15o(6+1)16n
16:15o(3+1)17d
17:17o(2+1)18n
18:17o(3+1)19d
19:19o(2+2)20n
NON
NON1
Parent:19
Linkage:o(2+2)n
SmallMolecule:SMILES CC(C{2}[C@H](O)C(O)=O)=O
Description:2S-hydroxy-4-oxopentanoic acid
