RES
1r:r1
REP
REP1:6o(3+1)2d=-1--1
RES
2b:b-dgal-HEX-1:5
3s:n-acetyl
4s:phosphate
5b:b-dglc-HEX-1:5
6b:a-dgal-HEX-1:5
7b:b-dman-HEX-1:5
8b:b-dglc-HEX-1:5
9s:n-acetyl
LIN
1:2d(2+1)3n
2:2o(6+1)4n
3:2o(3+1)5d
4:5o(4+1)6d
5:6o(4+1)7d
6:7o(6+1)8d
7:7d(2+1)9n
