RES
1b:o-xgro-TRI-0:0|1:aldi
2n:n1
3s:phosphate
4n:n2
5b:a-dglc-HEX-1:5
6s:amino
7b:a-dman-HEX-1:5
8b:a-dman-HEX-1:5
9b:b-dgal-HEX-1:4
10s:phosphate
11b:a-dglc-HEX-1:5
12b:a-dgal-HEX-1:5
13b:a-dgal-HEX-1:5
14s:phosphate
15b:a-dman-HEX-1:5
16b:b-dgal-HEX-1:5
17b:b-dglc-HEX-1:5
18s:phosphate
19b:a-dman-HEX-1:5
20b:b-dglc-HEX-1:5
21b:b-dglc-HEX-1:5
22b:b-dgal-HEX-1:5
23b:b-dglc-HEX-1:5
24s:phosphate
25b:b-dglc-HEX-1:5
26b:a-dman-HEX-1:5
27b:b-dglc-HEX-1:5
28b:b-dgal-HEX-1:5
29b:b-dglc-HEX-1:5
30s:phosphate
31n:n3
32b:b-dglc-HEX-1:5
33b:b-dglc-HEX-1:5
LIN
1:1o(1+1)2n
2:1o(3+1)3n
3:3n(1+1)4n
4:4n(6+1)5d
5:5d(2+1)6n
6:5o(4+1)7d
7:7o(3+1)8d
8:8o(3+1)9d
9:8o(6+1)10n
10:10n(1+1)11o
11:9o(3+1)12d
12:12o(6+1)13d
13:13o(6+1)14n
14:14n(1+1)15o
15:15o(4+1)16d
16:16o(3+1)17d
17:16o(6+1)18n
18:18n(1+1)19o
19:17o(-1+1)20d
20:20o(-1+1)21d
21:19o(4+1)22d
22:22o(3+1)23d
23:22o(6+1)24n
24:23o(-1+1)25d
25:24n(1+1)26o
26:25o(-1+1)27d
27:26o(4+1)28d
28:28o(3+1)29d
29:28o(6+1)30n
30:30n(1+1)31n
31:29o(-1+1)32d
32:32o(-1+1)33d
NON
NON1
Parent:1
Linkage:o(1+1)n
HistoricalEntity:superclass: alcohol residue
NON2
Parent:3
Linkage:n(1+1)n
SmallMolecule:SMILES [6C@H](O)1[5C@H](O)[4C@@H](O)[3C@H](O)[2C@H](O)[1C@H](O)1
Description:myo-inositol
NON3
Parent:30
Linkage:n(1+1)n
HistoricalEntity:superclass: any monosaccharide
