RES
1r:r1
REP
REP1:9o(3+1)2d=-1--1
RES
2b:a-dglc-HEX-1:5
3b:b-dglc-HEX-1:5|6:d
4s:amino
5n:n1
6b:a-dgal-HEX-1:5
7s:acetyl
8s:n-acetyl
9b:b-dglc-HEX-1:5|6:a
10b:a-dglc-HEX-1:5
LIN
1:2o(6+1)3d
2:3d(3+1)4n
3:3o(3+1)5n
4:3o(2+1)6d
5:5n(2+1)7n
6:6d(2+1)8n
7:6o(3+1)9d
8:9o(2+1)10d
NON
NON1
Parent:3
Linkage:o(3+1)n
SmallMolecule:SMILES [3CH3][2C@H](N)[1C](=O)O
Description:(L)-alanine
