RES
1b:o-xtre-TET-0:0|1:aldi
2b:b-lara-PEN-1:4
3b:b-dgal-HEX-1:4
4b:b-lara-PEN-1:4
5b:b-dglc-HEX-1:5
6s:n-acetyl
7b:a-lgal-HEX-1:5|6:d
8s:n-acetyl
LIN
1:1o(1+1)2d
2:2o(3+1)3d
3:3o(6+1)4d
4:3o(2+1)5d
5:5d(2+1)6n
6:5o(3+1)7d
7:7d(2+1)8n
