RES
1b:a-dman-OCT-2:6|1:a|2:keto|3:d
2b:a-dman-OCT-2:6|1:a|2:keto|3:d
3s:phospho-ethanolamine
4b:a-lgro-dman-HEP-1:5
5b:b-dglc-HEX-1:5
6b:a-lgro-dman-HEP-1:5
7b:b-dglc-HEX-1:5
8b:a-lgro-dman-HEP-1:5
9b:b-dgal-HEX-1:5
10s:n-acetyl
LIN
1:1o(4+2)2d
2:1o(7+1)3n
3:1o(5+1)4d
4:4o(4+1)5d
5:4o(3+1)6d
6:6o(3+1)7d
7:6o(7+1)8d
8:8o(7+1)9d
9:7d(2+1)10n
