RES
1b:a-dglc-HEX-1:5
2b:b-dglc-HEX-1:5
3b:b-dglc-HEX-1:5
4b:b-dglc-HEX-1:5
5b:a-dglc-HEX-1:5
6b:a-dglc-HEX-1:5
7b:b-dgal-HEX-1:5
8b:b-dgal-HEX-1:5
9b:a-dgal-HEX-1:5
LIN
1:1o(3+1)2d
2:1o(4+1)3d
3:1o(6+1)4d
4:3o(2+1)5d
5:4o(2+1)6d
6:5o(4+1)7d
7:6o(4+1)8d
8:8o(4+1)9d
