RES
1b:b-dgal-HEX-1:5
2n:n1
3b:a-lman-HEX-1:5|6:d
4b:a-lman-HEX-1:5|6:d
5b:a-lman-HEX-1:5|6:d
6b:b-dman-HEX-1:5
7b:b-dman-HEX-1:5
8b:a-dglc-HEX-1:5
9s:n-acetyl
10s:n-acetyl
11b:b-dgal-HEX-1:5
12s:phosphate
13n:n2
14b:b-dman-HEX-1:5
15b:a-dglc-HEX-1:5
16s:n-acetyl
17b:b-dgal-HEX-1:5
18b:b-dman-HEX-1:5
19b:a-dglc-HEX-1:5
20s:n-acetyl
21b:b-dgal-HEX-1:5
22b:b-dman-HEX-1:5
23b:a-dglc-HEX-1:5
24s:n-acetyl
25b:b-dgal-HEX-1:5
26b:b-dman-HEX-1:5
27b:a-dglc-HEX-1:5
28b:b-dgal-HEX-1:5
29s:n-acetyl
LIN
1:1o(1+7)2n
2:1o(3+1)3d
3:3o(3+1)4d
4:4o(3+1)5d
5:5o(4+1)6d
6:5o(3+1)7d
7:7o(6+1)8d
8:7d(2+1)9n
9:6d(2+1)10n
10:7o(4+1)11d
11:6o(4+1)12n
12:12n(1+2)13n
13:11o(3+1)14d
14:14o(6+1)15d
15:14d(2+1)16n
16:14o(4+1)17d
17:17o(3+1)18d
18:18o(6+1)19d
19:18d(2+1)20n
20:18o(4+1)21d
21:21o(3+1)22d
22:22o(6+1)23d
23:22d(2+1)24n
24:22o(4+1)25d
25:25o(3+1)26d
26:26o(6+1)27d
27:26o(4+1)28d
28:26d(2+1)29n
NON
NON1
Parent:1
Linkage:o(1+7)n
SmallMolecule:SMILES [9CH]1=[8CH][7C](O)=[6CH][5CH]=[4C]1[3CH2][2CH](N)[1C](=O)O
Description:tyrosine
NON2
Parent:12
Linkage:n(1+2)n
SmallMolecule:SMILES [3CH2](O)[2CH](O)[1C](=O)O
Description:glyceric acid
