RES
1r:r1
REP
REP1:4o(6+1)2d=-1--1
RES
2b:b-dglc-HEX-1:5
3b:b-dgal-HEX-1:5
4b:b-dglc-HEX-1:5
5b:b-dgal-HEX-1:5
6b:a-dgro-dgal-NON-2:6|1:a|2:keto|3:d
7s:n-acetyl
LIN
1:2o(4+1)3d
2:3o(3+1)4d
3:4o(3+1)5d
4:5o(3+2)6d
5:6d(5+1)7n
