RES
1r:r1
REP
REP1:10o(2+1)2d=-1--1
RES
2b:a-dgal-HEX-1:5|6:d
3s:n-acetyl
4s:amino
5b:b-dglc-HEX-1:5|6:d
6b:a-lgal-HEX-1:5|6:d
7s:n-acetyl
8b:b-dman-HEX-1:5
9s:n-acetyl
10b:a-dgro-dman-HEP-1:5
11n:n1
LIN
1:2d(2+1)3n
2:2d(4+1)4n
3:2o(3+1)5d
4:5o(2+1)6d
5:5d(3+1)7n
6:5o(4+1)8d
7:8d(2+1)9n
8:8o(3+1)10d
9:10o(6+1)11n
NON
NON1
Parent:10
Linkage:o(6+1)n
SmallMolecule:SMILES [4CH3][3C@@H](O)[2CH2][1C](=O)O
Description:(R)-3-hydroxybutanoic acid
