RES
1r:r1
REP
REP1:5o(4+1)2d=-1--1
RES
2b:b-lman-HEX-1:5|6:d
3b:a-lman-HEX-1:5|6:d
4b:a-lman-HEX-1:5|6:d
5b:b-dglc-HEX-1:5
6b:a-dglc-HEX-1:5
7b:a-dglc-HEX-1:5|6:a
LIN
1:2o(3+1)3d
2:3o(3+1)4d
3:4o(3+1)5d
4:4o(2+1)6d
5:6o(6+1)7d
