RES
1r:r1
REP
REP1:9o(2+1)2d=-1--1
RES
2b:a-dgal-HEX-1:5|6:d
3s:n-acetyl
4s:amino
5b:b-dglc-HEX-1:5|6:d
6b:a-lgal-HEX-1:5|6:d
7s:n-acetyl
8b:a-dman-HEX-1:5
9b:a-HEP-1:5
10s:n-acetyl
LIN
1:2d(4+1)3n
2:2d(2+1)4n
3:2o(3+1)5d
4:5o(2+1)6d
5:5d(3+1)7n
6:5o(4+1)8d
7:8o(3+1)9d
8:8d(2+1)10n
