RES
1b:b-dman-HEX-1:5|6:a
2s:n-acetyl
3b:a-dglc-HEX-1:5
4b:b-dgal-HEX-1:5
5b:a-dglc-HEX-1:5
6s:n-acetyl
7b:a-lgal-HEX-1:5|6:d
8b:a-dgal-HEX-1:5
9s:n-acetyl
LIN
1:1d(2+1)2n
2:1o(3+1)3d
3:1o(4+1)4d
4:3o(2+1)5d
5:4d(2+1)6n
6:4o(3+1)7d
7:7o(3+1)8d
8:7d(2+1)9n
