RES
1r:r1
REP
REP1:4o(3+1)2d=-1--1
RES
2b:b-dgal-HEX-1:5
3s:n-acetyl
4b:a-dglc-HEX-1:5
5s:n-acetyl
6b:a-dgal-HEX-1:5
7b:a-dgro-dgal-NON-2:6|1:a|2:keto|3:d|9:d
8s:n-acetyl
9s:n-acetyl
LIN
1:2d(2+1)3n
2:2o(3+1)4d
3:4d(2+1)5n
4:4o(6+1)6d
5:6o(6+2)7d
6:7d(5+1)8n
7:7d(7+1)9n
