RES
1r:r1
REP
REP1:7o(2+1)2d=-1--1
RES
2b:b-dglc-HEX-1:5
3s:n-acetyl
4b:b-lman-HEX-1:5|6:d
5b:a-dman-OCT-2:6|1:a|2:keto|3:d
6b:a-lman-HEX-1:5|6:d
7b:b-dglc-HEX-1:5|6:d
8s:n-acetyl
LIN
1:2d(2+1)3n
2:2o(4+1)4d
3:4o(3+2)5d
4:5o(5+1)6d
5:6o(3+1)7d
6:7d(3+1)8n
