RES
1r:r1
REP
REP1:10o(2+1)2d=-1--1
RES
2b:a-dglc-HEX-1:5
3s:n-acetyl
4s:phospho-ethanolamine
5b:a-dgal-HEX-1:5
6s:n-acetyl
7b:b-dgal-HEX-1:5
8s:n-acetyl
9s:phosphate
10b:o-drib-PEN-0:0|1:aldi
LIN
1:2d(2+1)3n
2:2o(6+1)4n
3:2o(3+1)5d
4:5d(2+1)6n
5:5o(4+1)7d
6:7d(2+1)8n
7:7o(6+1)9n
8:9n(1+5)10o
