RES
1b:b-dgal-HEX-1:5
2b:a-dman-HEX-1:5|6:d
3b:a-dman-HEX-1:5|6:d
4b:a-dman-HEX-1:5|6:d
5b:b-dman-HEX-1:5|6:d
6b:a-drib-PEN-1:4
7b:b-dman-HEX-1:5|6:d
8b:a-dglc-HEX-1:5
9b:b-dman-HEX-1:5|6:d
10b:b-dman-HEX-1:5|6:d
11b:a-drib-PEN-1:4
12b:b-dman-HEX-1:5|6:d
13b:a-dglc-HEX-1:5
14b:b-dman-HEX-1:5|6:d
15b:b-dman-HEX-1:5|6:d
16b:a-drib-PEN-1:4
17b:b-dman-HEX-1:5|6:d
18b:a-dglc-HEX-1:5
19b:b-dman-HEX-1:5|6:d
20b:b-dman-HEX-1:5|6:d
21b:a-drib-PEN-1:4
22b:b-dman-HEX-1:5|6:d
23b:a-dglc-HEX-1:5
24b:b-dman-HEX-1:5|6:d
25b:b-dman-HEX-1:5|6:d
26b:a-drib-PEN-1:4
27b:b-dman-HEX-1:5|6:d
28b:a-dglc-HEX-1:5
29b:b-dman-HEX-1:5|6:d
30b:b-dman-HEX-1:5|6:d
31b:a-drib-PEN-1:4
32b:b-dman-HEX-1:5|6:d
33s:phosphate
LIN
1:1o(3+1)2d
2:2o(3+1)3d
3:3o(3+1)4d
4:4o(4+1)5d
5:5o(3+1)6d
6:5o(4+1)7d
7:7o(3+1)8d
8:8o(4+1)9d
9:9o(4+1)10d
10:10o(3+1)11d
11:10o(4+1)12d
12:12o(3+1)13d
13:13o(4+1)14d
14:14o(4+1)15d
15:15o(3+1)16d
16:15o(4+1)17d
17:17o(3+1)18d
18:18o(4+1)19d
19:19o(4+1)20d
20:20o(3+1)21d
21:20o(4+1)22d
22:22o(3+1)23d
23:23o(4+1)24d
24:24o(4+1)25d
25:25o(3+1)26d
26:25o(4+1)27d
27:27o(3+1)28d
28:28o(4+1)29d
29:29o(4+1)30d
30:30o(3+1)31d
31:30o(4+1)32d
32:32o(3+1)33n
33:32o(2+1)33n
