RES
1b:x-dman-OCT-2:6|1:a|2:keto|3:d
2b:a-lgro-dman-HEP-1:5
3b:b-dgal-HEX-1:5
4b:a-lgro-dman-HEP-1:5
5b:b-dglc-HEX-1:5
6b:a-dgal-HEX-1:5|6:a
7b:a-lgro-dman-HEP-1:5
8b:a-dglc-HEX-1:5
9b:a-dgal-HEX-1:5|6:a
10s:amino
11b:a-dglc-HEX-1:5
12s:amino
LIN
1:1o(5+1)2d
2:2o(4+1)3d
3:2o(3+1)4d
4:4o(2+1)5d
5:4o(3+1)6d
6:4o(7+1)7d
7:6o(4+1)8d
8:7o(7+1)9d
9:8d(2+1)10n
10:9o(4+1)11d
11:11d(2+1)12n
