RES
1b:b-dgal-HEX-1:5
2s:n-acetyl
3b:a-ltal-HEX-1:5|6:d
4b:a-lman-HEX-1:5|6:d
5b:a-lman-HEX-1:5|6:d
6b:b-dglc-HEX-1:5|6:a
7b:a-dglc-HEX-1:5
8b:a-lman-HEX-1:5|6:d
LIN
1:1d(2+1)2n
2:1o(3+1)3d
3:3o(3+1)4d
4:4o(2+1)5d
5:5o(2+1)6d
6:6o(4+1)7d
7:7o(2+1)8d
