RES
1r:r1
REP
REP1:7o(4+1)2d=-1--1
RES
2b:b-dgal-HEX-1:5
3b:b-dgal-HEX-1:4
4s:phosphate
5b:o-drib-PEN-0:0|1:aldi
6b:a-dgal-HEX-1:5
7b:b-dgal-HEX-1:5
8b:b-dgal-HEX-1:4
9s:n-acetyl
LIN
1:2o(3+1)3d
2:3o(5+1)4n
3:4n(1+5)5o
4:5o(4+1)6d
5:6o(3+1)7d
6:7o(6+1)8d
7:7d(2+1)9n
