RES
1b:a-dglc-HEX-1:5
2s:phosphate
3s:amino
4b:b-dglc-HEX-1:5
5s:phosphate
6s:amino
7b:a-dman-OCT-2:6|1:a|2:keto|3:d
8b:a-dman-OCT-2:6|1:a|2:keto|3:d
9b:a-lgro-dman-HEP-1:5
10s:phosphate
11s:phosphate
12b:a-lgro-dman-HEP-1:5
13s:phosphate
14b:a-dgal-HEX-1:5
15b:a-dglc-HEX-1:5
16s:amino
17b:b-dglc-HEX-1:5
18b:a-dglc-HEX-1:5
19b:a-lman-HEX-1:5|6:d
20b:b-dgal-HEX-1:5|6:d
21s:amino
22b:b-dxyl-PEN-1:5
23b:a-lgro-lman-NON-2:6|1:a|2:keto|3:d|9:d
24s:amino
25s:amino
LIN
1:1o(1+1)2n
2:1d(2+1)3n
3:1o(6+1)4d
4:4o(4+1)5n
5:4d(2+1)6n
6:4o(6+2)7d
7:7o(4+2)8d
8:7o(5+1)9d
9:9o(2+1)10n
10:9o(4+1)11n
11:9o(3+1)12d
12:12o(6+1)13n
13:12o(3+1)14d
14:14o(4+1)15d
15:14d(2+1)16n
16:14o(3+1)17d
17:17o(6+1)18d
18:17o(3+1)19d
19:19o(3+1)20d
20:20d(2+1)21n
21:20o(3+1)22d
22:22o(4+2)23d
23:23d(7+1)24n
24:23d(5+1)25n
