RES
1r:r1
REP
REP1:6o(3+1)2d=-1--1
RES
2b:b-dglc-HEX-1:5
3s:n-acetyl
4b:a-dgal-HEX-1:5
5b:a-dglc-HEX-1:5
6b:b-dglc-HEX-1:5
7s:n-acetyl
8b:b-lman-HEX-1:5|6:d
9s:n-acetyl
LIN
1:2d(2+1)3n
2:2o(3+1)4d
3:4o(4+1)5d
4:4o(3+1)6d
5:6d(2+1)7n
6:6o(4+1)8d
7:8d(2+1)9n
