RES
1r:r1
REP
REP1:6o(2+1)2d=-1--1
RES
2b:a-dgal-HEX-1:5
3b:a-dglc-HEX-1:5
4b:a-lman-HEX-1:5|6:d
5s:acetyl
6b:a-dman-HEX-1:5
7b:a-drib-HEX-1:5|3:d|6:d
LIN
1:2o(6+1)3d
2:2o(3+1)4d
3:4o(3+1)5n
4:4o(4+1)6d
5:6o(3+1)7d
