RES
1r:r1
REP
REP1:10o(2+1)2d=-1--1
RES
2b:a-dglc-HEX-1:5
3b:a-dgal-HEX-1:5
4b:a-lgro-lman-NON-2:6|1:a|2:keto|3:d|9:d
5s:n-acetyl
6s:acetyl
7s:amino
8n:n1
9b:a-dglc-HEX-1:5
10b:b-dgal-HEX-1:4
11s:n-acetyl
LIN
1:2o(6+1)3d
2:3o(6+2)4d
3:4d(5+1)5n
4:4o(4+1)6n
5:4d(7+1)7n
6:4o(7+1)8n
7:4o(8+1)9d
8:9o(3+1)10d
9:9d(2+1)11n
NON
NON1
Parent:4
Linkage:o(7+1)n
SmallMolecule:SMILES [4CH3][3C@@H](O)[2CH2][1C](=O)O
Description:(R)-3-hydroxybutanoic acid
