RES
1b:x-dgal-HEX-x:x
2s:n-acetyl
3b:a-dgal-HEX-1:5
4b:b-dgal-HEX-1:5
5b:a-dglc-HEX-1:5
6s:n-acetyl
7b:b-dglc-HEX-1:5|6:a
8b:a-dglc-HEX-1:5
LIN
1:1d(2+1)2n
2:1o(3+1)3d
3:3o(3+1)4d
4:4o(6+1)5d
5:4d(2+1)6n
6:4o(4+1)7d
7:7o(4+1)8d
