RES
1b:a-dglc-HEX-1:5
2s:phosphate
3s:amino
4b:b-dglc-HEX-1:5
5s:amino
6b:a-dman-OCT-2:6|1:a|2:keto|3:d
7b:a-dman-OCT-2:6|1:a|2:keto|3:d
8b:a-lgro-dman-HEP-1:5
9b:b-dglc-HEX-1:5
10s:phosphate
11b:a-lgro-dman-HEP-1:5
12b:a-lman-HEX-1:5|6:d
13b:a-lgro-dman-HEP-1:5
14b:a-dglc-HEX-1:5
15b:a-lman-HEX-1:5|6:d
16b:a-dglc-HEX-1:5
17b:b-dglc-HEX-1:5
18s:amino
LIN
1:1o(1+1)2n
2:1d(2+1)3n
3:1o(6+1)4d
4:4d(2+1)5n
5:4o(6+2)6d
6:6o(4+2)7d
7:6o(5+1)8d
8:8o(4+1)9d
9:8o(6+1)10n
10:8o(3+1)11d
11:11o(2+1)12d
12:11o(7+1)13d
13:11o(3+1)14d
14:14o(4+1)15d
15:15o(2+1)16d
16:15o(3+1)17d
17:17d(2+1)18n
