RES
1r:r1
REP
REP1:5o(3+1)2d=-1--1
RES
2b:a-dglc-HEX-1:5
3b:a-lman-HEX-1:5|6:d
4b:a-lman-HEX-1:5|6:d
5b:b-dglc-HEX-1:5
6b:a-ltal-HEX-1:5|6:d
7s:n-acetyl
8s:acetyl
LIN
1:2o(2+1)3d
2:3o(2+1)4d
3:4o(2+1)5d
4:4o(3+1)6d
5:5d(2+1)7n
6:6o(3+1)8n
