RES
1b:x-dman-OCT-x:x|1:a|2:keto|3:d
2b:a-HEP-1:5
3b:b-dglc-HEX-1:5
4b:a-HEP-1:5
5b:b-dgal-HEX-1:5
6b:a-dgro-dgal-NON-2:6|1:a|2:keto|3:d
7b:b-dgal-HEX-1:5
8s:n-acetyl
9s:n-acetyl
10b:b-dgal-HEX-1:5
11b:a-dgro-dgal-NON-2:6|1:a|2:keto|3:d
12s:n-acetyl
13b:a-dgro-dgal-NON-2:6|1:a|2:keto|3:d
14s:n-acetyl
LIN
1:1o(5+1)2d
2:2o(4+1)3d
3:2o(3+1)4d
4:4o(3+1)5d
5:5o(3+2)6d
6:5o(4+1)7d
7:6d(5+1)8n
8:7d(2+1)9n
9:7o(3+1)10d
10:10o(3+2)11d
11:11d(5+1)12n
12:11o(8+2)13d
13:13d(5+1)14n
