RES
1r:r1
REP
REP1:8o(2+1)2d=-1--1
RES
2b:b-dglc-HEX-1:5
3s:n-acetyl
4s:acetyl
5b:a-dman-HEX-1:5|6:d
6b:a-dglc-HEX-1:5
7b:a-dman-HEX-1:5|6:d
8b:a-dman-HEX-1:5|6:d
9s:acetyl
10s:acetyl
LIN
1:2d(2+1)3n
2:2o(6+1)4n
3:2o(3+1)5d
4:5o(4+1)6d
5:5o(3+1)7d
6:7o(2+1)8d
7:8o(3+1)9n
8:8o(4+1)10n
