RES
1b:b-dglc-HEX-1:5
2n:n1
3b:b-dgal-HEX-1:5
4b:a-dglc-HEX-1:5
5b:b-dglc-HEX-1:5
6s:n-acetyl
7b:b-dgal-HEX-1:5
8b:a-dgro-dgal-NON-2:6|1:a|2:keto|3:d
9s:n-acetyl
LIN
1:1o(1+1)2n
2:1o(4+1)3d
3:3o(4+1)4d
4:4o(6+1)5d
5:5d(2+1)6n
6:5o(4+1)7d
7:7o(3+2)8d
8:8d(5+1)9n
NON
NON1
Parent:1
Linkage:o(1+1)n
SmallMolecule:SMILES [2CH2](N)[1CH2](O)
Description:ethanolamine
