RES
1n:n1
2s:phosphate
3b:a-dman-OCT-2:6|1:a|2:keto|3:d
4b:a-lgro-dman-HEP-1:5
5b:a-HEP-1:5
6s:phosphate
7b:a-lgro-dman-HEP-1:5
8b:a-lgro-dman-HEP-1:5
LIN
1:1n(4+1)2n
2:1n(6+2)3d
3:3o(5+1)4d
4:4o(6+1)5d
5:4o(7+1)6n
6:4o(3+1)7d
7:7o(2+1)8d
NON
NON1
HistoricalEntity:anhMan-ol1d
