RES
1r:r1
REP
REP1:8o(4+1)2d=-1--1
RES
2b:b-dglc-HEX-1:5
3s:n-acetyl
4b:b-dglc-HEX-1:5
5b:a-lgal-HEX-1:5|6:d
6b:a-dman-HEX-1:5
7b:a-lgal-HEX-1:5|6:d
8b:b-dglc-HEX-1:5|6:a
9b:a-dgal-HEX-1:5
10s:n-acetyl
LIN
1:2d(2+1)3n
2:2o(3+1)4d
3:4o(2+1)5d
4:5o(2+1)6d
5:6o(2+1)7d
6:7o(4+1)8d
7:7o(3+1)9d
8:9d(2+1)10n
