RES
1r:r1
REP
REP1:3o(4+1)2d=-1--1
RES
2b:b-dglc-HEX-1:5
3b:b-dglc-HEX-1:5
4b:a-dman-HEX-1:5
5b:b-dglc-HEX-1:5|6:a
6b:a-dglc-HEX-1:5
7b:b-dglc-HEX-1:5
8b:a-lman-HEX-1:5|6:d
LIN
1:2o(4+1)3d
2:3o(3+1)4d
3:4o(2+1)5d
4:5o(4+1)6d
5:6o(6+1)7d
6:7o(6+1)8d
