RES
1r:r1
REP
REP1:9o(6+1)2n=-1--1
RES
2s:phosphate
3b:o-drib-PEN-0:0|1:aldi
4b:a-dgal-HEX-1:5
5b:b-dgal-HEX-1:5
6s:n-acetyl
7b:b-dgal-HEX-1:4
8b:b-dgal-HEX-1:5
9b:b-dgal-HEX-1:4
LIN
1:2n(1+5)3o
2:3o(1+1)4d
3:4o(3+1)5d
4:5d(2+1)6n
5:5o(6+1)7d
6:7o(6+1)8d
7:8o(3+1)9d
