RES
1b:x-dman-OCT-x:x|1:a|2:keto|3:d
2b:a-lgro-dman-HEP-1:5
3b:b-dglc-HEX-1:5
4b:a-lgro-dman-HEP-1:5
5s:phospho-ethanolamine
6s:phospho-ethanolamine
7b:a-dglc-HEX-1:5
8s:n-acetyl
LIN
1:1o(5+1)2d
2:2o(4+1)3d
3:2o(3+1)4d
4:4o(6+1)5n
5:4o(3+1)6n
6:4o(2+1)7d
7:7d(2+1)8n
