RES
1r:r1
REP
REP1:4o(3+1)2d=-1--1
RES
2b:a-dman-HEX-1:5
3b:a-dman-HEX-1:5
4b:b-dgal-HEX-1:5
5b:a-dglc-HEX-1:5|6:a
6b:a-dgal-HEX-1:5
7b:b-dglc-HEX-1:5
LIN
1:2o(2+1)3d
2:3o(3+1)4d
3:3o(2+1)5d
4:5o(4+1)6d
5:6o(3+1)7d
