RES
1r:r1
REP
REP1:8o(3+1)2d=-1--1
RES
2b:a-lgal-HEX-1:5|6:d
3s:acetyl
4b:b-dglc-HEX-1:5|6:a
5b:b-dglc-HEX-1:5
6s:n-acetyl
7b:b-dgal-HEX-1:5
8b:b-drib-PEN-1:4
9b:a-lgal-HEX-1:5|6:d
LIN
1:2o(3+1)3n
2:2o(4+1)4d
3:4o(4+1)5d
4:5d(2+1)6n
5:5o(3+1)7d
6:7o(4+1)8d
7:7o(2+1)9d
