RES
1r:r1
REP
REP1:9o(2+1)2d=-1--1
RES
2b:a-xtal-HEX-1:5|6:d
3b:b-xglc-HEX-1:5
4b:a-xtal-HEX-1:5|6:d
5b:b-xglc-HEX-1:5
6b:b-xtal-HEX-1:5|6:d
7b:b-xtal-HEX-1:5|6:d
8b:b-xtal-HEX-1:5|6:d
9b:a-xtal-HEX-1:5|6:d
10b:b-xglc-HEX-1:5
LIN
1:2o(3+1)3d
2:2o(2+1)4d
3:4o(3+1)5d
4:4o(2+1)6d
5:6o(3+1)7d
6:7o(3+1)8d
7:8o(3+1)9d
8:9o(3+1)10d
