RES
1r:r1
REP
REP1:7o(3+1)2d=-1--1
RES
2b:b-lgal-HEX-1:5|6:a
3s:n-acetyl
4s:acetyl
5b:b-dman-HEX-1:5|6:a
6s:n-acetyl
7b:b-dglc-HEX-1:5
8s:n-acetyl
LIN
1:2d(2+1)3n
2:2o(4+1)4n
3:2o(3+1)5d
4:5d(2+1)6n
5:5o(4+1)7d
6:7d(2+1)8n
