RES
1r:r1
REP
REP1:6o(2+1)2d=-1--1
RES
2b:b-dglc-HEX-1:5
3s:n-acetyl
4b:a-dgal-HEX-1:5
5b:b-dman-HEX-1:5
6b:b-dgal-HEX-1:5
7s:(r)-pyruvate
LIN
1:2d(2+1)3n
2:2o(3+1)4d
3:4o(4+1)5d
4:5o(4+1)6d
5:6o(4+2)7n
6:6o(3+2)7n
