RES
1r:r1
REP
REP1:5o(4+1)2n=-1--1
RES
2s:phosphate
3b:o-xgro-TRI-0:0|1:aldi
4s:phosphate
5b:a-dglc-HEX-1:5
6s:n-acetyl
7n:n1
LIN
1:2n(1+3)3o
2:3o(1+1)4n
3:4n(1+1)5o
4:5d(2+1)6n
5:5o(6+1)7n
NON
NON1
Parent:5
Linkage:o(6+1)n
SmallMolecule:SMILES [3CH3][2C@@H](N)[1C](=O)O
Description:(D)-alanine
