RES
1r:r1
REP
REP1:5n(6+1)2d=-1--1
RES
2b:b-dglc-HEX-1:5
3s:n-acetyl
4b:b-dman-HEX-1:5
5a:a1
6s:n-acetyl
LIN
1:2d(2+1)3n
2:2o(4+1)4d
3:4o(4+1)5n
4:4d(2+1)6n
ALT
ALT1
ALTSUBGRAPH1
LEAD-IN RES:7
RES
7b:a-dglc-HEX-1:5
8s:n-acetyl
LIN
1:7d(2+1)8n
ALTSUBGRAPH2
LEAD-IN RES:9
RES
9b:a-dgal-HEX-1:5
10s:n-acetyl
LIN
1:9d(2+1)10n
