RES
1b:b-dglc-HEX-1:5
2b:a-lgal-HEX-x:x|6:d
3s:n-acetyl
4b:b-dgal-HEX-1:5
5b:b-dglc-HEX-1:5
6b:a-lgal-HEX-1:5|6:d
7a:a1
8s:n-acetyl
9b:b-dgal-HEX-1:5
10b:b-dglc-HEX-1:5
11b:a-lgal-HEX-1:5|6:d
12a:a2
13s:n-acetyl
14b:b-dgal-HEX-1:5
15b:b-dglc-HEX-1:5
16b:a-lgal-HEX-1:5|6:d
17a:a3
18s:n-acetyl
19b:b-dgal-HEX-1:5
20b:b-dglc-HEX-1:5
21b:a-lgal-HEX-1:5|6:d
22a:a4
23s:n-acetyl
24b:b-dgal-HEX-1:5
25b:b-dglc-HEX-1:5
26b:a-lgal-HEX-1:5|6:d
27a:a5
28s:n-acetyl
29b:b-dgal-HEX-1:5
30b:b-dglc-HEX-1:5
31b:a-lgal-HEX-x:x|6:d
32s:n-acetyl
33b:b-dgal-HEX-1:5
34b:a-lgal-HEX-x:x|6:d
LIN
1:1o(3+1)2d
2:1d(2+1)3n
3:1o(4+1)4d
4:4o(3+1)5d
5:5o(3+1)6d
6:5o(6+1)7n
7:5d(2+1)8n
8:5o(4+1)9d
9:9o(3+1)10d
10:10o(3+1)11d
11:10o(6+1)12n
12:10d(2+1)13n
13:10o(4+1)14d
14:14o(3+1)15d
15:15o(3+1)16d
16:15o(6+1)17n
17:15d(2+1)18n
18:15o(4+1)19d
19:19o(3+1)20d
20:20o(3+1)21d
21:20o(6+1)22n
22:20d(2+1)23n
23:20o(4+1)24d
24:24o(3+1)25d
25:25o(3+1)26d
26:25o(6+1)27n
27:25d(2+1)28n
28:25o(4+1)29d
29:29o(3+1)30d
30:30o(3+1)31d
31:30d(2+1)32n
32:30o(4+1)33d
33:33o(2+1)34d
ALT
ALT1
ALTSUBGRAPH1
LEAD-IN RES:35
RES
35b:a-dgal-HEX-1:5
ALTSUBGRAPH2
LEAD-IN RES:36
RES
36b:a-dglc-HEX-1:5
ALT2
ALTSUBGRAPH1
LEAD-IN RES:37
RES
37b:a-dgal-HEX-1:5
ALTSUBGRAPH2
LEAD-IN RES:38
RES
38b:a-dglc-HEX-1:5
ALT3
ALTSUBGRAPH1
LEAD-IN RES:39
RES
39b:a-dgal-HEX-1:5
ALTSUBGRAPH2
LEAD-IN RES:40
RES
40b:a-dglc-HEX-1:5
ALT4
ALTSUBGRAPH1
LEAD-IN RES:41
RES
41b:a-dgal-HEX-1:5
ALTSUBGRAPH2
LEAD-IN RES:42
RES
42b:a-dglc-HEX-1:5
ALT5
ALTSUBGRAPH1
LEAD-IN RES:43
RES
43b:a-dgal-HEX-1:5
ALTSUBGRAPH2
LEAD-IN RES:44
RES
44b:a-dglc-HEX-1:5
