RES
1r:r1
REP
REP1:11o(4+1)2d=-1--1
RES
2b:a-dgal-HEX-1:5
3s:amino
4b:a-dgal-HEX-1:5|6:a
5s:amino
6n:n1
7b:b-dgal-HEX-1:5
8s:amino
9n:n2
10b:b-dglc-HEX-1:5
11b:a-dglc-HEX-1:5|6:a
12s:amino
LIN
1:2d(2+1)3n
2:2o(4+1)4d
3:4d(2+1)5n
4:4o(2+1)6n
5:4o(4+1)7d
6:7d(2+1)8n
7:6n(2+1)9n
8:7o(3+1)10d
9:10o(4+1)11d
10:10d(2+1)12n
NON
NON1
Parent:4
Linkage:o(2+1)n
SmallMolecule:SMILES [3CH2](S)[2C@H](N)[1C](=O)O
Description:(L)-cysteine
NON2
Parent:6
Linkage:n(2+1)n
HistoricalEntity:superclass: aminoacid
