RES
1b:a-dman-OCT-2:6|1:a|2:keto|3:d
2s:diphospho-ethanolamine
3b:a-lgro-dman-HEP-1:5
4b:b-dglc-HEX-1:5
5b:a-lgro-dman-HEP-1:5
6s:phospho-ethanolamine
7b:a-lgro-dman-HEP-1:5
8s:phosphate
9n:n1
10b:b-dglc-HEX-1:5
11b:b-dgal-HEX-1:5
12s:acetyl
LIN
1:1o(4+1)2n
2:1o(5+1)3d
3:3o(4+1)4d
4:3o(3+1)5d
5:5o(6+1)6n
6:5o(2+1)7d
7:4o(6+1)8n
8:8n(1+1)9n
9:7o(2+1)10d
10:10o(4+1)11d
11:10o(6+1)12n
NON
NON1
Parent:8
Linkage:n(1+1)n
SmallMolecule:SMILES C[N+](C)(C)[2CH2][1CH2]O
Description:choline
