RES
1b:x-dman-OCT-x:x|1:a|2:keto|3:d
2b:a-lgro-dman-HEP-1:5
3s:phosphate
4b:a-lgro-dman-HEP-1:5
5b:a-dgro-dman-HEP-1:5
6b:b-dgal-HEX-1:5
7b:a-dgro-dman-HEP-1:5
8b:a-dgro-dman-HEP-1:5
9b:a-dglc-HEX-1:5
10b:a-dglc-HEX-1:5
11b:a-dglc-HEX-1:5
12b:a-dglc-HEX-1:5
13b:a-dgro-dman-HEP-1:5
14b:a-dglc-HEX-1:5
15b:a-dgro-dman-HEP-1:5
16b:a-dgro-dman-HEP-1:5
17b:a-dgro-dman-HEP-1:5
18b:a-dgro-dman-HEP-1:5
19b:a-dgro-dman-HEP-1:5
20n:n1
LIN
1:1o(5+1)2d
2:2o(7+1)3n
3:2o(3+1)4d
4:4o(2+1)5d
5:5o(7+1)6d
6:5o(2+1)7d
7:7o(7+1)8d
8:7o(2+1)9d
9:6o(4+1)10d
10:10o(3+1)11d
11:9o(6+1)12d
12:8o(2+1)13d
13:12o(6+1)14d
14:13o(6+1)15d
15:15o(3+1)16d
16:16o(3+1)17d
17:17o(3+1)18d
18:18o(3+1)19d
19:19o(3+-1)20n
NON
NON1
Parent:19
Linkage:o(3+-1)n
HistoricalEntity:Lewis (x/y) antigen-O-antigen
