RES
1r:r1
REP
REP1:9o(4+1)2d=-1--1
RES
2b:b-dglc-HEX-1:5|6:d
3s:n-formyl
4b:b-dglc-HEX-1:5|6:d
5s:n-acetyl
6b:a-dgal-HEX-1:5|6:a
7s:n-acetyl
8s:amino
9b:a-dgal-HEX-1:5|6:a
10s:n-acetyl
11s:amino
LIN
1:2d(4+1)3n
2:2o(2+1)4d
3:4d(2+1)5n
4:4o(3+1)6d
5:6d(2+1)7n
6:6d(6+1)8n
7:6o(4+1)9d
8:9d(2+1)10n
9:9d(6+1)11n
