RES
1r:r1
REP
REP1:7o(4+1)2d=-1--1
RES
2b:b-dgal-HEX-1:5
3s:n-acetyl
4b:a-dgal-HEX-1:5
5s:n-acetyl
6b:b-dgal-HEX-1:5
7b:a-lgal-HEX-1:5|6:d
8a:a1
LIN
1:2d(2+1)3n
2:2o(3+1)4d
3:4d(2+1)5n
4:4o(3+1)6d
5:6o(2+1)7d
6:7o(-1+-1)8n
ALT
ALT1
ALTSUBGRAPH1
LEAD-IN RES:9
RES
9s:acetyl
ALTSUBGRAPH2
LEAD-IN RES:10
RES
10s:acetyl
