RES
1b:a-dglc-HEX-1:5
2b:a-dgal-HEX-1:5
3b:a-dglc-HEX-1:5
4b:a-dglc-HEX-1:5
5b:a-lgro-dman-HEP-1:5
6b:b-dglc-HEX-1:5
7b:a-dglc-HEX-1:5
8s:n-acetyl
9b:a-lman-HEX-1:5|6:d
10b:a-dglc-HEX-1:5
LIN
1:1o(6+1)2d
2:1o(3+1)3d
3:3o(2+1)4d
4:4o(6+1)5d
5:5o(7+1)6d
6:6o(6+1)7d
7:6d(2+1)8n
8:6o(3+1)9d
9:9o(3+1)10d
