RES
1b:x-dglc-HEX-1:5
2s:n-acetyl
3b:b-dglc-HEX-1:5
4s:n-acetyl
5b:b-dman-HEX-1:5
6b:a-dman-HEX-1:5
7b:a-dman-HEX-1:5
8b:a-dman-HEX-1:5
9b:b-dglc-HEX-1:5
10s:n-acetyl
11b:b-dgal-HEX-1:5
12b:b-dglc-HEX-1:5
13s:n-acetyl
14b:b-dgal-HEX-1:5
15b:b-dglc-HEX-1:5
16b:b-dgal-HEX-1:5
17s:n-acetyl
LIN
1:1d(2+1)2n
2:1o(4+1)3d
3:3d(2+1)4n
4:3o(4+1)5d
5:5o(3+1)6d
6:5o(6+1)7d
7:6o(2+1)8d
8:7o(3+1)9d
9:9d(2+1)10n
10:9o(4+1)11d
11:11o(3+1)12d
12:12d(2+1)13n
13:12o(4+1)14d
14:14o(3+1)15d
15:15o(4+1)16d
16:15d(2+1)17n
