RES
1r:r1
REP
REP1:6o(3+1)2d=-1--1
RES
2b:a-dglc-HEX-1:5
3b:a-dman-HEX-1:5
4b:a-dglc-HEX-1:5|6:a
5b:a-dgro-dgal-NON-2:6|1:a|2:keto|3:d
6b:b-dglc-HEX-1:5
7s:acetyl
LIN
1:2o(3+1)3d
2:3o(3+1)4d
3:4o(4+2)5d
4:4o(2+1)6d
5:4o(3+1)7n
