RES
1b:b-lman-HEX-1:5|6:d
2s:methyl
3b:a-dglc-HEX-1:5
4b:a-lman-HEX-1:5|6:d
5b:b-dglc-HEX-1:5
6b:b-dglc-HEX-1:5
7b:b-lman-HEX-1:5|6:d
LIN
1:1o(1+1)2n
2:1o(3+1)3d
3:3o(3+1)4d
4:3o(6+1)5d
5:3o(4+1)6d
6:6o(4+1)7d
