RES
1b:a-dman-HEX-1:5
2s:phosphate
3b:b-dgal-HEX-1:5
4s:phosphate
5b:a-dman-HEX-1:5
6b:b-dgal-HEX-1:5
7s:phosphate
8b:a-dman-HEX-1:5
9b:b-dgal-HEX-1:5
10s:phosphate
11b:a-dman-HEX-1:5
12b:b-dgal-HEX-1:5
13s:phosphate
14b:a-dman-HEX-1:5
15b:b-dgal-HEX-1:5
16s:phosphate
17b:a-dman-HEX-1:5
18b:b-dgal-HEX-1:5
LIN
1:1o(1+1)2n
2:1o(2+1)3d
3:3o(6+1)4n
4:4n(1+1)5o
5:5o(4+1)6d
6:6o(6+1)7n
7:7n(1+1)8o
8:8o(4+1)9d
9:9o(6+1)10n
10:10n(1+1)11o
11:11o(4+1)12d
12:12o(6+1)13n
13:13n(1+1)14o
14:14o(4+1)15d
15:15o(6+1)16n
16:16n(1+1)17o
17:17o(4+1)18d
