RES
1b:a-dman-OCT-2:6|1:a|2:keto|3:d
2b:a-lgro-dman-HEP-1:5
3b:b-dglc-HEX-1:5
4b:a-lgro-dman-HEP-1:5
5b:a-dglc-HEX-1:5
6b:a-dglc-HEX-1:5
7b:b-dgal-HEX-1:5
8s:n-acetyl
LIN
1:1o(5+1)2d
2:2o(4+1)3d
3:2o(3+1)4d
4:4o(3+1)5d
5:4o(2+1)6d
6:5o(4+1)7d
7:6d(2+1)8n
