RES
1r:r1
REP
REP1:10o(3+1)2d=-1--1
RES
2b:b-dglc-HEX-1:5|6:a
3b:b-dglc-HEX-1:5|6:a
4s:n-acetyl
5s:n-acetyl
6b:b-dman-HEX-1:5|6:a
7s:n-acetyl
8s:n-acetyl
9n:n1
10b:a-dglc-HEX-1:5|6:d
11s:n-acetyl
12s:amino
13n:n2
LIN
1:2o(4+1)3d
2:3d(2+1)4n
3:3d(3+1)5n
4:3o(4+1)6d
5:6d(3+1)7n
6:6d(2+1)8n
7:6o(6+2)9n
8:6o(4+1)10d
9:10d(2+1)11n
10:10d(4+1)12n
11:10o(4+1)13n
NON
NON1
Parent:6
Linkage:o(6+2)n
SmallMolecule:SMILES [3CH3][2C@H](N)[1C](=O)O
Description:(L)-alanine
NON2
Parent:10
Linkage:o(4+1)n
SmallMolecule:SMILES [4CH3][3C@H](O)[2CH2][1C](=O)O
Description:(S)-3-hydroxybutanoic acid
