RES
1r:r1
REP
REP1:7o(3+1)2d=-1--1
RES
2b:b-dglc-HEX-1:5
3a:a1
4b:b-dglc-HEX-1:5
5b:b-dglc-HEX-1:5|6:a
6a:a2
7b:b-dglc-HEX-1:5
8s:pyruvate
LIN
1:2o(6+1)3n
2:3n(4+1)4d
3:3n(6+1)5d
4:3n(3+1)6n
5:6n(3+1)7d
6:7o(6+2)8n
7:7o(4+2)8n
ALT
ALT1
ALTSUBGRAPH1
LEAD-IN RES:9
LEAD-OUT RES:9+5|9+4|9+6
RES
9b:b-dgal-HEX-1:5
ALTSUBGRAPH2
LEAD-IN RES:10
LEAD-OUT RES:10+5|10+4|10+6
RES
10b:a-dgal-HEX-1:5
ALT2
ALTSUBGRAPH1
LEAD-IN RES:11
LEAD-OUT RES:11+7
RES
11b:b-dgal-HEX-1:5
ALTSUBGRAPH2
LEAD-IN RES:12
LEAD-OUT RES:12+7
RES
12b:a-dgal-HEX-1:5
