RES
1b:a-lman-HEX-1:5|6:d
2b:b-dglc-HEX-1:5
3s:n-acetyl
4b:a-lman-HEX-1:5|6:d
5b:b-dglc-HEX-1:5
6s:n-acetyl
7b:a-lman-HEX-1:5|6:d
8b:b-dglc-HEX-1:5
9s:n-acetyl
10b:a-lman-HEX-1:5|6:d
11b:b-dglc-HEX-1:5
12s:n-acetyl
13b:a-lman-HEX-1:5|6:d
14b:b-dman-OCT-2:6|1:a|2:keto|3:d
LIN
1:1o(4+1)2d
2:2d(2+1)3n
3:2o(3+1)4d
4:4o(4+1)5d
5:5d(2+1)6n
6:5o(3+1)7d
7:7o(4+1)8d
8:8d(2+1)9n
9:8o(3+1)10d
10:10o(4+1)11d
11:11d(2+1)12n
12:11o(3+1)13d
13:13o(3+2)14d
