RES
1r:r1
REP
REP1:17o(6+1)2d=-1--1
RES
2b:b-dgal-HEX-1:5
3b:b-dgal-HEX-1:5
4b:a-lara-PEN-1:4
5b:a-lara-PEN-1:4
6b:b-dgal-HEX-1:5
7b:a-lara-PEN-1:4
8b:a-lara-PEN-1:4
9b:b-dgal-HEX-1:5
10b:a-lara-PEN-1:4
11b:b-dgal-HEX-1:5
12b:b-dgal-HEX-1:5
13b:b-dgal-HEX-1:5
14b:a-lara-PEN-1:4
15b:a-lara-PEN-1:4
16b:a-lara-PEN-1:4
17b:b-dgal-HEX-1:5
18b:a-lara-PEN-1:4
LIN
1:2o(6+1)3d
2:2o(3+1)4d
3:4o(3+1)5d
4:3o(6+1)6d
5:4o(5+1)7d
6:3o(3+1)8d
7:7o(5+1)9d
8:8o(5+1)10d
9:6o(4+1)11d
10:10o(5+1)12d
11:11o(6+1)13d
12:11o(3+1)14d
13:14o(3+1)15d
14:14o(5+1)16d
15:13o(4+1)17d
16:17o(3+1)18d
