RES
1b:x-dman-OCT-x:x|1:a|2:keto|3:d
2b:b-dglc-HEX-1:5|6:d
3s:n-acetyl
4b:x-dman-HEX-1:5
5b:a-lgal-HEX-1:5|6:d
6s:methyl
7b:a-lgal-HEX-1:5|6:d
8s:methyl
9b:a-ltal-HEX-1:5|6:d
10b:a-dglc-HEX-1:5|6:a
11s:methyl
12s:methyl
13b:a-lgal-HEX-1:5|6:d
14s:methyl
15b:a-ltal-HEX-1:5|6:d
16b:a-dglc-HEX-1:5|6:a
17s:methyl
18s:methyl
19b:a-lgal-HEX-1:5|6:d
20s:methyl
21b:a-ltal-HEX-1:5|6:d
22b:a-dglc-HEX-1:5|6:a
23s:methyl
24s:methyl
25b:a-lgal-HEX-1:5|6:d
26s:methyl
27b:a-ltal-HEX-1:5|6:d
28b:a-dglc-HEX-1:5|6:a
29s:methyl
30s:methyl
31b:a-lgal-HEX-1:5|6:d
32s:methyl
33b:a-ltal-HEX-1:5|6:d
34b:a-dglc-HEX-1:5|6:a
35s:methyl
36s:methyl
37b:a-lgal-HEX-1:5|6:d
38s:methyl
39s:methyl
40s:methyl
LIN
1:1o(4+1)2d
2:2d(2+1)3n
3:2o(3+1)4d
4:4o(3+1)5d
5:5o(2+1)6n
6:5o(3+1)7d
7:7o(2+1)8n
8:7o(3+1)9d
9:7o(4+1)10d
10:9o(3+1)11n
11:10o(6+1)12n
12:10o(4+1)13d
13:13o(2+1)14n
14:13o(3+1)15d
15:13o(4+1)16d
16:15o(3+1)17n
17:16o(6+1)18n
18:16o(4+1)19d
19:19o(2+1)20n
20:19o(3+1)21d
21:19o(4+1)22d
22:22o(6+1)23n
23:21o(3+1)24n
24:22o(4+1)25d
25:25o(2+1)26n
26:25o(3+1)27d
27:25o(4+1)28d
28:27o(3+1)29n
29:28o(6+1)30n
30:28o(4+1)31d
31:31o(2+1)32n
32:31o(3+1)33d
33:31o(4+1)34d
34:33o(3+1)35n
35:34o(6+1)36n
36:34o(4+1)37d
37:37o(2+1)38n
38:37o(4+1)39n
39:37o(3+1)40n
