RES
1n:n1
2s:phosphate
3n:n2
4b:a-dglc-HEX-1:5
5s:amino
6b:a-dman-HEX-1:5
7b:a-dman-HEX-1:5
8b:a-dman-HEX-1:5
9b:b-dgal-HEX-1:4
10b:a-dman-HEX-1:5
11b:b-dgal-HEX-1:4
LIN
1:1n(1+1)2n
2:2n(1+1)3n
3:3n(6+1)4d
4:4d(2+1)5n
5:4o(4+1)6d
6:6o(6+1)7d
7:7o(2+1)8d
8:8o(3+1)9d
9:8o(2+1)10d
10:10o(3+1)11d
NON
NON1
HistoricalEntity:superclass: ceramide
NON2
Parent:2
Linkage:n(1+1)n
SmallMolecule:SMILES [6C@H](O)1[5C@H](O)[4C@@H](O)[3C@H](O)[2C@H](O)[1C@H](O)1
Description:myo-inositol
