RES
1r:r1
REP
REP1:8o(3+1)2d=-1--1
RES
2b:b-dgal-HEX-1:5
3s:n-acetyl
4b:a-dgal-HEX-1:5
5s:n-acetyl
6b:a-dgal-HEX-1:5
7s:n-acetyl
8b:a-dgal-HEX-1:5|6:a
9s:amino
10b:a-dgal-HEX-1:5|6:d
11s:n-formyl
LIN
1:2d(2+1)3n
2:2o(3+1)4d
3:4d(2+1)5n
4:4o(4+1)6d
5:6d(2+1)7n
6:6o(4+1)8d
7:8d(6+1)9n
8:8o(4+1)10d
9:10d(3+1)11n
