RES
1b:x-dman-OCT-x:x|1:a|2:keto|3:d
2b:a-dgro-dtal-OCT-2:6|1:a|2:keto
3b:a-lgro-dman-HEP-1:5
4b:b-dglc-HEX-1:5
5b:a-lgro-dman-HEP-1:5
6b:a-dglc-HEX-1:5
7b:a-xman-HEX-1:5|6:d
8b:a-dgal-HEX-1:5|6:a
9b:a-dglc-HEX-1:5
10b:b-dglc-HEX-1:5
11s:n-acetyl
12b:b-dglc-HEX-1:5
13s:n-acetyl
14b:b-dman-HEX-1:5|6:a
15s:amino
16s:acetyl
17n:n1
18b:a-dgro-dgal-NON-2:6|1:a|2:keto|3:d|9:d
19s:amino
20s:n-acetyl
21n:n2
LIN
1:1o(4+2)2d
2:1o(5+1)3d
3:3o(4+1)4d
4:3o(3+1)5d
5:5o(7+1)6d
6:5o(2+1)7d
7:5o(3+1)8d
8:8o(4+1)9d
9:9o(6+1)10d
10:10d(2+1)11n
11:10o(4+1)12d
12:12d(2+1)13n
13:12o(3+1)14d
14:14d(2+1)15n
15:14o(3+1)16n
16:14o(2+1)17n
17:14o(4+2)18d
18:18d(7+1)19n
19:18d(5+1)20n
20:18o(7+1)21n
NON
NON1
Parent:14
Linkage:o(2+1)n
SmallMolecule:SMILES [3CH3][2CH](N)[1C](=O)O
Description:alanine
NON2
Parent:18
Linkage:o(7+1)n
SmallMolecule:SMILES [3CH3][2CH](N)[1C](=O)O
Description:alanine
