RES
1b:a-dman-OCT-2:6|1:a|2:keto|3:d
2b:a-dman-OCT-2:6|1:a|2:keto|3:d
3b:a-lgro-dman-HEP-1:5
4s:phospho-ethanolamine
5b:b-dglc-HEX-1:5
6b:a-lgro-dman-HEP-1:5
7s:phospho-ethanolamine
8b:a-dglc-HEX-1:5
9b:a-dglc-HEX-1:5
10b:b-dgal-HEX-1:5
11b:b-dgal-HEX-1:5
12s:n-acetyl
13b:b-dglc-HEX-1:5
14s:n-acetyl
15b:b-dgal-HEX-1:5
16b:b-dgal-HEX-1:5
17s:n-acetyl
LIN
1:1o(4+2)2d
2:1o(5+1)3d
3:3o(-1+1)4n
4:3o(4+1)5d
5:3o(3+1)6d
6:6o(-1+1)7n
7:6o(2+1)8d
8:6o(3+1)9d
9:5o(4+1)10d
10:9o(4+1)11d
11:8d(2+1)12n
12:10o(3+1)13d
13:13d(2+1)14n
14:13o(4+1)15d
15:15o(3+1)16d
16:16d(2+1)17n
