RES
1r:r1
REP
REP1:7o(1+1)2n=-1--1
RES
2s:phosphate
3b:o-xgro-TRI-0:0|1:aldi
4b:b-dgal-HEX-1:5
5s:n-acetyl
6s:phosphate
7b:o-xgro-TRI-0:0|1:aldi
LIN
1:2n(1+3)3o
2:3o(2+1)4d
3:4d(2+1)5n
4:4o(4+1)6n
5:6n(1+3)7o
