RES
1r:r1
REP
REP1:8o(4+1)2d=-1--1
RES
2b:b-dgal-HEX-1:5|6:d
3s:n-acetyl
4s:acetyl
5b:b-dman-HEX-1:5|6:a
6s:n-acetyl
7s:n-acetyl
8b:b-dman-HEX-1:5|6:a
9s:n-acetyl
10s:amino
11n:n1
LIN
1:2d(2+1)3n
2:2o(4+1)4n
3:2o(3+1)5d
4:5d(2+1)6n
5:5d(3+1)7n
6:5o(4+1)8d
7:8d(2+1)9n
8:8d(3+1)10n
9:8o(3+1)11n
NON
NON1
Parent:8
Linkage:o(3+1)n
SmallMolecule:SMILES [2CH3][1C](=N)O
Description:acetimidic acid
