RES
1r:r1
REP
REP1:6o(6+1)2d=-1--1
RES
2b:a-dgal-HEX-1:5
3b:b-dglc-HEX-1:5
4b:b-dgal-HEX-1:5
5b:b-dglc-HEX-1:5|6:a
6b:b-dglc-HEX-1:5
7s:amino
8s:amino
9s:amino
10s:amino
LIN
1:2o(6+1)3d
2:2o(3+1)4d
3:2o(4+1)5d
4:4o(3+1)6d
5:4d(2+1)7n
6:3d(2+1)8n
7:5d(2+1)9n
8:5d(3+1)10n
