RES
1b:a-dglc-HEX-1:5
2s:n-acetyl
3n:n1
4b:b-dgal-HEX-1:4
5b:b-dgal-HEX-1:5
6b:b-dgal-HEX-1:4
7b:b-dgal-HEX-1:5
8b:b-dgal-HEX-1:5
LIN
1:1d(2+1)2n
2:1o(1+3)3n
3:1o(4+1)4d
4:1o(6+1)5d
5:4o(2+1)6d
6:5o(3+1)7d
7:5o(2+1)8d
NON
NON1
Parent:1
Linkage:o(1+3)n
SmallMolecule:SMILES [4CH3][3C@@H](O)[2C@H](N)[1C](=O)O
Description:(L)-threonine
