RES
1b:b-dgal-HEX-1:5
2b:a-dgro-dgal-NON-2:6|1:a|2:keto|3:d
3b:b-dgal-HEX-1:5
4s:n-acetyl
5s:n-acetyl
6b:b-dgal-HEX-1:5
7b:a-dgro-dgal-NON-2:6|1:a|2:keto|3:d
8s:n-acetyl
9b:a-dgro-dgal-NON-2:6|1:a|2:keto|3:d
10s:n-acetyl
LIN
1:1o(3+2)2d
2:1o(4+1)3d
3:3d(2+1)4n
4:2d(5+1)5n
5:3o(3+1)6d
6:6o(3+2)7d
7:7d(5+1)8n
8:7o(8+2)9d
9:9d(5+1)10n
