RES
1r:r1
REP
REP1:13o(3+1)2d=-1--1
RES
2b:a-dglc-HEX-1:5
3s:n-acetyl
4s:acetyl
5b:b-dgal-HEX-1:5
6b:a-dglc-HEX-1:5
7s:phosphate
8b:b-dglc-HEX-1:5
9s:acetyl
10s:n-acetyl
11s:acetyl
12b:o-dgro-TRI-0:0|1:aldi
13b:b-dglc-HEX-1:5|6:d
14s:n-acetyl
LIN
1:2d(2+1)3n
2:2o(6+1)4n
3:2o(3+1)5d
4:5o(4+1)6d
5:5o(3+1)7n
6:5o(2+1)8d
7:8o(3+1)9n
8:8d(2+1)10n
9:8o(6+1)11n
10:7n(1+1)12o
11:12o(3+1)13d
12:13d(4+1)14n
