RES
1b:a-dman-OCT-2:6|1:a|2:keto|3:d
2b:a-dman-HEX-1:5
3b:b-dglc-HEX-1:5
4b:b-dman-HEX-1:5
5b:a-dglc-HEX-1:5
6b:a-dglc-HEX-1:5
7n:n1
8b:a-dgal-HEX-1:5
9s:n-acetyl
LIN
1:1o(5+1)2d
2:2o(2+1)3d
3:2o(4+1)4d
4:4o(3+1)5d
5:3o(2+1)6d
6:4o(4+1)7n
7:4o(2+1)8d
8:8d(2+1)9n
NON
NON1
Parent:4
Linkage:o(4+1)n
HistoricalEntity:O-antigen
