RES
1b:o-xgro-TRI-0:0|1:aldi
2n:n1
3s:phosphate
4n:n2
5a:a1
6b:a-dglc-HEX-1:5
7s:amino
8b:a-dman-HEX-1:5
9b:a-dman-HEX-1:5
10b:a-dgal-HEX-1:5
11b:a-dman-HEX-1:5
12b:x-dgal-HEX-1:5
13n:n3
14b:b-dgal-HEX-1:5
15n:n4
16b:b-dglc-HEX-1:5
17b:b-dglc-HEX-1:5
18s:n-acetyl
19s:n-acetyl
20b:b-dgal-HEX-1:5
21b:b-dgal-HEX-1:5
22b:b-dglc-HEX-1:5
23s:n-acetyl
24b:b-dglc-HEX-1:5
25b:b-dglc-HEX-1:5
26b:b-dglc-HEX-1:5
27b:b-dglc-HEX-1:5
28s:n-acetyl
29s:n-acetyl
30s:n-acetyl
31s:n-acetyl
32b:b-dgal-HEX-1:5
33b:b-dgal-HEX-1:5
34b:b-dgal-HEX-1:5
35b:b-dman-HEX-1:5
36b:a-dman-HEX-1:5
37b:a-dgro-dgal-NON-2:6|1:a|2:keto|3:d
38b:a-dgro-dgal-NON-2:6|1:a|2:keto|3:d
39b:a-dman-HEX-1:5
40b:b-dglc-HEX-1:5
41b:a-dman-HEX-1:5
42b:a-dman-HEX-1:5
43s:n-acetyl
44s:n-acetyl
45s:n-acetyl
46b:b-dgal-HEX-1:5
47b:a-dgro-dgal-NON-2:6|1:a|2:keto|3:d
48s:n-acetyl
LIN
1:1o(1+1)2n
2:1o(3+1)3n
3:3n(1+1)4n
4:4n(2+1)5n
5:4n(6+1)6d
6:6d(2+1)7n
7:6o(4+1)8d
8:8o(6+1)9d
9:9o(3+1)10d
10:9o(2+1)11d
11:11o(3+1)12d
12:11o(6+1)13n
13:10o(3+1)14d
14:13n(2+1)15n
15:14o(3+1)16d
16:14o(6+1)17d
17:16d(2+1)18n
18:17d(2+1)19n
19:17o(4+1)20d
20:16o(3+1)21d
21:15n(-1+1)22d
22:22d(2+1)23n
23:22o(4+1)24d
24:21o(6+1)25d
25:21o(3+1)26d
26:20o(6+1)27d
27:25d(2+1)28n
28:26d(2+1)29n
29:24d(2+1)30n
30:27d(2+1)31n
31:26o(3+1)32d
32:25o(4+1)33d
33:27o(4+1)34d
34:24o(4+1)35d
35:35o(3+1)36d
36:33o(3+2)37d
37:34o(3+2)38d
38:35o(6+1)39d
39:32o(3+1)40d
40:39o(6+1)41d
41:39o(3+1)42d
42:40d(2+1)43n
43:37d(5+1)44n
44:38d(5+1)45n
45:40o(3+1)46d
46:46o(3+2)47d
47:47d(5+1)48n
ALT
ALT1
ALTSUBGRAPH1
LEAD-IN RES:49
RES
49n:n5
ALTSUBGRAPH2
LEAD-IN RES:50
RES
50n:n6
ALTSUBGRAPH3
LEAD-IN RES:51
RES
51n:n7
NON
NON1
Parent:1
Linkage:o(1+1)n
SmallMolecule:SMILES [18CH3][17CH2][16CH2][15CH2][14CH2][13CH2][12CH2][11CH2][10CH2][9CH2][8CH2][7CH2][6CH2][5CH2][4CH2][3CH2][2CH2][1C](=O)O
Description:stearic acid
NON2
Parent:3
Linkage:n(1+1)n
SmallMolecule:SMILES [6C@H](O)1[5C@H](O)[4C@@H](O)[3C@H](O)[2C@H](O)[1C@H](O)1
Description:myo-inositol
NON3
Parent:11
Linkage:o(6+1)n
HistoricalEntity:phospho-ethanolamine
NON4
Parent:13
Linkage:n(2+1)n
HistoricalEntity:protein
NON5
SmallMolecule:SMILES [18CH3][17CH2][16CH2][15CH2][14CH2][13CH2][12CH2][11CH2][10CH2][9CH2][8CH2][7CH2][6CH2][5CH2][4CH2][3CH2][2CH2][1C](=O)O
Description:stearic acid
NON6
SmallMolecule:SMILES [16CH3][15CH2][14CH2][13CH2][12CH2][11CH2][10CH2][9CH2][8CH2][7CH2][6CH2][5CH2][4CH2][3CH2][2CH2][1C](=O)O
Description:palmitic acid
NON7
SmallMolecule:SMILES [1*]
Description:octadecenoic acid
