RES
1b:a-dglc-HEX-1:5
2s:phosphate
3s:amino
4b:b-dglc-HEX-1:5
5s:amino
6b:a-dman-OCT-2:6|1:a|2:keto|3:d
7b:a-dman-OCT-2:6|1:a|2:keto|3:d
8b:a-dman-HEX-1:5
9b:a-dglc-HEX-1:5
10b:a-dman-HEX-1:5
11b:a-dman-OCT-2:6|1:a|2:keto|3:d
12s:amino
13b:a-dgal-HEX-1:5
14b:a-dman-HEX-1:5
15b:a-dglc-HEX-1:5
16b:a-dglc-HEX-1:5
LIN
1:1o(1+1)2n
2:1d(2+1)3n
3:1o(6+1)4d
4:4d(2+1)5n
5:4o(6+2)6d
6:6o(4+2)7d
7:6o(5+1)8d
8:7o(4+1)9d
9:8o(4+1)10d
10:10o(3+2)11d
11:9d(2+1)12n
12:10o(2+1)13d
13:10o(6+1)14d
14:13o(3+1)15d
15:14o(2+1)16d
