RES
1b:a-dman-OCT-x:x|1:a|2:keto|3:d
2b:a-dgal-HEX-1:5
3b:a-dman-OCT-2:6|1:a|2:keto|3:d
4s:n-acetyl
5b:b-dglc-HEX-1:5
6b:a-lman-HEX-1:5|6:d
7s:n-acetyl
8b:b-dglc-HEX-1:5
9s:n-acetyl
LIN
1:1o(5+1)2d
2:2o(4+2)3d
3:2d(2+1)4n
4:2o(3+1)5d
5:5o(3+1)6d
6:5d(2+1)7n
7:5o(4+1)8d
8:8d(2+1)9n
