RES
1b:b-dglc-HEX-1:5
2b:b-dgal-HEX-1:5
3b:b-dglc-HEX-1:5
4s:n-acetyl
5b:b-dgal-HEX-1:5
6b:a-dgal-HEX-1:5
7b:b-dglc-HEX-1:5
8s:n-acetyl
9b:b-dgal-HEX-1:5
10b:a-dgal-HEX-1:5
11b:b-dglc-HEX-1:5
12s:n-acetyl
13b:b-dgal-HEX-1:5
14b:a-dgal-HEX-1:5
15b:b-dglc-HEX-1:5
16b:b-dgal-HEX-1:5
17s:n-acetyl
LIN
1:1o(4+1)2d
2:2o(3+1)3d
3:3d(2+1)4n
4:3o(4+1)5d
5:5o(3+1)6d
6:6o(3+1)7d
7:7d(2+1)8n
8:7o(4+1)9d
9:9o(3+1)10d
10:10o(3+1)11d
11:11d(2+1)12n
12:11o(4+1)13d
13:13o(3+1)14d
14:14o(3+1)15d
15:15o(4+1)16d
16:15d(2+1)17n
