RES
1r:r1
REP
REP1:8o(2+1)2d=-1--1
RES
2b:a-dman-HEX-1:5|6:d
3b:a-dman-HEX-1:5|6:d
4b:b-dara-HEX-1:5|6:d
5s:methyl
6b:a-dman-HEX-1:5|6:d
7b:a-dman-HEX-1:5|6:d
8b:b-dara-HEX-1:5|6:d
9s:methyl
LIN
1:2o(2+1)3d
2:3o(3+1)4d
3:4h(3+1)5n
4:4o(2+1)6d
5:6o(3+1)7d
6:7o(3+1)8d
7:8h(3+1)9n
