RES
1r:r1
REP
REP1:8o(3+1)2d=-1--1
RES
2b:b-dgal-HEX-1:4
3b:b-dgal-HEX-1:4
4b:a-dglc-HEX-1:5
5s:n-acetyl
6b:a-ltre-HEX-1:5|4,5:en|6:a
7n:n1
8b:b-dglc-HEX-1:5
9s:n-acetyl
LIN
1:2o(5+1)3d
2:3o(2+1)4d
3:4d(2+1)5n
4:4o(3+1)6d
5:6o(6+1)7n
6:6o(2+1)8d
7:8d(2+1)9n
NON
NON1
Parent:6
Linkage:o(6+1)n
SmallMolecule:SMILES [3CH3][2C@H](N)[1C](=O)O
Description:(L)-alanine
