RES
1b:x-dglc-HEX-x:x
2s:n-acetyl
3b:a-dgal-HEX-1:5
4b:b-dglc-HEX-1:5
5s:(s)-carboxyethyl
6s:n-acetyl
7b:b-dglc-HEX-1:5
8s:n-acetyl
9b:a-dgal-HEX-1:5
10b:b-dglc-HEX-1:5
11s:(s)-carboxyethyl
12s:n-acetyl
LIN
1:1d(2+1)2n
2:1o(3+1)3d
3:3o(3+1)4d
4:4o(3+2)5n
5:4d(2+1)6n
6:4o(4+1)7d
7:7d(2+1)8n
8:7o(3+1)9d
9:9o(3+1)10d
10:10o(3+2)11n
11:10d(2+1)12n
