RES
1r:r1
REP
REP1:3o(3+1)2d=-1--1
RES
2b:a-ltal-HEX-1:5|6:d
3b:b-dglc-HEX-1:5
4a:a1
5s:acetyl
LIN
1:2o(3+1)3d
2:2o(2+1)4n
3:2o(4+1)5n
ALT
ALT1
ALTSUBGRAPH1
LEAD-IN RES:6
RES
6s:acetyl
ALTSUBGRAPH2
LEAD-IN RES:7
RES
7s:methyl
