RES
1b:x-dman-OCT-2:6|1:a|2:keto|3:d
2b:a-lgro-dman-HEP-1:5
3s:diphospho-ethanolamine
4b:a-lgro-dman-HEP-1:5
5b:a-lgro-dman-HEP-1:5
6s:phosphate
7n:n1
8b:a-dglc-HEX-1:5
9b:a-dglc-HEX-1:5
10b:a-dgal-HEX-1:5
11b:b-dgal-HEX-1:5
LIN
1:1o(5+1)2d
2:2o(4+1)3n
3:2o(3+1)4d
4:4o(7+1)5d
5:4o(4+1)6n
6:4o(-1+1)7n
7:4o(3+1)8d
8:8o(3+1)9d
9:9o(2+1)10d
10:9o(4+1)11d
NON
NON1
Parent:4
Linkage:o(-1+1)n
SmallMolecule:SMILES [2CH2](N)[1C](=O)O
Description:glycine
