RES
1r:r1
REP
REP1:9n(1+1)2o=-1--1
RES
2b:a-dgal-HEX-1:5
3b:b-dgal-HEX-x:x
4s:n-acetyl
5b:b-dgal-HEX-1:4
6b:b-dglc-HEX-1:5
7b:b-dman-HEX-1:5|6:d
8b:a-dgal-HEX-1:5
9s:phosphate
10s:n-acetyl
LIN
1:2o(3+1)3d
2:3d(2+1)4n
3:3o(6+1)5d
4:5o(6+1)6d
5:6o(4+1)7d
6:7o(3+1)8d
7:8o(6+1)9n
8:8d(2+1)10n
