RES
1n:n1
2s:phosphate
3b:a-dman-HEX-1:5
4b:b-dgal-HEX-1:5
5b:b-dgal-HEX-1:5
6s:phosphate
7b:b-dgal-HEX-1:5
8s:phosphate
9b:b-dgal-HEX-1:5
10s:phosphate
11b:b-dgal-HEX-1:5
12s:phosphate
LIN
1:1n(3+1)2n
2:2n(1+1)3o
3:3o(4+1)4d
4:4o(3+1)5d
5:5o(6+1)6n
6:6n(1+1)7o
7:7o(6+1)8n
8:8n(1+1)9o
9:9o(6+1)10n
10:10n(1+1)11o
11:11o(6+1)12n
NON
NON1
SmallMolecule:SMILES [3CH2](O)[2C@H](N)[1C](=O)O
Description:(L)-serine
