RES
1r:r1
REP
REP1:7n(1+1)2o=-1--1
RES
2b:a-dglc-HEX-1:5
3b:a-dglc-HEX-1:5
4b:a-lman-HEX-1:5|6:d
5b:b-dglc-HEX-1:5
6b:a-lman-HEX-1:5|6:d
7s:phosphate
LIN
1:2o(2+1)3d
2:3o(3+1)4d
3:3o(4+1)5d
4:5o(3+1)6d
5:6o(4+1)7n
