RES
1b:a-dman-OCT-2:6|1:a|2:keto|3:d
2b:a-dman-HEX-1:5
3b:b-dglc-HEX-1:5
4b:a-dglc-HEX-1:5
5b:b-dman-HEX-1:5
6n:n1
7b:a-dgal-HEX-1:5
8s:amino
LIN
1:1o(5+1)2d
2:2o(2+1)3d
3:2o(3+1)4d
4:2o(4+1)5d
5:5o(4+1)6n
6:5o(2+1)7d
7:7d(2+1)8n
NON
NON1
Parent:5
Linkage:o(4+1)n
HistoricalEntity:O-antigen
