RES
1r:r1
REP
REP1:7o(4+1)2d=-1--1
RES
2b:a-lman-HEX-1:5|6:d
3b:a-dgal-HEX-1:4
4b:a-dglc-HEX-1:5
5b:b-lman-HEX-1:5|6:d
6b:a-dglc-HEX-1:5
7b:b-dglc-HEX-1:5|6:a
8s:acetyl
LIN
1:2o(2+1)3d
2:3o(3+1)4d
3:4o(4+1)5d
4:5o(3+1)6d
5:5o(4+1)7d
6:5o(2+1)8n
