RES
1r:r1
REP
REP1:7o(3+1)2d=-1--1
RES
2b:b-dglc-HEX-1:5|6:a
3b:a-dglc-HEX-1:5|6:d
4s:n-acetyl
5b:b-dglc-HEX-1:5
6s:n-acetyl
7b:b-dgal-HEX-1:5|6:a
8n:n1
LIN
1:2o(4+1)3d
2:3d(4+1)4n
3:3o(2+1)5d
4:5d(2+1)6n
5:5o(3+1)7d
6:7o(6+2)8n
NON
NON1
Parent:7
Linkage:o(6+2)n
SmallMolecule:SMILES [3CH2](O)[2C@H](N)[1C](=O)O
Description:(L)-serine
