RES
1r:r1
REP
REP1:8o(2+1)2d=-1--1
RES
2b:a-lman-HEX-1:5|6:d
3b:a-lman-HEX-1:5|6:d
4b:b-dxyl-PEN-1:5
5b:b-dxyl-PEN-1:5
6b:a-lman-HEX-1:5|6:d
7b:a-lman-HEX-1:5|6:d
8b:a-lman-HEX-1:5|6:d
LIN
1:2o(3+1)3d
2:3o(2+1)4d
3:3o(4+1)5d
4:3o(3+1)6d
5:6o(2+1)7d
6:7o(3+1)8d
