RES
1b:a-dman-OCT-x:x|1:a|2:keto|3:d
2s:phosphate
3b:o-xgro-TRI-0:0|1:aldi
4b:a-dman-HEX-1:5
5b:a-dall-HEX-1:5
6s:amino
7b:a-dman-HEX-1:5
8b:a-dman-HEX-1:5
9s:phospho-ethanolamine
10b:a-dman-HEX-1:5
11s:phospho-ethanolamine
12b:a-dman-HEX-1:5
13b:a-dman-HEX-1:5
14b:a-dman-HEX-1:5
15b:a-dman-HEX-1:5
16b:b-dgal-HEX-1:5
17s:n-acetyl
18b:a-lman-HEX-1:5|6:d
19s:phospho-ethanolamine
20b:a-dglc-HEX-1:5
21b:a-dgal-HEX-1:5
LIN
1:1o(5+1)2n
2:2n(1+1)3o
3:3o(2+1)4d
4:3o(3+1)5d
5:5d(2+1)6n
6:4o(3+1)7d
7:7o(3+1)8d
8:8o(6+1)9n
9:8o(3+1)10d
10:10o(6+1)11n
11:10o(3+1)12d
12:12o(3+1)13d
13:13o(3+1)14d
14:14o(3+1)15d
15:15o(3+1)16d
16:16d(2+1)17n
17:16o(3+1)18d
18:18o(2+1)19n
19:18o(4+1)20d
20:20o(6+1)21d
