RES
1b:a-lman-HEX-1:5|6:d
2b:a-dman-HEX-1:5
3b:a-dgal-HEX-1:5
4b:b-dglc-HEX-1:5|6:a
5b:b-dglc-HEX-1:5
6b:a-dglc-HEX-1:5
7s:n-acetyl
LIN
1:1o(4+1)2d
2:2o(3+1)3d
3:2o(2+1)4d
4:4o(4+1)5d
5:5o(4+1)6d
6:5d(2+1)7n
