RES
1r:r1
REP
REP1:3o(3+1)2d=-1--1
RES
2b:a-dgal-HEX-1:5
3b:b-dglc-HEX-1:5
4b:a-dgal-HEX-1:5|6:a
5s:n-acetyl
6n:n1
LIN
1:2o(3+1)3d
2:2o(4+1)4d
3:3d(2+1)5n
4:4o(6+2)6n
NON
NON1
Parent:4
Linkage:o(6+2)n
SmallMolecule:SMILES [6CH2](N)[5CH2][4CH2][3CH2][2C@H](N[8C@H]([9CH3])[7C](=O)O)[1C](=O)O
Description:(2S,8R)-N(epsilon)-(1-carboxyethyl)lysine
