RES
1n:n1
2s:pyrophosphate
3b:x-dglc-HEX-1:5
4s:n-acetyl
5b:a-lman-HEX-1:5|6:d
6b:b-dglc-HEX-1:5
7s:n-acetyl
8b:a-lman-HEX-1:5|6:d
9b:b-dglc-HEX-1:5
10s:n-acetyl
11b:a-lman-HEX-1:5|6:d
12b:b-dglc-HEX-1:5
13s:n-acetyl
14b:a-lman-HEX-1:5|6:d
15b:b-dman-OCT-2:6|1:a|2:keto|3:d
LIN
1:1n(1+1)2n
2:2n(1+1)3o
3:3d(2+1)4n
4:3o(3+1)5d
5:5o(4+1)6d
6:6d(2+1)7n
7:6o(3+1)8d
8:8o(4+1)9d
9:9d(2+1)10n
10:9o(3+1)11d
11:11o(4+1)12d
12:12d(2+1)13n
13:12o(3+1)14d
14:14o(3+2)15d
NON
NON1
SmallMolecule:SMILES [11CH3][10CH2][9CH2][8CH2][7CH2][6CH2][5CH2][4CH2][3CH2][2CH2][1CH2]O
Description:undecanol
