RES
1r:r1
REP
REP1:4o(3+1)2d=-1--1
RES
2b:a-lman-HEX-1:5|6:d
3b:a-dman-HEX-1:5
4b:a-dgal-HEX-1:5
5b:a-dgal-HEX-1:5
6b:b-dgul-OCT-x:x|3:d|6:d|8:d
7n:n1
LIN
1:2o(4+1)3d
2:3o(3+1)4d
3:3o(2+1)5d
4:5o(3+1)6d
5:6h(4+1)7n
NON
NON1
Parent:6
Linkage:h(4+1)n
SmallMolecule:SMILES [1C@H](O)C
Description:(R)-hydroxyethyl
