RES
1b:a-dman-OCT-2:6|1:a|2:keto|3:d
2b:a-dman-OCT-2:6|1:a|2:keto|3:d
3b:a-lgro-dman-HEP-1:5
4b:b-dglc-HEX-1:5
5b:a-lgro-dman-HEP-1:5
6b:b-dglc-HEX-1:5
7s:phospho-ethanolamine
8b:a-dglc-HEX-1:5
9b:b-dgal-HEX-1:5
10s:n-acetyl
11b:b-dglc-HEX-1:5
12s:n-acetyl
13b:b-dgal-HEX-1:5
14b:a-dgro-dgal-NON-2:6|1:a|2:keto|3:d
15s:n-acetyl
LIN
1:1o(4+2)2d
2:1o(5+1)3d
3:3o(4+1)4d
4:3o(3+1)5d
5:5o(3+1)6d
6:5o(6+1)7n
7:5o(2+1)8d
8:4o(4+1)9d
9:8d(2+1)10n
10:9o(3+1)11d
11:11d(2+1)12n
12:11o(4+1)13d
13:13o(3+2)14d
14:14d(5+1)15n
