RES
1b:a-dglc-HEX-1:5
2b:b-dgal-HEX-1:5
3s:n-acetyl
4n:n1
5b:b-dgal-HEX-1:5
6b:b-dgal-HEX-1:5
LIN
1:1o(4+1)2d
2:1d(2+1)3n
3:1o(1+3)4n
4:1o(6+1)5d
5:5o(2+1)6d
NON
NON1
Parent:1
Linkage:o(1+3)n
SmallMolecule:SMILES [4CH3][3C@@H](O)[2C@H](N)[1C](=O)O
Description:(L)-threonine
