RES
1b:x-dman-HEX-x:x|1:a
2s:anhydro
3b:a-dman-OCT-2:6|1:a|2:keto|3:d
4b:a-HEP-1:5
5b:b-dglc-HEX-1:5
6s:n-acetyl
7b:a-dgal-HEX-1:5
8b:b-dgal-HEX-1:4
9b:a-dgal-HEX-1:5
10b:b-dgal-HEX-1:4
11b:a-dgal-HEX-1:5
12b:b-dgal-HEX-1:4
13b:a-dgal-HEX-1:5
14b:b-dgal-HEX-1:5
15b:a-dgal-HEX-1:5
16b:b-dgal-HEX-1:5
17b:a-dgal-HEX-1:5
18b:b-dgal-HEX-1:5
LIN
1:1d(2+1)2n
2:1o(5+1)2n
3:1o(6+2)3d
4:3o(4+1)4d
5:3o(5+1)5d
6:5d(2+1)6n
7:5o(3+1)7d
8:7o(3+1)8d
9:8o(3+1)9d
10:9o(3+1)10d
11:10o(3+1)11d
12:11o(3+1)12d
13:12o(3+1)13d
14:13o(3+1)14d
15:14o(3+1)15d
16:15o(3+1)16d
17:16o(3+1)17d
18:17o(3+1)18d
