RES
1b:a-dman-OCT-2:6|1:a|2:keto|3:d
2b:a-lgro-dman-HEP-1:5
3s:phosphate
4b:a-lgro-dman-HEP-1:5
5b:a-dgro-dman-HEP-1:5
6b:b-dgal-HEX-1:5
7b:a-dgro-dman-HEP-1:5
8n:n1
9b:a-dglc-HEX-1:5
10b:a-dglc-HEX-1:5
11b:a-dglc-HEX-1:5
12b:a-dglc-HEX-1:5
13b:a-dglc-HEX-1:5
LIN
1:1o(5+1)2d
2:2o(7+1)3n
3:2o(3+1)4d
4:4o(2+1)5d
5:5o(7+1)6d
6:5o(2+1)7d
7:7o(7+1)8n
8:6o(4+1)9d
9:7o(2+1)10d
10:9o(3+1)11d
11:10o(6+1)12d
12:12o(6+1)13d
NON
NON1
Parent:7
Linkage:o(7+1)n
HistoricalEntity:O-antigen + linker (ID 10241, ID 10243, ID 10244)
