RES
1b:x-dman-OCT-2:6|1:a|2:keto|3:d
2b:a-dglc-HEX-1:5
3b:b-dglc-HEX-1:5
4b:b-dglc-HEX-1:5
5b:b-dglc-HEX-1:5
6b:b-dgal-HEX-1:5
7b:a-lman-HEX-1:5|6:d
8b:a-dglc-HEX-1:5
9s:n-acetyl
10s:(r)-carboxyethyl
LIN
1:1o(5+1)2d
2:2o(3+1)3d
3:2o(6+1)4d
4:2o(4+1)5d
5:5o(4+1)6d
6:6o(3+1)7d
7:7o(3+1)8d
8:8d(2+1)9n
9:8o(3+1)10n
