RES
1r:r1
REP
REP1:8o(3+1)2d=-1--1
RES
2b:a-dglc-HEX-1:5
3b:b-dgal-HEX-1:5
4s:n-acetyl
5b:a-lman-HEX-1:5|6:d
6b:a-dgal-HEX-1:5
7b:b-dglc-HEX-1:5
8b:b-dgal-HEX-1:5
LIN
1:2o(4+1)3d
2:3d(2+1)4n
3:3o(3+1)5d
4:5o(4+1)6d
5:6o(3+1)7d
6:7o(4+1)8d
