RES
1b:x-dman-OCT-x:x|1:a|2:keto|3:d
2b:a-lgro-dman-HEP-1:5
3b:a-lgro-dman-HEP-1:5
4b:a-dgro-dman-HEP-1:5
5b:a-dgro-dman-HEP-1:5
6b:b-dglc-HEX-1:5
7b:a-lgal-HEX-1:5|6:d
8s:n-acetyl
LIN
1:1o(5+1)2d
2:2o(3+1)3d
3:3o(2+1)4d
4:4o(2+1)5d
5:5o(7+1)6d
6:6o(3+1)7d
7:6d(2+1)8n
