RES
1b:a-dman-OCT-2:6|1:a|2:keto|3:d
2b:a-lgro-dman-HEP-1:5
3b:b-dglc-HEX-1:5
4s:phospho-ethanolamine
5b:a-lgro-dman-HEP-1:5
6b:b-dgal-HEX-1:5
7b:a-dgro-dgal-NON-2:6|1:a|2:keto|3:d
8b:b-dgal-HEX-1:5
9s:n-acetyl
10s:n-acetyl
11b:b-dgal-HEX-1:5
12b:a-dgro-dgal-NON-2:6|1:a|2:keto|3:d
13s:n-acetyl
LIN
1:1o(5+1)2d
2:2o(4+1)3d
3:2o(6+1)4n
4:2o(3+1)5d
5:5o(3+1)6d
6:6o(3+2)7d
7:6o(4+1)8d
8:8d(2+1)9n
9:7d(5+1)10n
10:8o(3+1)11d
11:11o(3+2)12d
12:12d(5+1)13n
