RES
1r:r1
REP
REP1:10o(4+1)2d=-1--1
RES
2b:b-dgal-HEX-1:5
3b:b-dglc-HEX-1:5
4s:n-acetyl
5b:a-lgal-HEX-1:5|6:d
6b:a-dman-HEX-1:5
7s:acetyl
8s:acetyl
9s:acetyl
10b:a-dgal-HEX-1:5
11b:a-lgal-HEX-1:5|6:d
12s:n-acetyl
LIN
1:2o(4+1)3d
2:2d(2+1)4n
3:2o(3+1)5d
4:5o(3+1)6d
5:6o(2+1)7n
6:6o(4+1)8n
7:6o(3+1)9n
8:6o(6+1)10d
9:10o(3+1)11d
10:10d(2+1)12n
