RES
1r:r1
REP
REP1:4o(4+1)2d=-1--1
RES
2b:b-dglc-HEX-1:5
3b:b-dgal-HEX-1:5
4b:a-dglc-HEX-1:5
5b:b-dglc-HEX-1:5
6s:n-acetyl
7b:b-dgal-HEX-1:5
8b:a-dgro-dgal-NON-2:6|1:a|2:keto|3:d
9s:n-acetyl
LIN
1:2o(4+1)3d
2:3o(4+1)4d
3:4o(6+1)5d
4:5d(2+1)6n
5:5o(4+1)7d
6:7o(3+2)8d
7:8d(5+1)9n
