RES
1b:x-dgal-HEX-x:x
2s:n-acetyl
3b:a-dgal-HEX-1:5
4b:b-dgal-HEX-1:5
5s:n-acetyl
6b:b-dglc-HEX-1:5|6:a
7b:a-dglc-HEX-1:5
8b:a-dglc-HEX-1:5
9b:a-dglc-HEX-1:5
10b:a-dglc-HEX-1:5
LIN
1:1d(2+1)2n
2:1o(3+1)3d
3:3o(3+1)4d
4:4d(2+1)5n
5:4o(4+1)6d
6:4o(6+1)7d
7:7o(2+1)8d
8:6o(4+1)9d
9:9o(4+1)10d
