RES
1b:a-dman-OCT-2:6|1:a|2:keto|3:d
2s:phosphate
3b:a-lgro-dman-HEP-1:5
4b:a-dglc-HEX-1:5
5b:b-dglc-HEX-1:5
6b:a-lgro-dman-HEP-1:5
7b:a-lgro-dman-HEP-1:5
8b:b-dara-HEX-2:5|1:aldi|2:keto
9b:a-lgro-dman-HEP-1:5
10b:a-dglc-HEX-1:5
11b:b-dglc-HEX-1:5|6:d
12s:n-acetyl
13b:a-dgal-HEX-1:5|6:a
14b:b-dglc-HEX-1:5
15b:a-lxyl-HEX-1:5|3:d|6:d
16s:n-acetyl
17b:b-dgal-HEX-1:5
18b:a-lxyl-HEX-1:5|3:d|6:d
19s:phosphate
LIN
1:1o(4+1)2n
2:1o(5+1)3d
3:3o(6+1)4d
4:3o(4+1)5d
5:3o(3+1)6d
6:6o(6+1)7d
7:5o(6+2)8d
8:6o(2+1)9d
9:9o(7+1)10d
10:9o(3+1)11d
11:11d(2+1)12n
12:11o(3+1)13d
13:13o(4+1)14d
14:14o(4+1)15d
15:14d(2+1)16n
16:14o(3+1)17d
17:17o(2+1)18d
18:17o(6+1)19n
19:17o(4+1)19n
