RES
1r:r1
REP
REP1:6o(3+1)2d=-1--1
RES
2b:a-dgal-HEX-1:5
3s:n-acetyl
4b:b-dman-HEX-1:5|6:a
5b:a-dgal-HEX-1:5|6:d
6b:a-lman-HEX-1:5|6:d
7s:n-acetyl
8s:amino
9n:n1
10s:acetyl
LIN
1:2d(2+1)3n
2:2o(4+1)4d
3:2o(3+1)5d
4:5o(3+1)6d
5:4d(2+1)7n
6:5d(2+1)8n
7:5o(2+1)9n
8:9n(2+1)10n
NON
NON1
Parent:5
Linkage:o(2+1)n
SmallMolecule:SMILES [4CH3][3C@@H](O)[2C@H](N)[1C](=O)O
Description:(L)-threonine
