RES
1b:a-dglc-HEX-x:x
2s:phosphate
3s:amino
4b:b-dglc-HEX-x:x
5s:phosphate
6s:amino
7b:a-dman-OCT-x:x|1:a|2:keto|3:d
8b:a-dman-OCT-x:x|1:a|2:keto|3:d
9b:a-lgro-dman-HEP-1:5
10s:phosphate
11s:phosphate
12b:a-lgro-dman-HEP-1:5
13s:phosphate
14b:a-dgal-HEX-1:5
15s:amino
16b:b-dglc-HEX-1:5
17b:b-dglc-HEX-1:5
18s:(s)-pyruvate
19s:amino
LIN
1:1o(1+1)2n
2:1d(2+1)3n
3:1o(6+1)4d
4:4o(4+1)5n
5:4d(2+1)6n
6:4o(6+2)7d
7:7o(4+2)8d
8:7o(5+1)9d
9:9o(2+1)10n
10:9o(4+1)11n
11:9o(3+1)12d
12:12o(6+1)13n
13:12o(3+1)14d
14:14d(2+1)15n
15:14o(4+1)16d
16:14o(3+1)17d
17:17o(6+2)18n
18:17o(4+2)18n
19:16d(2+1)19n
