RES
1b:a-dman-HEX-1:5
2n:n1
3b:b-dgal-HEX-1:5
4b:b-dglc-HEX-1:5
5s:n-acetyl
6b:a-dglc-HEX-1:5
7b:b-dgal-HEX-1:5
8s:n-acetyl
9b:b-dglc-HEX-1:5
10s:phosphate
LIN
1:1o(1+1)2n
2:1o(3+1)3d
3:3o(3+1)4d
4:3d(2+1)5n
5:3o(4+1)6d
6:6o(4+1)7d
7:7d(2+1)8n
8:7o(3+1)9d
9:9o(6+1)10n
NON
NON1
Parent:1
Linkage:o(1+1)n
SmallMolecule:SMILES NCC{1}CO
Description:3-aminopropanol
