RES
1b:o-dglc-HEX-0:0|1:aldi
2s:amino
3b:b-dglc-HEX-1:5
4s:amino
5b:a-dman-OCT-2:6|1:a|2:keto|3:d
6b:a-dman-HEX-1:5
7b:b-dglc-HEX-1:5
8b:b-dman-HEX-1:5
9b:a-dgal-HEX-1:5
10s:amino
LIN
1:1d(2+1)2n
2:1o(6+1)3d
3:3d(2+1)4n
4:3o(6+2)5d
5:5o(5+1)6d
6:6o(2+1)7d
7:6o(4+1)8d
8:8o(2+1)9d
9:9d(2+1)10n
