RES
1r:r1
REP
REP1:7o(3+1)2d=-1--1
RES
2b:b-dglc-HEX-1:5
3s:n-acetyl
4s:phospho-ethanolamine
5b:a-dgal-HEX-1:5|6:a
6n:n1
7b:b-dglc-HEX-1:5|6:a
8n:n2
9b:b-dglc-HEX-1:5
10s:n-acetyl
LIN
1:2d(2+1)3n
2:2o(6+1)4n
3:2o(3+1)5d
4:5o(6+2)6n
5:5o(3+1)7d
6:7o(6+2)8n
7:7o(4+1)9d
8:9d(2+1)10n
NON
NON1
Parent:5
Linkage:o(6+2)n
SmallMolecule:SMILES [3CH3][2C@H](N)[1C](=O)O
Description:(L)-alanine
NON2
Parent:7
Linkage:o(6+2)n
SmallMolecule:SMILES [6CH2](N)[5CH2][4CH2][3CH2][2C@H](N)[1C](=O)O
Description:(L)-lysine
