RES
1r:r1
REP
REP1:5o(6+1)2d=-1--1
RES
2b:b-dgal-HEX-1:5
3b:a-dgro-dgal-NON-2:6|1:a|2:keto|3:d
4b:b-dgal-HEX-1:5
5b:b-dgal-HEX-1:4
6s:n-acetyl
7s:n-acetyl
LIN
1:2o(6+2)3d
2:2o(-1+1)4d
3:4o(3+1)5d
4:4d(2+1)6n
5:3d(5+1)7n
