RES
1b:x-dglc-HEX-1:5
2s:n-acetyl
3b:b-dglc-HEX-1:5
4s:n-acetyl
5b:b-dman-HEX-1:5
6b:a-dman-HEX-1:5
7b:a-dman-HEX-1:5
8b:b-dglc-HEX-1:5
9b:b-dglc-HEX-1:5
10b:b-dgal-HEX-1:5
11s:n-acetyl
12s:n-acetyl
13b:b-dgal-HEX-1:5
14b:b-dglc-HEX-1:5
15b:b-dglc-HEX-1:5
16b:b-dgal-HEX-1:5
17s:n-acetyl
18s:n-acetyl
19b:b-dgal-HEX-1:5
20b:b-dglc-HEX-1:5
21b:b-dglc-HEX-1:5
22b:b-dgal-HEX-1:5
23b:b-dgal-HEX-1:5
24s:n-acetyl
25s:n-acetyl
LIN
1:1d(2+1)2n
2:1o(4+1)3d
3:3d(2+1)4n
4:3o(4+1)5d
5:5o(3+1)6d
6:5o(6+1)7d
7:7o(2+1)8d
8:6o(2+1)9d
9:8o(4+1)10d
10:9d(2+1)11n
11:8d(2+1)12n
12:9o(4+1)13d
13:13o(6+1)14d
14:13o(3+1)15d
15:14o(4+1)16d
16:15d(2+1)17n
17:14d(2+1)18n
18:15o(4+1)19d
19:19o(6+1)20d
20:19o(3+1)21d
21:20o(4+1)22d
22:21o(4+1)23d
23:20d(2+1)24n
24:21d(2+1)25n
