RES
1b:a-dman-OCT-2:6|1:a|2:keto|3:d
2s:diphospho-ethanolamine
3b:a-lgro-dman-HEP-1:5
4b:a-dglc-HEX-1:5
5b:b-dglc-HEX-1:5
6b:a-lgro-dman-HEP-1:5
7b:a-lgro-dman-HEP-1:5
8s:phospho-ethanolamine
9b:a-lgro-dman-HEP-1:5
10b:b-dglc-HEX-1:5
11b:b-dglc-HEX-1:5
12b:b-dgal-HEX-1:5
13b:a-dgal-HEX-1:5
14b:b-dgal-HEX-1:5
15s:n-acetyl
16b:a-dgal-HEX-1:5
17s:n-acetyl
LIN
1:1o(4+1)2n
2:1o(5+1)3d
3:3o(6+1)4d
4:3o(4+1)5d
5:3o(3+1)6d
6:6o(2+1)7d
7:6o(3+1)8n
8:5o(6+1)9d
9:9o(4+1)10d
10:9o(6+1)11d
11:11o(4+1)12d
12:12o(4+1)13d
13:13o(3+1)14d
14:14d(2+1)15n
15:14o(3+1)16d
16:16d(2+1)17n
