RES
1r:r1
REP
REP1:6o(4+1)2d=-1--1
RES
2b:b-dglc-HEX-1:5
3s:n-acetyl
4s:acetyl
5b:b-lman-HEX-1:5|6:d
6b:b-dgal-HEX-1:5
7s:n-acetyl
8b:a-dgal-HEX-1:5|6:a
9s:acetyl
10n:n1
LIN
1:2d(2+1)3n
2:2o(6+1)4n
3:2o(4+1)5d
4:5o(3+1)6d
5:6d(2+1)7n
6:6o(3+1)8d
7:8o(3+1)9n
8:8o(6+2)10n
NON
NON1
Parent:8
Linkage:o(6+2)n
SmallMolecule:SMILES [4CH3][3C@@H](O)[2C@H](N)[1C](=O)O
Description:(L)-threonine
