RES
1r:r1
REP
REP1:8o(6+1)2d=-1--1
RES
2b:b-dgal-HEX-1:5
3s:n-acetyl
4b:b-dglc-HEX-1:5
5b:a-dglc-HEX-1:5
6b:a-dgal-HEX-1:5
7b:b-dgal-HEX-1:5
8b:b-dgal-HEX-1:5
9s:n-acetyl
10s:phosphate
11b:o-dgro-TRI-0:0|1:aldi
LIN
1:2d(2+1)3n
2:2o(3+1)4d
3:4o(2+1)5d
4:4o(6+1)6d
5:4o(4+1)7d
6:7o(4+1)8d
7:7d(2+1)9n
8:7o(3+1)10n
9:10n(1+1)11o
