RES
1b:b-dglc-HEX-1:5
2s:n-acetyl
3b:b-dgal-HEX-1:5
4b:b-dgal-HEX-1:5
5b:a-lxyl-HEX-1:5|3:d|6:d
6s:n-acetyl
7b:a-dgal-HEX-1:5
8n:n1
LIN
1:1d(2+1)2n
2:1o(3+1)3d
3:1o(6+1)4d
4:3o(2+1)5d
5:4d(2+1)6n
6:4o(3+1)7d
7:7o(3+1)8n
NON
NON1
Parent:7
Linkage:o(3+1)n
HistoricalEntity:O-antigen
