RES
1r:r1
REP
REP1:7o(2+1)2d=-1--1
RES
2b:a-dgal-HEX-1:5|6:a
3b:a-lman-HEX-1:5|6:d
4b:b-dgal-HEX-1:5
5b:a-lman-HEX-1:5|6:d
6b:a-lman-HEX-1:5|6:d
7b:a-lman-HEX-1:5|6:d
LIN
1:2o(4+1)3d
2:2o(3+1)4d
3:4o(3+1)5d
4:5o(2+1)6d
5:6o(2+1)7d
