RES
1r:r1
REP
REP1:7o(4+1)2d=-1--1
RES
2b:a-dgal-HEX-1:5
3s:n-acetyl
4b:a-lgal-HEX-1:5|6:d
5b:a-dman-HEX-1:5
6b:a-dglc-HEX-1:5
7b:b-dgal-HEX-1:5
8b:b-dgal-HEX-1:5
9s:n-acetyl
LIN
1:2d(2+1)3n
2:2o(3+1)4d
3:4o(3+1)5d
4:5o(3+1)6d
5:5o(2+1)7d
6:7o(3+1)8d
7:7d(2+1)9n
