RES
1r:r1
REP
REP1:4o(3+1)2d=-1--1
RES
2b:b-dgal-HEX-1:5
3s:n-acetyl
4b:a-dgal-HEX-1:5
5b:b-dgal-HEX-1:5
6s:n-acetyl
7b:a-dgal-HEX-1:5|6:d
8s:amino
9n:n1
10s:acetyl
LIN
1:2d(2+1)3n
2:2o(3+1)4d
3:4o(4+1)5d
4:5d(2+1)6n
5:5o(4+1)7d
6:7d(3+1)8n
7:7o(3+1)9n
8:9n(2+1)10n
NON
NON1
Parent:7
Linkage:o(3+1)n
SmallMolecule:SMILES [3CH3][2C@H](O)[1C](=O)O
Description:(S)-lactate
