RES
1b:x-dman-OCT-x:x|1:a|2:keto|3:d
2b:a-lgro-dman-HEP-1:5
3b:b-dgal-HEX-1:5
4n:n1
5b:a-lgro-dman-HEP-1:5
6b:a-dgal-HEX-1:5|6:a
7b:b-dglc-HEX-1:5
8b:a-lgro-dman-HEP-1:5
9b:a-dgal-HEX-1:5|6:a
10b:a-dgal-HEX-1:5
11s:amino
LIN
1:1o(5+1)2d
2:2o(4+1)3d
3:2o(-1+2)4n
4:2o(3+1)5d
5:5o(3+1)6d
6:5o(2+1)7d
7:5o(7+1)8d
8:8o(7+1)9d
9:9o(4+1)10d
10:10d(2+1)11n
NON
NON1
Parent:2
Linkage:o(-1+2)n
SmallMolecule:SMILES [2CH2](N)[1C](=O)O
Description:glycine
