RES
1r:r1
REP
REP1:9o(2+1)2d=-1--1
RES
2b:b-dglc-HEX-1:5
3s:n-acetyl
4b:a-dgal-HEX-1:5|6:a
5b:a-dgal-HEX-1:5
6s:n-acetyl
7b:a-dglc-HEX-1:5
8s:n-acetyl
9b:b-dglc-HEX-1:5|6:d
10s:n-acetyl
LIN
1:2d(2+1)3n
2:2o(3+1)4d
3:4o(4+1)5d
4:5d(2+1)6n
5:5o(4+1)7d
6:7d(2+1)8n
7:7o(6+1)9d
8:9d(4+1)10n
