RES
1b:x-dman-OCT-2:6|1:a|2:keto|3:d
2b:a-lgro-dman-HEP-1:5
3b:b-dgal-HEX-1:5
4b:a-lgro-dman-HEP-1:5
5b:b-dglc-HEX-1:5
6b:a-lgro-dman-HEP-1:5
7b:a-dgal-HEX-1:5|6:a
8b:a-dgal-HEX-1:5|6:a
9b:a-dglc-HEX-1:5
10s:amino
11b:a-dglc-HEX-1:5
12b:b-dglc-HEX-1:5
13s:n-acetyl
14s:amino
15b:b-dglc-HEX-1:5
16s:n-acetyl
17b:b-dgal-HEX-1:5
18b:b-lgro-lman-NON-2:6|1:a|2:keto|3:d|9:d
19s:n-acetyl
20s:amino
21n:n1
LIN
1:1o(5+1)2d
2:2o(4+1)3d
3:2o(3+1)4d
4:4o(2+1)5d
5:4o(7+1)6d
6:4o(3+1)7d
7:6o(7+1)8d
8:7o(4+1)9d
9:9d(2+1)10n
10:8o(4+1)11d
11:9o(6+1)12d
12:12d(2+1)13n
13:11d(2+1)14n
14:12o(4+1)15d
15:15d(2+1)16n
16:15o(3+1)17d
17:17o(4+2)18d
18:18d(5+1)19n
19:18d(7+1)20n
20:18o(7+1)21n
NON
NON1
Parent:18
Linkage:o(7+1)n
SmallMolecule:SMILES [4CH3][3C@@H](O)[2CH2][1C](=O)O
Description:(R)-3-hydroxybutanoic acid
