RES
1b:x-lgal-HEX-x:x|6:d
2b:b-dglc-HEX-1:5
3b:a-dgal-HEX-1:5|6:a
4b:a-dgal-HEX-1:5|6:a
5b:a-dglc-HEX-1:5
6b:a-lara-PEN-1:5
7s:n-acetyl
LIN
1:1o(4+1)2d
2:1o(3+1)3d
3:3o(2+1)4d
4:3o(3+1)5d
5:5o(4+1)6d
6:5d(2+1)7n
