RES
1r:r1
REP
REP1:8o(6+1)2d=-1--1
RES
2b:a-dglc-HEX-1:5
3b:a-dglc-HEX-1:5
4s:n-acetyl
5b:b-dman-HEX-1:5
6b:a-dglc-HEX-1:5
7b:a-dman-HEX-1:5
8b:a-dman-HEX-1:5
LIN
1:2o(6+1)3d
2:2d(2+1)4n
3:2o(3+1)5d
4:5o(4+1)6d
5:5o(2+1)7d
6:7o(2+1)8d
