RES
1r:r1
REP
REP1:4o(3+1)2n=-1--1
RES
2s:phosphate
3b:o-xgro-TRI-0:0|1:aldi
4b:b-dgal-HEX-1:5
5s:acetyl
6b:b-dglc-HEX-1:5
7s:(s)-pyruvate
LIN
1:2n(1+3)3o
2:3o(1+1)4d
3:4o(2+1)5n
4:4o(4+1)6d
5:6o(6+2)7n
6:6o(4+2)7n
