RES
1r:r1
REP
REP1:7o(4+1)2d=-1--1
RES
2b:b-dglc-HEX-1:5
3b:b-dglc-HEX-1:5|6:a
4b:a-lman-HEX-1:5|6:d
5b:a-lman-HEX-1:5|6:d
6b:b-dglc-HEX-1:5
7b:a-lman-HEX-1:5|6:d
8s:acetyl
LIN
1:2o(4+1)3d
2:2o(3+1)4d
3:4o(4+1)5d
4:3o(4+1)6d
5:6o(3+1)7d
6:6o(2+1)8n
