RES
1b:o-dman-OCT-0:0|1:a|2:keto|3:d
2s:anhydro
3b:a-lgro-dman-HEP-1:5
4b:b-dglc-HEX-1:5
5b:a-dglc-HEX-1:5
6b:a-lgro-dman-HEP-1:5
7b:a-lgro-dman-HEP-1:5
8b:a-lgro-dman-HEP-1:5
9s:acetyl
10b:a-dglc-HEX-1:5
11b:b-dglc-HEX-1:5|6:d
12s:n-acetyl
13s:amino
14b:a-dgal-HEX-1:5|6:a
15b:b-dglc-HEX-1:5
16b:a-lxyl-HEX-1:5|3:d|6:d
17s:n-acetyl
18b:b-dgal-HEX-1:5
19b:a-lxyl-HEX-1:5|3:d|6:d
20s:phosphate
LIN
1:1d(4+1)2n
2:1o(8+1)2n
3:1o(5+1)3d
4:3o(4+1)4d
5:3o(6+1)5d
6:3o(3+1)6d
7:6o(6+1)7d
8:6o(2+1)8d
9:8o(2+1)9n
10:8o(7+1)10d
11:8o(3+1)11d
12:11d(2+1)12n
13:10d(2+1)13n
14:11o(3+1)14d
15:14o(4+1)15d
16:15o(4+1)16d
17:15d(2+1)17n
18:15o(3+1)18d
19:18o(2+1)19d
20:18o(6+1)20n
21:18o(4+1)20n
