RES
1r:r1
REP
REP1:11o(3+1)2d=-1--1
RES
2b:b-dglc-HEX-1:5|6:d
3s:n-acetyl
4s:n-acetyl
5b:a-dgal-HEX-1:5|6:a
6s:n-acetyl
7s:acetyl
8b:a-dgal-HEX-1:5|6:a
9s:n-acetyl
10s:acetyl
11b:a-dgal-HEX-1:5|6:a
12s:n-acetyl
13s:acetyl
LIN
1:2d(2+1)3n
2:2d(4+1)4n
3:2o(3+1)5d
4:5d(2+1)6n
5:5o(3+1)7n
6:5o(4+1)8d
7:8d(2+1)9n
8:8o(3+1)10n
9:8o(4+1)11d
10:11d(2+1)12n
11:11o(4+1)13n
