RES
1b:x-dman-OCT-x:x|1:a|2:keto|3:d
2b:x-dman-OCT-x:x|1:a|2:keto|3:d
3b:a-dglc-HEX-1:5
4b:b-dglc-HEX-1:5
5b:b-dglc-HEX-1:5
6b:b-dglc-HEX-1:5
7b:a-dglc-HEX-1:5
8b:a-dglc-HEX-1:5
9b:b-dgal-HEX-1:5
10b:b-dgal-HEX-1:5
11b:a-dgal-HEX-1:5
LIN
1:1o(-1+-1)2d
2:2o(5+1)3d
3:3o(3+1)4d
4:3o(6+1)5d
5:3o(4+1)6d
6:6o(2+1)7d
7:5o(2+1)8d
8:7o(4+1)9d
9:8o(4+1)10d
10:10o(4+1)11d
