RES
1b:b-dgro-dgal-NON-2:6|1:a|2:keto|3:d
2b:b-dglc-HEX-1:5
3s:n-acetyl
4b:a-dgro-dgal-NON-2:6|1:a|2:keto|3:d
5b:b-dglc-HEX-1:5
6s:n-acetyl
LIN
1:1o(8+1)2d
2:2d(2+1)3n
3:2o(6+2)4d
4:4o(8+1)5d
5:5d(2+1)6n
