RES
1r:r1
REP
REP1:3o(6+1)2d=-1--1
RES
2b:a-dglc-HEX-1:5
3b:a-dglc-HEX-1:5
4a:a1
LIN
1:2o(6+1)3d
2:3o(-1+-1)4n
ALT
ALT1
ALTSUBGRAPH1
LEAD-IN RES:5
RES
5b:a-dglc-HEX-1:5
ALTSUBGRAPH2
LEAD-IN RES:6
RES
6b:a-dglc-HEX-1:5
ALTSUBGRAPH3
LEAD-IN RES:7
RES
7b:a-dglc-HEX-1:5
