RES
1r:r1
REP
REP1:8o(3+1)2d=-1--1
RES
2b:a-dglc-HEX-1:5|6:d
3s:n-acetyl
4s:n-acetyl
5b:a-dgal-HEX-1:5|6:a
6b:b-dman-HEX-1:5|6:a
7s:n-acetyl
8b:a-dgal-HEX-1:5|6:a
9n:n1
LIN
1:2d(2+1)3n
2:2d(4+1)4n
3:2o(3+1)5d
4:5o(4+1)6d
5:6d(2+1)7n
6:6o(4+1)8d
7:8o(6+2)9n
NON
NON1
Parent:8
Linkage:o(6+2)n
SmallMolecule:SMILES [2CH2](N)[1C](=O)O
Description:glycine
