RES
1b:a-dara-PEN-1:4
2n:n1
3b:a-dara-PEN-1:4
4b:a-dara-PEN-1:4
5b:a-dara-PEN-1:4
6b:b-dara-PEN-1:4
7b:b-dara-PEN-1:4
LIN
1:1o(1+5)2n
2:1o(5+1)3d
3:3o(3+1)4d
4:3o(5+1)5d
5:4o(2+1)6d
6:5o(2+1)7d
NON
NON1
Parent:1
Linkage:o(1+5)n
HistoricalEntity:arabinogalactan
