RES
1b:a-dglc-HEX-1:5
2s:phosphate
3n:n1
4n:n2
5b:b-dglc-HEX-1:5
6s:phosphate
7n:n3
8n:n4
9n:n5
10n:n6
LIN
1:1o(1+1)2n
2:1o(3+1)3n
3:1o(2+1)4n
4:1o(6+1)5d
5:5o(4+1)6n
6:5o(2+1)7n
7:5o(3+1)8n
8:7n(3+1)9n
9:8n(3+1)10n
NON
NON1
Parent:1
Linkage:o(3+1)n
SmallMolecule:SMILES [14CH3][13CH2][12CH2][11CH2][10CH2][9CH2][8CH2][7CH2][6CH2][5CH2][4CH2][3CH](O)[2CH2][1C](=O)O
Description:3-hydroxy-tetradecanoic acid
NON2
Parent:1
Linkage:o(2+1)n
SmallMolecule:SMILES [14CH3][13CH2][12CH2][11CH2][10CH2][9CH2][8CH2][7CH2][6CH2][5CH2][4CH2][3CH](O)[2CH2][1C](=O)O
Description:3-hydroxy-tetradecanoic acid
NON3
Parent:5
Linkage:o(2+1)n
SmallMolecule:SMILES [14CH3][13CH2][12CH2][11CH2][10CH2][9CH2][8CH2][7CH2][6CH2][5CH2][4CH2][3CH](O)[2CH2][1C](=O)O
Description:3-hydroxy-tetradecanoic acid
NON4
Parent:5
Linkage:o(3+1)n
SmallMolecule:SMILES [14CH3][13CH2][12CH2][11CH2][10CH2][9CH2][8CH2][7CH2][6CH2][5CH2][4CH2][3CH](O)[2CH2][1C](=O)O
Description:3-hydroxy-tetradecanoic acid
NON5
Parent:7
Linkage:n(3+1)n
SmallMolecule:SMILES [12CH3][11CH2][10CH2][9CH2][8CH2][7CH2][6CH2][5CH2][4CH2][3CH2][2CH2][1C](=O)O
Description:lauric acid
NON6
Parent:8
Linkage:n(3+1)n
SmallMolecule:SMILES [14CH3][13CH2][12CH2][11CH2][10CH2][9CH2][8CH2][7CH2][6CH2][5CH2][4CH2][3CH2][2CH2][1C](=O)O
Description:myristic acid
