RES
1r:r1
REP
REP1:10o(1+1)2n=-1--1
RES
2s:phosphate
3b:o-xgro-TRI-0:0|1:aldi
4b:b-dgal-HEX-1:5
5s:n-acetyl
6s:succinate
7b:b-dgal-HEX-1:5
8s:n-acetyl
9s:phosphate
10b:o-xgro-TRI-0:0|1:aldi
LIN
1:2n(1+3)3o
2:3o(2+1)4d
3:4d(2+1)5n
4:4o(3+1)6n
5:4o(4+1)7d
6:7d(2+1)8n
7:7o(4+1)9n
8:9n(1+3)10o
