RES
1b:x-dxyl-PEN-1:5
2s:phosphate
3b:b-dxyl-PEN-1:5
4b:b-dgal-HEX-1:4
5b:a-lgal-HEX-1:5|6:d
6b:b-dgal-HEX-1:4
7s:phosphate
8b:a-lman-HEX-1:5|6:d
9b:b-dgal-HEX-1:4
LIN
1:1o(1+1)2n
2:1o(4+1)3d
3:3o(4+1)4d
4:4o(2+1)5d
5:4o(3+1)6d
6:6o(6+1)7n
7:5o(2+1)8d
8:8o(4+1)9d
