RES
1r:r1
REP
REP1:8o(3+1)2d=-1--1
RES
2b:b-xglc-HEX-1:5|6:a
3s:n-acetyl
4s:n-acetyl
5b:a-xglc-HEX-1:5|6:d
6s:n-acetyl
7s:n-acetyl
8b:b-xglc-HEX-1:5|6:a
9s:n-acetyl
10s:n-acetyl
LIN
1:2d(2+1)3n
2:2d(3+1)4n
3:2o(4+1)5d
4:5d(2+1)6n
5:5d(4+1)7n
6:5o(3+1)8d
7:8d(2+1)9n
8:8d(4+1)10n
