RES
1r:r1
REP
REP1:6o(4+1)2d=-1--1
RES
2b:b-dgal-HEX-1:5
3b:b-dglc-HEX-1:5
4b:b-dglc-HEX-1:5
5s:acetyl
6b:b-dglc-HEX-1:5
7b:b-dglc-HEX-1:5
8b:b-dglc-HEX-1:5
9s:succinate
10b:b-dglc-HEX-1:5
11s:succinate
12b:b-dglc-HEX-1:5
13s:pyruvate
LIN
1:2o(3+1)3d
2:3o(4+1)4d
3:4o(6+1)5n
4:4o(4+1)6d
5:6o(6+1)7d
6:7o(6+1)8d
7:8o(6+1)9n
8:8o(3+1)10d
9:10o(6+1)11n
10:10o(3+1)12d
11:12o(6+2)13n
12:12o(4+2)13n
