RES
1b:a-dgal-HEX-1:5
2s:amino
3n:n1
4b:b-dglc-HEX-1:5
5b:a-dglc-HEX-1:5
6b:a-dglc-HEX-1:5
7b:a-lman-HEX-1:5|6:d
8b:b-dglc-HEX-1:5
LIN
1:1d(2+1)2n
2:1o(2+1)3n
3:1o(3+1)4d
4:1o(4+1)5d
5:4o(6+1)6d
6:5o(6+1)7d
7:7o(2+1)8d
NON
NON1
Parent:1
Linkage:o(2+1)n
SmallMolecule:SMILES [3CH3][2C@H](N)[1C](=O)O
Description:(L)-alanine
