RES
1b:b-dglc-HEX-1:5|6:d
2s:thio
3b:b-dgal-HEX-1:5
4b:a-dgro-dgal-NON-2:6|1:a|2:keto|3:d
5b:b-dgal-HEX-1:5
6s:n-acetyl
7s:n-acetyl
8b:b-dgal-HEX-1:5
9b:a-dgal-HEX-1:5
LIN
1:1d(1+1)2n
2:1o(4+1)3d
3:3o(3+2)4d
4:3o(4+1)5d
5:5d(2+1)6n
6:4d(5+1)7n
7:5o(3+1)8d
8:8o(4+1)9d
