RES
1b:b-dgal-HEX-1:5
2b:a-lman-HEX-1:5|6:d
3b:a-lman-HEX-1:5|6:d
4b:a-lman-HEX-1:5|6:d
5b:a-dgal-HEX-1:5|6:d
6b:a-lman-HEX-1:5|6:d
7b:a-dgal-HEX-1:5|6:d
8b:a-lman-HEX-1:5|6:d
9b:a-dgal-HEX-1:5|6:d
10b:a-lman-HEX-1:5|6:d
11b:a-dgal-HEX-1:5|6:d
12b:a-lman-HEX-1:5|6:d
13b:a-dgal-HEX-1:5|6:d
14b:a-lman-HEX-1:5|6:d
LIN
1:1o(3+1)2d
2:2o(3+1)3d
3:3o(3+1)4d
4:4o(2+1)5d
5:5o(3+1)6d
6:6o(2+1)7d
7:7o(3+1)8d
8:8o(2+1)9d
9:9o(3+1)10d
10:10o(2+1)11d
11:11o(3+1)12d
12:12o(2+1)13d
13:13o(3+1)14d
