RES
1r:r1
REP
REP1:3o(4+1)2d=-1--1
RES
2b:b-dglc-HEX-1:5
3b:b-dgal-HEX-1:5
4b:b-dglc-HEX-1:5
5s:n-acetyl
6b:b-dgal-HEX-1:5
7b:a-dgro-dgal-NON-2:6|1:a|2:keto|3:d
8s:n-acetyl
LIN
1:2o(4+1)3d
2:3o(3+1)4d
3:4d(2+1)5n
4:4o(3+1)6d
5:6o(3+2)7d
6:7d(5+1)8n
