RES
1r:r1
REP
REP1:9o(2+1)2d=-1--1
RES
2b:b-dgal-HEX-1:5
3s:n-acetyl
4s:acetyl
5b:a-dgal-HEX-1:5
6b:b-dglc-HEX-1:5
7s:n-acetyl
8b:a-dgal-HEX-1:5
9b:a-dgal-HEX-1:5
LIN
1:2d(2+1)3n
2:2o(6+1)4n
3:2o(3+1)5d
4:5o(3+1)6d
5:5d(2+1)7n
6:5o(4+1)8d
7:8o(6+1)9d
