RES
1r:r1
REP
REP1:5o(4+1)2d=-1--1
RES
2b:b-dgal-HEX-1:5
3b:a-dman-HEX-1:5
4b:a-dman-HEX-1:5
5b:b-lman-HEX-1:5|6:d
6b:a-dxyl-HEX-1:5|3:d|6:d
7s:acetyl
LIN
1:2o(3+1)3d
2:3o(2+1)4d
3:4o(2+1)5d
4:5o(3+1)6d
5:5o(2+1)7n
