RES
1b:b-dgal-HEX-1:5
2s:n-acetyl
3b:a-dman-HEX-1:5|6:d
4b:a-dman-HEX-1:5|6:d
5b:a-dman-HEX-1:5|6:d
6b:a-dman-HEX-1:5|6:d
7b:a-dman-HEX-1:5|6:d
8b:a-dgal-HEX-1:5|6:d
9b:a-dman-HEX-1:5|6:d
10s:n-acetyl
11b:a-dgal-HEX-1:5|6:d
12b:a-dman-HEX-1:5|6:d
13s:n-acetyl
14b:a-dman-HEX-1:5|6:d
15b:a-dman-HEX-1:5|6:d
16b:a-dgal-HEX-1:5|6:d
17b:a-dman-HEX-1:5|6:d
18s:n-acetyl
19b:a-dgal-HEX-1:5|6:d
20b:a-dman-HEX-1:5|6:d
21s:n-acetyl
22b:a-dman-HEX-1:5|6:d
23b:a-dman-HEX-1:5|6:d
24b:a-dgal-HEX-1:5|6:d
25b:a-dman-HEX-1:5|6:d
26s:n-acetyl
27b:a-dman-HEX-1:5|6:d
28b:a-dgal-HEX-1:5|6:d
29s:n-acetyl
30b:a-dman-HEX-1:5|6:d
31b:a-dman-HEX-1:5|6:d
32b:a-dgal-HEX-1:5|6:d
33b:a-dman-HEX-1:5|6:d
34s:n-acetyl
35b:a-dman-HEX-1:5|6:d
36b:a-dgal-HEX-1:5|6:d
37s:n-acetyl
38b:a-dman-HEX-1:5|6:d
39b:a-dman-HEX-1:5|6:d
40b:a-dgal-HEX-1:5|6:d
41b:a-dman-HEX-1:5|6:d
42s:methyl
43s:n-acetyl
44b:a-dgal-HEX-1:5|6:d
45s:n-acetyl
LIN
1:1d(2+1)2n
2:1o(3+1)3d
3:3o(3+1)4d
4:4o(3+1)5d
5:5o(2+1)6d
6:6o(2+1)7d
7:7o(2+1)8d
8:7o(3+1)9d
9:8d(3+1)10n
10:9o(2+1)11d
11:9o(3+1)12d
12:11d(3+1)13n
13:12o(2+1)14d
14:14o(2+1)15d
15:15o(2+1)16d
16:15o(3+1)17d
17:16d(3+1)18n
18:17o(2+1)19d
19:17o(3+1)20d
20:19d(3+1)21n
21:20o(2+1)22d
22:22o(2+1)23d
23:23o(2+1)24d
24:23o(3+1)25d
25:24d(3+1)26n
26:25o(3+1)27d
27:25o(2+1)28d
28:28d(3+1)29n
29:27o(2+1)30d
30:30o(2+1)31d
31:31o(2+1)32d
32:31o(3+1)33d
33:32d(3+1)34n
34:33o(3+1)35d
35:33o(2+1)36d
36:36d(3+1)37n
37:35o(2+1)38d
38:38o(2+1)39d
39:39o(2+1)40d
40:39o(3+1)41d
41:41o(3+1)42n
42:40d(3+1)43n
43:41o(2+1)44d
44:44d(3+1)45n
