RES
1r:r1
REP
REP1:8o(3+1)2n=-1--1
RES
2s:phosphate
3b:o-dgro-TRI-0:0|1:aldi
4b:b-dgal-HEX-1:5
5b:b-dglc-HEX-1:5
6s:n-acetyl
7n:n1
8b:b-dgal-HEX-1:5|6:d
9s:n-acetyl
10s:amino
LIN
1:2n(1+3)3o
2:3o(2+1)4d
3:4o(3+1)5d
4:5d(2+1)6n
5:5o(4+2)7n
6:5o(3+1)8d
7:8d(2+1)9n
8:8d(4+1)10n
NON
NON1
Parent:5
Linkage:o(4+2)n
SmallMolecule:SMILES [5CH3][4C@@H](O)[3CH2][2C@H](O)[1C](=O)O
Description:2S,4R-dihydroxy-valeric acid
