RES
1b:b-dglc-HEX-1:5
2b:b-dgal-HEX-1:5
3b:b-dglc-HEX-1:5
4s:n-acetyl
5b:b-dgal-HEX-1:5
6b:b-dglc-HEX-1:5
7s:n-acetyl
8b:b-dgal-HEX-1:5
9b:b-dglc-HEX-1:5
10s:n-acetyl
11b:b-dgal-HEX-1:5
12b:b-dglc-HEX-1:5
13s:n-acetyl
14b:b-dgal-HEX-1:5
15b:b-dglc-HEX-1:5
16s:n-acetyl
17b:b-dgal-HEX-1:5
18b:a-dgal-HEX-1:5
LIN
1:1o(4+1)2d
2:2o(3+1)3d
3:3d(2+1)4n
4:3o(4+1)5d
5:5o(3+1)6d
6:6d(2+1)7n
7:6o(4+1)8d
8:8o(3+1)9d
9:9d(2+1)10n
10:9o(4+1)11d
11:11o(3+1)12d
12:12d(2+1)13n
13:12o(4+1)14d
14:14o(3+1)15d
15:15d(2+1)16n
16:15o(4+1)17d
17:17o(3+1)18d
