RES
1r:r1
REP
REP1:11o(6+1)2n=-1--1
RES
2s:phosphate
3b:a-dglc-HEX-1:5
4b:b-dgal-HEX-1:4
5s:n-acetyl
6b:b-dglc-HEX-1:5
7b:b-dgal-HEX-1:4
8s:acetyl
9s:acetyl
10b:b-dglc-HEX-1:5
11b:a-dglc-HEX-1:5
LIN
1:2n(1+1)3o
2:3o(4+1)4d
3:3d(2+1)5n
4:3o(3+1)6d
5:6o(3+1)7d
6:7o(5+1)8n
7:7o(6+1)9n
8:7o(3+1)10d
9:10o(6+1)11d
