RES
1r:r1
REP
REP1:9o(6+1)2d=-1--1
RES
2b:b-dgal-HEX-1:5
3s:n-acetyl
4b:b-dman-HEX-1:5|6:a
5s:n-acetyl
6s:n-acetyl
7b:a-dglc-HEX-1:5
8b:b-dman-HEX-1:5|6:a
9b:a-dgal-HEX-1:5
10s:n-acetyl
11s:n-acetyl
LIN
1:2d(2+1)3n
2:2o(3+1)4d
3:4d(2+1)5n
4:4d(3+1)6n
5:4o(4+1)7d
6:7o(6+1)8d
7:8o(4+1)9d
8:8d(2+1)10n
9:8d(3+1)11n
