RES
1b:o-dgal-HEX-0:0|1:aldi
2b:b-dglc-HEX-1:5
3s:n-acetyl
4b:a-dglc-HEX-1:5
5s:n-acetyl
6b:b-dgal-HEX-1:5
7b:a-dglc-HEX-1:5
8s:n-acetyl
9b:b-dgal-HEX-1:5
10s:phosphate
LIN
1:1o(3+1)2d
2:1d(2+1)3n
3:1o(4+1)4d
4:4d(2+1)5n
5:4o(4+1)6d
6:6o(4+1)7d
7:6d(2+1)8n
8:6o(3+1)9d
9:9o(6+1)10n
