RES
1b:o-dglc-HEX-0:0|1:aldi
2s:n-acetyl
3b:b-dglc-HEX-1:5
4s:n-acetyl
5b:a-dman-OCT-x:x|1:a|2:keto|3:d
6b:a-dman-HEX-1:5
7b:b-dglc-HEX-1:5
8b:b-dman-HEX-1:5
9b:a-dglc-HEX-1:5
10b:a-dglc-HEX-1:5
11b:a-dgal-HEX-1:5
12b:b-dglc-HEX-1:5|6:d
13s:n-acetyl
14s:n-acetyl
15s:n-acetyl
16b:b-ltre-HEX-1:5|4,5:en|6:a
17s:amino
LIN
1:1d(2+1)2n
2:1o(6+1)3d
3:3d(2+1)4n
4:3o(6+2)5d
5:5o(5+1)6d
6:6o(2+1)7d
7:6o(4+1)8d
8:8o(3+1)9d
9:7o(2+1)10d
10:8o(2+1)11d
11:8o(4+1)12d
12:12d(4+1)13n
13:12d(2+1)14n
14:11d(2+1)15n
15:12o(3+1)16d
16:16d(2+1)17n
