RES
1b:x-dman-OCT-2:6|1:a|2:keto|3:d
2b:a-lgro-dman-HEP-1:5
3b:a-lgro-dman-HEP-1:5
4b:b-dglc-HEX-1:5
5b:a-lgro-dman-HEP-1:5
6b:a-lgro-dman-HEP-1:5
7b:a-lgro-dman-HEP-1:5
8b:b-dgal-HEX-1:5
9b:a-dglc-HEX-1:5
10s:amino
11s:n-acetyl
LIN
1:1o(5+1)2d
2:2o(6+1)3d
3:2o(4+1)4d
4:2o(3+1)5d
5:5o(2+1)6d
6:4o(6+1)7d
7:7o(4+1)8d
8:6o(7+1)9d
9:9d(2+1)10n
10:8d(2+1)11n
