RES
1b:x-dman-OCT-x:x|1:a|2:keto|3:d
2b:b-lara-PEN-1:5
3b:a-lgro-dman-HEP-1:5
4b:b-dglc-HEX-1:5
5s:amino
6b:a-lgro-dman-HEP-1:5
7b:a-lgro-dman-HEP-1:5
8s:phospho-ethanolamine
9b:a-dgal-HEX-1:5|6:a
10b:a-dgro-dman-HEP-1:5
11b:a-dglc-HEX-1:5
12b:a-lgro-dman-HEP-1:5
13s:amino
14b:b-dgal-HEX-1:5
15b:b-dglc-HEX-1:5
16s:n-acetyl
LIN
1:1o(8+1)2d
2:1o(5+1)3d
3:3o(4+1)4d
4:2d(4+1)5n
5:3o(3+1)6d
6:6o(7+1)7d
7:6o(6+1)8n
8:6o(3+1)9d
9:9o(2+1)10d
10:9o(4+1)11d
11:10o(2+1)12d
12:11d(2+1)13n
13:11o(6+1)14d
14:14o(2+1)15d
15:15d(2+1)16n
