RES
1b:a-dman-HEX-1:5
2b:a-dman-HEX-1:5
3b:a-dman-HEX-1:5
4b:a-dman-HEX-1:5
5b:a-dman-HEX-1:5
6b:a-dman-HEX-1:5
7b:a-dman-HEX-1:5
8b:a-dman-HEX-1:5
9b:a-dman-HEX-1:5
10b:a-dman-HEX-1:5
11b:a-dman-HEX-1:5
12b:a-dman-HEX-1:5
13b:a-dman-HEX-1:5
14s:phosphate
15s:methyl
LIN
1:1o(3+1)2d
2:2o(3+1)3d
3:3o(2+1)4d
4:4o(2+1)5d
5:5o(3+1)6d
6:6o(3+1)7d
7:7o(2+1)8d
8:8o(2+1)9d
9:9o(3+1)10d
10:10o(3+1)11d
11:11o(2+1)12d
12:12o(2+1)13d
13:13o(3+1)14n
14:14n(1+1)15n
