RES
1b:b-dgal-HEX-1:5
2s:n-acetyl
3b:b-dgal-HEX-1:5
4b:b-dglc-HEX-1:5
5b:b-dgal-HEX-1:5
6s:n-acetyl
7b:b-dgal-HEX-1:5
8b:b-dglc-HEX-1:5
9b:b-lgro-lman-NON-2:6|1:a|2:keto|3:d|9:d
10s:amino
11s:amino
LIN
1:1d(2+1)2n
2:1o(3+1)3d
3:3o(6+1)4d
4:3o(3+1)5d
5:5d(2+1)6n
6:5o(3+1)7d
7:7o(6+1)8d
8:8o(6+2)9d
9:9d(7+1)10n
10:9d(5+1)11n
