RES
1b:b-dglc-HEX-1:5
2b:b-dgal-HEX-1:5
3b:a-dgro-dgal-NON-x:x|1:a|2:keto|3:d
4s:n-acetyl
5b:a-dgro-dgal-NON-x:x|1:a|2:keto|3:d
6s:n-acetyl
LIN
1:1o(4+1)2d
2:2o(3+2)3d
3:3d(5+1)4n
4:3o(8+2)5d
5:5d(5+1)6n
