RES
1b:x-dman-OCT-2:6|1:a|2:keto|3:d
2a:a1
3b:b-lara-PEN-1:5
4b:a-lgro-dman-HEP-1:5
5b:b-xglc-HEX-1:5
6s:amino
7b:a-lgro-dman-HEP-1:5
8b:a-lgro-dman-HEP-1:5
9b:x-xgal-HEX-1:5|6:a
10b:a-dgro-dman-HEP-1:5
11b:a-lgro-dman-HEP-1:5
LIN
1:1o(4+2)2n
2:1o(8+1)3d
3:1o(5+1)4d
4:4o(4+1)5d
5:3d(4+1)6n
6:4o(3+1)7d
7:7o(7+1)8d
8:7o(3+1)9d
9:9o(2+1)10d
10:10o(2+1)11d
ALT
ALT1
ALTSUBGRAPH1
LEAD-IN RES:12
RES
12b:x-dgro-dtal-OCT-2:6|1:a|2:keto
ALTSUBGRAPH2
LEAD-IN RES:13
RES
13b:x-dman-OCT-2:6|1:a|2:keto|3:d
