RES
1b:a-dara-PEN-1:4
2b:a-dara-PEN-1:4
3b:a-dara-PEN-1:4
4b:a-dara-PEN-1:4
5b:b-dara-PEN-1:4
6b:b-dara-PEN-1:4
7b:a-dman-HEX-1:5
8b:a-dman-HEX-1:5
9b:a-dman-HEX-1:5
10b:a-dman-HEX-1:5
LIN
1:1o(5+1)2d
2:2o(3+1)3d
3:2o(5+1)4d
4:3o(2+1)5d
5:4o(2+1)6d
6:6o(5+1)7d
7:5o(5+1)8d
8:8o(2+1)9d
9:7o(2+1)10d
