RES
1b:a-dman-OCT-2:6|1:a|2:keto|3:d
2s:phospho-ethanolamine
3b:a-lgro-dman-HEP-1:5
4b:a-lgro-dman-HEP-1:5
5b:b-dglc-HEX-1:5
6b:a-dglc-HEX-1:5|6:a
7b:a-dglc-HEX-1:5
8b:a-xgal-HEX-1:5|6:a
9b:a-dglc-HEX-1:5
10s:amino
11s:amino
12s:amino
LIN
1:1o(4+1)2n
2:1o(5+1)3d
3:3o(3+1)4d
4:3o(4+1)5d
5:4o(2+1)6d
6:4o(7+1)7d
7:5o(6+1)8d
8:5o(4+1)9d
9:7d(2+1)10n
10:8d(2+1)11n
11:9d(2+1)12n
