RES
1r:r1
REP
REP1:7o(6+1)2d=-1--1
RES
2b:a-dglc-HEX-1:5
3s:n-acetyl
4b:b-dman-HEX-1:5
5b:a-dglc-HEX-1:5
6b:a-dman-HEX-1:5
7b:a-dman-HEX-1:5
LIN
1:2d(2+1)3n
2:2o(3+1)4d
3:4o(4+1)5d
4:4o(2+1)6d
5:6o(2+1)7d
