RES
1r:r1
REP
REP1:3o(4+1)2d=-1--1
RES
2b:b-dglc-HEX-1:5
3b:b-dglc-HEX-1:5|6:a
4s:n-acetyl
5b:b-dglc-HEX-1:5
6b:b-dgal-HEX-1:5
7s:n-acetyl
LIN
1:2o(3+1)3d
2:2d(2+1)4n
3:2o(6+1)5d
4:5o(3+1)6d
5:5d(2+1)7n
