RES
1b:o-dery-TET-0:0|1:aldi
2b:b-dgal-HEX-1:5
3b:b-dglc-HEX-1:5
4b:b-dglc-HEX-1:5
5s:n-acetyl
6b:b-dgal-HEX-1:5
7b:b-dgal-HEX-1:5
8b:a-dgro-dgal-NON-2:6|1:a|2:keto|3:d
9b:b-dglc-HEX-1:5
10b:b-dglc-HEX-1:5
11s:n-acetyl
12s:n-acetyl
13b:b-dgal-HEX-1:5
14b:b-dgal-HEX-1:5
15b:a-dgro-dgal-NON-2:6|1:a|2:keto|3:d
16b:b-dglc-HEX-1:5
17b:b-dglc-HEX-1:5
18s:n-acetyl
19s:n-acetyl
20b:b-dgal-HEX-1:5
21b:b-dgal-HEX-1:5
22b:b-dglc-HEX-1:5
23b:a-dgro-dgal-NON-2:6|1:a|2:keto|3:d
24b:b-dglc-HEX-1:5
25s:n-acetyl
26s:n-acetyl
27b:b-dgal-HEX-1:5
28b:b-dgal-HEX-1:5
29b:a-dgro-dgal-NON-2:6|1:a|2:keto|3:d
30b:b-dglc-HEX-1:5
31s:n-acetyl
32s:n-acetyl
33b:b-dgal-HEX-1:5
34b:a-dgro-dgal-NON-2:6|1:a|2:keto|3:d
35s:n-acetyl
LIN
1:1o(3+1)2d
2:2o(4+1)3d
3:2o(3+1)4d
4:4d(2+1)5n
5:4o(4+1)6d
6:3o(4+1)7d
7:6o(3+2)8d
8:7o(4+1)9d
9:7o(3+1)10d
10:10d(2+1)11n
11:8d(5+1)12n
12:10o(4+1)13d
13:9o(4+1)14d
14:13o(3+2)15d
15:14o(4+1)16d
16:14o(3+1)17d
17:15d(5+1)18n
18:17d(2+1)19n
19:17o(4+1)20d
20:16o(4+1)21d
21:21o(4+1)22d
22:20o(3+2)23d
23:21o(3+1)24d
24:24d(2+1)25n
25:23d(5+1)26n
26:24o(4+1)27d
27:22o(4+1)28d
28:27o(3+2)29d
29:28o(3+1)30d
30:29d(5+1)31n
31:30d(2+1)32n
32:30o(4+1)33d
33:33o(3+2)34d
34:34d(5+1)35n
