RES
1b:a-dman-HEX-x:x
2n:n1
3b:a-dman-HEX-1:5
4b:a-dman-HEX-1:5
5b:a-dman-HEX-1:5
6s:methyl
LIN
1:1o(1+1)2n
2:1o(3+1)3d
3:3o(3+1)4d
4:4o(2+1)5d
5:5o(3+1)6n
NON
NON1
Parent:1
Linkage:o(1+1)n
SmallMolecule:SMILES [N-]=[N+]=NCCCCCCC{1}CO
Description:8-azido-octanol
