RES
1r:r1
REP
REP1:5o(3+1)2d=-1--1
RES
2b:a-dglc-HEX-1:5
3b:b-dgal-HEX-1:5
4b:a-lman-HEX-1:5|6:d
5b:a-lman-HEX-1:5|6:d
6b:b-dglc-HEX-1:5|6:a
7b:a-dglc-HEX-1:5
LIN
1:2o(4+1)3d
2:2o(3+1)4d
3:3o(3+1)5d
4:4o(2+1)6d
5:6o(4+1)7d
