RES
1b:a-dglc-HEX-1:5
2s:phosphate
3s:amino
4b:b-dglc-HEX-1:5
5s:amino
6b:a-dman-OCT-2:6|1:a|2:keto|3:d
7s:phosphate
8b:a-lgro-dman-HEP-1:5
9b:a-lgro-dman-HEP-1:5
10b:a-lgro-dman-HEP-1:5
11b:b-dglc-HEX-1:5
12b:a-lgro-dman-HEP-1:5
13b:a-dgro-dman-HEP-1:5
14b:b-dgal-HEX-1:5
15b:a-dgro-dman-HEP-1:5
16b:a-dglc-HEX-1:5
17s:amino
LIN
1:1o(1+1)2n
2:1d(2+1)3n
3:1o(6+1)4d
4:4d(2+1)5n
5:4o(6+2)6d
6:6o(4+1)7n
7:6o(5+1)8d
8:8o(6+1)9d
9:8o(3+1)10d
10:8o(4+1)11d
11:10o(2+1)12d
12:11o(6+1)13d
13:13o(4+1)14d
14:13o(6+1)15d
15:12o(7+1)16d
16:16d(2+1)17n
