RES
1r:r1
REP
REP1:7o(3+1)2d=-1--1
RES
2b:a-dman-HEX-1:5
3s:acetyl
4b:a-dman-HEX-1:5
5s:acetyl
6b:b-dgal-HEX-1:5
7b:b-dglc-HEX-1:5
8b:b-dglc-HEX-1:5|6:a
LIN
1:2o(6+1)3n
2:2o(3+1)4d
3:4o(6+1)5n
4:4o(2+1)6d
5:6o(3+1)7d
6:6o(4+1)8d
