RES
1b:x-dglc-HEX-1:5
2s:n-acetyl
3b:b-dgal-HEX-1:5
4b:b-dglc-HEX-1:5
5s:n-acetyl
6b:b-dgal-HEX-1:5
7b:b-dglc-HEX-1:5
8s:n-acetyl
9b:b-dgal-HEX-1:5
10b:b-dglc-HEX-1:5
11b:b-dgal-HEX-1:5
12s:n-acetyl
LIN
1:1d(2+1)2n
2:1o(4+1)3d
3:3o(3+1)4d
4:4d(2+1)5n
5:4o(4+1)6d
6:6o(3+1)7d
7:7d(2+1)8n
8:7o(4+1)9d
9:9o(3+1)10d
10:10o(4+1)11d
11:10d(2+1)12n
