RES
1b:x-dman-OCT-2:6|1:a|2:keto|3:d
2b:a-lgro-dman-HEP-1:5
3b:a-dglc-HEX-1:5
4b:b-dglc-HEX-1:5
5b:a-lgro-dman-HEP-1:5
6b:a-lgro-dman-HEP-1:5
7s:phospho-ethanolamine
8b:a-dgro-dman-HEP-1:5
9b:a-dman-HEX-1:5|6:d
10b:a-dman-HEX-1:5|6:d
11b:b-dglc-HEX-1:5|6:d
12s:n-acetyl
13b:b-dglc-HEX-1:5|6:d
14b:a-dman-HEX-1:5|6:d
15s:n-acetyl
LIN
1:1o(5+1)2d
2:2o(6+1)3d
3:2o(4+1)4d
4:2o(3+1)5d
5:5o(2+1)6d
6:5o(3+1)7n
7:4o(6+1)8d
8:8o(4+1)9d
9:9o(2+1)10d
10:10o(2+1)11d
11:11d(3+1)12n
12:11o(2+1)13d
13:13o(2+1)14d
14:13d(3+1)15n
