RES
1r:r1
REP
REP1:7o(3+1)2d=-1--1
RES
2b:b-dgal-HEX-1:5
3s:(r)-pyruvate
4b:a-dgal-HEX-1:5
5b:b-dgal-HEX-1:4
6s:n-acetyl
7b:a-dgal-HEX-1:5|6:d
8s:n-acetyl
9s:amino
LIN
1:2o(6+2)3n
2:2o(4+2)3n
3:2o(3+1)4d
4:4o(3+1)5d
5:4d(2+1)6n
6:4o(4+1)7d
7:7d(2+1)8n
8:7d(4+1)9n
