RES
1r:r1
REP
REP1:9o(3+1)2n=-1--1
RES
2s:phosphate
3b:o-dara-PEN-0:0|1:aldi
4b:a-lman-HEX-1:5|6:d
5b:b-lman-HEX-1:5|6:d
6b:b-dgal-HEX-1:5
7b:a-dgal-HEX-1:5
8b:b-dglc-HEX-1:5
9b:b-lman-HEX-1:5|6:d
LIN
1:2n(1+1)3o
2:3o(2+1)4d
3:4o(4+1)5d
4:5o(4+1)6d
5:5o(3+1)7d
6:7o(3+1)8d
7:8o(4+1)9d
