RES
1r:r1
REP
REP1:6o(4+1)2d=-1--1
RES
2b:b-xgal-HEX-1:5
3s:n-acetyl
4s:phosphate
5b:b-xgal-HEX-1:5
6b:a-xman-HEX-1:5|6:d
7n:n1
LIN
1:2d(2+1)3n
2:2o(3+1)4n
3:2o(4+1)5d
4:5o(3+1)6d
5:4n(1+1)7n
NON
NON1
Parent:4
Linkage:n(1+1)n
SmallMolecule:SMILES C[N+](C)(C)[2CH2][1CH2]O
Description:choline
