RES
1r:r1
REP
REP1:8o(4+1)2d=-1--1
RES
2b:b-dglc-HEX-1:5
3s:n-acetyl
4b:a-dgal-HEX-1:5|6:a
5s:acetyl
6n:n1
7b:a-dgal-HEX-1:5
8b:a-dgal-HEX-1:5|6:a
9n:n2
LIN
1:2d(2+1)3n
2:2o(3+1)4d
3:4o(4+1)5n
4:4o(6+2)6n
5:4o(3+1)7d
6:7o(4+1)8d
7:8o(6+2)9n
NON
NON1
Parent:4
Linkage:o(6+2)n
SmallMolecule:SMILES [3CH2](O)[2C@H](N)[1C](=O)O
Description:(L)-serine
NON2
Parent:8
Linkage:o(6+2)n
SmallMolecule:SMILES [6CH2](N)[5CH2][4CH2][3CH2][2C@H](N)[1C](=O)O
Description:(L)-lysine
