RES
1r:r1
REP
REP1:9o(3+1)2d=-1--1
RES
2b:a-dglc-HEX-1:5
3s:n-acetyl
4b:a-dgal-HEX-1:5|6:a
5s:n-acetyl
6b:a-dgal-HEX-1:5|6:a
7s:n-acetyl
8s:acetyl
9b:b-dglc-HEX-1:5|6:d
10s:amino
11n:n1
12s:acetyl
LIN
1:2d(2+1)3n
2:2o(3+1)4d
3:4d(2+1)5n
4:4o(4+1)6d
5:6d(2+1)7n
6:6o(3+1)8n
7:6o(4+1)9d
8:9d(4+1)10n
9:9o(4+1)11n
10:11n(2+1)12n
NON
NON1
Parent:9
Linkage:o(4+1)n
SmallMolecule:SMILES [2CH2](N)[1C](=O)O
Description:glycine
