RES
1r:r1
REP
REP1:6o(4+1)2d=-1--1
RES
2b:b-dglc-HEX-1:5
3s:n-acetyl
4b:a-lgal-HEX-1:5|6:d
5b:a-dgal-HEX-1:5
6b:a-lgal-HEX-1:5|6:d
7b:a-dgal-HEX-1:5
8s:(r)-pyruvate
9s:acetyl
LIN
1:2d(2+1)3n
2:2o(3+1)4d
3:4o(3+1)5d
4:5o(6+1)6d
5:6o(3+1)7d
6:7o(6+2)8n
7:7o(4+2)8n
8:7o(2+1)9n
