RES
1r:r1
REP
REP1:9o(6+1)2d=-1--1
RES
2b:b-dglc-HEX-1:5
3b:b-dman-HEX-1:5|6:d
4b:a-dgal-HEX-1:5
5s:n-acetyl
6s:phosphate
7b:a-dgal-HEX-1:5
8b:b-dgal-HEX-1:5
9b:b-dgal-HEX-1:4
10s:n-acetyl
LIN
1:2o(4+1)3d
2:3o(3+1)4d
3:4d(2+1)5n
4:4o(6+1)6n
5:6n(1+1)7o
6:7o(3+1)8d
7:8o(6+1)9d
8:8d(2+1)10n
