RES
1r:r1
REP
REP1:5o(3+1)2d=-1--1
RES
2b:b-dglc-HEX-1:5
3s:n-acetyl
4b:a-lglc-HEX-1:5|6:d
5b:a-dgal-HEX-1:5
6b:b-dxyl-HEX-1:5|3:d|6:d
7n:n1
LIN
1:2d(2+1)3n
2:2o(3+1)4d
3:4o(4+1)5d
4:5o(4+1)6d
5:6h(4+1)7n
NON
NON1
Parent:6
Linkage:h(4+1)n
SmallMolecule:SMILES [1C@@H](O)C
Description:(S)-hydroxyethyl
