RES
1r:r1
REP
REP1:5o(6+1)2d=-1--1
RES
2b:b-dglc-HEX-1:5
3s:n-acetyl
4b:b-lman-HEX-1:5|6:d
5b:a-dgal-HEX-1:5
6b:b-dglc-HEX-1:5|6:a
7s:n-acetyl
8s:n-acetyl
9b:b-dglc-HEX-1:5|6:a
10s:n-acetyl
11s:n-acetyl
LIN
1:2d(2+1)3n
2:2o(4+1)4d
3:4o(3+1)5d
4:5o(3+1)6d
5:6d(2+1)7n
6:6d(3+1)8n
7:6o(4+1)9d
8:9d(2+1)10n
9:9d(3+1)11n
