RES
1r:r1
REP
REP1:6o(4+1)2d=-1--1
RES
2b:a-dglc-HEX-1:5
3s:n-acetyl
4b:b-dgal-HEX-1:5
5b:b-drib-PEN-1:4
6b:b-dglc-HEX-1:5|6:d
7s:amino
8n:n1
9s:acetyl
LIN
1:2d(2+1)3n
2:2o(3+1)4d
3:4o(4+1)5d
4:5o(3+1)6d
5:6d(3+1)7n
6:6o(3+1)8n
7:8n(2+1)9n
NON
NON1
Parent:6
Linkage:o(3+1)n
SmallMolecule:SMILES [3CH2](O)[2C@H](N)[1C](=O)O
Description:(L)-serine
