RES
1b:a-lgro-dman-HEP-1:5
2b:a-lgro-dman-HEP-1:5
3b:a-lgro-dman-HEP-1:5
4b:a-lgro-dman-HEP-1:5
5b:a-dglc-HEX-1:5
6b:a-dglc-HEX-1:5
7b:b-dglc-HEX-1:5
8s:amino
LIN
1:1o(6+1)2d
2:1o(4+1)3d
3:1o(3+1)4d
4:4o(3+1)5d
5:4o(6+1)6d
6:3o(7+1)7d
7:7d(2+1)8n
