RES
1r:r1
REP
REP1:11o(4+1)2d=-1--1
RES
2b:a-dgal-HEX-1:5|6:d
3s:n-acetyl
4s:amino
5b:b-dglc-HEX-1:5
6s:phosphate
7b:o-drib-PEN-0:0|1:aldi
8b:b-dgal-HEX-1:5
9s:n-acetyl
10s:phosphate
11b:a-dgal-HEX-1:5
12s:n-acetyl
13n:n1
14s:phosphate
15n:n2
LIN
1:2d(2+1)3n
2:2d(4+1)4n
3:2o(3+1)5d
4:5o(6+1)6n
5:6n(1+1)7o
6:7o(5+1)8d
7:8d(2+1)9n
8:8o(6+1)10n
9:8o(3+1)11d
10:11d(2+1)12n
11:10n(1+1)13n
12:11o(6+1)14n
13:14n(1+1)15n
NON
NON1
Parent:10
Linkage:n(1+1)n
SmallMolecule:SMILES C[N+](C)(C)[2CH2][1CH2]O
Description:choline
NON2
Parent:14
Linkage:n(1+1)n
SmallMolecule:SMILES C[N+](C)(C)[2CH2][1CH2]O
Description:choline
