RES
1r:r1
REP
REP1:3o(4+1)2d=-1--1
RES
2b:b-lman-HEX-1:5|6:d
3b:b-dglc-HEX-1:5
4b:b-dgal-HEX-1:5
5b:a-lman-HEX-1:5|6:d
6s:phosphate
7b:o-xgro-TRI-0:0|1:aldi
LIN
1:2o(3+1)3d
2:2o(4+1)4d
3:4o(2+1)5d
4:4o(3+1)6n
5:6n(1+2)7o
