RES
1b:a-dman-OCT-2:6|1:a|2:keto|3:d
2s:diphospho-ethanolamine
3b:a-lgro-dman-HEP-1:5
4b:a-lgro-dman-HEP-1:5
5b:b-dglc-HEX-1:5
6s:acetyl
7s:acetyl
8b:b-dglc-HEX-1:5
9b:a-lgro-dman-HEP-1:5
10s:phosphate
11s:phospho-ethanolamine
12n:n1
13b:b-dgal-HEX-1:5
14b:a-dgal-HEX-1:5
15b:b-dgal-HEX-1:5
16s:n-acetyl
LIN
1:1o(4+1)2n
2:1o(5+1)3d
3:3o(2+1)4d
4:3o(4+1)5d
5:4o(3+1)6n
6:5o(4+1)7n
7:4o(2+1)8d
8:5o(3+1)9d
9:5o(6+1)10n
10:9o(6+1)11n
11:10n(1+1)12n
12:8o(4+1)13d
13:13o(4+1)14d
14:14o(3+1)15d
15:15d(2+1)16n
NON
NON1
Parent:10
Linkage:n(1+1)n
SmallMolecule:SMILES C[N+](C)(C)[2CH2][1CH2]O
Description:choline
