RES
1b:a-dman-OCT-2:6|1:a|2:keto|3:d
2b:a-lgro-dman-HEP-1:5
3b:b-dglc-HEX-1:5
4b:a-lgro-dman-HEP-1:5
5s:phospho-ethanolamine
6n:n1
7b:b-dgal-HEX-1:5
8b:a-dglc-HEX-1:5
9s:n-acetyl
10s:acetyl
11b:b-dglc-HEX-1:5
12s:n-acetyl
13b:b-dgal-HEX-1:5
14b:a-dgro-dgal-NON-2:6|1:a|2:keto|3:d
15s:n-acetyl
LIN
1:1o(5+1)2d
2:2o(4+1)3d
3:2o(3+1)4d
4:4o(6+1)5n
5:4o(7+1)6n
6:3o(4+1)7d
7:4o(2+1)8d
8:8d(2+1)9n
9:8o(4+1)10n
10:7o(3+1)11d
11:11d(2+1)12n
12:11o(4+1)13d
13:13o(3+2)14d
14:14d(5+1)15n
NON
NON1
Parent:4
Linkage:o(7+1)n
SmallMolecule:SMILES [2CH2](N)[1C](=O)O
Description:glycine
