RES
1r:r1
REP
REP1:9o(6+1)2d=-1--1
RES
2b:b-dgal-HEX-1:5
3b:b-dglc-HEX-1:5
4b:a-dglc-HEX-1:5
5b:a-dgal-HEX-1:5
6b:b-dgal-HEX-1:5
7s:n-acetyl
8b:b-dglc-HEX-1:5
9b:b-dglc-HEX-1:5
LIN
1:2o(6+1)3d
2:2o(3+1)4d
3:4o(4+1)5d
4:3o(4+1)6d
5:4d(2+1)7n
6:4o(6+1)8d
7:8o(3+1)9d
