RES
1b:a-dglc-HEX-1:5
2s:phosphate
3s:amino
4b:b-dglc-HEX-1:5
5s:phosphate
6s:amino
7b:a-dman-OCT-2:6|1:a|2:keto|3:d
8b:a-dman-OCT-2:6|1:a|2:keto|3:d
9b:a-lgro-dman-HEP-1:5
10s:phosphate
11s:phosphate
12b:a-lgro-dman-HEP-1:5
13s:pyrophosphate
14n:n1
15b:b-dgal-HEX-1:5
16s:n-acetyl
17b:b-dglc-HEX-1:5
18b:a-dglc-HEX-1:5
19s:(s)-pyruvate
20s:(r)-pyruvate
21s:n-acetyl
LIN
1:1o(1+1)2n
2:1d(2+1)3n
3:1o(6+1)4d
4:4o(4+1)5n
5:4d(2+1)6n
6:4o(6+2)7d
7:7o(4+2)8d
8:7o(5+1)9d
9:9o(2+1)10n
10:9o(4+1)11n
11:9o(3+1)12d
12:12o(6+1)13n
13:12o(7+1)14n
14:12o(3+1)15d
15:15d(2+1)16n
16:15o(3+1)17d
17:15o(4+1)18d
18:17o(6+2)19n
19:17o(4+2)19n
20:18o(6+2)20n
21:18o(4+2)20n
22:18d(2+1)21n
NON
NON1
Parent:12
Linkage:o(7+1)n
SmallMolecule:SMILES [1C](=O)(O)N
Description:carbamic acid
