RES
1b:x-dman-OCT-x:x|1:a|2:keto|3:d
2s:anhydro
3b:a-lgro-dman-HEP-x:x
4b:b-dglc-HEX-1:5
5b:a-lgro-dman-HEP-x:x
6b:a-lgro-dman-HEP-x:x
LIN
1:1d(2+1)2n
2:1o(7+1)2n
3:1o(5+1)3d
4:3o(4+1)4d
5:3o(3+1)5d
6:5o(2+1)6d
