RES
1b:a-lman-HEX-1:5|6:d
2b:a-lman-HEX-1:5|6:d
3b:b-dglc-HEX-1:5
4s:n-acetyl
5b:a-lman-HEX-1:5|6:d
6b:a-lman-HEX-1:5|6:d
7b:b-dglc-HEX-1:5
8s:n-acetyl
LIN
1:1o(2+1)2d
2:1o(3+1)3d
3:3d(2+1)4n
4:2o(2+1)5d
5:5o(2+1)6d
6:5o(3+1)7d
7:7d(2+1)8n
