RES
1b:a-dglc-HEX-1:5
2s:amino
3n:n1
4b:a-dman-HEX-1:5
5b:a-dman-HEX-1:5
6b:a-dman-HEX-1:5
7b:a-dgal-HEX-1:5
8b:b-dgal-HEX-1:5
9b:b-dglc-HEX-1:5
10s:n-acetyl
11b:b-dgal-HEX-1:5
12b:b-dglc-HEX-1:5
13s:n-acetyl
14b:b-dgal-HEX-1:5
15b:b-dglc-HEX-1:5
16b:b-dgal-HEX-1:5
17s:n-acetyl
LIN
1:1d(2+1)2n
2:1o(1+6)3n
3:1o(4+1)4d
4:4o(6+1)5d
5:5o(2+1)6d
6:5o(3+1)7d
7:7o(3+1)8d
8:8o(6+1)9d
9:9d(2+1)10n
10:9o(4+1)11d
11:11o(6+1)12d
12:12d(2+1)13n
13:12o(4+1)14d
14:14o(6+1)15d
15:15o(4+1)16d
16:15d(2+1)17n
NON
NON1
Parent:1
Linkage:o(1+6)n
SmallMolecule:SMILES [6C@H](O)1[5C@H](O)[4C@@H](O)[3C@H](O)[2C@H](O)[1C@H](O)1
Description:myo-inositol
