RES
1b:b-dglc-HEX-1:5
2b:b-dgal-HEX-1:5
3b:b-dglc-HEX-1:5
4s:n-acetyl
5b:b-dgal-HEX-1:5
6b:b-dglc-HEX-1:5
7s:n-acetyl
8b:b-dgal-HEX-1:5
9b:a-dgal-HEX-1:5
LIN
1:1o(4+1)2d
2:2o(3+1)3d
3:3d(2+1)4n
4:3o(4+1)5d
5:5o(3+1)6d
6:6d(2+1)7n
7:6o(4+1)8d
8:8o(3+1)9d
