RES
1r:r1
REP
REP1:6o(2+1)2d=-1--1
RES
2b:a-dglc-HEX-1:5
3s:n-acetyl
4b:a-lgal-HEX-1:5|6:d
5b:a-dman-HEX-1:5
6b:b-dman-HEX-1:5
7b:b-drib-HEX-1:4|3:d|6:d
LIN
1:2d(2+1)3n
2:2o(3+1)4d
3:4o(3+1)5d
4:5o(4+1)6d
5:6o(3+1)7d
