RES
1n:n1
2b:a-lgro-dman-HEP-1:5
3b:b-dglc-HEX-1:5
4b:a-lgro-dman-HEP-1:5
5s:phospho-ethanolamine
6b:a-lgro-dman-HEP-1:5
7b:b-dgal-HEX-1:5|6:d
8b:b-dgal-HEX-1:5
9s:n-acetyl
10s:amino
11b:b-dglc-HEX-1:5
12s:phosphate
LIN
1:1n(5+1)2d
2:2o(4+1)3d
3:2o(3+1)4d
4:4o(6+1)5n
5:4o(2+1)6d
6:3o(4+1)7d
7:6o(2+1)8d
8:7d(2+1)9n
9:7d(4+1)10n
10:7o(3+1)11d
11:11o(6+1)12n
NON
NON1
HistoricalEntity:anhKdo-ol
