RES
1r:r1
REP
REP1:5o(4+1)2d=-1--1
RES
2b:b-dglc-HEX-1:5
3b:b-dgal-HEX-1:5
4b:b-dglc-HEX-1:5
5b:a-dglc-HEX-1:5
6b:b-dglc-HEX-1:5
7s:n-acetyl
8b:b-dgal-HEX-1:5
9b:a-dgro-dgal-NON-2:6|1:a|2:keto|3:d
10s:n-acetyl
LIN
1:2o(4+1)3d
2:3o(3+1)4d
3:3o(4+1)5d
4:5o(6+1)6d
5:6d(2+1)7n
6:6o(4+1)8d
7:8o(3+2)9d
8:9d(5+1)10n
