RES
1b:a-lman-HEX-x:x|6:d
2n:n1
3b:b-dglc-HEX-1:5
4b:a-lman-HEX-1:5|6:d
5s:n-acetyl
6b:a-lman-HEX-1:5|6:d
7b:a-lman-HEX-1:5|6:d
LIN
1:1o(1+1)2n
2:1o(2+1)3d
3:1o(3+1)4d
4:3d(2+1)5n
5:4o(3+1)6d
6:6o(2+1)7d
NON
NON1
Parent:1
Linkage:o(1+1)n
SmallMolecule:SMILES [3CH3][2CH2][1CH2]O
Description:propanol
