RES
1r:r1
REP
REP1:7o(4+1)2d=-1--1
RES
2b:b-dglc-HEX-1:5
3b:b-dgal-HEX-1:5
4b:b-dglc-HEX-1:5
5b:b-dglc-HEX-1:5
6b:b-dglc-HEX-1:5
7b:b-dglc-HEX-1:5
8b:b-dglc-HEX-1:5
9s:succinate
10b:b-dglc-HEX-1:5
11s:(s)-pyruvate
LIN
1:2o(4+1)3d
2:2o(6+1)4d
3:3o(3+1)5d
4:4o(6+1)6d
5:5o(4+1)7d
6:6o(3+1)8d
7:8o(6+1)9n
8:8o(3+1)10d
9:10o(6+2)11n
10:10o(4+2)11n
