RES
1b:a-dglc-HEX-1:5
2b:a-dglc-HEX-1:5
3b:b-dglc-HEX-1:5
4b:a-dglc-HEX-1:5
5b:b-dglc-HEX-1:5
6s:n-acetyl
7b:b-dgal-HEX-1:5
8s:n-acetyl
9b:b-dgal-HEX-1:5
10s:n-acetyl
LIN
1:1o(2+1)2d
2:1o(4+1)3d
3:3o(6+1)4d
4:2o(4+1)5d
5:5d(2+1)6n
6:5o(3+1)7d
7:7d(2+1)8n
8:7o(4+1)9d
9:9d(2+1)10n
