RES
1b:a-dman-OCT-2:6|1:a|2:keto|3:d
2b:a-dman-OCT-2:6|1:a|2:keto|3:d
3b:b-lara-PEN-1:5
4b:a-lgro-dman-HEP-1:5
5b:b-dglc-HEX-1:5
6s:amino
7b:a-lgro-dman-HEP-1:5
8b:a-lgro-dman-HEP-1:5
9s:phospho-ethanolamine
10b:a-dgal-HEX-1:5|6:a
11b:a-dgro-dman-HEP-1:5
12b:a-dgal-HEX-1:5
13b:a-lgro-dman-HEP-1:5
14s:amino
15b:o-dgal-HEX-0:0
16b:b-dgal-HEX-1:5
17s:n-acetyl
LIN
1:1o(4+2)2d
2:1o(8+1)3d
3:1o(5+1)4d
4:4o(4+1)5d
5:3d(4+1)6n
6:4o(3+1)7d
7:7o(7+1)8d
8:7o(6+1)9n
9:7o(3+1)10d
10:10o(2+1)11d
11:10o(4+1)12d
12:11o(2+1)13d
13:12d(2+1)14n
14:12o(4+1)15d
15:12o(6+1)15d
16:15o(4+1)16d
17:15d(2+1)17n
