RES
1r:r1
REP
REP1:7o(3+1)2d=-1--1
RES
2b:b-dglc-HEX-1:5
3b:b-dglc-HEX-1:5
4b:b-dglc-HEX-1:5
5b:b-dglc-HEX-1:5
6b:b-dglc-HEX-1:5
7b:b-dglc-HEX-1:5
8a:a1
LIN
1:2o(3+1)3d
2:3o(3+1)4d
3:4o(3+1)5d
4:5o(3+1)6d
5:6o(3+1)7d
6:7o(-1+-1)8n
ALT
ALT1
ALTSUBGRAPH1
LEAD-IN RES:9
RES
9b:b-dglc-HEX-1:5
ALTSUBGRAPH2
LEAD-IN RES:10
RES
10b:b-dglc-HEX-1:5