RES
1r:r1
REP
REP1:14o(3+1)2d=-1--1
RES
2b:a-dman-HEX-1:5
3b:b-dglc-HEX-1:5|6:a
4b:a-dman-HEX-1:5
5b:a-dman-HEX-1:5
6b:a-dman-HEX-1:5
7b:b-dglc-HEX-1:5|6:a
8b:a-dman-HEX-1:5
9b:b-dxyl-PEN-1:5
10b:a-dman-HEX-1:5
11b:a-dman-HEX-1:5
12b:b-dglc-HEX-1:5|6:a
13b:a-dman-HEX-1:5
14b:a-dman-HEX-1:5
15b:b-dxyl-PEN-1:5
LIN
1:2o(2+1)3d
2:2o(3+1)4d
3:4o(3+1)5d
4:5o(3+1)6d
5:6o(2+1)7d
6:6o(3+1)8d
7:8o(2+1)9d
8:8o(3+1)10d
9:10o(3+1)11d
10:11o(2+1)12d
11:11o(3+1)13d
12:13o(3+1)14d
13:13o(2+1)15d