RES
1r:r1
REP
REP1:18o(3+1)2d=-1--1
RES
2b:a-dman-HEX-1:5
3b:b-dxyl-PEN-1:5
4b:a-dman-HEX-1:5
5b:b-dglc-HEX-1:5|6:a
6b:b-dxyl-PEN-1:5
7b:a-dman-HEX-1:5
8b:b-dxyl-PEN-1:5
9b:a-dman-HEX-1:5
10b:a-dman-HEX-1:5
11b:b-dglc-HEX-1:5|6:a
12b:a-dman-HEX-1:5
13b:a-dman-HEX-1:5
14b:b-dxyl-PEN-1:5
15b:a-dman-HEX-1:5
16b:b-dglc-HEX-1:5|6:a
17b:a-dman-HEX-1:5
18b:a-dman-HEX-1:5
19b:b-dxyl-PEN-1:5
LIN
1:2o(2+1)3d
2:2o(3+1)4d
3:4o(2+1)5d
4:4o(4+1)6d
5:4o(3+1)7d
6:7o(2+1)8d
7:7o(3+1)9d
8:9o(3+1)10d
9:10o(2+1)11d
10:10o(3+1)12d
11:12o(3+1)13d
12:13o(2+1)14d
13:13o(3+1)15d
14:15o(2+1)16d
15:15o(3+1)17d
16:17o(3+1)18d
17:17o(2+1)19d