RES
1r:r1
REP
REP1:18o(6+1)2d=-1--1
RES
2b:a-dman-HEX-1:5
3b:a-dman-HEX-1:5
4b:a-dman-HEX-1:5
5b:a-dman-HEX-1:5
6b:a-dman-HEX-1:5
7b:a-dman-HEX-1:5
8b:a-dman-HEX-1:5
9b:a-dman-HEX-1:5
10b:a-dman-HEX-1:5
11b:a-dman-HEX-1:5
12b:a-dglc-HEX-1:5
13b:a-dman-HEX-1:5
14b:a-dman-HEX-1:5
15b:a-dman-HEX-1:5
16b:a-dman-HEX-1:5
17b:a-dman-HEX-1:5
18b:a-dman-HEX-1:5
19b:a-dman-HEX-1:5
20b:a-dglc-HEX-1:5
21b:a-dman-HEX-1:5
22b:a-dman-HEX-1:5
LIN
1:2o(2+1)3d
2:2o(6+1)4d
3:4o(2+1)5d
4:3o(2+1)6d
5:4o(6+1)7d
6:5o(2+1)8d
7:7o(2+1)9d
8:6o(2+1)10d
9:7o(6+1)11d
10:10o(2+1)12d
11:10o(3+1)13d
12:8o(2+1)14d
13:11o(2+1)15d
14:9o(2+1)16d
15:11o(6+1)17d
16:17o(6+1)18d
17:17o(2+1)19d
18:14o(2+1)20d
19:16o(3+1)21d
20:15o(2+1)22d