RES
1b:x-dglc-HEX-x:x
2s:n-acetyl
3b:b-dman-HEX-1:5
4b:a-dman-HEX-1:5
5b:a-dman-HEX-1:5
6b:a-dman-HEX-1:5
7b:a-dman-HEX-1:5
8b:a-dman-HEX-1:5
9b:a-dman-HEX-1:5
10b:a-dman-HEX-1:5
11b:a-dman-HEX-1:5
LIN
1:1d(2+1)2n
2:1o(4+1)3d
3:3o(3+1)4d
4:3o(6+1)5d
5:4o(2+1)6d
6:5o(6+1)7d
7:5o(3+1)8d
8:6o(2+1)9d
9:7o(2+1)10d
10:8o(2+1)11d