RES
1r:r1
REP
REP1:10o(3+1)2d=-1--1
RES
2b:a-dman-HEX-1:5
3b:b-dglc-HEX-1:5|6:a
4b:a-dman-HEX-1:5
5b:a-dman-HEX-1:5
6b:b-dxyl-PEN-1:5
7b:a-dman-HEX-1:5
8b:b-dglc-HEX-1:5|6:a
9b:a-dman-HEX-1:5
10b:a-dman-HEX-1:5
11b:b-dxyl-PEN-1:5
LIN
1:2o(2+1)3d
2:2o(3+1)4d
3:4o(3+1)5d
4:5o(2+1)6d
5:5o(3+1)7d
6:7o(2+1)8d
7:7o(3+1)9d
8:9o(3+1)10d
9:9o(2+1)11d