RES
1b:x-dglc-HEX-x:x
2s:n-acetyl
3b:b-dman-HEX-1:5
4b:a-dman-HEX-1:5
5b:a-dman-HEX-1:5
6b:a-dman-HEX-1:5
7b:a-dman-HEX-1:5
8s:phosphate
9s:phosphate
10b:a-dman-HEX-1:5
11b:a-dman-HEX-1:5
LIN
1:1d(2+1)2n
2:1o(4+1)3d
3:3o(6+1)4d
4:3o(3+1)5d
5:5o(2+1)6d
6:4o(6+1)7d
7:7o(6+1)8n
8:6o(6+1)9n
9:9n(1+1)10o
10:8n(1+1)11o