RES
1b:b-dglc-HEX-1:5
2s:methyl
3s:amino
4b:b-dglc-HEX-1:5
5s:amino
6b:b-dglc-HEX-1:5
7s:amino
8b:b-dglc-HEX-1:5
9s:amino
10b:b-dglc-HEX-1:5
11s:amino
12b:b-dglc-HEX-1:5
13s:amino
14b:b-dglc-HEX-1:5
15s:amino
16b:b-dglc-HEX-1:5
17s:amino
LIN
1:1o(1+1)2n
2:1d(2+1)3n
3:1o(4+1)4d
4:4d(2+1)5n
5:4o(4+1)6d
6:6d(2+1)7n
7:6o(4+1)8d
8:8d(2+1)9n
9:8o(4+1)10d
10:10d(2+1)11n
11:10o(4+1)12d
12:12d(2+1)13n
13:12o(4+1)14d
14:14d(2+1)15n
15:14o(4+1)16d
16:16d(2+1)17n