RES
1b:x-dglc-HEX-x:x
2s:n-acetyl
3b:b-dman-HEX-1:5
4b:a-dman-HEX-1:5
5b:a-dman-HEX-1:5
6b:a-dman-HEX-1:5
7b:a-dman-HEX-1:5
8b:a-dman-HEX-1:5
9b:a-dman-HEX-1:5
10b:a-dman-HEX-1:5
11b:a-dman-HEX-1:5
12s:phosphate
13b:a-dman-HEX-1:5
14b:a-dman-HEX-1:5
15b:a-dman-HEX-1:5
16b:a-dman-HEX-1:5
17b:a-dman-HEX-1:5
18s:phosphate
19b:a-dman-HEX-1:5
LIN
1:1d(2+1)2n
2:1o(4+1)3d
3:3o(3+1)4d
4:3o(6+1)5d
5:5o(3+1)6d
6:4o(6+1)7d
7:4o(2+1)8d
8:5o(6+1)9d
9:9o(2+1)10d
10:8o(2+1)11d
11:9o(6+1)12n
12:7o(6+1)13d
13:12n(1+1)14o
14:13o(6+1)15d
15:15o(6+1)16d
16:16o(2+1)17d
17:16o(6+1)18n
18:18n(1+1)19o