RES
1r:r1
REP
REP1:3o(6+1)2d=-1--1
RES
2b:a-dgal-HEX-1:5
3b:a-dgal-HEX-1:5
4b:b-dgal-HEX-1:5
5b:b-dglc-HEX-1:5|6:a
6b:a-dman-HEX-1:5
7b:b-dxyl-PEN-1:5
8b:a-dman-HEX-1:5
9b:b-dxyl-PEN-1:5
LIN
1:2o(6+1)3d
2:3o(3+1)4d
3:4o(3+1)5d
4:4o(4+1)6d
5:6o(2+1)7d
6:6o(3+1)8d
7:8o(3+1)9d