RES
1b:x-dglc-HEX-x:x
2s:n-acetyl
3b:b-dman-HEX-1:5
4b:a-dman-HEX-1:5
5b:a-dman-HEX-1:5
6b:a-dman-HEX-1:5
7b:a-dman-HEX-1:5
8b:a-dman-HEX-1:5
9b:a-dman-HEX-1:5
10b:a-dman-HEX-1:5
11s:phosphate
12b:a-dman-HEX-1:5
13b:a-dman-HEX-1:5
14b:a-dman-HEX-1:5
LIN
1:1d(2+1)2n
2:1o(4+1)3d
3:3o(3+1)4d
4:3o(6+1)5d
5:4o(2+1)6d
6:5o(3+1)7d
7:5o(6+1)8d
8:8o(2+1)9d
9:6o(2+1)10d
10:7o(6+1)11n
11:8o(6+1)12d
12:11n(1+1)13o
13:12o(2+1)14d