RES
1r:r1
REP
REP1:28o(6+1)2d=-1--1
RES
2b:a-dman-HEX-1:5
3b:a-dman-HEX-1:5
4b:a-dman-HEX-1:5
5b:a-dman-HEX-1:5
6b:a-dgal-HEX-1:5
7b:a-dman-HEX-1:5
8b:a-dman-HEX-1:5
9b:a-dgal-HEX-1:5
10b:a-dman-HEX-1:5
11b:a-dman-HEX-1:5
12b:a-dgal-HEX-1:5
13b:a-dman-HEX-1:5
14b:a-dman-HEX-1:5
15b:a-dgal-HEX-1:5
16b:a-dman-HEX-1:5
17b:a-dman-HEX-1:5
18b:a-dgal-HEX-1:5
19b:a-dman-HEX-1:5
20b:a-dman-HEX-1:5
21b:a-dgal-HEX-1:5
22b:a-dman-HEX-1:5
23b:a-dman-HEX-1:5
24b:a-dgal-HEX-1:5
25b:a-dman-HEX-1:5
26b:a-dman-HEX-1:5
27b:a-dgal-HEX-1:5
28b:a-dman-HEX-1:5
29b:a-dman-HEX-1:5
30b:a-dgal-HEX-1:5
31b:a-dman-HEX-1:5
32b:a-dgal-HEX-1:5
LIN
1:2o(6+1)3d
2:3o(2+1)4d
3:3o(6+1)5d
4:4o(2+1)6d
5:5o(2+1)7d
6:5o(6+1)8d
7:7o(2+1)9d
8:8o(2+1)10d
9:8o(6+1)11d
10:10o(2+1)12d
11:11o(2+1)13d
12:11o(6+1)14d
13:13o(2+1)15d
14:14o(2+1)16d
15:14o(6+1)17d
16:16o(2+1)18d
17:17o(2+1)19d
18:17o(6+1)20d
19:19o(2+1)21d
20:20o(2+1)22d
21:20o(6+1)23d
22:22o(2+1)24d
23:23o(2+1)25d
24:23o(6+1)26d
25:25o(2+1)27d
26:26o(6+1)28d
27:26o(2+1)29d
28:29o(2+1)30d
29:28o(2+1)31d
30:31o(2+1)32d