RES
1r:r1
REP
REP1:3o(6+1)2d=-1--1
RES
2b:a-dgal-HEX-x:x
3b:a-dgal-HEX-x:x
4b:b-dgal-HEX-x:x
5b:b-dxyl-PEN-x:x
6b:a-dman-HEX-x:x
7b:b-dxyl-PEN-x:x
8b:a-dman-HEX-x:x
9b:b-dxyl-PEN-x:x
LIN
1:2o(6+1)3d
2:2o(3+1)4d
3:4o(3+1)5d
4:4o(4+1)6d
5:6o(2+1)7d
6:6o(3+1)8d
7:8o(3+1)9d