RES
1r:r1
REP
REP1:4o(3+1)2d=-1--1
RES
2b:a-dman-HEX-1:5
3b:a-dman-HEX-1:5
4b:a-dman-HEX-1:5
5b:b-dglc-HEX-1:5|6:a
6b:a-dman-HEX-1:5
7b:b-dxyl-PEN-1:5
8b:b-dxyl-PEN-1:5
LIN
1:2o(3+1)3d
2:3o(3+1)4d
3:3o(2+1)5d
4:5o(4+1)6d
5:4o(2+1)7d
6:7o(3+1)8d