RES
1b:a-dman-HEX-1:5
2a:a1
LIN
1:1o(2+1)2n
ALT
ALT1
ALTSUBGRAPH1
LEAD-IN RES:3
RES
3b:a-dman-HEX-1:5
ALTSUBGRAPH2
LEAD-IN RES:4
RES
4b:a-dman-HEX-1:5
5b:a-dman-HEX-1:5
LIN
1:4o(2+1)5d
ALTSUBGRAPH3
LEAD-IN RES:6
RES
6b:a-dman-HEX-1:5
7b:a-dman-HEX-1:5
8b:a-dman-HEX-1:5
LIN
1:6o(2+1)7d
2:7o(2+1)8d
ALTSUBGRAPH4
LEAD-IN RES:9
RES
9b:a-dman-HEX-1:5
10b:a-dman-HEX-1:5
11b:a-dman-HEX-1:5
12b:a-dman-HEX-1:5
LIN
1:9o(2+1)10d
2:10o(2+1)11d
3:11o(2+1)12d