RES
1b:x-xglc-HEX-x:x
2s:n-acetyl
3b:b-xglc-HEX-x:x
4s:n-acetyl
5b:b-xman-HEX-x:x
6b:a-xman-HEX-x:x
7b:a-xman-HEX-x:x
8b:a-xman-HEX-x:x
9b:a-xman-HEX-x:x
10b:a-xman-HEX-x:x
LIN
1:1d(2+1)2n
2:1o(4+1)3d
3:3d(2+1)4n
4:3o(4+1)5d
5:5o(3+1)6d
6:5o(6+1)7d
7:6o(3+1)8d
8:7o(6+1)9d
9:7o(3+1)10d