RES
1n:n1
2s:phosphate
3n:n2
4b:x-xglc-HEX-x:x
5s:amino
6b:a-xman-HEX-x:x
7s:phosphate
8b:a-xman-HEX-x:x
9s:ethanolamine
10s:phosphate
11b:a-xman-HEX-x:x
12b:a-xman-HEX-x:x
13s:ethanolamine
14s:phosphate
15s:ethanolamine
LIN
1:1n(-1+1)2n
2:2n(1+-1)3n
3:3n(6+1)4d
4:4d(2+1)5n
5:4o(4+1)6d
6:6o(-1+1)7n
7:6o(6+1)8d
8:7n(1+-1)9n
9:8o(-1+1)10n
10:8o(2+1)11d
11:11o(2+1)12d
12:10n(1+-1)13n
13:11o(-1+1)14n
14:14n(1+-1)15n
NON
NON1
HistoricalEntity:superclass: lipid residue
NON2
Parent:2
Linkage:n(1+-1)n
SmallMolecule:SMILES [6C@H](O)1[5C@H](O)[4C@@H](O)[3C@H](O)[2C@H](O)[1C@H](O)1
Description:myo-inositol