RES
1n:n1
2a:a1
3b:a-xman-HEX-1:5
LIN
1:1n(-1+-1)2n
2:2n(3+1)3d
ALT
ALT1
ALTSUBGRAPH1
LEAD-IN RES:4
LEAD-OUT RES:4+3
RES
4b:a-xman-HEX-1:5
ALTSUBGRAPH2
LEAD-IN RES:5
LEAD-OUT RES:5+3
RES
5b:a-xman-HEX-1:5
NON
NON1
SmallMolecule:SMILES [6C@H](O)1[5C@H](O)[4C@@H](O)[3C@H](O)[2C@H](O)[1C@H](O)1
Description:myo-inositol