RES
1b:a-xman-HEX-1:5
2n:n1
3b:b-xgal-HEX-1:5
4b:a-xgal-HEX-1:5|6:d
5b:a-xgal-HEX-1:5
6b:a-xgal-HEX-1:5
LIN
1:1o(1+2)2n
2:1o(6+1)3d
3:3o(2+1)4d
4:3o(6+1)5d
5:5o(6+1)6d
NON
NON1
Parent:1
Linkage:o(1+2)n
SmallMolecule:SMILES [6C@H](O)1[5C@H](O)[4C@@H](O)[3C@H](O)[2C@H](O)[1C@H](O)1
Description:myo-inositol