RES
1r:r1
REP
REP1:7o(6+1)2d=-1--1
RES
2b:a-xgal-HEX-x:x
3b:a-xgal-HEX-x:x
4b:b-xgal-HEX-x:x
5b:a-xman-HEX-x:x
6b:a-xgal-HEX-x:x
7b:a-xgal-HEX-x:x
8b:a-xman-HEX-x:x
9b:b-xgal-HEX-x:x
10b:b-xxyl-PEN-x:x
11b:a-xman-HEX-x:x
12b:b-xxyl-PEN-x:x
13b:a-xman-HEX-x:x
14b:b-xxyl-PEN-x:x
LIN
1:2o(6+1)3d
2:2o(3+1)4d
3:4o(4+1)5d
4:3o(6+1)6d
5:6o(6+1)7d
6:5o(3+1)8d
7:6o(3+1)9d
8:9o(3+1)10d
9:9o(4+1)11d
10:11o(2+1)12d
11:11o(3+1)13d
12:13o(3+1)14d