RES
1b:a-xman-HEX-x:x
2n:n1
3b:a-xman-HEX-x:x
4b:a-xman-HEX-x:x
5b:a-xman-HEX-x:x
6b:a-xman-HEX-x:x
LIN
1:1o(1+3)2n
2:1o(2+1)3d
3:3o(2+1)4d
4:4o(3+1)5d
5:5o(3+1)6d
NON
NON1
Parent:1
Linkage:o(1+3)n
SmallMolecule:SMILES [3CH2](O)[2CH](N)[1C](=O)O
Description:serine