RES
1r:r1
REP
REP1:11o(3+1)2d=-1--1
RES
2b:b-dglc-HEX-1:5
3b:b-dglc-HEX-1:5
4b:b-dglc-HEX-1:5
5b:b-dglc-HEX-1:5
6b:b-dglc-HEX-1:5
7b:b-dglc-HEX-1:5
8b:b-dglc-HEX-1:5
9b:b-dglc-HEX-1:5
10b:b-dglc-HEX-1:5
11b:b-dglc-HEX-1:5
12b:b-dglc-HEX-1:5
LIN
1:2o(3+1)3d
2:3o(6+1)4d
3:3o(3+1)5d
4:5o(3+1)6d
5:5o(6+1)7d
6:4o(6+1)8d
7:7o(3+1)9d
8:8o(6+1)10d
9:6o(3+1)11d
10:11o(6+1)12d