RES
1r:r1
REP
REP1:6o(3+1)2d=-1--1
RES
2b:a-xman-HEX-1:5
3b:b-xxyl-PEN-1:5
4b:a-xman-HEX-1:5
5b:b-xxyl-PEN-1:5
6b:a-xman-HEX-1:5
7b:b-xglc-HEX-1:5|6:a
LIN
1:2o(2+1)3d
2:2o(3+1)4d
3:4o(2+1)5d
4:4o(3+1)6d
5:6o(2+1)7d