RES
1r:r1
REP
REP1:11o(6+1)2d=-1--1
RES
2b:b-dgal-HEX-1:4
3b:b-dgal-HEX-1:4
4b:b-dgal-HEX-1:4
5b:a-dglc-HEX-1:5
6b:b-dgal-HEX-1:4
7b:b-dgal-HEX-1:4
8b:b-dgal-HEX-1:4
9b:a-dglc-HEX-1:5
10b:a-dglc-HEX-1:5
11b:b-dgal-HEX-1:4
12b:a-dglc-HEX-1:5
13b:a-dglc-HEX-1:5
LIN
1:2o(5+1)3d
2:3o(5+1)4d
3:4o(2+1)5d
4:4o(6+1)6d
5:6o(5+1)7d
6:7o(6+1)8d
7:7o(2+1)9d
8:9o(6+1)10d
9:8o(5+1)11d
10:11o(2+1)12d
11:12o(6+1)13d