RES
1r:r1
REP
REP1:9o(2+1)2d=-1--1
RES
2b:b-xman-HEX-1:5
3b:b-xman-HEX-1:5
4b:b-xman-HEX-1:5
5b:b-xman-HEX-1:5
6b:b-xgal-HEX-1:5
7b:b-xman-HEX-1:5
8b:b-xman-HEX-1:5
9b:b-xman-HEX-1:5
LIN
1:2o(2+1)3d
2:3o(3+1)4d
3:4o(2+1)5d
4:5o(6+1)6d
5:5o(3+1)7d
6:7o(2+1)8d
7:8o(3+1)9d