RES
1b:a-dman-HEX-1:5
2b:a-dman-HEX-1:5
3b:a-dman-HEX-1:5
4b:a-dman-HEX-1:5
5b:a-dman-HEX-1:5
6b:a-dman-HEX-1:5
7b:a-dman-HEX-1:5
8b:a-dman-HEX-1:5
9b:a-dman-HEX-1:5
10b:a-dman-HEX-1:5
11b:a-dman-HEX-1:5
12b:b-dman-HEX-1:5
13b:a-dman-HEX-1:5
14b:a-dman-HEX-1:5
15b:a-dman-HEX-1:5
16b:a-dman-HEX-1:5
17r:r1
18b:b-dman-HEX-1:5
19b:a-dman-HEX-1:5
20b:a-dman-HEX-1:5
21b:a-dman-HEX-1:5
22b:a-dman-HEX-1:5
23b:a-dman-HEX-1:5
24b:b-dman-HEX-1:5
25b:a-dman-HEX-1:5
26b:a-dman-HEX-1:5
27b:b-dman-HEX-1:5
28b:b-dman-HEX-1:5
29b:a-dman-HEX-1:5
30b:a-dman-HEX-1:5
31b:a-dman-HEX-1:5
32b:a-dman-HEX-1:5
33b:b-dman-HEX-1:5
34b:b-dman-HEX-1:5
LIN
1:1o(6+1)2d
2:2o(2+1)3d
3:2o(6+1)4d
4:3o(2+1)5d
5:4o(2+1)6d
6:4o(6+1)7d
7:5o(2+1)8d
8:6o(2+1)9d
9:7o(2+1)10d
10:7o(6+1)11d
11:8o(2+1)12d
12:9o(2+1)13d
13:10o(2+1)14d
14:11o(2+1)15d
15:11o(6+1)16d
16:16o(6+1)17n
17:12o(2+1)18d
18:13o(2+1)19d
19:16o(2+1)20d
20:14o(3+1)21d
21:15o(2+1)22d
22:19o(3+1)23d
23:18o(2+1)24d
24:20o(2+1)25d
25:22o(2+1)26d
26:21o(2+1)27d
27:27o(2+1)28d
28:26o(3+1)29d
29:25o(2+1)30d
30:29o(2+1)31d
31:30o(2+1)32d
32:32o(2+1)33d
33:33o(2+1)34d
REP
REP1:35o(6+1)35d=-1--1
RES
35b:a-dman-HEX-1:5