RES
1b:a-dman-HEX-1:5
2b:a-dman-HEX-1:5
3b:a-dman-HEX-1:5
4b:a-dman-HEX-1:5
5b:a-dman-HEX-1:5
6b:a-dman-HEX-1:5
7b:a-dman-HEX-1:5
8b:a-dman-HEX-1:5
9s:phosphate
10b:a-dman-HEX-1:5
11b:a-dman-HEX-1:5
12b:a-dman-HEX-1:5
13b:a-dman-HEX-1:5
14b:a-dman-HEX-1:5
15b:a-dman-HEX-1:5
16b:a-dman-HEX-1:5
17b:b-dman-HEX-1:5
18b:b-dman-HEX-1:5
19b:a-dman-HEX-1:5
20b:a-dman-HEX-1:5
21b:a-dman-HEX-1:5
22b:a-dman-HEX-1:5
23r:r1
24b:a-dman-HEX-1:5
25b:a-dman-HEX-1:5
26b:a-dman-HEX-1:5
27b:a-dman-HEX-1:5
28b:a-dman-HEX-1:5
29b:b-dman-HEX-1:5
30b:a-dman-HEX-1:5
31b:a-dman-HEX-1:5
32b:a-dman-HEX-1:5
33b:a-dman-HEX-1:5
34b:a-dman-HEX-1:5
35b:a-dman-HEX-1:5
36b:b-dman-HEX-1:5
LIN
1:1o(2+1)2d
2:1o(6+1)3d
3:3o(2+1)4d
4:2o(2+1)5d
5:3o(6+1)6d
6:5o(2+1)7d
7:4o(2+1)8d
8:5o(-1+1)9n
9:6o(2+1)10d
10:6o(6+1)11d
11:9n(1+1)12o
12:8o(2+1)13d
13:10o(2+1)14d
14:11o(2+1)15d
15:11o(6+1)16d
16:13o(2+1)17d
17:12o(2+1)18d
18:14o(2+1)19d
19:16o(2+1)20d
20:15o(2+1)21d
21:16o(6+1)22d
22:22o(6+1)23n
23:19o(2+1)24d
24:21o(3+1)25d
25:20o(2+1)26d
26:22o(2+1)27d
27:24o(3+1)28d
28:25o(2+1)29d
29:27o(2+1)30d
30:26o(2+1)31d
31:31o(3+1)32d
32:30o(2+1)33d
33:32o(2+1)34d
34:33o(2+1)35d
35:35o(2+1)36d
REP
REP1:37o(6+1)37d=-1--1
RES
37b:a-dman-HEX-1:5