RES
1b:b-dglc-HEX-1:5
2s:n-acetyl
3b:b-dglc-HEX-1:5
4s:n-acetyl
5b:b-dman-HEX-1:5
6b:a-dman-HEX-x:x
7b:a-dman-HEX-1:5
8b:a-dman-HEX-1:5
9r:r1
10b:a-dman-HEX-1:5
11b:a-dman-HEX-1:5
12b:a-dman-HEX-1:5
13b:a-dman-HEX-1:5
14b:a-dman-HEX-1:5
LIN
1:1d(2+1)2n
2:1o(4+1)3d
3:3d(2+1)4n
4:3o(4+1)5d
5:5o(3+1)6d
6:5o(6+1)7d
7:7o(3+1)8d
8:6o(6+1)9n
9:6o(2+1)10d
10:7o(6+1)11d
11:11o(2+1)12d
12:10o(2+1)13d
13:13o(3+1)14d
REP
REP1:15o(6+1)15d=-1--1
RES
15b:a-dman-HEX-1:5
16a:a1
LIN
1:15o(2+1)16n
REP2:17o(2+1)17d=0-1
RES
17b:a-dman-HEX-1:5
REP3:18o(2+1)18d=1-2
RES
18b:b-dman-HEX-1:5
ALT
ALT1
ALTSUBGRAPH1
LEAD-IN RES:19
RES
19b:a-dman-HEX-1:5
20r:r2
21b:a-dman-HEX-1:5
LIN
1:19o(2+1)20n
2:20n(3+1)21d
ALTSUBGRAPH2
LEAD-IN RES:22
RES
22b:a-dman-HEX-1:5
23b:a-dman-HEX-1:5
24r:r3
LIN
1:22o(2+1)23d
2:23o(2+1)24n
ALTSUBGRAPH3
LEAD-IN RES:25
RES
25b:a-dman-HEX-1:5
26b:a-dman-HEX-1:5
27s:phosphate
28b:a-dman-HEX-1:5
29b:a-dman-HEX-1:5
30b:a-dman-HEX-1:5
LIN
1:25o(2+1)26d
2:25o(6+1)27n
3:26o(3+1)28d
4:27n(1+1)29o
5:29o(3+1)30d