RES
1n:n1
2s:pyrophosphate
3b:x-dglc-HEX-1:5
4s:n-acetyl
5b:b-dglc-HEX-1:5
6s:n-acetyl
7b:b-dman-HEX-x:x
8b:a-dman-HEX-1:5
9b:a-dman-HEX-1:5
10b:a-dman-HEX-1:5
11b:a-dman-HEX-1:5
12b:a-dman-HEX-1:5
13b:a-dman-HEX-1:5
LIN
1:1n(-1+1)2n
2:2n(1+1)3o
3:3d(2+1)4n
4:3o(4+1)5d
5:5d(2+1)6n
6:5o(4+1)7d
7:7o(6+1)8d
8:7o(3+1)9d
9:9o(2+1)10d
10:8o(3+1)11d
11:10o(2+1)12d
12:11o(2+1)13d
NON
NON1
HistoricalEntity:dolichol