RES
1r:r1
REP
REP1:2o(6+1)2d=-1--1
RES
2b:a-dgal-HEX-1:5
3a:a1
4s:methyl
LIN
1:2o(2+1)3n
2:2o(3+1)4n
ALT
ALT1
ALTSUBGRAPH1
LEAD-IN RES:5
RES
5b:a-lgal-HEX-1:5|6:d
ALTSUBGRAPH2
LEAD-IN RES:6
RES
6b:b-dgal-HEX-1:5