RES
1r:r1
REP
REP1:11o(4+1)2d=-1--1
RES
2b:a-dglc-HEX-1:5
3b:a-dglc-HEX-1:5
4b:a-dglc-HEX-1:5
5b:a-dglc-HEX-1:5
6b:a-dglc-HEX-1:5
7b:a-dglc-HEX-1:5
8b:a-dglc-HEX-1:5
9b:a-dglc-HEX-1:5
10b:a-dglc-HEX-1:5
11b:a-dglc-HEX-1:5
12b:a-dglc-HEX-1:5
LIN
1:2o(4+1)3d
2:3o(4+1)4d
3:4o(4+1)5d
4:5o(4+1)6d
5:6o(4+1)7d
6:7o(4+1)8d
7:8o(4+1)9d
8:8o(6+1)10d
9:9o(4+1)11d
10:10o(6+1)12d