RES
1r:r1
REP
REP1:7n(6+1)2d=-1--1
RES
2b:a-dgal-HEX-1:5
3r:r2
4b:a-dgal-HEX-1:5
5b:a-lgal-HEX-1:5|6:d
6r:r3
7r:r4
LIN
1:2o(6+1)3n
2:3n(6+1)4d
3:4o(2+1)5d
4:4o(6+1)6n
5:6n(6+1)7n
REP2:8o(6+1)8d=0-3
RES
8b:a-dgal-HEX-1:5
REP3:9o(6+1)9d=0-4
RES
9b:a-dgal-HEX-1:5
REP4:11o(6+1)10d=2-2
RES
10b:b-dglc-HEX-1:5
11b:b-dglc-HEX-1:5
12b:b-dglc-HEX-1:5
LIN
1:10o(3+1)11d
2:11o(4+1)12d