RES
1b:o-dglc-HEX-0:0|1:aldi
2s:n-acetyl
3n:n1
4b:b-dglc-HEX-1:5
5s:n-acetyl
6b:b-dman-HEX-1:5
7b:a-dman-HEX-1:5
8b:a-dman-HEX-1:5
9b:a-dman-HEX-1:5
10b:a-dman-HEX-1:5
11b:b-dglc-HEX-1:5
12s:n-acetyl
LIN
1:1d(2+1)2n
2:1o(1+2)3n
3:1o(4+1)4d
4:4d(2+1)5n
5:4o(4+1)6d
6:6o(3+1)7d
7:6o(6+1)8d
8:8o(3+1)9d
9:8o(6+1)10d
10:7o(2+1)11d
11:11d(2+1)12n
NON
NON1
Parent:1
Linkage:o(1+2)n
SmallMolecule:SMILES C1=CC={2}C(C(=C1)C(=O)N)N
Description:2-aminobenzamide