RES
1r:r1
REP
REP1:7o(6+1)2d=-1--1
RES
2b:a-dman-HEX-1:5
3r:r2
4b:a-dglc-HEX-1:5
5b:a-dglc-HEX-1:5
6r:r3
7b:a-dgal-HEX-1:5
LIN
1:2o(6+1)3n
2:2o(3+1)4d
3:4o(6+1)5d
4:3n(6+1)6n
5:6n(6+1)7d
REP2:8o(6+1)8d=2-2
RES
8b:a-dman-HEX-1:5
9b:a-dglc-HEX-1:5
LIN
1:8o(3+1)9d
REP3:10o(6+1)10d=6-6
RES
10b:a-dgal-HEX-1:5