RES
1b:b-dglc-HEX-1:5
2n:n1
3n:n2
LIN
1:1o(6+1)2n
2:1o(1+3)3n
NON
NON1
Parent:1
Linkage:o(6+1)n
SmallMolecule:SMILES [18CH3][17CH2][16CH2][15CH2][14CH2][13CH2][12CH2][11CH2]/[10CH]=[9CH]\[8CH2][7CH2][6CH2][5CH2][4CH2][3CH2][2CH2][1C](=O)O
Description:oleic acid
NON2
Parent:1
Linkage:o(1+3)n
SmallMolecule:SMILES O[3C]1=C(C2=C[53C](O)=[54C](O)C=C2)OC3=C([5C](O)=[6CH][7C](O)=[8CH]3)C1=O
Description:3,5,7,3',4'-pentahydroxyflavone