RES
1r:r1
REP
REP1:17o(6+1)2d=-1--1
RES
2b:x-xgal-HEX-1:5
3b:x-xgal-HEX-1:5
4b:x-xgal-HEX-1:5
5b:x-xglc-HEX-1:5
6b:x-xgal-HEX-1:5
7b:x-xglc-HEX-1:5
8b:x-xglc-HEX-1:5
9b:x-xgal-HEX-1:5
10b:x-xgal-HEX-1:5
11b:x-xglc-HEX-1:5
12b:x-xgal-HEX-1:5
13b:x-xgal-HEX-1:5
14b:x-xglc-HEX-1:5
15b:x-xglc-HEX-1:5
16b:x-xgal-HEX-1:5
17b:x-xgal-HEX-1:5
18b:x-xgal-HEX-x:x|6:d
19b:x-xgal-HEX-1:5
LIN
1:2o(6+1)3d
2:3o(6+1)4d
3:3o(2+1)5d
4:4o(6+1)6d
5:5o(6+1)7d
6:7o(6+1)8d
7:6o(6+1)9d
8:8o(6+1)10d
9:9o(2+1)11d
10:9o(6+1)12d
11:12o(6+1)13d
12:11o(3+1)14d
13:14o(3+1)15d
14:13o(6+1)16d
15:16o(6+1)17d
16:16o(2+1)18d
17:18o(4+1)19d