RES
1b:x-dglc-HEX-x:x
2s:n-acetyl
3b:b-dglc-HEX-1:5
4s:n-acetyl
5b:b-dman-HEX-1:5
6b:a-dman-HEX-1:5
7b:a-dman-HEX-1:5
8b:a-dman-HEX-1:5
9b:a-dman-HEX-1:5
10b:b-dglc-HEX-x:x
11b:b-dglc-HEX-x:x
12s:n-acetyl
13s:n-acetyl
LIN
1:1d(2+1)2n
2:1o(4+1)3d
3:3d(2+1)4n
4:3o(4+1)5d
5:5o(3+1)6d
6:5o(6+1)7d
7:7o(3+1)8d
8:7o(6+1)9d
9:6o(2+1)10d
10:6o(4+1)11d
11:10d(2+1)12n
12:11d(2+1)13n