RES
1r:r1
REP
REP1:8o(6+1)2d=-1--1
RES
2b:a-dgal-HEX-1:5
3b:a-dgal-HEX-1:5
4b:a-dgal-HEX-1:5
5b:a-lgal-HEX-1:5|6:d
6b:a-dman-HEX-1:5
7b:a-dgal-HEX-1:5
8b:a-dgal-HEX-1:5
9b:a-lgal-HEX-1:5|6:d
10b:a-dman-HEX-1:5
LIN
1:2o(6+1)3d
2:3o(6+1)4d
3:3o(2+1)5d
4:5o(3+1)6d
5:4o(6+1)7d
6:7o(6+1)8d
7:7o(2+1)9d
8:9o(3+1)10d