RES
1r:r1
REP
REP1:9n(4+1)2d=-1--1
RES
2b:a-dglc-HEX-1:5
3r:r2
4b:a-dgal-HEX-1:5
5r:r3
6b:a-dglc-HEX-1:5
7b:a-dglc-HEX-1:5
8r:r4
9r:r5
LIN
1:2o(4+1)3n
2:3n(4+1)4d
3:4o(4+1)5n
4:4o(6+1)6d
5:6o(4+1)7d
6:5n(3+1)8n
7:8n(4+1)9n
REP2:10o(4+1)10d=-1--1
RES
10b:a-dglc-HEX-1:5
REP3:11o(4+1)11d=-1--1
RES
11b:a-dglc-HEX-1:5
REP4:12o(3+1)12d=3-3
RES
12b:b-dman-HEX-1:5
13b:a-dglc-HEX-1:5
14b:a-dglc-HEX-1:5
LIN
1:12o(6+1)13d
2:13o(4+1)14d
REP5:15o(4+1)15d=-1--1
RES
15b:a-dglc-HEX-1:5