RES
1r:r1
REP
REP1:14o(2+1)2d=-1--1
RES
2b:a-dman-HEX-1:5
3b:b-dman-HEX-1:5
4b:a-dman-HEX-1:5
5b:a-dman-HEX-1:5
6b:a-dman-HEX-1:5
7b:a-dman-HEX-1:5
8b:a-dman-HEX-1:5
9b:b-dman-HEX-1:5
10b:a-dman-HEX-1:5
11b:a-dman-HEX-1:5
12b:b-dgal-HEX-1:4
13b:a-dman-HEX-1:5
14b:a-dman-HEX-1:5
LIN
1:2o(6+1)3d
2:2o(2+1)4d
3:4o(2+1)5d
4:5o(2+1)6d
5:6o(2+1)7d
6:6o(6+1)8d
7:8o(6+1)9d
8:7o(2+1)10d
9:10o(2+1)11d
10:11o(6+1)12d
11:11o(2+1)13d
12:13o(2+1)14d