RES
1r:r1
REP
REP1:9o(6+1)2d=-1--1
RES
2b:b-dglc-HEX-1:5
3b:b-dglc-HEX-1:5
4b:b-dglc-HEX-1:5
5b:a-dglc-HEX-1:5
6b:a-dgal-HEX-1:5
7b:a-lgal-HEX-1:5|6:d
8b:a-dgal-HEX-1:5
9b:a-dgal-HEX-1:5
LIN
1:2o(4+1)3d
2:3o(6+1)4d
3:4o(6+1)5d
4:5o(6+1)6d
5:5o(2+1)7d
6:5o(4+1)8d
7:8o(6+1)9d