RES
1r:r1
REP
REP1:9n(6+1)2d=-1--1
RES
2b:a-dman-HEX-1:5
3b:a-dman-HEX-1:5
4b:a-dman-HEX-1:5
5r:r2
6b:a-dman-HEX-1:5
7b:a-dman-HEX-1:5
8b:a-dman-HEX-1:5
9r:r3
LIN
1:2o(6+1)3d
2:3o(6+1)4d
3:4o(6+1)5n
4:5n(6+1)6d
5:6o(6+1)7d
6:7o(6+1)8d
7:8o(6+1)9n
REP2:10o(6+1)10d=6-6
RES
10b:a-dman-HEX-1:5
11b:b-dgal-HEX-1:4
12b:b-dgal-HEX-1:4
13b:b-dgal-HEX-1:4
14b:b-dgal-HEX-1:4
LIN
1:10o(2+1)11d
2:11o(6+1)12d
3:12o(5+1)13d
4:13o(6+1)14d
REP3:15o(6+1)15d=11-11
RES
15b:a-dman-HEX-1:5
16b:b-dgal-HEX-1:4
17b:b-dgal-HEX-1:4
18b:a-dglc-HEX-1:5|6:a
19b:b-dman-HEX-1:5
LIN
1:15o(2+1)16d
2:16o(6+1)17d
3:17o(2+1)18d
4:18o(4+1)19d