RES
1r:r1
REP
REP1:16o(6+1)2d=-1--1
RES
2b:a-dman-HEX-1:5
3b:a-dman-HEX-1:5
4r:r2
5b:a-dman-HEX-1:5
6b:a-dman-HEX-1:5
7b:a-dman-HEX-1:5
8b:a-dman-HEX-1:5
9r:r3
10b:a-dman-HEX-1:5
11b:a-dman-HEX-1:5
12b:a-dman-HEX-1:5
13b:a-dman-HEX-1:5
14r:r4
15b:a-dman-HEX-1:5
16b:a-dman-HEX-1:5
LIN
1:2o(6+1)3d
2:3o(6+1)4n
3:4n(6+1)5d
4:5o(6+1)6d
5:6o(6+1)7d
6:7o(6+1)8d
7:8o(6+1)9n
8:9n(6+1)10d
9:10o(6+1)11d
10:11o(6+1)12d
11:12o(6+1)13d
12:13o(6+1)14n
13:14n(6+1)15d
14:15o(6+1)16d
REP2:17o(6+1)17d=20-20
RES
17b:a-dman-HEX-1:5
18b:b-dgal-HEX-1:5
LIN
1:17o(4+1)18d
REP3:19o(6+1)19d=13-13
RES
19b:a-dman-HEX-1:5
20b:b-dgal-HEX-1:4
21b:a-dgal-HEX-1:4
LIN
1:19o(2+1)20d
2:20o(2+1)21d
REP4:22o(6+1)22d=5-5
RES
22b:a-dman-HEX-1:5
23b:b-dgal-HEX-1:4
LIN
1:22o(2+1)23d