RES
1s:phosphate
2n:n1
3b:a-xman-HEX-1:5
4b:b-xgal-HEX-1:5
5b:a-xman-HEX-1:5
6b:b-xxyl-PEN-1:5
7b:a-xman-HEX-1:5
8b:a-xman-HEX-1:5
9b:a-xman-HEX-1:5
10b:a-xman-HEX-1:5
LIN
1:1n(1+1)2n
2:2n(2+1)3d
3:3o(6+1)4d
4:4o(4+1)5d
5:5o(2+1)6d
6:5o(3+1)7d
7:7o(6+1)8d
8:8o(6+1)9d
9:9o(2+1)10d
NON
NON1
Parent:1
Linkage:n(1+1)n
SmallMolecule:SMILES [6C@H](O)1[5C@H](O)[4C@@H](O)[3C@H](O)[2C@H](O)[1C@H](O)1
Description:myo-inositol