RES
1r:r1
REP
REP1:26o(2+1)2d=-1--1
RES
2b:a-dman-HEX-1:5
3b:a-dman-HEX-1:5
4b:a-dman-HEX-1:5
5b:a-dman-HEX-1:5
6b:b-dgal-HEX-1:5
7b:a-dman-HEX-1:5
8b:b-dgal-HEX-1:5
9b:b-dgal-HEX-1:4
10b:a-dman-HEX-1:5
11b:a-dman-HEX-1:5
12b:b-dgal-HEX-1:5
13b:a-dman-HEX-1:5
14b:b-dgal-HEX-1:5
15b:a-dman-HEX-1:5
16b:a-dman-HEX-1:5
17b:b-dgal-HEX-1:5
18b:b-dgal-HEX-1:5
19b:b-dgal-HEX-1:4
20b:b-dgal-HEX-1:5
21b:a-dman-HEX-1:5
22b:a-dman-HEX-1:5
23b:b-dgal-HEX-1:5
24b:b-dgal-HEX-1:4
25b:a-dman-HEX-1:5
26b:a-dman-HEX-1:5
27b:b-dgal-HEX-1:5
28b:b-dgal-HEX-1:5
29b:b-dgal-HEX-1:4
LIN
1:2o(2+1)3d
2:3o(2+1)4d
3:4o(6+1)5d
4:4o(2+1)6d
5:5o(2+1)7d
6:6o(4+1)8d
7:8o(4+1)9d
8:7o(2+1)10d
9:10o(2+1)11d
10:11o(2+1)12d
11:11o(6+1)13d
12:12o(4+1)14d
13:13o(2+1)15d
14:15o(6+1)16d
15:15o(2+1)17d
16:14o(4+1)18d
17:18o(4+1)19d
18:17o(4+1)20d
19:16o(2+1)21d
20:21o(2+1)22d
21:20o(4+1)23d
22:23o(4+1)24d
23:22o(2+1)25d
24:25o(6+1)26d
25:25o(2+1)27d
26:27o(4+1)28d
27:28o(4+1)29d