RES
1r:r1
REP
REP1:26o(6+1)2d=-1--1
RES
2b:b-dglc-HEX-1:5
3b:b-dglc-HEX-1:5
4b:b-dglc-HEX-1:5
5b:b-dglc-HEX-1:5
6b:b-dglc-HEX-1:5
7b:b-dglc-HEX-1:5
8b:b-dglc-HEX-1:5
9b:b-dglc-HEX-1:5
10b:b-dglc-HEX-1:5
11b:b-dglc-HEX-1:5
12b:b-dglc-HEX-1:5
13b:b-dglc-HEX-1:5
14b:b-dglc-HEX-1:5
15b:b-dglc-HEX-1:5
16b:b-dglc-HEX-1:5
17b:b-dglc-HEX-1:5
18b:b-dglc-HEX-1:5
19b:b-dglc-HEX-1:5
20b:b-dglc-HEX-1:5
21b:b-dglc-HEX-1:5
22b:b-dglc-HEX-1:5
23b:b-dglc-HEX-1:5
24b:b-dglc-HEX-1:5
25b:b-dglc-HEX-1:5
26b:b-dglc-HEX-1:5
LIN
1:2o(3+1)3d
2:2o(6+1)4d
3:4o(3+1)5d
4:4o(6+1)6d
5:6o(3+1)7d
6:6o(6+1)8d
7:8o(3+1)9d
8:8o(6+1)10d
9:10o(3+1)11d
10:10o(6+1)12d
11:12o(3+1)13d
12:12o(6+1)14d
13:14o(3+1)15d
14:14o(6+1)16d
15:16o(3+1)17d
16:16o(6+1)18d
17:18o(3+1)19d
18:18o(6+1)20d
19:19o(3+1)21d
20:20o(6+1)22d
21:20o(3+1)23d
22:23o(3+1)24d
23:22o(6+1)25d
24:25o(6+1)26d