RES
1r:r1
REP
REP1:2o(6+1)2d=-1--1
RES
2b:a-dman-HEX-1:5
3a:a1
LIN
1:2o(2+1)3n
ALT
ALT1
ALTSUBGRAPH1
LEAD-IN RES:4
RES
4b:a-dman-HEX-1:5
ALTSUBGRAPH2
LEAD-IN RES:5
RES
5b:a-dman-HEX-1:5
6b:a-dman-HEX-1:5
LIN
1:5o(2+1)6d
ALTSUBGRAPH3
LEAD-IN RES:7
RES
7b:a-dman-HEX-1:5
8b:a-dman-HEX-1:5
9s:phosphate
10b:a-dman-HEX-1:5
LIN
1:7o(2+1)8d
2:7o(6+1)9n
3:9n(1+1)10o