RES
1b:b-dglc-HEX-1:5
2s:n-acetyl
3s:amino
4n:n1
5b:b-dglc-HEX-1:5
6s:n-acetyl
7b:b-dman-HEX-1:5
8b:a-dman-HEX-1:5
9b:a-dman-HEX-1:5
10b:a-dman-HEX-1:5
11b:a-dman-HEX-1:5
12b:a-dman-HEX-1:5
13b:a-dman-HEX-1:5
14b:a-dman-HEX-1:5
15b:a-dman-HEX-1:5
16b:a-dman-HEX-1:5
17b:a-dman-HEX-1:5
18b:a-dman-HEX-1:5
19b:a-dman-HEX-1:5
20b:a-dman-HEX-1:5
21r:r1
22b:a-dman-HEX-1:5
23b:a-dman-HEX-1:5
24s:phosphate
25b:a-dman-HEX-1:5
26b:a-dman-HEX-1:5
27b:a-dman-HEX-1:5
28b:a-dman-HEX-1:5
29b:a-dman-HEX-1:5
LIN
1:1d(2+1)2n
2:1d(1+1)3n
3:1o(1+4)4n
4:1o(4+1)5d
5:5d(2+1)6n
6:5o(4+1)7d
7:7o(3+1)8d
8:7o(6+1)9d
9:9o(3+1)10d
10:9o(6+1)11d
11:8o(2+1)12d
12:8o(6+1)13d
13:13o(2+1)14d
14:11o(2+1)15d
15:12o(2+1)16d
16:13o(6+1)17d
17:16o(3+1)18d
18:15o(3+1)19d
19:14o(3+1)20d
20:17o(6+1)21n
21:17o(2+1)22d
22:21n(6+1)23d
23:22o(6+1)24n
24:22o(2+1)25d
25:23o(2+1)26d
26:25o(3+1)27d
27:24n(1+1)28o
28:28o(3+1)29d
REP
REP1:30o(6+1)30d=-1--1
RES
30b:a-dman-HEX-1:5
31b:a-dman-HEX-1:5
32b:a-dman-HEX-1:5
33s:phosphate
34b:a-dman-HEX-1:5
35b:a-dman-HEX-1:5
36b:a-dman-HEX-1:5
LIN
1:30o(2+1)31d
2:31o(2+1)32d
3:31o(6+1)33n
4:32o(3+1)34d
5:33n(1+1)35o
6:35o(3+1)36d
NON
NON1
Parent:1
Linkage:o(1+4)n
SmallMolecule:SMILES [4C](=O)(N)[3CH2][2C@H](N)[1C](=O)O
Description:(L)-asparagine