RES
1r:r1
REP
REP1:2o(6+1)2d=-1--1
RES
2b:a-dman-HEX-1:5
3b:a-dman-HEX-1:5
4r:r2
5s:phosphate
6r:r3
7b:b-dman-HEX-1:5
8r:r4
LIN
1:2o(2+1)3d
2:3o(2+1)4n
3:3o(6+1)5n
4:4n(2+1)6n
5:5n(1+1)7o
6:7o(2+1)8n
REP2:9o(2+1)9d=1-3
RES
9b:a-dman-HEX-1:5
REP3:10o(2+1)10d=-1--1
RES
10b:b-dman-HEX-1:5
REP4:11o(2+1)11d=-1--1
RES
11b:b-dman-HEX-1:5