RES
1r:r1
REP
REP1:7o(6+1)2d=-1--1
RES
2b:a-dgal-HEX-1:5
3b:a-dgal-HEX-1:5
4b:b-dgal-HEX-1:5
5b:a-dman-HEX-1:5
6b:a-dgal-HEX-1:5
7b:a-dgal-HEX-1:5
8b:a-dman-HEX-1:5
9b:b-dgal-HEX-1:5
10b:b-dxyl-PEN-1:5
11b:a-dman-HEX-1:5
12b:b-dxyl-PEN-1:5
13b:a-dman-HEX-1:5
14b:b-dxyl-PEN-1:5
LIN
1:2o(6+1)3d
2:2o(3+1)4d
3:4o(4+1)5d
4:3o(6+1)6d
5:6o(6+1)7d
6:5o(3+1)8d
7:6o(3+1)9d
8:9o(3+1)10d
9:9o(4+1)11d
10:11o(2+1)12d
11:11o(3+1)13d
12:13o(3+1)14d