RES
1r:r1
REP
REP1:3n(3+1)2d=-1--1
RES
2b:b-dglc-HEX-1:5
3r:r2
4b:b-dglc-HEX-1:5
5b:b-dglc-HEX-1:5
LIN
1:2o(3+1)3n
2:2o(2+1)4d
3:4o(4+1)5d
REP2:10o(3+1)6d=5-5
RES
6b:b-dglc-HEX-1:5
7b:b-dglc-HEX-1:5
8b:b-dglc-HEX-1:5
9b:b-dglc-HEX-1:5
10b:b-dglc-HEX-1:5
11b:b-dglc-HEX-1:5
LIN
1:6o(3+1)7d
2:7o(3+1)8d
3:7o(6+1)9d
4:8o(3+1)10d
5:9o(6+1)11d