RES
1r:r1
REP
REP1:8n(3+1)2d=-1--1
RES
2b:b-dglc-HEX-1:5
3b:b-dglc-HEX-1:5
4b:b-dglc-HEX-1:5
5b:b-dglc-HEX-1:5
6b:b-dglc-HEX-1:5
7b:b-dglc-HEX-1:5
8r:r2
LIN
1:2o(6+1)3d
2:3o(3+1)4d
3:4o(6+1)5d
4:4o(3+1)6d
5:6o(3+1)7d
6:7o(3+1)8n
REP2:13o(3+1)9d=1-2
RES
9b:b-dglc-HEX-1:5
10b:b-dglc-HEX-1:5
11b:b-dglc-HEX-1:5
12b:b-dglc-HEX-1:5
13b:b-dglc-HEX-1:5
LIN
1:9o(3+1)10d
2:10o(6+1)11d
3:10o(3+1)12d
4:12o(3+1)13d