RES
1r:r1
REP
REP1:3n(3+1)2d=-1--1
RES
2b:b-dglc-HEX-1:5
3r:r2
4b:b-dglc-HEX-1:5
5b:b-dglc-HEX-1:5
LIN
1:2o(3+1)3n
2:2o(2+1)4d
3:4o(4+1)5d
REP2:12o(3+1)6d=10-10
RES
6b:b-dglc-HEX-1:5
7b:b-dglc-HEX-1:5
8b:b-dglc-HEX-1:5
9b:b-dglc-HEX-1:5
10b:b-dglc-HEX-1:5
11r:r3
12b:b-dglc-HEX-1:5
LIN
1:6o(3+1)7d
2:7o(3+1)8d
3:7o(6+1)9d
4:9o(6+1)10d
5:8o(3+1)11n
6:11n(3+1)12d
REP3:13o(3+1)13d=14-15
RES
13b:b-dglc-HEX-1:5