RES
1r:r1
REP
REP1:3o(6+1)2d=-1--1
RES
2b:a-dman-HEX-1:5
3b:a-dman-HEX-1:5
4b:b-dglc-HEX-1:5
5b:b-dgal-HEX-1:4
6b:a-dglc-HEX-1:5
7r:r2
8b:b-dgal-HEX-1:4
9b:a-dglc-HEX-1:5
LIN
1:2o(6+1)3d
2:3o(4+1)4d
3:3o(2+1)5d
4:5o(2+1)6d
5:5o(6+1)7n
6:7n(6+1)8d
7:8o(2+1)9d
REP2:10o(6+1)10d=5-5
RES
10b:b-dgal-HEX-1:4
11b:a-dglc-HEX-1:5
LIN
1:10o(2+1)11d