RES
1b:a-dman-HEX-1:5
2b:a-dman-HEX-1:5
3b:a-dman-HEX-1:5
4b:a-dman-HEX-1:5
5b:a-dman-HEX-1:5
6a:a1
LIN
1:1o(2+1)2d
2:2o(2+1)3d
3:3o(2+1)4d
4:4o(2+1)5d
5:5o(-1+-1)6n
ALT
ALT1
ALTSUBGRAPH1
LEAD-IN RES:7
RES
7b:a-dman-HEX-1:5
8b:a-dman-HEX-1:5
LIN
1:7o(3+1)8d
ALTSUBGRAPH2
LEAD-IN RES:9
RES
9b:a-dman-HEX-1:5
10b:a-dman-HEX-1:5
LIN
1:9o(2+1)10d