RES
1b:x-dglc-HEX-1:5
2s:n-acetyl
3b:x-dglc-HEX-1:5
4s:n-acetyl
5b:x-dman-HEX-1:5
6b:x-dman-HEX-1:5
7b:x-dman-HEX-1:5
8b:x-dglc-HEX-1:5
9b:x-dglc-HEX-1:5
10b:x-dgal-HEX-1:5
11b:x-dgal-HEX-1:5
12s:n-acetyl
13s:n-acetyl
LIN
1:1d(2+1)2n
2:1o(-1+1)3d
3:3d(2+1)4n
4:3o(-1+1)5d
5:5o(-1+1)6d
6:5o(-1+1)7d
7:6o(-1+1)8d
8:7o(-1+1)9d
9:9o(-1+1)10d
10:8o(-1+1)11d
11:9d(2+1)12n
12:8d(2+1)13n