RES
1b:a-dman-HEX-1:5
2r:r1
3b:a-dman-HEX-1:5
4b:a-dman-HEX-1:5
5b:a-dman-HEX-1:5
6b:a-dman-HEX-1:5
7s:phosphate
8b:a-dman-HEX-1:5
9b:b-dman-HEX-1:5
10b:b-dman-HEX-1:5
11r:r3
LIN
1:1o(6+1)2n
2:1o(-1+1)3d
3:3o(-1+1)4d
4:4o(-1+1)5d
5:5o(-1+1)6d
6:5o(4+1)7n
7:7n(1+1)8o
8:6o(2+1)9d
9:9o(2+1)10d
10:8o(2+1)11n
REP
REP1:12o(6+1)12d=9-9
RES
12b:a-dman-HEX-1:5
13b:a-dman-HEX-1:5
14a:a1
LIN
1:12o(-1+1)13d
2:13o(-1+1)14n
REP2:15o(-1+1)15d=0-4
RES
15b:a-dman-HEX-1:5
REP3:16o(2+1)16d=3-3
RES
16b:b-dman-HEX-1:5
ALT
ALT1
ALTSUBGRAPH1
LEAD-IN RES:17
RES
17b:a-dman-HEX-1:5
18r:r2
LIN
1:17o(-1+1)18n
ALTSUBGRAPH2
LEAD-IN RES:19
RES
19b:a-dman-HEX-1:5
20b:a-dman-HEX-1:5
21b:b-dman-HEX-1:5
22b:b-dman-HEX-1:5
23b:b-dman-HEX-1:5
24b:b-dman-HEX-1:5
LIN
1:19o(-1+1)20d
2:20o(2+1)21d
3:21o(2+1)22d
4:22o(2+1)23d
5:23o(2+1)24d