RES
1r:r1
REP
REP1:2o(6+1)2d=-1--1
RES
2b:a-dman-HEX-1:5
3a:a1
LIN
1:2o(2+1)3n
REP2:4o(3+1)4d=1-3
RES
4b:b-dman-HEX-1:5
REP3:5o(3+1)5d=1-4
RES
5b:b-dman-HEX-1:5
REP4:6o(2+1)6d=0-2
RES
6b:a-dman-HEX-1:5
ALT
ALT1
ALTSUBGRAPH1
LEAD-IN RES:7
RES
7b:a-dman-HEX-1:5
8b:a-dman-HEX-1:5
9b:a-dman-HEX-1:5
10s:phosphate
11b:a-dman-HEX-1:5
12r:r2
LIN
1:7o(2+1)8d
2:8o(2+1)9d
3:8o(6+1)10n
4:10n(1+1)11o
5:11o(3+1)12n
ALTSUBGRAPH2
LEAD-IN RES:13
RES
13b:a-dman-HEX-1:5
14b:a-dman-HEX-1:5
15b:a-dman-HEX-1:5
16r:r3
LIN
1:13o(2+1)14d
2:14o(2+1)15d
3:15o(3+1)16n
ALTSUBGRAPH3
LEAD-IN RES:17
RES
17b:a-dman-HEX-1:5
18b:a-dman-HEX-1:5
19b:a-dman-HEX-1:5
20b:a-dman-HEX-1:5
21b:a-dman-HEX-1:5
LIN
1:17o(2+1)18d
2:18o(2+1)19d
3:19o(3+1)20d
4:20o(2+1)21d
ALTSUBGRAPH4
LEAD-IN RES:22
RES
22b:a-dman-HEX-1:5
23b:a-dman-HEX-1:5
24b:a-dman-HEX-1:5
25b:a-dman-HEX-1:5
LIN
1:22o(2+1)23d
2:23o(2+1)24d
3:24o(3+1)25d
ALTSUBGRAPH5
LEAD-IN RES:26
RES
26b:a-dman-HEX-1:5
27r:r4
LIN
1:26o(2+1)27n