RES
1r:r1
REP
REP1:8o(4+1)2d=-1--1
RES
2b:b-dglc-HEX-1:5
3b:b-dglc-HEX-1:5
4b:a-dglc-HEX-1:5
5b:a-dglc-HEX-1:5
6b:a-dglc-HEX-1:5
7b:a-dglc-HEX-1:5
8b:a-dglc-HEX-1:5
LIN
1:2o(4+1)3d
2:3o(3+1)4d
3:4o(6+1)5d
4:4o(3+1)6d
5:6o(4+1)7d
6:7o(4+1)8d