RES
1r:r1
REP
REP1:5o(4+1)2d=-1--1
RES
2b:a-dman-HEX-1:5
3b:x-xgal-HEX-x:x|6:d
4b:a-dman-HEX-1:5
5b:a-dman-HEX-1:5
6b:x-xxyl-PEN-x:x
7b:x-xgal-HEX-x:x|6:d
8b:x-xxyl-PEN-x:x
LIN
1:2o(-1+1)3d
2:2o(4+1)4d
3:4o(4+1)5d
4:3o(-1+1)6d
5:4o(-1+1)7d
6:7o(-1+1)8d