RES
1r:r1
REP
REP1:3n(6+1)2d=-1--1
RES
2b:b-dglc-HEX-1:5
3r:r2
4b:b-dglc-HEX-1:5
5r:r3
6b:b-dglc-HEX-1:5
LIN
1:2o(6+1)3n
2:2o(4+1)4d
3:4o(6+1)5n
4:5n(6+1)6d
REP2:7o(6+1)7d=5-5
RES
7b:b-dglc-HEX-1:5
REP3:8o(6+1)8d=-1--1
RES
8b:b-dglc-HEX-1:5