RES
1b:x-lgal-HEX-1:5|6:d
2b:b-dglc-HEX-1:5
3s:n-acetyl
4b:b-dglc-HEX-1:5
5s:n-acetyl
6b:b-dman-HEX-1:5
7b:x-dman-HEX-1:5
8b:x-dman-HEX-1:5
9b:b-dglc-HEX-1:5
10s:n-acetyl
11b:b-dglc-HEX-1:5
12b:b-dglc-HEX-1:5
13b:b-dgal-HEX-1:5
14s:n-acetyl
15s:n-acetyl
LIN
1:1o(-1+1)2d
2:2d(2+1)3n
3:2o(4+1)4d
4:4d(2+1)5n
5:4o(4+1)6d
6:6o(3+1)7d
7:6o(6+1)8d
8:6o(-1+1)9d
9:9d(2+1)10n
10:8o(2+1)11d
11:7o(2+1)12d
12:12o(-1+1)13d
13:12d(2+1)14n
14:11d(2+1)15n