RES
1b:a-dman-HEX-1:5
2b:a-dman-HEX-1:5
3b:a-dman-HEX-1:5
4b:a-dman-HEX-1:5
5b:a-dman-HEX-1:5
6b:a-dman-HEX-1:5
7b:a-dman-HEX-1:5
8b:a-dman-HEX-1:5
9b:a-dman-HEX-1:5
10b:a-dman-HEX-1:5
11b:a-dman-HEX-1:5
12b:a-dman-HEX-1:5
13b:a-dman-HEX-1:5
14s:phosphate
15b:a-dman-HEX-1:5
16b:a-dman-HEX-1:5
17b:a-dman-HEX-1:5
18b:a-dman-HEX-1:5
19b:a-dman-HEX-1:5
20b:a-dman-HEX-1:5
21b:a-dman-HEX-1:5
22b:b-dman-HEX-1:5
23b:a-dman-HEX-1:5
24b:a-dman-HEX-1:5
25b:b-dman-HEX-1:5
26b:a-dman-HEX-1:5
27b:a-dman-HEX-1:5
28b:a-dman-HEX-1:5
29b:b-dman-HEX-1:5
30b:b-dman-HEX-1:5
31b:b-dman-HEX-1:5
32b:a-dman-HEX-1:5
33b:a-dman-HEX-1:5
34b:a-dman-HEX-1:5
35b:b-dman-HEX-1:5
36b:b-dman-HEX-1:5
37b:b-dman-HEX-1:5
38b:a-dman-HEX-1:5
39b:a-dman-HEX-1:5
40b:a-dman-HEX-1:5
41b:a-dman-HEX-1:5
42b:a-dman-HEX-1:5
43r:r1
44b:a-dman-HEX-1:5
45b:a-dman-HEX-1:5
46b:a-dman-HEX-1:5
47b:a-dman-HEX-1:5
48b:a-dman-HEX-1:5
49b:a-dman-HEX-1:5
50b:a-dman-HEX-1:5
51b:b-dman-HEX-1:5
52b:a-dman-HEX-1:5
53b:a-dman-HEX-1:5
54b:a-dman-HEX-1:5
55b:a-dman-HEX-1:5
56b:a-dman-HEX-1:5
57b:a-dman-HEX-1:5
58b:a-dman-HEX-1:5
59r:r2
60b:a-dman-HEX-1:5
61b:a-dman-HEX-1:5
62b:a-dman-HEX-1:5
63b:b-dman-HEX-1:5
64b:b-dman-HEX-1:5
LIN
1:1o(6+1)2d
2:2o(6+1)3d
3:3o(6+1)4d
4:4o(6+1)5d
5:5o(6+1)6d
6:6o(2+1)7d
7:6o(6+1)8d
8:8o(2+1)9d
9:8o(6+1)10d
10:7o(2+1)11d
11:11o(2+1)12d
12:9o(2+1)13d
13:11o(-1+1)14n
14:10o(2+1)15d
15:10o(6+1)16d
16:14n(1+1)17o
17:15o(2+1)18d
18:13o(2+1)19d
19:16o(2+1)20d
20:16o(6+1)21d
21:19o(2+1)22d
22:18o(2+1)23d
23:21o(2+1)24d
24:17o(2+1)25d
25:20o(2+1)26d
26:21o(6+1)27d
27:26o(2+1)28d
28:22o(2+1)29d
29:25o(2+1)30d
30:23o(2+1)31d
31:27o(2+1)32d
32:24o(2+1)33d
33:27o(6+1)34d
34:29o(2+1)35d
35:31o(2+1)36d
36:30o(2+1)37d
37:28o(2+1)38d
38:32o(2+1)39d
39:33o(2+1)40d
40:34o(2+1)41d
41:34o(6+1)42d
42:37o(2+1)43n
43:38o(3+1)44d
44:42o(2+1)45d
45:41o(2+1)46d
46:40o(3+1)47d
47:39o(2+1)48d
48:42o(6+1)49d
49:47o(2+1)50d
50:48o(2+1)51d
51:49o(6+1)52d
52:45o(2+1)53d
53:49o(2+1)54d
54:46o(2+1)55d
55:54o(2+1)56d
56:55o(3+1)57d
57:53o(2+1)58d
58:52o(6+1)59n
59:58o(2+1)60d
60:59n(6+1)61d
61:61o(6+1)62d
62:60o(2+1)63d
63:63o(2+1)64d
REP
REP1:65o(2+1)65d=-1--1
RES
65b:b-dman-HEX-1:5
REP2:66o(6+1)66d=-1--1
RES
66b:a-dman-HEX-1:5