RES
1b:b-dgal-HEX-1:5
2a:a1
3n:n1
LIN
1:1o(1+1)2n
2:2n(2+1)3n
ALT
ALT1
ALTSUBGRAPH1
LEAD-IN RES:4
LEAD-OUT RES:4+3
RES
4n:n2
ALTSUBGRAPH2
LEAD-IN RES:5
LEAD-OUT RES:5+3
RES
5n:n3
NON
NON1
Parent:2
Linkage:n(2+1)n
SmallMolecule:SMILES [18CH3][17CH2][16CH2][15CH2][14CH2][13CH2][12CH2][11CH2][10CH2][9CH2][8CH2][7CH2][6CH2][5CH2][4CH2][3CH2][2CH](O)[1C](=O)O
Description:2-hydroxy-stearic acid
NON2
SmallMolecule:SMILES [18CH3][17CH2][16CH2][15CH2][14CH2][13CH2][12CH2][11CH2][10CH2]/[9C]([19CH3])=[8CH]/[7CH2][6CH2]/[5CH]=[4CH]/[3CH](O)[2CH](N)[1CH2]O
Description:(4E,8E)-9-methyl-4,8-sphingadienine-C18
NON3
HistoricalEntity:any 4E,8E-sphingadienine