RES
1n:n1
2n:n2
3s:phosphate
4n:n3
5b:b-dman-HEX-1:5
6s:phosphate
7n:n4
LIN
1:1n(2+1)2n
2:1n(1+1)3n
3:3n(1+1)4n
4:4n(2+1)5d
5:5o(6+1)6n
6:6n(1+1)7n
NON
NON1
SmallMolecule:SMILES [18CH3][17CH2][16CH2][15CH2][14CH2][13CH2][12CH2][11CH2][10CH2][9CH2][8CH2][7CH2][6CH2][5CH2][4CH2][3C@@H](O)[2C@@H](N)[1CH2]O
Description:SR-sphinganine
NON2
Parent:1
Linkage:n(2+1)n
SmallMolecule:SMILES [26CH3][25CH2][24CH2][23CH2][22CH2][21CH2][20CH2][19CH2][18CH2][17CH2][16CH2][15CH2][14CH2][13CH2][12CH2][11CH2][10CH2][9CH2][8CH2][7CH2][6CH2][5CH2][4CH2][3CH2][2CH2][1C](=O)O
Description:cerotic acid
NON3
Parent:3
Linkage:n(1+1)n
SmallMolecule:SMILES [6C@H](O)1[5C@H](O)[4C@@H](O)[3C@H](O)[2C@H](O)[1C@H](O)1
Description:myo-inositol
NON4
Parent:6
Linkage:n(1+1)n
HistoricalEntity:superclass: any inositol