RES
1b:a-dman-HEX-1:5
2b:a-dman-HEX-1:5
3b:a-dman-HEX-1:5
4b:a-dman-HEX-1:5
5b:a-dman-HEX-1:5
6b:a-dman-HEX-1:5
7b:a-dman-HEX-1:5
8b:a-dman-HEX-1:5
9b:a-dman-HEX-1:5
10b:a-dman-HEX-1:5
11b:a-dman-HEX-1:5
12b:a-dman-HEX-1:5
13b:a-dman-HEX-1:5
14b:a-dman-HEX-1:5
15b:a-dman-HEX-1:5
16b:a-dman-HEX-1:5
17b:a-dman-HEX-1:5
18b:a-dman-HEX-1:5
19b:a-dman-HEX-1:5
20b:a-dman-HEX-1:5
21b:a-dman-HEX-1:5
22s:phosphate
23b:a-dman-HEX-1:5
24b:b-dman-HEX-1:5
25b:b-dman-HEX-1:5
26b:b-dman-HEX-1:5
LIN
1:1o(2+1)2d
2:1o(6+1)3d
3:2o(2+1)4d
4:3o(2+1)5d
5:3o(6+1)6d
6:5o(2+1)7d
7:6o(2+1)8d
8:4o(2+1)9d
9:6o(6+1)10d
10:10o(6+1)11d
11:7o(2+1)12d
12:9o(3+1)13d
13:8o(2+1)14d
14:10o(2+1)15d
15:13o(2+1)16d
16:12o(2+1)17d
17:14o(2+1)18d
18:15o(2+1)19d
19:17o(3+1)20d
20:18o(3+1)21d
21:16o(-1+1)22n
22:19o(2+1)23d
23:23o(2+1)24d
24:24o(2+1)25d
25:25o(2+1)26d