RES
1r:r1
REP
REP1:8o(4+1)2d=-1--1
RES
2b:a-dglc-HEX-1:5
3b:a-dgal-HEX-1:5
4r:r2
5b:a-dman-HEX-1:5
6b:a-dman-HEX-1:5
7b:a-dman-HEX-1:5
8b:a-dglc-HEX-1:5
9b:a-dman-HEX-1:5
LIN
1:2o(6+1)3d
2:2o(4+1)4n
3:4n(4+1)5d
4:5o(3+1)6d
5:6o(3+1)7d
6:7o(3+1)8d
7:8o(6+1)9d
REP2:10o(4+1)10d=9-9
RES
10b:a-dglc-HEX-1:5