RES
1r:r1
REP
REP1:7o(3+1)2d=-1--1
RES
2b:b-dglc-HEX-1:5|6:a
3b:b-dglc-HEX-1:5
4b:b-dglc-HEX-1:5
5r:r2
6b:b-dglc-HEX-1:5
7b:b-dglc-HEX-1:5|6:a
8b:b-dglc-HEX-1:5
LIN
1:2o(3+1)3d
2:3o(6+1)4d
3:3o(3+1)5n
4:5n(3+1)6d
5:6o(3+1)7d
6:6o(6+1)8d
REP2:9o(3+1)9d=-1--1
RES
9b:b-dglc-HEX-1:5|6:a