RES
1b:b-dglc-HEX-1:5
2s:acetyl
3s:acetyl
4s:acetyl
5s:methyl
6n:n1
LIN
1:1o(2+1)2n
2:1o(3+1)3n
3:1o(6+1)4n
4:1o(4+1)5n
5:1o(1+7)6n
NON
NON1
Parent:1
Linkage:o(1+7)n
SmallMolecule:SMILES CC(C1=NC=CC2=C1NC3=C2C=C{7}C(O)=C3)=O
Description:1-(7-hydroxy-9H-pyrido[3,4-b]indol-1-yl)ethan-1-one