RES
1n:n1
2s:acetyl
3b:b-dglc-HEX-1:5
4s:acetyl
5s:acetyl
6s:acetyl
7s:acetyl
LIN
1:1n(6+1)2n
2:1n(3+1)3d
3:3o(2+1)4n
4:3o(3+1)5n
5:3o(6+1)6n
6:3o(4+1)7n
NON
NON1
SmallMolecule:SMILES CC(C)[C@@H](C)/C=C/[C@@H](C)[C@H]4CCC3/C2=C/{6}[C@@H](O){5}[C@@]1(O)C{3}[C@@H](O)CC[C@]1(C)C2CC[C@@]34C
Description:cerevisterol