RES
1r:r1
REP
REP1:18o(4+1)2d=-1--1
RES
2b:b-dgal-HEX-1:5
3s:phosphate
4b:b-dgal-HEX-1:5
5s:phosphate
6b:b-dglc-HEX-1:5
7a:a2
8a:a1
9b:b-dglc-HEX-1:5
10r:r6
11b:a-dman-HEX-1:5|6:d
12s:phosphate
13b:a-dman-HEX-1:5
14b:b-dman-HEX-1:5
15b:a-dman-HEX-1:4
16s:phosphate
17s:methyl
18b:b-dman-HEX-1:5
19b:b-dman-HEX-1:4
20b:b-dglc-HEX-1:5
21s:phosphate
22s:phosphate
23s:methyl
LIN
1:2o(3+1)3n
2:2o(6+1)4d
3:4o(3+1)5n
4:4o(6+1)6d
5:6o(2+1)7n
6:6o(3+1)8n
7:6o(6+1)9d
8:9o(6+1)10n
9:10n(6+1)11d
10:11o(-1+1)12n
11:11o(2+1)13d
12:13o(6+1)14d
13:13o(3+6)15d
14:14o(6+1)16n
15:15o(1+1)17n
16:14o(4+1)18d
17:15o(2+6)19d
18:19o(2+1)20d
19:18o(6+1)21n
20:19o(5+1)22n
21:19o(1+1)23n
REP2:24o(6+1)24d=0-1
RES
24b:a-dgal-HEX-1:5
REP3:25o(6+1)25d=0-1
RES
25b:b-dgal-HEX-1:5
26s:phosphate
LIN
1:25o(3+1)26n
REP4:27o(6+1)27d=0-1
RES
27b:a-dgal-HEX-1:5
REP5:28o(6+1)28d=0-1
RES
28b:b-dgal-HEX-1:5
29s:phosphate
LIN
1:28o(3+1)29n
REP6:35o(6+1)30d=2-2
RES
30b:b-dgal-HEX-1:5
31s:phosphate
32b:b-dgal-HEX-1:5
33s:phosphate
34b:b-dglc-HEX-1:5
35b:b-dglc-HEX-1:5
36a:a3
37a:a4
LIN
1:30o(3+1)31n
2:30o(6+1)32d
3:32o(3+1)33n
4:32o(6+1)34d
5:34o(6+1)35d
6:34o(3+1)36n
7:34o(2+1)37n
REP7:38o(6+1)38d=0-1
RES
38b:a-dgal-HEX-1:5
REP8:39o(6+1)39d=0-1
RES
39b:b-dgal-HEX-1:5
40s:phosphate
LIN
1:39o(3+1)40n
REP9:41o(6+1)41d=0-1
RES
41b:a-dgal-HEX-1:5
REP10:42o(6+1)42d=0-1
RES
42b:b-dgal-HEX-1:5
43s:phosphate
LIN
1:42o(3+1)43n
ALT
ALT1
ALTSUBGRAPH1
LEAD-IN RES:44
RES
44b:b-dglc-HEX-1:5
45s:phosphate
LIN
1:44o(2+1)45n
ALTSUBGRAPH2
LEAD-IN RES:46
RES
46b:b-dgal-HEX-1:5
47s:phosphate
48b:b-dglc-HEX-1:5
49s:phosphate
LIN
1:46o(3+1)47n
2:46o(6+1)48d
3:48o(2+1)49n
ALTSUBGRAPH3
LEAD-IN RES:50
RES
50b:a-dgal-HEX-1:5
51r:r2
52r:r3
53b:b-dglc-HEX-1:5
54s:phosphate
LIN
1:50o(6+1)51n
2:51n(6+1)52n
3:52n(6+1)53d
4:53o(2+1)54n
ALT2
ALTSUBGRAPH1
LEAD-IN RES:55
RES
55b:b-dglc-HEX-1:5
56s:phosphate
LIN
1:55o(2+1)56n
ALTSUBGRAPH2
LEAD-IN RES:57
RES
57b:b-dgal-HEX-1:5
58s:phosphate
59b:b-dglc-HEX-1:5
60s:phosphate
LIN
1:57o(3+1)58n
2:57o(6+1)59d
3:59o(2+1)60n
ALTSUBGRAPH3
LEAD-IN RES:61
RES
61b:a-dgal-HEX-1:5
62r:r4
63r:r5
64b:b-dglc-HEX-1:5
65s:phosphate
LIN
1:61o(6+1)62n
2:62n(6+1)63n
3:63n(6+1)64d
4:64o(2+1)65n
ALT3
ALTSUBGRAPH1
LEAD-IN RES:66
RES
66b:b-dglc-HEX-1:5
67s:phosphate
LIN
1:66o(2+1)67n
ALTSUBGRAPH2
LEAD-IN RES:68
RES
68b:b-dgal-HEX-1:5
69s:phosphate
70b:b-dglc-HEX-1:5
71s:phosphate
LIN
1:68o(3+1)69n
2:68o(6+1)70d
3:70o(2+1)71n
ALTSUBGRAPH3
LEAD-IN RES:72
RES
72b:a-dgal-HEX-1:5
73r:r7
74r:r8
75b:b-dglc-HEX-1:5
76s:phosphate
LIN
1:72o(6+1)73n
2:73n(6+1)74n
3:74n(6+1)75d
4:75o(2+1)76n
ALT4
ALTSUBGRAPH1
LEAD-IN RES:77
RES
77b:b-dglc-HEX-1:5
78s:phosphate
LIN
1:77o(2+1)78n
ALTSUBGRAPH2
LEAD-IN RES:79
RES
79b:b-dgal-HEX-1:5
80s:phosphate
81b:b-dglc-HEX-1:5
82s:phosphate
LIN
1:79o(3+1)80n
2:79o(6+1)81d
3:81o(2+1)82n
ALTSUBGRAPH3
LEAD-IN RES:83
RES
83b:a-dgal-HEX-1:5
84r:r9
85r:r10
86b:b-dglc-HEX-1:5
87s:phosphate
LIN
1:83o(6+1)84n
2:84n(6+1)85n
3:85n(6+1)86d
4:86o(2+1)87n