RES
1r:r1
REP
REP1:13n(3+1)2d=-1--1
RES
2b:b-dglc-HEX-1:5
3b:b-dglc-HEX-1:5
4b:b-dglc-HEX-1:5
5b:b-dglc-HEX-1:5
6b:b-dglc-HEX-1:5
7b:b-dglc-HEX-1:5
8b:b-dglc-HEX-1:5
9b:b-dglc-HEX-1:5
10b:b-dglc-HEX-1:5
11b:b-dglc-HEX-1:5
12b:b-dglc-HEX-1:5
13r:r2
14b:b-dglc-HEX-1:5
LIN
1:2o(3+1)3d
2:3o(3+1)4d
3:4o(6+1)5d
4:4o(3+1)6d
5:6o(3+1)7d
6:7o(3+1)8d
7:8o(6+1)9d
8:8o(3+1)10d
9:10o(3+1)11d
10:11o(3+1)12d
11:12o(3+1)13n
12:12o(6+1)14d
REP2:16o(3+1)15d=7-7
RES
15b:b-dglc-HEX-1:5
16b:b-dglc-HEX-1:5
17b:b-dglc-HEX-1:5
LIN
1:15o(3+1)16d
2:16o(6+1)17d