RES
1r:r1
REP
REP1:8o(3+1)2d=-1--1
RES
2b:a-dgal-HEX-1:5
3b:b-dglc-HEX-1:5
4b:b-dglc-HEX-1:5
5b:a-dglc-HEX-1:5
6b:a-dglc-HEX-1:5
7b:a-dman-HEX-1:5
8b:a-dgal-HEX-1:5
9b:a-lgal-HEX-1:5|6:d
LIN
1:2o(6+1)3d
2:3o(6+1)4d
3:4o(6+1)5d
4:4o(3+1)6d
5:6o(3+1)7d
6:7o(3+1)8d
7:7o(2+1)9d