RES
1r:r1
REP
REP1:3n(3+1)2d=-1--1
RES
2b:a-dglc-HEX-1:5
3r:r2
4a:a1
5s:sulfate
6s:sulfate
LIN
1:2o(3+1)3n
2:2o(6+1)4n
3:2o(4+1)5n
4:2o(2+1)6n
REP2:7o(3+1)7d=13-13
RES
7b:a-dglc-HEX-1:5
8s:sulfate
9s:sulfate
10s:sulfate
LIN
1:7o(2+1)8n
2:7o(6+1)9n
3:7o(4+1)10n
ALT
ALT1
ALTSUBGRAPH1
LEAD-IN RES:11
RES
11b:x-dxyl-PEN-1:5
ALTSUBGRAPH2
LEAD-IN RES:12
RES
12b:x-dman-HEX-1:5