RES
1b:o-dery-TET-0:0|1:aldi
2b:b-dman-HEX-1:5
3s:acetyl
4s:acetyl
5s:acetyl
6n:n1
LIN
1:1o(4+1)2d
2:2o(2+1)3n
3:2o(6+1)4n
4:2o(4+1)5n
5:2o(3+1)6n
NON
NON1
Parent:2
Linkage:o(3+1)n
HistoricalEntity:superclass: lipid residue