RES
1b:b-dglc-HEX-1:5
2s:n-acetyl
3b:b-dglc-HEX-1:5
4s:n-acetyl
5b:b-dman-HEX-1:5
6b:a-dman-HEX-x:x
7b:a-dman-HEX-1:5
8b:a-dman-HEX-1:5
9b:a-dman-HEX-1:5
10b:a-dman-HEX-1:5
11b:a-dman-HEX-1:5
12b:a-dman-HEX-1:5
13b:a-dman-HEX-1:5
14r:r1
15b:a-dman-HEX-1:5
16b:a-dman-HEX-1:5
17b:a-dman-HEX-1:5
18b:a-dman-HEX-1:5
LIN
1:1d(2+1)2n
2:1o(4+1)3d
3:3d(2+1)4n
4:3o(4+1)5d
5:5o(3+1)6d
6:5o(6+1)7d
7:7o(3+1)8d
8:7o(6+1)9d
9:6o(2+1)10d
10:6o(6+1)11d
11:9o(2+1)12d
12:10o(2+1)13d
13:11o(6+1)14n
14:13o(3+1)15d
15:14n(6+1)16d
16:16o(2+1)17d
17:17o(2+1)18d
REP
REP1:27o(6+1)19d=-1--1
RES
19b:a-dman-HEX-1:5
20b:a-dman-HEX-1:5
21b:a-dman-HEX-1:5
22r:r4
23b:a-dman-HEX-1:5
24b:a-dman-HEX-1:5
25b:a-dman-HEX-1:5
26r:r3
27b:a-dman-HEX-1:5
28b:a-dman-HEX-1:5
29b:a-dman-HEX-1:5
30b:a-dman-HEX-1:5
31b:a-dman-HEX-1:5
32b:a-dman-HEX-1:5
33b:a-dman-HEX-1:5
34b:a-dman-HEX-1:5
35r:r2
36b:b-dman-HEX-1:5
37b:b-dman-HEX-1:5
LIN
1:19o(6+1)20d
2:19o(2+1)21d
3:21o(2+1)22n
4:20o(6+1)23d
5:23o(2+1)24d
6:23o(6+1)25d
7:24o(2+1)26n
8:25o(6+1)27d
9:25o(2+1)28d
10:27o(2+1)29d
11:28o(2+1)30d
12:29o(3+1)31d
13:30o(3+1)32d
14:31o(2+1)33d
15:32o(2+1)34d
16:33o(2+1)35n
17:34o(2+1)36d
18:36o(2+1)37d
REP2:38o(2+1)38d=1-2
RES
38b:b-dman-HEX-1:5
REP3:39o(2+1)39d=2-3
RES
39b:b-dman-HEX-1:5
REP4:40o(2+1)40d=0-2
RES
40b:a-dman-HEX-1:5