RES
1b:b-dglc-HEX-1:5
2s:n-acetyl
3b:b-dglc-HEX-1:5
4s:n-acetyl
5b:b-dman-HEX-1:5
6b:a-dman-HEX-1:5
7b:a-dman-HEX-x:x
8b:a-dman-HEX-1:5
9b:a-dman-HEX-1:5
10b:a-dman-HEX-1:5
11b:a-dman-HEX-1:5
12r:r1
13b:a-dman-HEX-1:5
14b:a-dman-HEX-1:5
15b:a-dman-HEX-1:5
LIN
1:1d(2+1)2n
2:1o(4+1)3d
3:3d(2+1)4n
4:3o(4+1)5d
5:5o(6+1)6d
6:5o(3+1)7d
7:6o(3+1)8d
8:7o(2+1)9d
9:6o(6+1)10d
10:7o(6+1)11d
11:11o(6+1)12n
12:10o(2+1)13d
13:9o(2+1)14d
14:14o(3+1)15d
REP
REP1:16o(6+1)16d=-1--1
RES
16b:a-dman-HEX-1:5
17b:a-dman-HEX-1:5
18b:a-dman-HEX-1:5
19b:a-dman-HEX-1:5
LIN
1:16o(2+1)17d
2:17o(2+1)18d
3:18o(3+1)19d