RES
1r:r1
REP
REP1:9o(3+1)2d=-1--1
RES
2b:b-dglc-HEX-1:5
3s:formyl
4s:formyl
5s:formyl
6b:b-dglc-HEX-1:5
7s:formyl
8s:formyl
9b:b-dglc-HEX-1:5
10b:a-dglc-HEX-1:5
11s:formyl
12s:formyl
13s:formyl
14s:formyl
15s:formyl
16r:r2
17b:b-dglc-HEX-1:5
18s:formyl
19s:formyl
20s:formyl
LIN
1:2o(4+1)3n
2:2o(2+1)4n
3:2o(6+1)5n
4:2o(3+1)6d
5:6o(4+1)7n
6:6o(2+1)8n
7:6o(3+1)9d
8:6o(6+1)10d
9:9o(4+1)11n
10:9o(2+1)12n
11:9o(6+1)13n
12:10o(4+1)14n
13:10o(2+1)15n
14:10o(6+1)16n
15:16n(6+1)17d
16:17o(2+1)18n
17:17o(4+1)19n
18:17o(6+1)20n
REP2:21o(6+1)21d=-1--1
RES
21b:a-dglc-HEX-1:5
22s:formyl
23s:formyl
LIN
1:21o(2+1)22n
2:21o(4+1)23n