RES
1b:a-dglc-HEX-1:5
2n:n1
LIN
1:1o(1+1)2n
NON
NON1
Parent:1
Linkage:o(1+1)n
HistoricalEntity:neoruscogenin SMILES [H][C@]1(O[C@](OCC2=C)(CC2)[C@H]3C)C[C@@]4([H])[C@]5([H])CC=C6C{3}[C@@H](O)C{1}[C@@H](O)[C@]6(C)[C@@]5([H])CC[C@]4(C)[C@]13[H]