RES
1b:b-dglc-HEX-1:5
2s:n-acetyl
3b:b-dglc-HEX-1:5
4s:n-acetyl
5b:b-dman-HEX-1:5
6b:x-xxyl-PEN-1:5
7b:a-dman-HEX-x:x
8b:a-dman-HEX-1:5
9b:a-dman-HEX-1:5
10b:a-dman-HEX-1:5
11b:a-dman-HEX-1:5
12b:a-dman-HEX-1:5
13b:a-dman-HEX-1:5
14b:a-dman-HEX-1:5
15b:a-dman-HEX-1:5
16s:phosphate
17b:a-dman-HEX-1:5
18b:a-dman-HEX-1:5
19b:x-xxyl-PEN-1:5
20b:a-dman-HEX-1:5
21r:r1
LIN
1:1d(2+1)2n
2:1o(4+1)3d
3:3d(2+1)4n
4:3o(4+1)5d
5:5o(-1+1)6d
6:5o(3+1)7d
7:5o(6+1)8d
8:8o(3+1)9d
9:7o(2+1)10d
10:7o(6+1)11d
11:8o(6+1)12d
12:11o(2+1)13d
13:10o(2+1)14d
14:12o(2+1)15d
15:12o(-1+1)16n
16:14o(3+1)17d
17:15o(2+1)18d
18:16n(1+1)19o
19:13o(2+1)20d
20:20o(6+1)21n
REP
REP1:22o(6+1)22d=2-2
RES
22b:a-dman-HEX-1:5
23b:a-dman-HEX-1:5
LIN
1:22o(2+1)23d