RES
1r:r1
REP
REP1:3o(6+1)2d=-1--1
RES
2b:b-dglc-HEX-1:5
3b:b-dgal-HEX-1:5
4a:a1
LIN
1:2o(6+1)3d
2:2o(3+1)4n
ALT
ALT1
ALTSUBGRAPH1
LEAD-IN RES:5
RES
5b:b-lgal-HEX-1:5|6:d
ALTSUBGRAPH2
LEAD-IN RES:6
RES
6b:b-lara-PEN-1:4
ALTSUBGRAPH3
LEAD-IN RES:7
RES
7b:b-dglc-HEX-1:5