RES
1b:b-dglc-HEX-1:5
2s:n-acetyl
3b:b-dglc-HEX-1:5
4s:n-acetyl
5b:b-dman-HEX-1:5
6b:a-dman-HEX-1:5
7b:a-dman-HEX-1:5
8b:a-dman-HEX-1:5
9b:a-dman-HEX-1:5
10b:a-dman-HEX-1:5
11b:a-dman-HEX-1:5
12b:a-dman-HEX-1:5
13b:a-dman-HEX-1:5
14r:r1
LIN
1:1d(2+1)2n
2:1o(4+1)3d
3:3d(2+1)4n
4:3o(4+1)5d
5:5o(3+1)6d
6:5o(6+1)7d
7:7o(3+1)8d
8:6o(2+1)9d
9:6o(6+1)10d
10:7o(6+1)11d
11:9o(2+1)12d
12:11o(2+1)13d
13:10o(6+1)14n
REP
REP1:15o(6+1)15d=-1--1
RES
15b:a-dman-HEX-1:5
16b:x-dman-HEX-1:5
17a:a1
18r:r2
LIN
1:15o(-1+1)16d
2:16o(-1+-1)17n
3:17n(-1+1)18n
REP2:19o(-1+1)19d=-1--1
RES
19b:x-dman-HEX-1:5
ALT
ALT1
ALTSUBGRAPH1
LEAD-IN RES:20
LEAD-OUT RES:21+18
RES
20s:phosphate
21b:x-dman-HEX-1:5
LIN
1:20n(1+1)21o
ALTSUBGRAPH2
LEAD-IN RES:22
LEAD-OUT RES:22+18
RES
22b:x-dman-HEX-1:5