RES
1b:a-dman-HEX-1:5
2n:n1
3b:a-dman-HEX-1:5
4b:a-dman-HEX-1:5
5b:b-dman-HEX-1:5
6b:b-dman-HEX-1:5
LIN
1:1o(1+1)2n
2:1o(2+1)3d
3:3o(2+1)4d
4:4o(2+1)5d
5:5o(2+1)6d
NON
NON1
Parent:1
Linkage:o(1+1)n
SmallMolecule:SMILES [2CH2](N)[1CH2](O)
Description:ethanolamine