RES
1r:r1
REP
REP1:5n(3+1)2d=-1--1
RES
2b:a-dglc-HEX-1:5
3r:r2
4b:a-dglc-HEX-1:5
5a:a1
6b:a-dman-HEX-1:5
LIN
1:2o(3+1)3n
2:3n(3+1)4d
3:4o(3+1)5n
4:5n(4+1)6d
REP2:7o(3+1)7d=-1--1
RES
7b:a-dglc-HEX-1:5
ALT
ALT1
ALTSUBGRAPH1
LEAD-IN RES:8
LEAD-OUT RES:8+6
RES
8b:b-dglc-HEX-1:5
ALTSUBGRAPH2
LEAD-IN RES:9
LEAD-OUT RES:9+6
RES
9b:b-dgal-HEX-1:5