RES
1r:r1
REP
REP1:6n(3+1)2d=-1--1
RES
2b:a-dgal-HEX-1:5
3b:b-dglc-HEX-1:5
4b:b-dglc-HEX-1:5
5b:b-dglc-HEX-1:5
6r:r2
7b:b-dglc-HEX-1:5
8b:b-dglc-HEX-1:5
LIN
1:2o(6+1)3d
2:3o(3+1)4d
3:3o(6+1)5d
4:4o(3+1)6n
5:5o(6+1)7d
6:7o(6+1)8d
REP2:10o(3+1)9d=4-4
RES
9b:b-dglc-HEX-1:5
10b:b-dglc-HEX-1:5
11b:b-dglc-HEX-1:5
12b:b-dglc-HEX-1:5
13b:b-dglc-HEX-1:5
LIN
1:9o(3+1)10d
2:9o(6+1)11d
3:11o(6+1)12d
4:12o(6+1)13d