RES
1r:r1
REP
REP1:2o(6+1)2d=-1--1
RES
2b:a-dman-HEX-1:5
3b:a-dman-HEX-1:5
4a:a1
LIN
1:2o(2+1)3d
2:3o(2+1)4n
REP2:5o(2+1)5d=0-3
RES
5b:b-dman-HEX-1:5
ALT
ALT1
ALTSUBGRAPH1
LEAD-IN RES:6
RES
6b:b-dman-HEX-1:5
7b:b-dman-HEX-1:5
LIN
1:6o(2+1)7d
ALTSUBGRAPH2
LEAD-IN RES:8
RES
8b:a-dman-HEX-1:5
9a:a2
10s:phosphate
11b:a-dman-HEX-1:5
12r:r2
LIN
1:8o(-1+-1)9n
2:8o(6+1)10n
3:10n(1+1)11o
4:11o(2+1)12n
ALT2
ALTSUBGRAPH1
LEAD-IN RES:13
RES
13b:a-dman-HEX-1:5
ALTSUBGRAPH2
LEAD-IN RES:14
RES
14b:b-dman-HEX-1:5
15b:b-dman-HEX-1:5
16b:b-dman-HEX-1:5
LIN
1:14o(2+1)15d
2:15o(2+1)16d
ALTSUBGRAPH3
LEAD-IN RES:17
RES
17b:a-dman-HEX-1:5
18a:a3
LIN
1:17o(-1+-1)18n
ALT3
ALTSUBGRAPH1
LEAD-IN RES:19
RES
19b:a-dman-HEX-1:5
20b:a-dman-HEX-1:5
LIN
1:19o(2+1)20d
ALTSUBGRAPH2
LEAD-IN RES:21
RES
21b:a-dman-HEX-1:5
22a:a4
23b:b-dman-HEX-1:5
LIN
1:21o(2+1)22n
2:22n(2+1)23d
ALTSUBGRAPH3
LEAD-IN RES:24
RES
24b:b-dman-HEX-1:5
25b:b-dman-HEX-1:5
26b:b-dman-HEX-1:5
LIN
1:24o(2+1)25d
2:25o(2+1)26d
ALT4
ALTSUBGRAPH1
LEAD-IN RES:27
LEAD-OUT RES:27+23
RES
27b:b-dman-HEX-1:5
ALTSUBGRAPH2
LEAD-IN RES:28
LEAD-OUT RES:28+23
RES
28b:a-dman-HEX-1:5