RES
1r:r1
REP
REP1:10n(3+1)2d=-1--1
RES
2b:b-dglc-HEX-1:5
3b:a-dgal-HEX-1:5
4b:a-lgal-HEX-1:5|6:d
5b:a-dgal-HEX-1:5
6b:a-dman-HEX-1:5
7b:b-dglc-HEX-1:5
8b:b-dglc-HEX-1:5
9b:a-dman-HEX-1:5
10r:r2
LIN
1:2o(6+1)3d
2:3o(2+1)4d
3:3o(6+1)5d
4:5o(6+1)6d
5:6o(3+1)7d
6:7o(6+1)8d
7:7o(3+1)9d
8:9o(3+1)10n
REP2:11o(3+1)11d=3-3
RES
11b:b-dglc-HEX-1:5