RES
1n:n1
2n:n2
3b:b-lman-HEX-1:5|6:d
LIN
1:1n(3+1)2n
2:2n(3+1)3d
NON
NON1
SmallMolecule:SMILES [10CH3][9CH2][8CH2][7CH2][6CH2][5CH2][4CH2][3CH](O)[2CH2][1C](=O)O
Description:3-hydroxy-decanoic acid
NON2
Parent:1
Linkage:n(3+1)n
SmallMolecule:SMILES [10CH3][9CH2][8CH2][7CH2][6CH2][5CH2][4CH2][3CH](O)[2CH2][1C](=O)O
Description:3-hydroxy-decanoic acid