RES
1n:n1
2n:n2
3s:phosphate
4n:n3
5b:a-dglc-HEX-1:5
6s:amino
7b:a-dman-HEX-1:5
8s:phospho-ethanolamine
9b:a-dman-HEX-1:5
10s:phospho-ethanolamine
11b:a-dman-HEX-1:5
12n:n4
13s:phosphate
14n:n5
LIN
1:1n(2+1)2n
2:1n(1+1)3n
3:3n(1+1)4n
4:4n(6+1)5d
5:5d(2+1)6n
6:5o(4+1)7d
7:7o(-1+1)8n
8:7o(6+1)9d
9:9o(-1+1)10n
10:9o(2+1)11d
11:11o(-1+1)12n
12:12n(2+1)13n
13:13n(1+1)14n
NON
NON1
HistoricalEntity:any sphingosine, any sphingenine
NON2
Parent:1
Linkage:n(2+1)n
HistoricalEntity:superclass: lipid residue
NON3
Parent:3
Linkage:n(1+1)n
SmallMolecule:SMILES [6C@H](O)1[5C@H](O)[4C@@H](O)[3C@H](O)[2C@H](O)[1C@H](O)1
Description:myo-inositol
NON4
Parent:11
Linkage:o(-1+1)n
SmallMolecule:SMILES [2CH2](N)[1CH2](O)
Description:ethanolamine
NON5
Parent:13
Linkage:n(1+1)n
HistoricalEntity:protein