Subject	rdfs:label	glycan:carbohydrate_format_iupac_condensed	glycan:has_aglycon	glycan:carbohydrate_format	glycan:carbohydrate_format_wurcs
cartn:	xsd:string	xsd:string	xsd:string	xsd:string	xsd:string
CarTN1	asialoGM1	Galβ1-3GalNAcβ1-4Galβ1-4Glcβ1-	Cer	Gal(b1-3)GalNAc(b1-4)Gal(b1-4)Glc(b1-	WURCS=2.0/3,4,3/[12122h-1b_1-5][12112h-1b_1-5][12112h-1b_1-5_2*NCC/3=O]/1-2-3-2/a4-b1_b4-c1_c3-d1
CarTN2	asialoGM2	GalNAcβ1-4Galβ1-4Glcβ1-	Cer	GalNAc(b1-4)Gal(b1-4)Glc(b1-	WURCS=2.0/3,3,2/[12122h-1b_1-5][12112h-1b_1-5][12112h-1b_1-5_2*NCC/3=O]/1-2-3/a4-b1_b4-c1
CarTN3	Ceramide trihexosides(CTH)	Galα1-4Galβ1-4Glcβ1-	Cer	Gal(a1-4)Gal(b1-4)Glc(b1-	WURCS=2.0/3,3,2/[12122h-1b_1-5][12112h-1b_1-5][22112h-1a_1-5]/1-2-3/a4-b1_b4-c1
CarTN4	Fucosyl GM1	Fucα1-2Galβ1-3GalNAcβ1-4(Neu5Acα2-3)Galβ1-4Glcβ1-	Cer	Fuc(a1-2)Gal(b1-3)GalNAc(b1-4)[Neu5Ac(a2-3)]Gal(b1-4)Glc(b1-	WURCS=2.0/5,6,5/[12122h-1b_1-5][12112h-1b_1-5][a6d21122h-2a_2-6_5*NCC/3=O][12112h-1b_1-5_2*NCC/3=O][11221m-1a_1-5]/1-2-3-4-2-5/a4-b1_b3-c2_b4-d1_d3-e1_e2-f1
CarTN5	Galactocerebroside (non-hydroxy fatty acid)	Galβ1-	Cer	Gal(b1-	WURCS=2.0/1,1,0/[12112h-1b_1-5]/1/
CarTN6	Galactocerebroside (2-hydoxy fatty acid)	Galβ1-	Cer	Gal(b1-	WURCS=2.0/1,1,0/[12112h-1b_1-5]/1/
CarTN7	Gb4	GlcNAcβ1-3Galα1-4Galβ1-4Glcβ1-	Cer	GlcNAc(b1-3)Gal(a1-4)Gal(b1-4)Glc(b1-	WURCS=2.0/4,4,3/[12122h-1b_1-5][12112h-1b_1-5][22112h-1a_1-5][12122h-1b_1-5_2*NCC/3=O]/1-2-3-4/a4-b1_b4-c1_c3-d1
CarTN8	GD1a	Neu5Acα2-3Galβ1-3GalNAcβ1-4(Neu5Acα2-3)Galβ1-4Glcβ1-	Cer	Neu5Ac(a2-3)Gal(b1-3)GalNAc(b1-4)[Neu5Ac(a2-3)]Gal(b1-4)Glc(b1-	WURCS=2.0/4,6,5/[12122h-1b_1-5][12112h-1b_1-5][a6d21122h-2a_2-6_5*NCC/3=O][12112h-1b_1-5_2*NCC/3=O]/1-2-3-4-2-3/a4-b1_b3-c2_b4-d1_d3-e1_e3-f2
CarTN9	GD1b	Galβ1-3GalNAcβ1-4(Neu5Acα2-8Neu5Acα2-3)Galβ1-4Glcβ1-	Cer	Gal(b1-3)GalNAc(b1-4)[Neu5Ac(a2-8)Neu5Ac(a2-3)]Gal(b1-4)Glc(b1-	WURCS=2.0/4,6,5/[12122h-1b_1-5][12112h-1b_1-5][a6d21122h-2a_2-6_5*NCC/3=O][12112h-1b_1-5_2*NCC/3=O]/1-2-3-3-4-2/a4-b1_b3-c2_b4-e1_c8-d2_e3-f1
CarTN10	GD3	Neu5Acα2-8Neu5Acα2-3Galβ1-4Glcβ1-	Cer	Neu5Ac(a2-8)Neu5Ac(a2-3)Gal(b1-4)Glc(b1-	WURCS=2.0/3,4,3/[12122h-1b_1-5][12112h-1b_1-5][a6d21122h-2a_2-6_5*NCC/3=O]/1-2-3-3/a4-b1_b3-c2_c8-d2
CarTN11	Glucocerebrosides	Glcβ1-	Cer	Glc(b1-	WURCS=2.0/1,1,0/[12122h-1b_1-5]/1/
CarTN12	Glucopsychosine	Glcβ1-	Sph	Glc(b1-h	WURCS=2.0/1,1,0/[12122h-1b_1-5]/1/
CarTN13	GM1	Galβ1-3GalNAcβ1-4(Neu5Acα2-3)Galβ1-4Glcβ1-	Cer	Gal(b1-3)GalNAc(b1-4)[Neu5Ac(a2-3)]Gal(b1-4)Glc(b1-	WURCS=2.0/4,5,4/[12122h-1b_1-5][12112h-1b_1-5][a6d21122h-2a_2-6_5*NCC/3=O][12112h-1b_1-5_2*NCC/3=O]/1-2-3-4-2/a4-b1_b3-c2_b4-d1_d3-e1
CarTN14	GM2	GalNAcβ1-4(Neu5Acα2-3)Galβ1-4Glcβ1-	Cer	GalNAc(b1-4)[Neu5Ac(a2-3)]Gal(b1-4)Glc(b1-	WURCS=2.0/4,4,3/[12122h-1b_1-5][12112h-1b_1-5][a6d21122h-2a_2-6_5*NCC/3=O][12112h-1b_1-5_2*NCC/3=O]/1-2-3-4/a4-b1_b3-c2_b4-d1
CarTN15	GM3	Neu5Acα2-3Galβ1-4Glcβ1-	Cer	Neu5Ac(a2-3)Gal(b1-4)Glc(b1-	WURCS=2.0/3,3,2/[12122h-1b_1-5][12112h-1b_1-5][a6d21122h-2a_2-6_5*NCC/3=O]/1-2-3/a4-b1_b3-c2
CarTN16	GM3(NeuGc)	Neu5Gcα2-3Galβ1-4Glcβ1-	Cer	Neu5Gc(a2-3)Gal(b1-4)Glc(b1-	WURCS=2.0/3,3,2/[12122h-1b_1-5][12112h-1b_1-5][a6d21122h-2a_2-6_5*NCCO/3=O]/1-2-3/a4-b1_b3-c2
CarTN17	GQ1b	Neu5Acα2-8Neu5Acα2-3Galβ1-3GalNAcβ1-4(Neu5Acα2-8Neu5Acα2-3)Galβ1-4Glcβ1-	Cer	Neu5Ac(a2-8)Neu5Ac(a2-3)Gal(b1-3)GalNAc(b1-4)[Neu5Ac(a2-8)Neu5Ac(a2-3)]Gal(b1-4)Glc(b1-	WURCS=2.0/4,8,7/[12122h-1b_1-5][12112h-1b_1-5][a6d21122h-2a_2-6_5*NCC/3=O][12112h-1b_1-5_2*NCC/3=O]/1-2-3-3-4-2-3-3/a4-b1_b3-c2_b4-e1_c8-d2_e3-f1_f3-g2_g8-h2
CarTN18	GT1b	Neu5Acα2-3Galβ1-3GalNAcβ1-4(Neu5Acα2-8Neu5Acα2-3)Galβ1-4Glcβ1-	Cer	Neu5Ac(a2-3)Gal(b1-3)GalNAc(b1-4)[Neu5Ac(a2-8)Neu5Ac(a2-3)]Gal(b1-4)Glc(b1-	WURCS=2.0/4,7,6/[12122h-1b_1-5][12112h-1b_1-5][a6d21122h-2a_2-6_5*NCC/3=O][12112h-1b_1-5_2*NCC/3=O]/1-2-3-3-4-2-3/a4-b1_b3-c2_b4-e1_c8-d2_e3-f1_f3-g2
CarTN19	Lactosylceramides	Galβ1-4Glcβ1-	Cer	Gal(b1-4)Glc(b1-	WURCS=2.0/2,2,1/[12122h-1b_1-5][12112h-1b_1-5]/1-2/a4-b1
CarTN20	sialyl lactotetraosylceramide	Neu5Acα2-3Galβ1-3GlcNAcβ1-3Galβ1-4Glcβ1-	Cer	Neu5Ac(a2-3)Gal(b1-3)GlcNAc(b1-3)Gal(b1-4)Glc(b1-	WURCS=2.0/4,5,4/[12122h-1b_1-5][12112h-1b_1-5][12122h-1b_1-5_2*NCC/3=O][a6d21122h-2a_2-6_5*NCC/3=O]/1-2-3-2-4/a4-b1_b3-c1_c3-d1_d3-e2
CarTN21	α(2-6)sialyl  lactotetraosylceramide	Neu5Acα2-6Galβ1-3GlcNAcβ1-3Galβ1-4Glcβ1-	Cer	Neu5Ac(a2-6)Gal(b1-3)GlcNAc(b1-3)Gal(b1-4)Glc(b1-	WURCS=2.0/4,5,4/[12122h-1b_1-5][12112h-1b_1-5][12122h-1b_1-5_2*NCC/3=O][a6d21122h-2a_2-6_5*NCC/3=O]/1-2-3-2-4/a4-b1_b3-c1_c3-d1_d6-e2
CarTN22	Sulfatide	Gal3S	Cer	Gal3S	WURCS=2.0/1,1,0/[x2112h-1x_1-5_3*SO/2=O/2=O]/1/
CarTN23	GN	GlcNAcβ1-	Sp	GlcNAc(b1-	WURCS=2.0/1,1,0/[12122h-1b_1-5_2*NCC/3=O]/1/
CarTN24	TF	Galβ1-3GalNAcα1-	Thr	Gal(b1-3)GalNAc(a1-1)Thr	WURCS=2.0/2,2,1/[22112h-1a_1-5_2*NCC/3=O][12112h-1b_1-5]/1-2/a3-b1
CarTN25	Lec	Galβ1-3GlcNAcβ1-	Sp	Gal(b1-3)GlcNAc(b1-	WURCS=2.0/2,2,1/[12122h-1b_1-5_2*NCC/3=O][12112h-1b_1-5]/1-2/a3-b1
CarTN26	Lac	Galβ1-4Glcβ1-	Sp	Gal(b1-4)Glc(b1-	WURCS=2.0/2,2,1/[12122h-1b_1-5][12112h-1b_1-5]/1-2/a4-b1
CarTN27	LacNAc	Galβ1-4GlcNAcβ1-	Sp	Gal(b1-4)GlcNAc(b1-	WURCS=2.0/2,2,1/[12122h-1b_1-5_2*NCC/3=O][12112h-1b_1-5]/1-2/a4-b1
CarTN28	LDN	GalNAcβ1-4GlcNAcβ1-	Sp	GalNAc(b1-4)GlcNAc(b1-	WURCS=2.0/2,2,1/[12122h-1b_1-5_2*NCC/3=O][12112h-1b_1-5_2*NCC/3=O]/1-2/a4-b1
CarTN29	STn	Neu5Acα2-6GalNAcα1-	Thr	Neu5Ac(a2-6)GalNAc(a1-1)Thr	WURCS=2.0/2,2,1/[22112h-1a_1-5_2*NCC/3=O][a6d21122h-2a_2-6_5*NCC/3=O]/1-2/a6-b2
CarTN30	L	Galβ1-4Glcβ1-	Sp	Gal(b1-4)Glc(b1-	WURCS=2.0/2,2,1/[12122h-1b_1-5][12112h-1b_1-5]/1-2/a4-b1
CarTN31	LN	Galβ1-4GlcNAcβ1-	Sp	Gal(b1-4)GlcNAc(b1-	WURCS=2.0/2,2,1/[12122h-1b_1-5_2*NCC/3=O][12112h-1b_1-5]/1-2/a4-b1
CarTN32	H-type1	Fucα1-2Galβ1-3GlcNAcβ1-	Sp	Fuc(a1-2)Gal(b1-3)GlcNAc(b1-	WURCS=2.0/3,3,2/[12122h-1b_1-5_2*NCC/3=O][12112h-1b_1-5][11221m-1a_1-5]/1-2-3/a3-b1_b2-c1
CarTN33	2'FL	Fucα1-2Galβ1-4Glcβ1-	Sp	Fuc(a1-2)Gal(b1-4)Glc(b1-	WURCS=2.0/3,3,2/[12122h-1b_1-5][12112h-1b_1-5][11221m-1a_1-5]/1-2-3/a4-b1_b2-c1
CarTN34	H-type2	Fucα1-2Galβ1-4GlcNAcβ1-	Sp	Fuc(a1-2)Gal(b1-4)GlcNAc(b1-	WURCS=2.0/3,3,2/[12122h-1b_1-5_2*NCC/3=O][12112h-1b_1-5][11221m-1a_1-5]/1-2-3/a4-b1_b2-c1
CarTN35	Gala3-type1	Galα1-3Galβ1-3GlcNAcβ1-	Sp	Gal(a1-3)Gal(b1-3)GlcNAc(b1-	WURCS=2.0/3,3,2/[12122h-1b_1-5_2*NCC/3=O][12112h-1b_1-5][22112h-1a_1-5]/1-2-3/a3-b1_b3-c1
CarTN36	Galili-tri	Galα1-3Galβ1-4Glcβ1-	Sp	Gal(a1-3)Gal(b1-4)Glc(b1-	WURCS=2.0/3,3,2/[12122h-1b_1-5][12112h-1b_1-5][22112h-1a_1-5]/1-2-3/a4-b1_b3-c1
CarTN37	B2-tri	Galα1-3Galβ1-4GlcNAcβ1-	Sp	Gal(a1-3)Gal(b1-4)GlcNAc(b1-	WURCS=2.0/3,3,2/[12122h-1b_1-5_2*NCC/3=O][12112h-1b_1-5][22112h-1a_1-5]/1-2-3/a4-b1_b3-c1
CarTN38	Pk	Galα1-4Galβ1-4Glcβ1-	Sp	Gal(a1-4)Gal(b1-4)Glc(b1-	WURCS=2.0/3,3,2/[12122h-1b_1-5][12112h-1b_1-5][22112h-1a_1-5]/1-2-3/a4-b1_b4-c1
CarTN39	P1 tri	Galaα1-4Galβ1-4GlcNAcβ1-	Sp	Gal(a1-4)Gal(b1-4)GlcNAc(b1-	WURCS=2.0/3,3,2/[12122h-1b_1-5_2*NCC/3=O][12112h-1b_1-5][22112h-1a_1-5]/1-2-3/a4-b1_b4-c1
CarTN40	LeA	Galβ1-3[Fucα1-4]GlcNAcβ1-	Sp	Gal(b1-3)[Fuc(a1-4)]GlcNAc(b1-	WURCS=2.0/3,3,2/[12122h-1b_1-5_2*NCC/3=O][12112h-1b_1-5][11221m-1a_1-5]/1-2-3/a3-b1_a4-c1
CarTN41	6'STF	Galβ1-3[Neu5Acα2-6]GalNAcα1-	Thr	Gal(b1-3)[Neu5Ac(a2-6)]GalNAc(a1-1)Thr	WURCS=2.0/3,3,2/[22112h-1a_1-5_2*NCC/3=O][12112h-1b_1-5][a6d21122h-2a_2-6_5*NCC/3=O]/1-2-3/a3-b1_a6-c2
CarTN42	Lex	Galβ1-4[Fucα1-3]GlcNAcβ1-	Sp	Gal(b1-4)[Fuc(a1-3)]GlcNAc(b1-	WURCS=2.0/3,3,2/[12122h-1b_1-5_2*NCC/3=O][11221m-1a_1-5][12112h-1b_1-5]/1-2-3/a3-b1_a4-c1
CarTN43	3'GN type1	GlcNAcβ1-3Galβ1-3GlcNAcβ1-	Sp	GlcNAc(b1-3)Gal(b1-3)GlcNAc(b1-	WURCS=2.0/2,3,2/[12122h-1b_1-5_2*NCC/3=O][12112h-1b_1-5]/1-2-1/a3-b1_b3-c1
CarTN44	GNLN	GlcNAcβ1-3Galβ1-4GlcNAcβ1-	Sp	GlcNAc(b1-3)Gal(b1-4)GlcNAc(b1-	WURCS=2.0/2,3,2/[12122h-1b_1-5_2*NCC/3=O][12112h-1b_1-5]/1-2-1/a4-b1_b3-c1
CarTN45	LNT-2	GlcNAcβ1-3Galβ1-4Glcβ1-	Sp	GlcNAc(b1-3)Gal(b1-4)Glc(b1-	WURCS=2.0/3,3,2/[12122h-1b_1-5][12112h-1b_1-5][12122h-1b_1-5_2*NCC/3=O]/1-2-3/a4-b1_b3-c1
CarTN46	3'-KDNLec	KDNα2-3Galβ1-3GlcNAcβ1-	Sp	KDN(a2-3)Gal(b1-3)GlcNAc(b1-	WURCS=2.0/3,3,2/[12122h-1b_1-5_2*NCC/3=O][12112h-1b_1-5][a6d21122h-2a_2-6]/1-2-3/a3-b1_b3-c2
CarTN47	3'KDNLN	KDNα2-3Galβ1-4GlcNAcβ1-	Sp	KDN(a2-3)Gal(b1-4)GlcNAc(b1-	WURCS=2.0/3,3,2/[12122h-1b_1-5_2*NCC/3=O][12112h-1b_1-5][a6d21122h-2a_2-6]/1-2-3/a4-b1_b3-c2
CarTN48	3'SLec	Neu5Acα2-3Galβ1-3GlcNAcβ1-	Sp	Neu5Ac(a2-3)Gal(b1-3)GlcNAc(b1-	WURCS=2.0/3,3,2/[12122h-1b_1-5_2*NCC/3=O][12112h-1b_1-5][a6d21122h-2a_2-6_5*NCC/3=O]/1-2-3/a3-b1_b3-c2
CarTN49	GM3 (no spacer)	Neu5Acα2-3Galβ1-4Glc		Neu5Ac(a2-3)Gal(b1-4)Glc	WURCS=2.0/3,3,2/[x2122h-1x_1-5][12112h-1b_1-5][a6d21122h-2a_2-6_5*NCC/3=O]/1-2-3/a4-b1_b3-c2
CarTN50	GM3	Neu5Acα2-3Galβ1-4Glcβ1-	Sp	Neu5Ac(a2-3)Gal(b1-4)Glc(b1-	WURCS=2.0/3,3,2/[12122h-1b_1-5][12112h-1b_1-5][a6d21122h-2a_2-6_5*NCC/3=O]/1-2-3/a4-b1_b3-c2
CarTN51	3'SLN	Neu5Acα2-3Galβ1-4GlcNAcβ1-	Sp	Neu5Ac(a2-3)Gal(b1-4)GlcNAc(b1-	WURCS=2.0/3,3,2/[12122h-1b_1-5_2*NCC/3=O][12112h-1b_1-5][a6d21122h-2a_2-6_5*NCC/3=O]/1-2-3/a4-b1_b3-c2
CarTN52	3'SLDN	Neu5Acα2-3GalNAcβ1-4GlcNAcβ1-	Sp	Neu5Ac(a2-3)GalNAc(b1-4)GlcNAc(b1-	WURCS=2.0/3,3,2/[12122h-1b_1-5_2*NCC/3=O][12112h-1b_1-5_2*NCC/3=O][a6d21122h-2a_2-6_5*NCC/3=O]/1-2-3/a4-b1_b3-c2
CarTN53	6'SL	Neu5Acα2-6Galβ1-4Glcβ1-	Sp	Neu5Ac(a2-6)Gal(b1-4)Glc(b1-	WURCS=2.0/3,3,2/[12122h-1b_1-5][12112h-1b_1-5][a6d21122h-2a_2-6_5*NCC/3=O]/1-2-3/a4-b1_b6-c2
CarTN54	6'SLN	Neu5Acα2-6Galβ1-4GlcNAcβ1-	Sp	Neu5Ac(a2-6)Gal(b1-4)GlcNAc(b1-	WURCS=2.0/3,3,2/[12122h-1b_1-5_2*NCC/3=O][12112h-1b_1-5][a6d21122h-2a_2-6_5*NCC/3=O]/1-2-3/a4-b1_b6-c2
CarTN55	6'SLDN	Neu5Acaα1-6GalNAcβ1-4GlcNAcβ1-	Sp	Neu5Ac(a2-6)GalNAc(b1-4)GlcNAc(b1-	WURCS=2.0/3,3,2/[12122h-1b_1-5_2*NCC/3=O][12112h-1b_1-5_2*NCC/3=O][a6d21122h-2a_2-6_5*NCC/3=O]/1-2-3/a4-b1_b6-c2
CarTN56	9OAc3'Slec	Neu5Ac(9Ac)α2-3Galβ1-3GlcNAcβ1-	Sp	Neu5Ac9Ac(a2-3)Gal(b1-3)GlcNAc(b1-	WURCS=2.0/3,3,2/[12122h-1b_1-5_2*NCC/3=O_9*NCC/3=O][12112h-1b_1-5][a6d21122h-2a_2-6_5*NCC/3=O]/1-2-3/a3-b1_b3-c2
CarTN57	9OAc3'SLN	Neu5Ac(9Ac)α2-3Galβ1-4GlcNAcβ1-	Sp	Neu5Ac9Ac(a2-3)Gal(b1-4)GlcNAc(b1-	WURCS=2.0/3,3,2/[12122h-1b_1-5_2*NCC/3=O_9*NCC/3=O][12112h-1b_1-5][a6d21122h-2a_2-6_5*NCC/3=O]/1-2-3/a4-b1_b3-c2
CarTN58	3'SLec (Gc)	Neu5Gcα2-3Galβ1-3GlcNAcβ1-	Sp	Neu5Gc(a2-3)Gal(b1-3)GlcNAc(b1-	WURCS=2.0/3,3,2/[12122h-1b_1-5_2*NCC/3=O][12112h-1b_1-5][a6d21122h-2a_2-6_5*NCCO/3=O]/1-2-3/a3-b1_b3-c2
CarTN59	3'SL (Gc)	Neu5Gcα2-3Galβ1-4Glcβ1-	Sp	Neu5Gc(a2-3)Gal(b1-4)Glc(b1-	WURCS=2.0/3,3,2/[12122h-1b_1-5][12112h-1b_1-5][a6d21122h-2a_2-6_5*NCCO/3=O]/1-2-3/a4-b1_b3-c2
CarTN60	3'SLN (Gc)	Neu5Gcα2-3Galβ1-4GlcNAcβ1-	Sp	Neu5Gc(a2-3)Gal(b1-4)GlcNAc(b1-	WURCS=2.0/3,3,2/[12122h-1b_1-5_2*NCC/3=O][12112h-1b_1-5][a6d21122h-2a_2-6_5*NCCO/3=O]/1-2-3/a4-b1_b3-c2
CarTN61	6'SLN (Gc)	Neu5Gcα2-6Galβ1-4GlcNAcβ1-	Sp	Neu5Gc(a2-6)Gal(b1-4)GlcNAc(b1-	WURCS=2.0/3,3,2/[12122h-1b_1-5_2*NCC/3=O][12112h-1b_1-5][a6d21122h-2a_2-6_5*NCCO/3=O]/1-2-3/a4-b1_b6-c2
CarTN62	H2	Fucα1-2(Galβ1-4GlcNAcβ1-3)2β1-	Sp	Fuc(a1-2)Gal(b1-4)GlcNAc(b1-3)Gal(b1-4)GlcNAc(b1-	WURCS=2.0/3,5,4/[12122h-1b_1-5_2*NCC/3=O][12112h-1b_1-5][11221m-1a_1-5]/1-2-1-2-3/a4-b1_b3-c1_c4-d1_d2-e1
CarTN63	Ley	Fucα1-2Galβ1-4[Fucα1-3]GlcNAcβ1-	Sp	Fuc(a1-2)Gal(b1-4)[Fuc(a1-3)]GlcNAc(b1-	WURCS=2.0/3,4,3/[12122h-1b_1-5_2*NCC/3=O][11221m-1a_1-5][12112h-1b_1-5]/1-2-3-2/a3-b1_a4-c1_c2-d1
CarTN64	Ley -Lex	Fucα1-2Galβ1-4[Fucaα1-3]GlcNAcβ1-3Galβ1-4[Fucα1-3]GlcNAcβ1-	Sp	Fuc(a1-2)Gal(b1-4)[Fuc(a1-3)]GlcNAc(b1-3)Gal(b1-4)[Fuc(a1-3)]GlcNAc(b1-	WURCS=2.0/3,7,6/[12122h-1b_1-5_2*NCC/3=O][11221m-1a_1-5][12112h-1b_1-5]/1-2-3-1-2-3-2/a3-b1_a4-c1_c3-d1_d3-e1_d4-f1_f2-g1
CarTN65	Ley-Di-Lex	Fucα1-2Galβ1-4[Fucα1-3]GlcNAcβ1-3(Galβ1-4[Fucα1-3]GlcNAcβ1-3)2β1-	Sp	Fuc(a1-2)Gal(b1-4)[Fuc(a1-3)]GlcNAc(b1-3)Gal(b1-4)[Fuc(a1-3)]GlcNAc(b1-3)Gal(b1-4)[Fuc(a1-3)]GlcNAc(b1-	WURCS=2.0/3,10,9/[12122h-1b_1-5_2*NCC/3=O][11221m-1a_1-5][12112h-1b_1-5]/1-2-3-1-2-3-1-2-3-2/a3-b1_a4-c1_c3-d1_d3-e1_d4-f1_f3-g1_g3-h1_g4-i1_i2-j1
CarTN66	H3	Fucα1-2(Galβ1-4GlcNAcβ1-3)3β1-	Sp	Fuc(a1-2)Gal(b1-4)GlcNAc(b1-3)Gal(b1-4)GlcNAc(b1-3)Gal(b1-4)GlcNAc(b1-	WURCS=2.0/3,7,6/[12122h-1b_1-5_2*NCC/3=O][12112h-1b_1-5][11221m-1a_1-5]/1-2-1-2-1-2-3/a4-b1_b3-c1_c4-d1_d3-e1_e4-f1_f2-g1
CarTN67	B tetra type 1	Galα1-3[Fucα1-2]Galβ1-3GlcNAcβ1-	Sp	Gal(a1-3)[Fuc(a1-2)]Gal(b1-3)GlcNAc(b1-	WURCS=2.0/4,4,3/[12122h-1b_1-5_2*NCC/3=O][12112h-1b_1-5][11221m-1a_1-5][22112h-1a_1-5]/1-2-3-4/a3-b1_b2-c1_b3-d1
CarTN68	2'F-B type 2	Galα1-3[Fucα1-2]Galβ1-4[Fucα1-3]GlcNAcβ1-	Sp	Gal(a1-3)[Fuc(a1-2)]Gal(b1-4)[Fuc(a1-3)]GlcNAc(b1-	WURCS=2.0/4,5,4/[12122h-1b_1-5_2*NCC/3=O][11221m-1a_1-5][12112h-1b_1-5][22112h-1a_1-5]/1-2-3-2-4/a3-b1_a4-c1_c2-d1_c3-e1
CarTN69	B tetra L	Galα1-3[Fucα1-2]Galβ1-4Glcβ1-	Sp	Gal(a1-3)[Fuc(a1-2)]Gal(b1-4)Glc(b1-	WURCS=2.0/4,4,3/[12122h-1b_1-5][12112h-1b_1-5][11221m-1a_1-5][22112h-1a_1-5]/1-2-3-4/a4-b1_b2-c1_b3-d1
CarTN70	B tetra type 2	Galα1-3[Fucα1-2]Galβ1-4GlcNAcβ1-	Sp	Gal(a1-3)[Fuc(a1-2)]Gal(b1-4)GlcNAc(b1-	WURCS=2.0/4,4,3/[12122h-1b_1-5_2*NCC/3=O][12112h-1b_1-5][11221m-1a_1-5][22112h-1a_1-5]/1-2-3-4/a4-b1_b2-c1_b3-d1
CarTN71	Gala3Lex	Galα1-3Galβ1-4[Fucα1-3]GlcNAcβ1-	Sp	Gal(a1-3)Gal(b1-4)[Fuc(a1-3)]GlcNAc(b1-	WURCS=2.0/4,4,3/[12122h-1b_1-5_2*NCC/3=O][11221m-1a_1-5][12112h-1b_1-5][22112h-1a_1-5]/1-2-3-4/a3-b1_a4-c1_c3-d1
CarTN72	P1 penta	Galα1-4Galβ1-4GlcNAcβ1-3Galβ1-4Glcβ1-	Sp	Gal(a1-4)Gal(b1-4)GlcNAc(b1-3)Gal(b1-4)Glc(b1-	WURCS=2.0/4,5,4/[12122h-1b_1-5][12112h-1b_1-5][12122h-1b_1-5_2*NCC/3=O][22112h-1a_1-5]/1-2-3-2-4/a4-b1_b3-c1_c4-d1_d4-e1
CarTN73	LeALex	Galβ1-3[Fucα1-4]GlcNAcβ1-3Galβ1-4[Fucα1-3]GlcNAcβ1-	Sp	Gal(b1-3)[Fuc(a1-4)]GlcNAc(b1-3)Gal(b1-4)[Fuc(a1-3)]GlcNAc(b1-	WURCS=2.0/3,6,5/[12122h-1b_1-5_2*NCC/3=O][11221m-1a_1-5][12112h-1b_1-5]/1-2-3-1-3-2/a3-b1_a4-c1_c3-d1_d3-e1_d4-f1
CarTN74	Di-LeA	Galβ1-3[Fucα1-4]GlcNAcβ1-3Galβ1-3[Fucα1-4]GlcNAcβ1-	Sp	Gal(b1-3)[Fuc(a1-4)]GlcNAc(b1-3)Gal(b1-3)[Fuc(a1-4)]GlcNAc(b1-	WURCS=2.0/3,6,5/[12122h-1b_1-5_2*NCC/3=O][12112h-1b_1-5][11221m-1a_1-5]/1-2-1-2-3-3/a3-b1_a4-f1_b3-c1_c3-d1_c4-e1
CarTN75	Lec-LeX	Galβ1-3GlcNAcβ1-3Galβ1-4[Fucα1-3]GlcNAc-β1-	Sp	Gal(b1-3)GlcNAc(b1-3)Gal(b1-4)[Fuc(a1-3)]GlcNAc(b1-	WURCS=2.0/3,5,4/[12122h-1b_1-5_2*NCC/3=O][11221m-1a_1-5][12112h-1b_1-5]/1-2-3-1-3/a3-b1_a4-c1_c3-d1_d3-e1
CarTN76	P1 penta	Galβ1-3GalNAcβ1-3Galα1-4Galβ1-4GlcNAcβ1-	Sp	Gal(b1-3)GalNAc(b1-3)Gal(a1-4)Gal(b1-4)GlcNAc(b1-	WURCS=2.0/4,5,4/[12122h-1b_1-5_2*NCC/3=O][12112h-1b_1-5][22112h-1a_1-5][12112h-1b_1-5_2*NCC/3=O]/1-2-3-4-2/a4-b1_b4-c1_c3-d1_d3-e1
CarTN77	LNT	Galβ1-3GlcNAcβ1-3Galβ1-4GlcNAcβ1-	Sp	Gal(b1-3)GlcNAc(b1-3)Gal(b1-4)GlcNAc(b1-	WURCS=2.0/2,4,3/[12122h-1b_1-5_2*NCC/3=O][12112h-1b_1-5]/1-2-1-2/a4-b1_b3-c1_c3-d1
CarTN78	Di-Lec	Galβ1-3GlcNAcβ1-3Galβ1-3GlcNAcβ1-	Sp	Gal(b1-3)GlcNAc(b1-3)Gal(b1-3)GlcNAc(b1-	WURCS=2.0/2,4,3/[12122h-1b_1-5_2*NCC/3=O][12112h-1b_1-5]/1-2-1-2/a3-b1_b3-c1_c3-d1
CarTN79	Di-Lex	(Galβ1-4[Fucα1-3]GlcNAcβ1-3)2β1-	Sp	Gal(b1-4)[Fuc(a1-3)]GlcNAc(b1-3)Gal(b1-4)[Fuc(a1-3)]GlcNAc(b1-	WURCS=2.0/3,6,5/[12122h-1b_1-5_2*NCC/3=O][11221m-1a_1-5][12112h-1b_1-5]/1-2-3-1-2-3/a3-b1_a4-c1_c3-d1_d3-e1_d4-f1
CarTN80	Tri-Lex	(Galβ1-4[Fucα1-3]GlcNAcβ1-3)3β1-	Sp	Gal(b1-4)[Fuc(a1-3)]GlcNAc(b1-3)Gal(b1-4)[Fuc(a1-3)]GlcNAc(b1-3)Gal(b1-4)[Fuc(a1-3)]GlcNAc(b1-	WURCS=2.0/3,9,8/[12122h-1b_1-5_2*NCC/3=O][11221m-1a_1-5][12112h-1b_1-5]/1-2-3-1-2-3-1-2-3/a3-b1_a4-c1_c3-d1_d3-e1_d4-f1_f3-g1_g3-h1_g4-i1
CarTN81	Lex-LeA	Galβ1-4[Fucα1-3]GlcNAcβ1-3Galβ1-3[Fucα1-4]GlcNAcβ1-	Sp	Gal(b1-4)[Fuc(a1-3)]GlcNAc(b1-3)Gal(b1-3)[Fuc(a1-4)]GlcNAc(b1-	WURCS=2.0/3,6,5/[12122h-1b_1-5_2*NCC/3=O][12112h-1b_1-5][11221m-1a_1-5]/1-2-1-3-2-3/a3-b1_a4-f1_b3-c1_c3-d1_c4-e1
CarTN82	Di-LN	(Galβ1-4GlcNAcβ1-3)2β1-	Sp	Gal(b1-4)GlcNAc(b1-3)Gal(b1-4)GlcNAc(b1-	WURCS=2.0/2,4,3/[12122h-1b_1-5_2*NCC/3=O][12112h-1b_1-5]/1-2-1-2/a4-b1_b3-c1_c4-d1
CarTN83	Tri-LN	(Galβ1-4GlcNAcβ1-3)3β1-	Sp	Gal(b1-4)GlcNAc(b1-3)Gal(b1-4)GlcNAc(b1-3)Gal(b1-4)GlcNAc(b1-	WURCS=2.0/2,6,5/[12122h-1b_1-5_2*NCC/3=O][12112h-1b_1-5]/1-2-1-2-1-2/a4-b1_b3-c1_c4-d1_d3-e1_e4-f1
CarTN84	LNnT	Galβ1-4GlcNAcβ1-3Galβ1-4Glcβ1-	Sp	Gal(b1-4)GlcNAc(b1-3)Gal(b1-4)Glc(b1-	WURCS=2.0/3,4,3/[12122h-1b_1-5][12112h-1b_1-5][12122h-1b_1-5_2*NCC/3=O]/1-2-3-2/a4-b1_b3-c1_c4-d1
CarTN85	A tetra type 1	GalNAcα1-3[Fucα1-2]Galβ1-3GlcNAcβ1-	Sp	GalNAc(a1-3)[Fuc(a1-2)]Gal(b1-3)GlcNAc(b1-	WURCS=2.0/4,4,3/[12122h-1b_1-5_2*NCC/3=O][12112h-1b_1-5][11221m-1a_1-5][22112h-1a_1-5_2*NCC/3=O]/1-2-3-4/a3-b1_b2-c1_b3-d1
CarTN86	2'F-A type 2	GalNAcα1-3[Fucα1-2]Galβ1-4[Fucα1-3]GlcNAcβ1-	Sp	GalNAc(a1-3)[Fuc(a1-2)]Gal(b1-4)[Fuc(a1-3)]GlcNAc(b1-	WURCS=2.0/4,5,4/[12122h-1b_1-5_2*NCC/3=O][11221m-1a_1-5][12112h-1b_1-5][22112h-1a_1-5_2*NCC/3=O]/1-2-3-2-4/a3-b1_a4-c1_c2-d1_c3-e1
CarTN87	A tetra L	GalNAcα1-3[Fucα1-2]Galβ1-4Glcβ1-	Sp	GalNAc(a1-3)[Fuc(a1-2)]Gal(b1-4)Glc(b1-	WURCS=2.0/4,4,3/[12122h-1b_1-5][12112h-1b_1-5][11221m-1a_1-5][22112h-1a_1-5_2*NCC/3=O]/1-2-3-4/a4-b1_b2-c1_b3-d1
CarTN88	A tetra type 2	GalNAcα1-3[Fucα1-2]Galβ1-4GlcNAcβ1-	Sp	GalNAc(a1-3)[Fuc(a1-2)]Gal(b1-4)GlcNAc(b1-	WURCS=2.0/4,4,3/[12122h-1b_1-5_2*NCC/3=O][12112h-1b_1-5][11221m-1a_1-5][22112h-1a_1-5_2*NCC/3=O]/1-2-3-4/a4-b1_b2-c1_b3-d1
CarTN89	P1 tetra	GalNAcβ1-3Galα1-4Galβ1-4GlcNAcβ1-	Sp	GalNAc(b1-3)Gal(a1-4)Gal(b1-4)GlcNAc(b1-	WURCS=2.0/4,4,3/[12122h-1b_1-5_2*NCC/3=O][12112h-1b_1-5][22112h-1a_1-5][12112h-1b_1-5_2*NCC/3=O]/1-2-3-4/a4-b1_b4-c1_c3-d1
CarTN90	3'GN-Di-LN	GlcNAcβ1-3(Galβ1-4GlcNAcβ1-3)2β1-	Sp	GlcNAc(b1-3)Gal(b1-4)GlcNAc(b1-3)Gal(b1-4)GlcNAc(b1-	WURCS=2.0/2,5,4/[12122h-1b_1-5_2*NCC/3=O][12112h-1b_1-5]/1-2-1-2-1/a4-b1_b3-c1_c4-d1_d3-e1
CarTN91	3'S-Di-LeA	Neu5Acα2-3(Galβ1-3[Fucα1-4]GlcNAcβ1-3)2β1-	Sp	Neu5Ac(a2-3)Gal(b1-3)[Fuc(a1-4)]GlcNAc(b1-3)Gal(b1-3)[Fuc(a1-4)]GlcNAc(b1-	WURCS=2.0/4,7,6/[12122h-1b_1-5_2*NCC/3=O][12112h-1b_1-5][a6d21122h-2a_2-6_5*NCC/3=O][11221m-1a_1-5]/1-2-1-2-3-4-4/a3-b1_a4-g1_b3-c1_c3-d1_c4-f1_d3-e2
CarTN92	3'SLeA-LeX	Neu5Acα2-3Galβ1-3[Fucα1-4]GlcNAcβ1-3Galβ1-4[Fucα1-3]GlcNAcβ1-	Sp	Neu5Ac(a2-3)Gal(b1-3)[Fuc(a1-4)]GlcNAc(b1-3)Gal(b1-4)[Fuc(a1-3)]GlcNAc(b1-	WURCS=2.0/4,7,6/[12122h-1b_1-5_2*NCC/3=O][11221m-1a_1-5][12112h-1b_1-5][a6d21122h-2a_2-6_5*NCC/3=O]/1-2-3-1-3-4-2/a3-b1_a4-c1_c3-d1_d3-e1_d4-g1_e3-f2
CarTN93	SSEA-4	Neu5Acα2-3Galβ1-3GalNAcβ1-3Galα1-4Galβ1-4Glcβ1-	Sp	Neu5Ac(a2-3)Gal(b1-3)GalNAc(b1-3)Gal(a1-4)Gal(b1-4)Glc(b1-	WURCS=2.0/5,6,5/[12122h-1b_1-5][12112h-1b_1-5][22112h-1a_1-5][12112h-1b_1-5_2*NCC/3=O][a6d21122h-2a_2-6_5*NCC/3=O]/1-2-3-4-2-5/a4-b1_b4-c1_c3-d1_d3-e1_e3-f2
CarTN94	3'S-Di-Lec	Neu5Acα2-3Galβ1-3GlcNAcβ1-3Galβ1-3GlcNAcβ1-	Sp	Neu5Ac(a2-3)Gal(b1-3)GlcNAc(b1-3)Gal(b1-3)GlcNAc(b1-	WURCS=2.0/3,5,4/[12122h-1b_1-5_2*NCC/3=O][12112h-1b_1-5][a6d21122h-2a_2-6_5*NCC/3=O]/1-2-1-2-3/a3-b1_b3-c1_c3-d1_d3-e2
CarTN95	3'SLecLN	Neu5Acα2-3Galβ1-3GlcNAcβ1-3Galβ1-4GlcNAcβ1-	Sp	Neu5Ac(a2-3)Gal(b1-3)GlcNAc(b1-3)Gal(b1-4)GlcNAc(b1-	WURCS=2.0/3,5,4/[12122h-1b_1-5_2*NCC/3=O][12112h-1b_1-5][a6d21122h-2a_2-6_5*NCC/3=O]/1-2-1-2-3/a4-b1_b3-c1_c3-d1_d3-e2
CarTN96	GM1	Neu5Acα2-3[Galβ1-3GalNAcβ1-4]Galβ1-4Glcβ1-	Sp	Neu5Ac(a2-3)[Gal(b1-3)GalNAc(b1-4)]Gal(b1-4)Glc(b1-	WURCS=2.0/4,5,4/[12122h-1b_1-5][12112h-1b_1-5][a6d21122h-2a_2-6_5*NCC/3=O][12112h-1b_1-5_2*NCC/3=O]/1-2-3-4-2/a4-b1_b3-c2_b4-d1_d3-e1
CarTN97	3'SLex	Neu5Acα2-3Galβ1-4[Fucα1-3]GlcNAcβ1-	Sp	Neu5Ac(a2-3)Gal(b1-4)[Fuc(a1-3)]GlcNAc(b1-	WURCS=2.0/4,4,3/[12122h-1b_1-5_2*NCC/3=O][11221m-1a_1-5][12112h-1b_1-5][a6d21122h-2a_2-6_5*NCC/3=O]/1-2-3-4/a3-b1_a4-c1_c3-d2
CarTN98	3'S-Di-Lex	Neu5Acα2-3(Galβ1-4[Fucα1-3]GlcNAcβ1-3)2β1-	Sp	Neu5Ac(a2-3)Gal(b1-4)[Fuc(a1-3)]GlcNAc(b1-3)Gal(b1-4)[Fuc(a1-3)]GlcNAc(b1-	WURCS=2.0/4,7,6/[12122h-1b_1-5_2*NCC/3=O][11221m-1a_1-5][12112h-1b_1-5][a6d21122h-2a_2-6_5*NCC/3=O]/1-2-3-1-2-3-4/a3-b1_a4-c1_c3-d1_d3-e1_d4-f1_f3-g2
CarTN99	3'S-Di-LN	Neu5Acα2-3[Galβ1-4GlcNAcβ1-3)2β1-	Sp	Neu5Ac(a2-3)Gal(b1-4)GlcNAc(b1-3)Gal(b1-4)GlcNAc(b1-	WURCS=2.0/3,5,4/[12122h-1b_1-5_2*NCC/3=O][12112h-1b_1-5][a6d21122h-2a_2-6_5*NCC/3=O]/1-2-1-2-3/a4-b1_b3-c1_c4-d1_d3-e2
CarTN100	3'STri-LN	Neu5Acα2-3[Galβ1-4GlcNAcβ1-3)3β1-	Sp	Neu5Ac(a2-3)Gal(b1-4)GlcNAc(b1-3)Gal(b1-4)GlcNAc(b1-3)Gal(b1-4)GlcNAc(b1-	WURCS=2.0/3,7,6/[12122h-1b_1-5_2*NCC/3=O][12112h-1b_1-5][a6d21122h-2a_2-6_5*NCC/3=O]/1-2-1-2-1-2-3/a4-b1_b3-c1_c4-d1_d3-e1_e4-f1_f3-g2
CarTN101	3'SLN-Lec	Neu5Acα2-3Galβ1-4GlcNAcβ1-3Galβ1-3GlcNAcβ1-	Sp	Neu5Ac(a2-3)Gal(b1-4)GlcNAc(b1-3)Gal(b1-3)GlcNAc(b1-	WURCS=2.0/3,5,4/[12122h-1b_1-5_2*NCC/3=O][12112h-1b_1-5][a6d21122h-2a_2-6_5*NCC/3=O]/1-2-1-2-3/a3-b1_b3-c1_c4-d1_d3-e2
CarTN102	GM2	Neu5Acα2-3[GalNAcβ1-4]Galβ1-4Glcβ1-	Sp	Neu5Ac(a2-3)[GalNAc(b1-4)]Gal(b1-4)Glc(b1-	WURCS=2.0/4,4,3/[12122h-1b_1-5][12112h-1b_1-5][a6d21122h-2a_2-6_5*NCC/3=O][12112h-1b_1-5_2*NCC/3=O]/1-2-3-4/a4-b1_b3-c2_b4-d1
CarTN103	CT/Sda	Neu5Acα2-3[GalNAcβ1-4]Galβ1-4GlcNAcβ1-	Sp	Neu5Ac(a2-3)[GalNAc(b1-4)]Gal(b1-4)GlcNAc(b1-	WURCS=2.0/4,4,3/[12122h-1b_1-5_2*NCC/3=O][12112h-1b_1-5][a6d21122h-2a_2-6_5*NCC/3=O][12112h-1b_1-5_2*NCC/3=O]/1-2-3-4/a4-b1_b3-c2_b4-d1
CarTN104	GD1a	Neu5Acα2-3[Neu5Acα2-3Galβ1-3GalNAcβ1-4]Galβ1-4Glcβ1-	Sp	Neu5Ac(a2-3)[Neu5Ac(a2-3)Gal(b1-3)GalNAc(b1-4)]Gal(b1-4)Glc(b1-	WURCS=2.0/4,6,5/[12122h-1b_1-5][12112h-1b_1-5][a6d21122h-2a_2-6_5*NCC/3=O][12112h-1b_1-5_2*NCC/3=O]/1-2-3-4-2-3/a4-b1_b3-c2_b4-d1_d3-e1_e3-f2
CarTN105	6'S-Di-LN	Neu5Acα2-6[Galβ1-4GlcNAcβ1-3)2β1-	Sp	Neu5Ac(a2-6)Gal(b1-4)GlcNAc(b1-3)Gal(b1-4)GlcNAc(b1-	WURCS=2.0/3,5,4/[12122h-1b_1-5_2*NCC/3=O][12112h-1b_1-5][a6d21122h-2a_2-6_5*NCC/3=O]/1-2-1-2-3/a4-b1_b3-c1_c4-d1_d6-e2
CarTN106	6SLN-Lec	Neu5Acα2-6Galβ1-4GlcNAcβ1-3Galβ1-3GlcNAcβ1-	Sp	Neu5Ac(a2-6)Gal(b1-4)GlcNAc(b1-3)Gal(b1-3)GlcNAc(b1-	WURCS=2.0/3,5,4/[12122h-1b_1-5_2*NCC/3=O][12112h-1b_1-5][a6d21122h-2a_2-6_5*NCC/3=O]/1-2-1-2-3/a3-b1_b3-c1_c4-d1_d6-e2
CarTN107	GD2	Neu5Acα2-8Neu5Acα2-3[GalNAcβ1-4]Galβ1-4Glcβ1-	Sp	Neu5Ac(a2-8)Neu5Ac(a2-3)[GalNAc(b1-4)]Gal(b1-4)Glc(b1-	WURCS=2.0/4,5,4/[12122h-1b_1-5][12112h-1b_1-5][a6d21122h-2a_2-6_5*NCC/3=O][12112h-1b_1-5_2*NCC/3=O]/1-2-3-3-4/a4-b1_b3-c2_b4-e1_c8-d2
CarTN108	GD3	Neu5Acα2-8Neu5Acα2-3Galβ1-4Glcβ1-	Sp	Neu5Ac(a2-8)Neu5Ac(a2-3)Gal(b1-4)Glc(b1-	WURCS=2.0/3,4,3/[12122h-1b_1-5][12112h-1b_1-5][a6d21122h-2a_2-6_5*NCC/3=O]/1-2-3-3/a4-b1_b3-c2_c8-d2
CarTN109	GT3	Neu5Acα2-8Neu5Acα2-8Neu5Acα2-3Galβ1-4Glcβ1-	Sp	Neu5Ac(a2-8)Neu5Ac(a2-8)Neu5Ac(a2-3)Gal(b1-4)Glc(b1-	WURCS=2.0/3,5,4/[12122h-1b_1-5][12112h-1b_1-5][a6d21122h-2a_2-6_5*NCC/3=O]/1-2-3-3-3/a4-b1_b3-c2_c8-d2_d8-e2
CarTN110	GT2	Neu5Acα2-8Neu5Acα2-8Neu5Acα2-3[GalNAcβ1-4]Galβ1-4Glcβ1-	Sp	Neu5Ac(a2-8)Neu5Ac(a2-8)Neu5Ac(a2-3)[GalNAc(b1-4)]Gal(b1-4)Glc(b1-	WURCS=2.0/4,6,5/[12122h-1b_1-5][12112h-1b_1-5][a6d21122h-2a_2-6_5*NCC/3=O][12112h-1b_1-5_2*NCC/3=O]/1-2-3-3-3-4/a4-b1_b3-c2_b4-f1_c8-d2_d8-e2
CarTN111	GQ2	Neu5Acα2-8Neu5Acα2-8Neu5Acα2-8Neu5Acα2-3[GalNAcβ1-4]Galβ1-4Glcβ1-	Sp	Neu5Ac(a2-8)Neu5Ac(a2-8)Neu5Ac(a2-8)Neu5Ac(a2-3)[GalNAc(b1-4)]Gal(b1-4)Glc(b1-	WURCS=2.0/4,7,6/[12122h-1b_1-5][12112h-1b_1-5][a6d21122h-2a_2-6_5*NCC/3=O][12112h-1b_1-5_2*NCC/3=O]/1-2-3-3-3-3-4/a4-b1_b3-c2_b4-g1_c8-d2_d8-e2_e8-f2
CarTN112	Acosamine				
CarTN113	Bacillosamine				
CarTN114	Daunosamine				
CarTN115	Desosamine				
CarTN116	Forosamine				
CarTN117	Garosamine				
CarTN118	Kanosamine				
CarTN119	Kansosamine				
CarTN120	Mycaminose				
CarTN121	Mycosamine				
CarTN122	Perosamine				
CarTN123	Pneumosamine				
CarTN124	Purpurosamine C				
CarTN125	Rhodosamine				
CarTN126	Abequose	Abe			
CarTN127	Amicetose				
CarTN128	Amylose				
CarTN129	Apiose	Api			
CarTN130	Arcanose				
CarTN131	Ascarylose				
CarTN132	Ascorbic acid				
CarTN133	Boivinose				
CarTN134	Cellobiose				
CarTN135	Cellotriose				
CarTN136	Chacotriose				
CarTN137	Chalcose				
CarTN138	Cladinose				
CarTN139	Colitose				
CarTN140	Cymarose				
CarTN141	2-Deoxyribose	dRib			
CarTN142	2-Deoxyglucose	2dGlc			
CarTN143	Diginose				
CarTN144	Digitalose				
CarTN145	Digitoxose				
CarTN146	Evalose				
CarTN147	Evernitrose				
CarTN148	Gentianose				
CarTN149	Gentiobiose				
CarTN150	Hamamelose				
CarTN151	Inulin				
CarTN152	Isolevoglucosenone				
CarTN153	Isomaltose				
CarTN154	Isomaltotriose				
CarTN155	Isopanose				
CarTN156	Kojibiose				
CarTN157	Lactose	Lac			
CarTN158	Lactosamine	LacN			
CarTN159	Lactosediamine	LacdiN			
CarTN160	Laminarabiose				
CarTN161	Levoglucosan				
CarTN162	Levoglucosenone				
CarTN163	Maltose				
CarTN164	Manninotriose				
CarTN165	Melezitose				
CarTN166	Melibiose				
CarTN167	Muramic acid	Mur			
CarTN168	Mycarose				
CarTN169	Mycinose				
CarTN170	Neuraminic acid	Neu			
CarTN171	Nigerose				
CarTN172	Nojirimycin				
CarTN173	Noviose				
CarTN174	Oleandrose				
CarTN175	Panose				
CarTN176	Paratose				
CarTN177	Planteose				
CarTN178	Primeverose				
CarTN179	Raffinose				
CarTN180	Rhodinose				
CarTN181	Rutinose				
CarTN182	Sarmentose				
CarTN183	Sedoheptulose				
CarTN184	Sedoheptulosan				
CarTN185	Solatriose				
CarTN186	Sophorose				
CarTN187	Stachyose				
CarTN188	Streptose				
CarTN189	Sucrose				
CarTN190	α,α-Trehalose				
CarTN191	Trehalosamine				
CarTN192	Turanose				
CarTN193	Tyvelose	Tyv			
CarTN194	Umbelliferose				
CarTN195	Allose	All			WURCS=2.0/1,1,0/[u2222h]/1/
CarTN196	Altrose	Alt			WURCS=2.0/1,1,0/[u1222h]/1/
CarTN197	Arabinose	Ara			WURCS=2.0/1,1,0/[u122h]/1/
CarTN198	Erythrose				
CarTN199	Erythrulose				
CarTN200	Fructose	Fru			
CarTN201	D-Fucitol	Fuc			
CarTN202	L-Fucitol	Fuc			
CarTN203	Fucosamine	FucN			
CarTN204	Fucose	Fuc			
CarTN205	Galactosamine	GalN			WURCS=2.0/1,1,0/[u2112h_2*N]/1/
CarTN206	D-Galactosaminitol	GalN-ol			WURCS=2.0/1,1,0/[h2112h_2*N]/1/
CarTN207	Galactose	Gal			
CarTN208	Glucosamine	GlcN			WURCS=2.0/1,1,0/[u2122h_2*N]/1/
CarTN209	Glucosaminitol	GlcN-ol			WURCS=2.0/1,1,0/[h2122h_2*N]/1/
CarTN210	Glucose	Glc			
CarTN211	Glyceraldehyde				
CarTN212	Glycerol	Gro			
CarTN213	Glycerone				
CarTN214	Gulose	Gul			
CarTN215	Idose	Ido			
CarTN216	Lyxose	Lyx			
CarTN217	Mannosamine	ManN			WURCS=2.0/1,1,0/[u1122h_2*N]/1/
CarTN218	Mannose	Man		Man	WURCS=2.0/1,1,0/[u1122h]/1/
CarTN219	Psicose	Psi		Psi	
CarTN220	Quinovose	Qui			
CarTN221	Quinovosamine				
CarTN222	Rhamnitol	Rha-ol			
CarTN223	Rhamnosamine	RhaN			
CarTN224	Rhamnose	Rha			
CarTN225	Ribose	Rib			
CarTN226	Ribulose	Rui			
CarTN227	Sorbose	Sor			
CarTN228	Tagatose	Tag			
CarTN229	Talose	Tal			
CarTN230	Tartaric acid				
CarTN231	Threose				
CarTN232	Xylose	Xyl			
CarTN233	Xylulose	Wul			
CarTN234	Galabiose	Galα1-4Galβ1-	Cer	Gal(a1-4)Gal(b1-	WURCS=2.0/2,2,1/[12112h-1b_1-5][22112h-1a_1-5]/1-2/a4-b1
CarTN235	Lactose	Galβ1-4Glcβ1-	Cer	Gal(b1-4)Glc(b1-	WURCS=2.0/2,2,1/[12122h-1b_1-5][12112h-1b_1-5]/1-2/a4-b1
CarTN236	Gangliotriose	GalNAcβ1-4Galβ1-4Glcβ1-	Cer	GalNAc(b1-4)Gal(b1-4)Glc(b1-	WURCS=2.0/3,3,2/[12122h-1b_1-5][12112h-1b_1-5][12112h-1b_1-5_2*NCC/3=O]/1-2-3/a4-b1_b4-c1
CarTN237	Gangliotetraose	Galβ1-3GalNAcβ1-4Galβ1-4Glcβ1-	Cer	Gal(b1-3)GalNAc(b1-4)Gal(b1-4)Glc(b1-	WURCS=2.0/3,4,3/[12122h-1b_1-5][12112h-1b_1-5][12112h-1b_1-5_2*NCC/3=O]/1-2-3-2/a4-b1_b4-c1_c3-d1
CarTN238	Lactotetraose	Galβ1-3GlcNAcβ1-3Galβ1-4Glcβ1-	Cer	Gal(b1-3)GlcNAc(b1-3)Gal(b1-4)Glc(b1-	WURCS=2.0/3,4,3/[12122h-1b_1-5][12112h-1b_1-5][12122h-1b_1-5_2*NCC/3=O]/1-2-3-2/a4-b1_b3-c1_c3-d1
CarTN239	Neolactotetraose	Galβ1-4GalNAcβ1-3Galβ1-4Glcβ1-	Cer	Gal(b1-4)GalNAc(b1-3)Gal(b1-4)Glc(b1-	WURCS=2.0/3,4,3/[12122h-1b_1-5][12112h-1b_1-5][12112h-1b_1-5_2*NCC/3=O]/1-2-3-2/a4-b1_b3-c1_c4-d1
CarTN240	Globotriose	Galα1-4Galβ1-4Glcβ1-		Gal(a1-4)Gal(b1-4)Glc(b1-1)	WURCS=2.0/3,3,2/[12122h-1b_1-5][12112h-1b_1-5][22112h-1a_1-5]/1-2-3/a4-b1_b4-c1
CarTN241	Globotetraose	GalNAcβ1-3Galα1-4Galβ1-4Glcβ1-	Cer	GalNAc(b1-3)Gal(a1-4)Gal(b1-4)Glc(b1-	WURCS=2.0/4,4,3/[12122h-1b_1-5][12112h-1b_1-5][22112h-1a_1-5][12112h-1b_1-5_2*NCC/3=O]/1-2-3-4/a4-b1_b4-c1_c3-d1
CarTN242	Isoglobotriose	Galα1-3Galβ1-4Glcβ1-	Cer	Gal(a1-3)Gal(b1-4)Glc(b1-	WURCS=2.0/3,3,2/[12122h-1b_1-5][12112h-1b_1-5][22112h-1a_1-5]/1-2-3/a4-b1_b3-c1